1,EQ10\UT-LR-UTF001-MEAS.01,,0,Measurement,,,0,,,,Public,Public,,,rstoecke
2,EQ10\UT-LR-UTF001-MEAS.01\defaultRecipeSettings.0,P.UTMR005.01,A-MEAS,,,
1,EQ10\UTLR000.01,,0,Process,,,0,,,,Public,Public,,,rstoecke
2,EQ10\UTLR000.01\defaultRecipeSettings.0,P.UTMR000.01,,,,
1,EQ10\UTLR000.02,,0,Process,,,0,,,,Public,Public,,,rstoecke
2,EQ10\UTLR000.02\defaultRecipeSettings.0,P.UTMR000.02,,,,
1,EQ10\UTLR001.01,,0,Process,,,0,,,,Public,Public,,,rstoecke
2,EQ10\UTLR001.01\defaultRecipeSettings.0,P.UTMR001.01,,,,
1,EQ10\UTLR002.01,,0,Process,,,0,,,,Public,Public,,,rstoecke
2,EQ10\UTLR002.01\defaultRecipeSettings.0,P.UTMR002.01,,,,
1,EQ10\UTLR003.01,,0,Process,,,0,,,,Public,Public,,,rstoecke
2,EQ10\UTLR003.01\defaultRecipeSettings.0,P.UTMR003.01,,,,
1,EQ10\UTLR003.02,,0,Process,,,0,,,,Public,Public,,,rstoecke
2,EQ10\UTLR003.02\defaultRecipeSettings.0,P.UTMR003.02,,,,
1,EQ10\UTLR004.01,,0,Process,,,0,,,,Public,Public,,,rstoecke
2,EQ10\UTLR004.01\defaultRecipeSettings.0,P.UTMR004.01,,,,
1,EQ10\UTLR005.01,,0,Process,,,0,,,,Public,Public,,,rstoecke
2,EQ10\UTLR005.01\defaultRecipeSettings.0,P.UTMR005.01,,,,
1,EQ10\UTLR006.01,,0,Process,,,0,,,,Public,Public,,,rstoecke
2,EQ10\UTLR006.01\defaultRecipeSettings.0,P.UTMR006.01,,,,
