1,PR03\UT-DN-UTF001.01,,Complete,0,TEST,Wafer,Dummy,ADMIN,UT-DN-UTF001,01,,None,0,0,1,0,1,A,,SH-NONE,,,Public,Public,Public,,,,dsteger
2,PR03\UT-DN-UTF001.01\sourceProducts.0,UT-RAW.00
1,PR03\UT-DN-UTI002.01,,Complete,0,TEST,Wafer,Dummy,ADMIN,UT-DN-UTI002,01,,None,0,0,1,0,1,A,,SH-NONE,,,Public,Public,Public,,,,dsteger
2,PR03\UT-DN-UTI002.01\sourceProducts.0,UT-RAW.00
1,PR03\UT-MN-UTC001.01,,Complete,0,TEST,Wafer,Equipment Monitor,ADMIN,UT-MN-UTC001,01,,None,0,0,1,0,1,A,,SH-NONE,,,Public,Public,Public,,,,dsteger
2,PR03\UT-MN-UTC001.01\sourceProducts.0,UT-RAW.00
1,PR03\UT-MN-UTC002.01,,Complete,0,TEST,Wafer,Equipment Monitor,ADMIN,UT-MN-UTC002,01,,None,0,0,1,0,1,A,,SH-NONE,,,Public,Public,Public,,,,dsteger
2,PR03\UT-MN-UTC002.01\sourceProducts.0,UT-RAW.00
1,PR03\UT-MN-UTI002.01,,Complete,0,TEST,Wafer,Equipment Monitor,ADMIN,UT-MN-UTI002,01,,None,0,0,10,0,1,A,,SH-NONE,,,Public,Public,Public,,,,dsteger
2,PR03\UT-MN-UTI002.01\sourceProducts.0,UT-RAW.00
1,PR03\UT-PR-UTC001.01,,Complete,0,TEST,Wafer,Process Monitor,ADMIN,UT-PR-UTC001,01,,None,0,0,10,0,1,A,,SH-NONE,,,Public,Public,Public,,,,dsteger
2,PR03\UT-PR-UTC001.01\sourceProducts.0,UT-RAW.00
1,PR03\UT-PR-UTI002.01,,Complete,0,TEST,Wafer,Process Monitor,ADMIN,UT-PR-UTI002,01,,None,0,0,10,0,1,A,,SH-NONE,,,Public,Public,Public,,,,dsteger
2,PR03\UT-PR-UTI002.01\sourceProducts.0,UT-RAW.00
1,PR03\UT-PRODUCT000.01,<PROD> 90NM SLEDGEHAMMER E,Complete,0,TEST,Wafer,Production,ADMIN,UTRT001,01,UT-RETICLESET,By Volume,2,0,100,0,0,A,,SH-NONE,,,Public,Public,Public,,,,dsteger
2,PR03\UT-PRODUCT000.01\sourceProducts.0,UT-RAW.00
1,PR03\UT-PRODUCT001.01,<PROD> 90NM SLEDGEHAMMER E,Complete,0,TEST,Wafer,Production,ADMIN,UTRT001,01,,By Volume,2,0,100,0,0,A,,SH-NONE,,,Public,Public,Public,,,,dsteger
2,PR03\UT-PRODUCT001.01\sourceProducts.0,UT-RAW.00
1,PR03\UT-PRODUCT002.01,<PROD> 90NM SLEDGEHAMMER E,Complete,0,TEST,Wafer,Production,ADMIN,UTRT001,01,,By Volume,2,0,100,0,0,A,,SH-NONE,,,Public,Public,Public,,,,dsteger
2,PR03\UT-PRODUCT002.01\sourceProducts.0,UT-RAW.00
1,PR03\UT-PRODUCT003.01,<PROD> 90NM SLEDGEHAMMER E,Complete,0,TEST,Wafer,Production,ADMIN,UTRT001,01,,By Volume,0,0,100,0,0,A,,SH-NONE,,,Public,Public,Public,,,,dsteger
2,PR03\UT-PRODUCT003.01\sourceProducts.0,UT-RAW.00
1,PR03\UT-PRODUCT004.01,<PROD> 90NM SLEDGEHAMMER E,Complete,1,TEST,Wafer,Production,ADMIN,UTRT001,01,,By Volume,1,0,100,0,0,A,,SH-NONE,,,Public,Public,Public,,,,dsteger
2,PR03\UT-PRODUCT004.01\sourceProducts.0,UT-RAW.00
2,PR03\UT-PRODUCT004.01\userDataSets.0,SorterAutomation ,String,
2,PR03\UT-PRODUCT004.01\userDataSets.1,DestProduct,String,
2,PR03\UT-PRODUCT004.01\userDataSets.2,OrderQtyMin,Integer,
2,PR03\UT-PRODUCT004.01\userDataSets.3,RecyDestProduct,String,
2,PR03\UT-PRODUCT004.01\userDataSets.4,RecyMaxCount,String,
1,PR03\UT-RAW.00,"<B04-0504> Wafer,300mm Test Monitor700_1450(bonded)",Complete,0,RAW,Wafer,Raw,ADMIN,,,,None,25,0,100,0,0,A,,SH-NONE,,,Public,Public,Public,,,,dsteger
