1,EQ11\P.UTMR000.01,,0,0,0,,0,\\,,,,Public,Public,Public,,,,rstoecke
2,EQ11\P.UTMR000.01\equipments.0,UTC001
1,EQ11\P.UTMR000.02,,0,0,0,,0,\\,,,,Public,Public,Public,,,,rstoecke
2,EQ11\P.UTMR000.02\equipments.0,UTC002
1,EQ11\P.UTMR001.01,,0,0,0,,0,\\,,,,Public,Public,Public,,,,rstoecke
2,EQ11\P.UTMR001.01\equipments.0,UTI002
1,EQ11\P.UTMR002.01,,0,0,0,,0,\\,,,,Public,Public,Public,,,,rstoecke
2,EQ11\P.UTMR002.01\equipments.0,UTI001
1,EQ11\P.UTMR003.01,,0,0,0,,0,\\,,,,Public,Public,Public,,,,rstoecke
2,EQ11\P.UTMR003.01\equipments.0,UTS001
1,EQ11\P.UTMR003.02,,0,0,0,,0,\\,,,,Public,Public,Public,,,,rstoecke
2,EQ11\P.UTMR003.02\equipments.0,UTS002
1,EQ11\P.UTMR004.01,,0,0,0,,0,\\,,,,Public,Public,Public,,,,rstoecke
2,EQ11\P.UTMR004.01\equipments.0,UTF002
1,EQ11\P.UTMR005.01,,0,0,0,,0,\\,,,,Public,Public,Public,,,,rstoecke
2,EQ11\P.UTMR005.01\equipments.0,UTF001
2,EQ11\P.UTMR005.01\equipments.1,UTF002
1,EQ11\P.UTMR006.01,,0,0,0,,0,\\,,,,Public,Public,Public,,,,rstoecke
2,EQ11\P.UTMR006.01\equipments.0,UTR001
2,EQ11\P.UTMR006.01\equipments.1,UTR002
