#,Location,description,state,fpcAvailableFlag,productGroup,productType,productCategory,productOwner,mainProcessDefinitionId,mainProcessDefinitionVersion,reticleSet,lotGenerationType,releaseBatchSize,plannedCycleTime,plannedYield,safetyStockLevel,finishGoodFlag,mfgLayer,markingCharacter,schedulerUserGroup,changeNotice,lastComment,permission,permissionRead,permissionReleaseDelete,userGroup,userGroupRead,userGroupReleaseDelete,owner
1,PR03\UT-DN-UTF001.01,,Complete,0,TEST,Wafer,Dummy,ADMIN,UTDNF001,01,,None,0,0,100,0,1,B,,SH-NONE,,,Public,Public,Public,,,,ADMIN
#,Location,Value
2,PR03\UT-DN-UTF001.01\sourceProducts.0,UT-RAW.00
#,Location,description,state,fpcAvailableFlag,productGroup,productType,productCategory,productOwner,mainProcessDefinitionId,mainProcessDefinitionVersion,reticleSet,lotGenerationType,releaseBatchSize,plannedCycleTime,plannedYield,safetyStockLevel,finishGoodFlag,mfgLayer,markingCharacter,schedulerUserGroup,changeNotice,lastComment,permission,permissionRead,permissionReleaseDelete,userGroup,userGroupRead,userGroupReleaseDelete,owner
1,PR03\UT-DN-UTI002.01,,Complete,0,TEST,Wafer,Dummy,ADMIN,UTDNI002,01,,None,0,0,100,0,1,B,,SH-NONE,,,Public,Public,Public,,,,ADMIN
#,Location,Value
2,PR03\UT-DN-UTI002.01\sourceProducts.0,UT-RAW.00
#,Location,description,state,fpcAvailableFlag,productGroup,productType,productCategory,productOwner,mainProcessDefinitionId,mainProcessDefinitionVersion,reticleSet,lotGenerationType,releaseBatchSize,plannedCycleTime,plannedYield,safetyStockLevel,finishGoodFlag,mfgLayer,markingCharacter,schedulerUserGroup,changeNotice,lastComment,permission,permissionRead,permissionReleaseDelete,userGroup,userGroupRead,userGroupReleaseDelete,owner
1,PR03\UT-MN-UTC001.01,,Complete,0,TEST,Wafer,Equipment Monitor,ADMIN,UTMNC001,01,,None,0,0,100,0,1,B,,SH-NONE,,,Public,Public,Public,,,,ADMIN
#,Location,Value
2,PR03\UT-MN-UTC001.01\sourceProducts.0,UT-RAW.00
#,Location,description,state,fpcAvailableFlag,productGroup,productType,productCategory,productOwner,mainProcessDefinitionId,mainProcessDefinitionVersion,reticleSet,lotGenerationType,releaseBatchSize,plannedCycleTime,plannedYield,safetyStockLevel,finishGoodFlag,mfgLayer,markingCharacter,schedulerUserGroup,changeNotice,lastComment,permission,permissionRead,permissionReleaseDelete,userGroup,userGroupRead,userGroupReleaseDelete,owner
1,PR03\UT-MN-UTC002.01,,Complete,0,TEST,Wafer,Equipment Monitor,ADMIN,UTMNC002,01,,None,0,0,100,0,1,B,,SH-NONE,,,Public,Public,Public,,,,ADMIN
#,Location,Value
2,PR03\UT-MN-UTC002.01\sourceProducts.0,UT-RAW.00
#,Location,description,state,fpcAvailableFlag,productGroup,productType,productCategory,productOwner,mainProcessDefinitionId,mainProcessDefinitionVersion,reticleSet,lotGenerationType,releaseBatchSize,plannedCycleTime,plannedYield,safetyStockLevel,finishGoodFlag,mfgLayer,markingCharacter,schedulerUserGroup,changeNotice,lastComment,permission,permissionRead,permissionReleaseDelete,userGroup,userGroupRead,userGroupReleaseDelete,owner
1,PR03\UT-MN-UTI002.01,,Complete,0,TEST,Wafer,Equipment Monitor,ADMIN,UTMNI002,01,,None,0,0,100,0,1,B,,SH-NONE,,,Public,Public,Public,,,,ADMIN
#,Location,Value
2,PR03\UT-MN-UTI002.01\sourceProducts.0,UT-RAW.00
#,Location,description,state,fpcAvailableFlag,productGroup,productType,productCategory,productOwner,mainProcessDefinitionId,mainProcessDefinitionVersion,reticleSet,lotGenerationType,releaseBatchSize,plannedCycleTime,plannedYield,safetyStockLevel,finishGoodFlag,mfgLayer,markingCharacter,schedulerUserGroup,changeNotice,lastComment,permission,permissionRead,permissionReleaseDelete,userGroup,userGroupRead,userGroupReleaseDelete,owner
1,PR03\UT-PR-UTC001.01,,Complete,0,TEST,Wafer,Process Monitor,ADMIN,UTPRC001,01,,None,0,0,100,0,1,B,,SH-NONE,,,Public,Public,Public,,,,ADMIN
#,Location,Value
2,PR03\UT-PR-UTC001.01\sourceProducts.0,UT-RAW.00
#,Location,description,state,fpcAvailableFlag,productGroup,productType,productCategory,productOwner,mainProcessDefinitionId,mainProcessDefinitionVersion,reticleSet,lotGenerationType,releaseBatchSize,plannedCycleTime,plannedYield,safetyStockLevel,finishGoodFlag,mfgLayer,markingCharacter,schedulerUserGroup,changeNotice,lastComment,permission,permissionRead,permissionReleaseDelete,userGroup,userGroupRead,userGroupReleaseDelete,owner
1,PR03\UT-PR-UTI002.01,,Complete,0,TEST,Wafer,Process Monitor,ADMIN,UTPRI002,01,,None,0,0,100,0,1,B,,SH-NONE,,,Public,Public,Public,,,,ADMIN
#,Location,Value
2,PR03\UT-PR-UTI002.01\sourceProducts.0,UT-RAW.00
#,Location,description,state,fpcAvailableFlag,productGroup,productType,productCategory,productOwner,mainProcessDefinitionId,mainProcessDefinitionVersion,reticleSet,lotGenerationType,releaseBatchSize,plannedCycleTime,plannedYield,safetyStockLevel,finishGoodFlag,mfgLayer,markingCharacter,schedulerUserGroup,changeNotice,lastComment,permission,permissionRead,permissionReleaseDelete,userGroup,userGroupRead,userGroupReleaseDelete,owner
1,PR03\UT-PRODUCT000.01,<PROD> 90NM SLEDGEHAMMER E,Complete,0,TEST,Wafer,Production,ADMIN,UTRT001,01,UT-RETICLESET,By Volume,2,0,100,0,0,B,,SH-NONE,,,Public,Public,Public,,,,ADMIN
#,Location,Value
2,PR03\UT-PRODUCT000.01\sourceProducts.0,UT-RAW.00
#,Location,description,state,fpcAvailableFlag,productGroup,productType,productCategory,productOwner,mainProcessDefinitionId,mainProcessDefinitionVersion,reticleSet,lotGenerationType,releaseBatchSize,plannedCycleTime,plannedYield,safetyStockLevel,finishGoodFlag,mfgLayer,markingCharacter,schedulerUserGroup,changeNotice,lastComment,permission,permissionRead,permissionReleaseDelete,userGroup,userGroupRead,userGroupReleaseDelete,owner
1,PR03\UT-PRODUCT001.01,<PROD> 90NM SLEDGEHAMMER E,Complete,0,TEST,Wafer,Production,ADMIN,UTRT001,01,,By Volume,2,0,100,0,0,B,,SH-NONE,,,Public,Public,Public,,,,ADMIN
#,Location,Value
2,PR03\UT-PRODUCT001.01\sourceProducts.0,UT-RAW.00
#,Location,description,state,fpcAvailableFlag,productGroup,productType,productCategory,productOwner,mainProcessDefinitionId,mainProcessDefinitionVersion,reticleSet,lotGenerationType,releaseBatchSize,plannedCycleTime,plannedYield,safetyStockLevel,finishGoodFlag,mfgLayer,markingCharacter,schedulerUserGroup,changeNotice,lastComment,permission,permissionRead,permissionReleaseDelete,userGroup,userGroupRead,userGroupReleaseDelete,owner
1,PR03\UT-PRODUCT002.01,<PROD> 90NM SLEDGEHAMMER E,Complete,0,TEST,Wafer,Production,ADMIN,UTRT002,01,,By Volume,2,0,100,0,0,B,,SH-NONE,,,Public,Public,Public,,,,ADMIN
#,Location,Value
2,PR03\UT-PRODUCT002.01\sourceProducts.0,UT-RAW.00
#,Location,description,state,fpcAvailableFlag,productGroup,productType,productCategory,productOwner,mainProcessDefinitionId,mainProcessDefinitionVersion,reticleSet,lotGenerationType,releaseBatchSize,plannedCycleTime,plannedYield,safetyStockLevel,finishGoodFlag,mfgLayer,markingCharacter,schedulerUserGroup,changeNotice,lastComment,permission,permissionRead,permissionReleaseDelete,userGroup,userGroupRead,userGroupReleaseDelete,owner
1,PR03\UT-PRODUCT003.01,<PROD> 90NM SLEDGEHAMMER E,Complete,0,TEST,Wafer,Production,ADMIN,UTRT002,01,,By Volume,0,0,100,0,0,B,,SH-NONE,,,Public,Public,Public,,,,ADMIN
#,Location,Value
2,PR03\UT-PRODUCT003.01\sourceProducts.0,UT-RAW.00
#,Location,description,state,fpcAvailableFlag,productGroup,productType,productCategory,productOwner,mainProcessDefinitionId,mainProcessDefinitionVersion,reticleSet,lotGenerationType,releaseBatchSize,plannedCycleTime,plannedYield,safetyStockLevel,finishGoodFlag,mfgLayer,markingCharacter,schedulerUserGroup,changeNotice,lastComment,permission,permissionRead,permissionReleaseDelete,userGroup,userGroupRead,userGroupReleaseDelete,owner
1,PR03\UT-PRODUCT004.01,<PROD> 90NM SLEDGEHAMMER E,Complete,1,TEST,Wafer,Production,ADMIN,UTRT002,01,,By Volume,1,0,100,0,0,B,,SH-NONE,,,Public,Public,Public,,,,ADMIN
#,Location,Value
2,PR03\UT-PRODUCT004.01\sourceProducts.0,UT-RAW.00
#,Location,description,state,fpcAvailableFlag,productGroup,productType,productCategory,productOwner,mainProcessDefinitionId,mainProcessDefinitionVersion,reticleSet,lotGenerationType,releaseBatchSize,plannedCycleTime,plannedYield,safetyStockLevel,finishGoodFlag,mfgLayer,markingCharacter,schedulerUserGroup,changeNotice,lastComment,permission,permissionRead,permissionReleaseDelete,userGroup,userGroupRead,userGroupReleaseDelete,owner
1,PR03\UT-RAW.00,"<B04-0504> Wafer,300mm Test Monitor700_1450(bonded)",Complete,0,RAW,Wafer,Raw,ADMIN,,,,None,25,0,100,0,0,A,,SH-NONE,,,Public,Public,Public,,,,ADMIN
#,Location,description,state,fpcAvailableFlag,productGroup,productType,productCategory,productOwner,mainProcessDefinitionId,mainProcessDefinitionVersion,reticleSet,lotGenerationType,releaseBatchSize,plannedCycleTime,plannedYield,safetyStockLevel,finishGoodFlag,mfgLayer,markingCharacter,schedulerUserGroup,changeNotice,lastComment,permission,permissionRead,permissionReleaseDelete,userGroup,userGroupRead,userGroupReleaseDelete,owner
1,PR03\UT-RAW.01,,Complete,0,TEST,Wafer,Raw,dsteger,,,,None,1,0,1,0,1,A,,SH-NONE,,,Public,Public,Public,,,,ADMIN
