#,Location,description,instanceName,usageCheckRequiredFlag,maximumUsageCount,maximumUsageDuration,partNumber,serialNumber,supplierName,reticleGroup,intervalBetweenPM,fpcCategory,whiteDefinitionFlag,changeNotice,lastComment,permission,userGroup,owner
1,DR04\UTRETICLE01,,,0,0,0,,,,UTRETICLEGROUP1,0,,0,,,Public,,ADMIN
#,Location,description,instanceName,usageCheckRequiredFlag,maximumUsageCount,maximumUsageDuration,partNumber,serialNumber,supplierName,reticleGroup,intervalBetweenPM,fpcCategory,whiteDefinitionFlag,changeNotice,lastComment,permission,userGroup,owner
1,DR04\UTRETICLE02,,,0,0,0,,,,UTRETICLEGROUP1,0,,0,,,Public,,ADMIN
#,Location,description,instanceName,usageCheckRequiredFlag,maximumUsageCount,maximumUsageDuration,partNumber,serialNumber,supplierName,reticleGroup,intervalBetweenPM,fpcCategory,whiteDefinitionFlag,changeNotice,lastComment,permission,userGroup,owner
1,DR04\UTRETICLE03,,,0,0,0,,,,UTRETICLEGROUP2,0,,0,,,Public,,ADMIN
#,Location,description,instanceName,usageCheckRequiredFlag,maximumUsageCount,maximumUsageDuration,partNumber,serialNumber,supplierName,reticleGroup,intervalBetweenPM,fpcCategory,whiteDefinitionFlag,changeNotice,lastComment,permission,userGroup,owner
1,DR04\UTRETICLE04,,,0,0,0,,,,UTRETICLEGROUP2,0,,0,,,Public,,ADMIN
#,Location,description,instanceName,usageCheckRequiredFlag,maximumUsageCount,maximumUsageDuration,partNumber,serialNumber,supplierName,reticleGroup,intervalBetweenPM,fpcCategory,whiteDefinitionFlag,changeNotice,lastComment,permission,userGroup,owner
1,DR04\UTRETICLE05,,,0,0,0,,,,UTRETICLEGROUP3,0,,0,,,Public,,ADMIN
#,Location,description,instanceName,usageCheckRequiredFlag,maximumUsageCount,maximumUsageDuration,partNumber,serialNumber,supplierName,reticleGroup,intervalBetweenPM,fpcCategory,whiteDefinitionFlag,changeNotice,lastComment,permission,userGroup,owner
1,DR04\UTRETICLE06,,,0,0,0,,,,UTRETICLEGROUP3,0,,0,,,Public,,ADMIN
#,Location,description,instanceName,usageCheckRequiredFlag,maximumUsageCount,maximumUsageDuration,partNumber,serialNumber,supplierName,reticleGroup,intervalBetweenPM,fpcCategory,whiteDefinitionFlag,changeNotice,lastComment,permission,userGroup,owner
1,DR04\UTRETICLE07,,,0,0,0,,,,UTRETICLEGROUP4,0,,0,,,Public,,ADMIN
#,Location,description,instanceName,usageCheckRequiredFlag,maximumUsageCount,maximumUsageDuration,partNumber,serialNumber,supplierName,reticleGroup,intervalBetweenPM,fpcCategory,whiteDefinitionFlag,changeNotice,lastComment,permission,userGroup,owner
1,DR04\UTRETICLE08,,,0,0,0,,,,UTRETICLEGROUP4,0,,0,,,Public,,ADMIN
#,Location,description,instanceName,usageCheckRequiredFlag,maximumUsageCount,maximumUsageDuration,partNumber,serialNumber,supplierName,reticleGroup,intervalBetweenPM,fpcCategory,whiteDefinitionFlag,changeNotice,lastComment,permission,userGroup,owner
1,DR04\UTRETICLE09,,,0,0,0,,,,UTRETICLEGROUP5,0,,0,,,Public,,ADMIN
#,Location,description,instanceName,usageCheckRequiredFlag,maximumUsageCount,maximumUsageDuration,partNumber,serialNumber,supplierName,reticleGroup,intervalBetweenPM,fpcCategory,whiteDefinitionFlag,changeNotice,lastComment,permission,userGroup,owner
1,DR04\UTRETICLE10,,,0,0,0,,,,UTRETICLEGROUP5,0,,0,,,Public,,ADMIN
