#,Location,processDefinitionName,pdType,description,department,fpcCategory,whiteDefinitionFlag,defaultLogicalRecipeId,defaultLogicalRecipeVersion,standardProcessTime,standardWaitTime,standardWPH,changeNotice,lastComment,permission,permissionRead,permissionReleaseDelete,userGroup,userGroupRead,userGroupReleaseDelete,owner
1,PC01\BANKIN.01,,Other,,FAT,,0,A-MissingOtherRecipe,01,5,0,0,,,Public,Public,Public,,,,ADMIN
#,Location,processDefinitionName,pdType,description,department,fpcCategory,whiteDefinitionFlag,defaultLogicalRecipeId,defaultLogicalRecipeVersion,standardProcessTime,standardWaitTime,standardWPH,changeNotice,lastComment,permission,permissionRead,permissionReleaseDelete,userGroup,userGroupRead,userGroupReleaseDelete,owner
1,PC01\UT1PREM.01,,Measurement,Pre measure for UTC001,FAT,,0,,,60,10,60,,,Public,Public,Public,,,,ADMIN
#,Location,productGroup,logicalRecipeId,version
2,PC01\UT1PREM.01\logicalRecipesByProductGroup.0,TEST,UT-LR-UTF001-MEAS,01
#,Location,processDefinitionName,pdType,description,department,fpcCategory,whiteDefinitionFlag,defaultLogicalRecipeId,defaultLogicalRecipeVersion,standardProcessTime,standardWaitTime,standardWPH,changeNotice,lastComment,permission,permissionRead,permissionReleaseDelete,userGroup,userGroupRead,userGroupReleaseDelete,owner
1,PC01\UT1PSTM.01,,Measurement,Post measure for UTC001,FAT,,0,,,6000,1000,60,,,Public,Public,Public,,,,ADMIN
#,Location,productGroup,logicalRecipeId,version
2,PC01\UT1PSTM.01\logicalRecipesByProductGroup.0,TEST,UT-LR-UTF001-MEAS,01
#,Location,processDefinitionName,pdType,description,department,fpcCategory,whiteDefinitionFlag,defaultLogicalRecipeId,defaultLogicalRecipeVersion,standardProcessTime,standardWaitTime,standardWPH,changeNotice,lastComment,permission,permissionRead,permissionReleaseDelete,userGroup,userGroupRead,userGroupReleaseDelete,owner
1,PC01\UT2PSTM.01,,Measurement,Post measure for UTI002,FAT,,0,,,6000,1000,60,,,Public,Public,Public,,,,ADMIN
#,Location,productGroup,logicalRecipeId,version
2,PC01\UT2PSTM.01\logicalRecipesByProductGroup.0,TEST,UT-LR-UTF001-MEAS,01
#,Location,processDefinitionName,pdType,description,department,fpcCategory,whiteDefinitionFlag,defaultLogicalRecipeId,defaultLogicalRecipeVersion,standardProcessTime,standardWaitTime,standardWPH,changeNotice,lastComment,permission,permissionRead,permissionReleaseDelete,userGroup,userGroupRead,userGroupReleaseDelete,owner
1,PC01\UTPD000.01,PD for Chamber Tool UTC001,Process,PD for Chamber Tool UTC001,FAT,,0,UTLR000,01,100,100,0,,,Public,Public,Public,,,,ADMIN
#,Location,processDefinitionName,pdType,description,department,fpcCategory,whiteDefinitionFlag,defaultLogicalRecipeId,defaultLogicalRecipeVersion,standardProcessTime,standardWaitTime,standardWPH,changeNotice,lastComment,permission,permissionRead,permissionReleaseDelete,userGroup,userGroupRead,userGroupReleaseDelete,owner
1,PC01\UTPD000.02,PD for Chamber Tool UTC001,Process,PD for Chamber Tool UTC002,FAT,,0,UTLR000,02,100,100,0,,,Public,Public,Public,,,,ADMIN
#,Location,processDefinitionName,pdType,description,department,fpcCategory,whiteDefinitionFlag,defaultLogicalRecipeId,defaultLogicalRecipeVersion,standardProcessTime,standardWaitTime,standardWPH,changeNotice,lastComment,permission,permissionRead,permissionReleaseDelete,userGroup,userGroupRead,userGroupReleaseDelete,owner
1,PC01\UTPD001.01,PD for Internal Buffer Tool UTI002,Process,PD for Internal Buffer Tool UTI002,FAT,,0,UTLR001,01,100,100,0,,,Public,Public,Public,,,,ADMIN
#,Location,processDefinitionName,pdType,description,department,fpcCategory,whiteDefinitionFlag,defaultLogicalRecipeId,defaultLogicalRecipeVersion,standardProcessTime,standardWaitTime,standardWPH,changeNotice,lastComment,permission,permissionRead,permissionReleaseDelete,userGroup,userGroupRead,userGroupReleaseDelete,owner
1,PC01\UTPD002.01,PD for Internal Buffer Tool UTI001,Process,PD for Internal Buffer Tool UTI001,FAT,,0,UTLR002,01,100,100,0,,,Public,Public,Public,,,,ADMIN
#,Location,processDefinitionName,pdType,description,department,fpcCategory,whiteDefinitionFlag,defaultLogicalRecipeId,defaultLogicalRecipeVersion,standardProcessTime,standardWaitTime,standardWPH,changeNotice,lastComment,permission,permissionRead,permissionReleaseDelete,userGroup,userGroupRead,userGroupReleaseDelete,owner
1,PC01\UTPD003.01,PD for Wafer Sorter UTS001,Process,PD for Wafer Sorter UTS001,FAT,,0,UTLR003,01,100,100,0,,,Public,Public,Public,,,,ADMIN
#,Location,processDefinitionName,pdType,description,department,fpcCategory,whiteDefinitionFlag,defaultLogicalRecipeId,defaultLogicalRecipeVersion,standardProcessTime,standardWaitTime,standardWPH,changeNotice,lastComment,permission,permissionRead,permissionReleaseDelete,userGroup,userGroupRead,userGroupReleaseDelete,owner
1,PC01\UTPD003.02,PD for Wafer Sorter UTS001,Process,PD for Wafer Sorter UTS002,FAT,,0,UTLR003,02,100,100,0,,,Public,Public,Public,,,,ADMIN
#,Location,processDefinitionName,pdType,description,department,fpcCategory,whiteDefinitionFlag,defaultLogicalRecipeId,defaultLogicalRecipeVersion,standardProcessTime,standardWaitTime,standardWPH,changeNotice,lastComment,permission,permissionRead,permissionReleaseDelete,userGroup,userGroupRead,userGroupReleaseDelete,owner
1,PC01\UTPD004.01,PD for Load Purpose Tool  UTF002,Process,PD for Load Purpose Tool  UTF002,FAT,,0,UTLR004,01,100,100,0,,,Public,Public,Public,,,,ADMIN
#,Location,processDefinitionName,pdType,description,department,fpcCategory,whiteDefinitionFlag,defaultLogicalRecipeId,defaultLogicalRecipeVersion,standardProcessTime,standardWaitTime,standardWPH,changeNotice,lastComment,permission,permissionRead,permissionReleaseDelete,userGroup,userGroupRead,userGroupReleaseDelete,owner
1,PC01\UTPD005.01,"PD for Measurement Tools UTF001, UTF002, FRH100",Process,"PD for Measurement Tools UTF001, UTF002, FRH100",FAT,,0,UTLR005,01,100,100,0,,,Public,Public,Public,,,,ADMIN
#,Location,processDefinitionName,pdType,description,department,fpcCategory,whiteDefinitionFlag,defaultLogicalRecipeId,defaultLogicalRecipeVersion,standardProcessTime,standardWaitTime,standardWPH,changeNotice,lastComment,permission,permissionRead,permissionReleaseDelete,userGroup,userGroupRead,userGroupReleaseDelete,owner
1,PC01\UTPD006.01,PD for Internal Buffer Tool UTC001,Process,PD for Internal Buffer Tool UTC001,FAT,,0,UTLR000,01,100,100,0,,,Public,Public,Public,,,,ADMIN
#,Location,processDefinitionName,pdType,description,department,fpcCategory,whiteDefinitionFlag,defaultLogicalRecipeId,defaultLogicalRecipeVersion,standardProcessTime,standardWaitTime,standardWPH,changeNotice,lastComment,permission,permissionRead,permissionReleaseDelete,userGroup,userGroupRead,userGroupReleaseDelete,owner
1,PC01\UTPD007.01,PD for Internal Buffer Tool UTI001,Process,PD for Internal Buffer Tool UTI001,FAT,,0,UTLR001,01,100,100,0,,,Public,Public,Public,,,,ADMIN
#,Location,processDefinitionName,pdType,description,department,fpcCategory,whiteDefinitionFlag,defaultLogicalRecipeId,defaultLogicalRecipeVersion,standardProcessTime,standardWaitTime,standardWPH,changeNotice,lastComment,permission,permissionRead,permissionReleaseDelete,userGroup,userGroupRead,userGroupReleaseDelete,owner
1,PC01\UTPD008.01,PD for Wafer Sorter UTS001,Process,PD for Wafer Sorter UTS001,FAT,,0,UTLR002,01,100,100,0,,,Public,Public,Public,,,,ADMIN
#,Location,processDefinitionName,pdType,description,department,fpcCategory,whiteDefinitionFlag,defaultLogicalRecipeId,defaultLogicalRecipeVersion,standardProcessTime,standardWaitTime,standardWPH,changeNotice,lastComment,permission,permissionRead,permissionReleaseDelete,userGroup,userGroupRead,userGroupReleaseDelete,owner
1,PC01\UTPD009.01,PD for Wafer Sorter UTS001,Process,PD for Wafer Sorter UTS001,FAT,,0,UTLR003,01,100,100,0,,,Public,Public,Public,,,,ADMIN
#,Location,processDefinitionName,pdType,description,department,fpcCategory,whiteDefinitionFlag,defaultLogicalRecipeId,defaultLogicalRecipeVersion,standardProcessTime,standardWaitTime,standardWPH,changeNotice,lastComment,permission,permissionRead,permissionReleaseDelete,userGroup,userGroupRead,userGroupReleaseDelete,owner
1,PC01\UTPD010.01,PD for Reticle Tools,Process,PD for Reticle Tools,FAT,,0,UTLR006,01,100,100,0,,,Public,Public,Public,,,,ADMIN
