{
  "objectId": {
    "identifier": "SL-EAGLEECMAUTO-PROCESS-REWORK-COUNT.04",
    "stringifiedObjectReference": "SPIORLL:N:C2/#BRMainProcessDefinition#F2#SL-EAGLEECMAUTO-PROCESS-REWORK-COUNT.04"
  },
  "propertyInfo": {
    "changeNotice": {
      "identifier": "",
      "stringifiedObjectReference": ""
    },
    "createdDateTime": "2017-12-02-05.28.35.938355",
    "createdUser": {
      "identifier": "X-UNITTEST",
      "stringifiedObjectReference": ""
    },
    "lastUpdatedDateTime": "2018-03-22-02.40.26.491011",
    "lastUpdatedUser": {
      "identifier": "asalla",
      "stringifiedObjectReference": ""
    },
    "lastCheckOutDateTime": "2018-03-22-03.59.34.161776",
    "lastCheckOutUser": {
      "identifier": "asalla",
      "stringifiedObjectReference": "SPIORLL:N:C2/#BRUser#F2#asalla"
    },
    "lastCheckInDateTime": "2018-03-22-03.59.35.623206",
    "lastCheckInUser": {
      "identifier": "asalla",
      "stringifiedObjectReference": "SPIORLL:N:C2/#BRUser#F2#asalla"
    },
    "lastReleasedDateTime": "2018-03-22-03.59.35.623206",
    "lastReleasedUser": {
      "identifier": "asalla",
      "stringifiedObjectReference": "SPIORLL:N:C2/#BRUser#F2#asalla"
    },
    "lastRollBackDateTime": "",
    "lastRollBackUser": {
      "identifier": "",
      "stringifiedObjectReference": ""
    },
    "lastArchivedDateTime": "",
    "lastArchivedUser": {
      "identifier": "",
      "stringifiedObjectReference": ""
    },
    "lastRestoredDateTime": "",
    "lastRestoredUser": {
      "identifier": "",
      "stringifiedObjectReference": ""
    },
    "lastActionUser": {
      "identifier": "asalla",
      "stringifiedObjectReference": "SPIORLL:N:C2/#BRUser#F2#asalla"
    },
    "lastActionDateTime": "2018-03-22-03.59.35.623206",
    "lastActionEventCode": "EVRLSOBJ",
    "lastComment": "",
    "currentInWorkState": "NotInWork",
    "currentSetUpState": "Released",
    "permission": "Group",
    "permissionRead": "Public",
    "permissionReleaseDelete": "Public",
    "userGroup": {
      "identifier": "FSS",
      "stringifiedObjectReference": "SPIORLL:N:C2/#BRUserGroup#F2#FSS"
    },
    "userGroupRead": {
      "identifier": "",
      "stringifiedObjectReference": ""
    },
    "userGroupReleaseDelete": {
      "identifier": "",
      "stringifiedObjectReference": ""
    },
    "owner": {
      "identifier": "aboggava",
      "stringifiedObjectReference": "SPIORLL:N:C2/#BRUser#F2#aboggava"
    },
    "batchReleaseFlag": false
  },
  "documentEntityInfo": {
    "documentSpecification": "SL-EAGLEECMAUTO-PROCESS-REWORK-COUNT",
    "activeFlag": false,
    "reserveFlag": false,
    "obsoleteFlag": false,
    "lastActivatedUser": {
      "identifier": "",
      "stringifiedObjectReference": ""
    },
    "lastActivatedDateTime": "",
    "lastInactivatedUser": {
      "identifier": "",
      "stringifiedObjectReference": ""
    },
    "lastInactivatedDateTime": "",
    "lastReservedUser": {
      "identifier": "",
      "stringifiedObjectReference": ""
    },
    "lastReservedDateTime": "",
    "lastCanceledReserveChangeActiveUser": {
      "identifier": "",
      "stringifiedObjectReference": ""
    },
    "lastCanceledReserveChangeActiveDateTime": "",
    "lastObsoleteUser": {
      "identifier": "",
      "stringifiedObjectReference": ""
    },
    "lastObsoleteDateTime": "",
    "lastCancelObsoleteUser": {
      "identifier": "",
      "stringifiedObjectReference": ""
    },
    "lastCancelObsoleteDateTime": ""
  },
  "classInfo": {
    "identifier": "SL-EAGLEECMAUTO-PROCESS-REWORK-COUNT.04",
    "mainProcessDefinitionId": "SL-EAGLEECMAUTO-PROCESS-REWORK-COUNT",
    "version": "04",
    "description": "Short Loop",
    "mainProcessDefinitionType": "Production",
    "processFlowType": "Main",
    "monitorRouteFlag": false,
    "mfgLayer": {
      "identifier": "PROD",
      "stringifiedObjectReference": "SPIORLL:N:C2/#BRMFGLayer#F2#PROD"
    },
    "startBank": {
      "identifier": "O-ZEROINV",
      "stringifiedObjectReference": "SPIORLL:N:C2/#BRBank#F2#O-ZEROINV"
    },
    "endBank": {
      "identifier": "O-ENDFG",
      "stringifiedObjectReference": "SPIORLL:N:C2/#BRBank#F2#O-ENDFG"
    },
    "mainProcessDefinitionOwner": {
      "identifier": "G-FSS",
      "stringifiedObjectReference": "SPIORLL:N:C2/#BRUser#F2#G-FSS"
    },
    "moduleProcessDefinitions": [
      {
        "moduleNumber": "100",
        "moduleProcessDefinitionId": "D14ECMAUTO-PROCESS-REWORK-COUNT1_LPEEGHK-B",
        "version": "04",
        "moduleProcessDefinition": {
          "identifier": "D14ECMAUTO-PROCESS-REWORK-COUNT1_LPEEGHK-B.04",
          "stringifiedObjectReference": "SPIORLL:N:C2/#BRModuleProcessDefinition#F2#D14ECMAUTO-PROCESS-REWORK-COUNT1_LPEEGHK-B.04"
        },
        "sameTimeReleaseInChangeNoticeFlag": false,
        "moduleProcessDefinitionInChangeNotice": {
          "identifier": "",
          "stringifiedObjectReference": ""
        },
        "stage": {
          "identifier": "RMG",
          "stringifiedObjectReference": "SPIORLL:N:C2/#BRStage#F2#RMG"
        }
      },
      {
        "moduleNumber": "200",
        "moduleProcessDefinitionId": "D14ECMAUTO-PROCESS-REWORK-COUNT2_LPEEGHK-B",
        "version": "04",
        "moduleProcessDefinition": {
          "identifier": "D14ECMAUTO-PROCESS-REWORK-COUNT2_LPEEGHK-B.04",
          "stringifiedObjectReference": "SPIORLL:N:C2/#BRModuleProcessDefinition#F2#D14ECMAUTO-PROCESS-REWORK-COUNT2_LPEEGHK-B.04"
        },
        "sameTimeReleaseInChangeNoticeFlag": false,
        "moduleProcessDefinitionInChangeNotice": {
          "identifier": "",
          "stringifiedObjectReference": ""
        },
        "stage": {
          "identifier": "RMG",
          "stringifiedObjectReference": "SPIORLL:N:C2/#BRStage#F2#RMG"
        }
      },
      {
        "moduleNumber": "300",
        "moduleProcessDefinitionId": "D14ECMAUTO-PROCESS-REWORK-COUNT3_LPEEGHK-B",
        "version": "04",
        "moduleProcessDefinition": {
          "identifier": "D14ECMAUTO-PROCESS-REWORK-COUNT3_LPEEGHK-B.04",
          "stringifiedObjectReference": "SPIORLL:N:C2/#BRModuleProcessDefinition#F2#D14ECMAUTO-PROCESS-REWORK-COUNT3_LPEEGHK-B.04"
        },
        "sameTimeReleaseInChangeNoticeFlag": false,
        "moduleProcessDefinitionInChangeNotice": {
          "identifier": "",
          "stringifiedObjectReference": ""
        },
        "stage": {
          "identifier": "RMG",
          "stringifiedObjectReference": "SPIORLL:N:C2/#BRStage#F2#RMG"
        }
      },
      {
        "moduleNumber": "400",
        "moduleProcessDefinitionId": "FABOUT",
        "version": "01",
        "moduleProcessDefinition": {
          "identifier": "FABOUT.01",
          "stringifiedObjectReference": "SPIORLL:N:C2/#BRModuleProcessDefinition#F2#FABOUT.01"
        },
        "sameTimeReleaseInChangeNoticeFlag": false,
        "moduleProcessDefinitionInChangeNotice": {
          "identifier": "",
          "stringifiedObjectReference": ""
        },
        "stage": {
          "identifier": "RMG",
          "stringifiedObjectReference": "SPIORLL:N:C2/#BRStage#F2#RMG"
        }
      }
    ],
    "mainProcessOperations": [
      {
        "moduleNumber": "100",
        "moduleProcessDefinition": {
          "identifier": "D14ECMAUTO-PROCESS-REWORK-COUNT1_LPEEGHK-B.04",
          "stringifiedObjectReference": "SPIORLL:N:C2/#BRModuleProcessDefinition#F2#D14ECMAUTO-PROCESS-REWORK-COUNT1_LPEEGHK-B.04"
        },
        "sameTimeReleaseInChangeNoticeFlag": false,
        "moduleProcessDefinitionInChangeNotice": {
          "identifier": "",
          "stringifiedObjectReference": ""
        },
        "stage": {
          "identifier": "RMG",
          "stringifiedObjectReference": "SPIORLL:N:C2/#BRStage#F2#RMG"
        },
        "operationNumber": "100.100",
        "processDefinition": {
          "identifier": "EG-ECMAUTO-ROUTEEDIT-BRANCH-REWORK1_MHSFEOL2HK-14LPE.01",
          "stringifiedObjectReference": "SPIORLL:N:C2/#BRProcessDefinition#F2#EG-ECMAUTO-ROUTEEDIT-BRANCH-REWORK1_MHSFEOL2HK-14LPE.01"
        },
        "pdiDefinitionFlag": false,
        "pdiDefinitionResetFlag": false,
        "mainDINotChangeFlag": false,
        "mainDIScriptNotChangeFlag": false,
        "photoLayer": {
          "identifier": "RM",
          "stringifiedObjectReference": "SPIORLL:N:C2/#BRPhotoLayer#F2#RM"
        },
        "carrierCategory": {
          "identifier": "BEOL",
          "stringifiedObjectReference": "SPIORLL:N:C2/#BRCarrierCategory#F2#BEOL"
        },
        "processOperationNumber": "",
        "correspondingOperations": [

        ],
        "responsibleOperationNumbers": [

        ],
        "recycleSamplingOperationNumber": "",
        "mandatoryOperationRequiredFlag": false,
        "autoBankInRequiredFlag": false,
        "endOfMonitorRelationFlag": false,
        "monitorGroupReleaseFlag": false,
        "flowBatchControl": {
          "sectionControlCategory": "",
          "name": "",
          "targetOperationFlag": false,
          "flowBatchingOffsetTime": 0.0,
          "maxBatchSize": 0,
          "minBatchSize": 0,
          "minWaferCount": 0
        },
        "pilotWaferProcessControl": {
          "name": "",
          "maxPilotProcessCount": 0
        },
        "defaultMeasDCSpec": {
          "identifier": "",
          "stringifiedObjectReference": ""
        },
        "measDCSpecsByTechnology": [

        ],
        "measDCSpecsByProductGroup": [

        ],
        "measDCSpecs": [

        ],
        "defaultTestSpec": {
          "identifier": "",
          "stringifiedObjectReference": ""
        },
        "testSpecsByTechnology": [

        ],
        "testSpecsByProductGroup": [

        ],
        "testSpecs": [

        ],
        "deltaDCDefinitions": [

        ],
        "defaultDeltaDCSpecs": [

        ],
        "deltaDCSpecsByTechnology": [

        ],
        "deltaDCSpecsByProductGroup": [

        ],
        "deltaDCSpecs": [

        ],
        "subProcessDefinitions": [

        ],
        "reworkProcessDefinitions": [

        ],
        "defaultReworkLimit": -1,
        "reworkLimitsByTechnology": [

        ],
        "reworkLimitsByProductGroup": [

        ],
        "reworkLimits": [

        ],
        "defaultProcessLimit": -1,
        "processLimitsByTechnology": [

        ],
        "processLimitsByProductGroup": [

        ],
        "processLimits": [

        ],
        "postScript": {
          "identifier": "",
          "stringifiedObjectReference": ""
        },
        "pre1Script": {
          "identifier": "",
          "stringifiedObjectReference": ""
        },
        "pre2Script": {
          "identifier": "",
          "stringifiedObjectReference": ""
        },
        "postScripts": [

        ],
        "pre1Scripts": [

        ],
        "pre2Scripts": [

        ],
        "defaultTimeRestrictions": [

        ],
        "timeRestrictionsByTechnology": [

        ],
        "timeRestrictionsByProductGroup": [

        ],
        "timeRestrictions": [

        ],
        "defaultReplaceTimeRestrictionsForSubRoute": [

        ],
        "replaceTimeRestrictionsByTechnologyForSubRoute": [

        ],
        "replaceTimeRestrictionsByProductGroupForSubRoute": [

        ],
        "replaceTimeRestrictionsForSubRoute": [

        ],
        "defaultReplaceTimeRestrictionsForReworkRoute": [

        ],
        "replaceTimeRestrictionsByTechnologyForReworkRoute": [

        ],
        "replaceTimeRestrictionsByProductGroupForReworkRoute": [

        ],
        "replaceTimeRestrictionsForReworkRoute": [

        ],
        "defaultProcessLagTime": 0,
        "processLagTimesByTechnology": [

        ],
        "processLagTimesByProductGroup": [

        ],
        "processLagTimes": [

        ],
        "equipmentMonitorSections": [

        ],
        "userDataSets": [

        ]
      },
      {
        "moduleNumber": "100",
        "moduleProcessDefinition": {
          "identifier": "D14ECMAUTO-PROCESS-REWORK-COUNT1_LPEEGHK-B.04",
          "stringifiedObjectReference": "SPIORLL:N:C2/#BRModuleProcessDefinition#F2#D14ECMAUTO-PROCESS-REWORK-COUNT1_LPEEGHK-B.04"
        },
        "sameTimeReleaseInChangeNoticeFlag": false,
        "moduleProcessDefinitionInChangeNotice": {
          "identifier": "",
          "stringifiedObjectReference": ""
        },
        "stage": {
          "identifier": "RMG",
          "stringifiedObjectReference": "SPIORLL:N:C2/#BRStage#F2#RMG"
        },
        "operationNumber": "100.101",
        "processDefinition": {
          "identifier": "EG-ECMAUTO-ROUTEEDIT-BRANCH-REWORK2_MHSFEOL2HK-14LPE.01",
          "stringifiedObjectReference": "SPIORLL:N:C2/#BRProcessDefinition#F2#EG-ECMAUTO-ROUTEEDIT-BRANCH-REWORK2_MHSFEOL2HK-14LPE.01"
        },
        "pdiDefinitionFlag": false,
        "pdiDefinitionResetFlag": false,
        "mainDINotChangeFlag": false,
        "mainDIScriptNotChangeFlag": false,
        "photoLayer": {
          "identifier": "RM",
          "stringifiedObjectReference": "SPIORLL:N:C2/#BRPhotoLayer#F2#RM"
        },
        "carrierCategory": {
          "identifier": "BEOL",
          "stringifiedObjectReference": "SPIORLL:N:C2/#BRCarrierCategory#F2#BEOL"
        },
        "processOperationNumber": "",
        "correspondingOperations": [

        ],
        "responsibleOperationNumbers": [

        ],
        "recycleSamplingOperationNumber": "",
        "mandatoryOperationRequiredFlag": false,
        "autoBankInRequiredFlag": false,
        "endOfMonitorRelationFlag": false,
        "monitorGroupReleaseFlag": false,
        "flowBatchControl": {
          "sectionControlCategory": "",
          "name": "",
          "targetOperationFlag": false,
          "flowBatchingOffsetTime": 0.0,
          "maxBatchSize": 0,
          "minBatchSize": 0,
          "minWaferCount": 0
        },
        "pilotWaferProcessControl": {
          "name": "",
          "maxPilotProcessCount": 0
        },
        "defaultMeasDCSpec": {
          "identifier": "",
          "stringifiedObjectReference": ""
        },
        "measDCSpecsByTechnology": [

        ],
        "measDCSpecsByProductGroup": [

        ],
        "measDCSpecs": [

        ],
        "defaultTestSpec": {
          "identifier": "",
          "stringifiedObjectReference": ""
        },
        "testSpecsByTechnology": [

        ],
        "testSpecsByProductGroup": [

        ],
        "testSpecs": [

        ],
        "deltaDCDefinitions": [

        ],
        "defaultDeltaDCSpecs": [

        ],
        "deltaDCSpecsByTechnology": [

        ],
        "deltaDCSpecsByProductGroup": [

        ],
        "deltaDCSpecs": [

        ],
        "subProcessDefinitions": [

        ],
        "reworkProcessDefinitions": [

        ],
        "defaultReworkLimit": -1,
        "reworkLimitsByTechnology": [

        ],
        "reworkLimitsByProductGroup": [

        ],
        "reworkLimits": [

        ],
        "defaultProcessLimit": -1,
        "processLimitsByTechnology": [

        ],
        "processLimitsByProductGroup": [

        ],
        "processLimits": [

        ],
        "postScript": {
          "identifier": "",
          "stringifiedObjectReference": ""
        },
        "pre1Script": {
          "identifier": "",
          "stringifiedObjectReference": ""
        },
        "pre2Script": {
          "identifier": "",
          "stringifiedObjectReference": ""
        },
        "postScripts": [

        ],
        "pre1Scripts": [

        ],
        "pre2Scripts": [

        ],
        "defaultTimeRestrictions": [

        ],
        "timeRestrictionsByTechnology": [

        ],
        "timeRestrictionsByProductGroup": [

        ],
        "timeRestrictions": [

        ],
        "defaultReplaceTimeRestrictionsForSubRoute": [

        ],
        "replaceTimeRestrictionsByTechnologyForSubRoute": [

        ],
        "replaceTimeRestrictionsByProductGroupForSubRoute": [

        ],
        "replaceTimeRestrictionsForSubRoute": [

        ],
        "defaultReplaceTimeRestrictionsForReworkRoute": [

        ],
        "replaceTimeRestrictionsByTechnologyForReworkRoute": [

        ],
        "replaceTimeRestrictionsByProductGroupForReworkRoute": [

        ],
        "replaceTimeRestrictionsForReworkRoute": [

        ],
        "defaultProcessLagTime": 0,
        "processLagTimesByTechnology": [

        ],
        "processLagTimesByProductGroup": [

        ],
        "processLagTimes": [

        ],
        "equipmentMonitorSections": [

        ],
        "userDataSets": [

        ]
      },
      {
        "moduleNumber": "100",
        "moduleProcessDefinition": {
          "identifier": "D14ECMAUTO-PROCESS-REWORK-COUNT1_LPEEGHK-B.04",
          "stringifiedObjectReference": "SPIORLL:N:C2/#BRModuleProcessDefinition#F2#D14ECMAUTO-PROCESS-REWORK-COUNT1_LPEEGHK-B.04"
        },
        "sameTimeReleaseInChangeNoticeFlag": false,
        "moduleProcessDefinitionInChangeNotice": {
          "identifier": "",
          "stringifiedObjectReference": ""
        },
        "stage": {
          "identifier": "RMG",
          "stringifiedObjectReference": "SPIORLL:N:C2/#BRStage#F2#RMG"
        },
        "operationNumber": "100.102",
        "processDefinition": {
          "identifier": "EG-ECMAUTO-ROUTEEDIT-BRANCH-REWORK3_MHSFEOL2HK-14LPE.01",
          "stringifiedObjectReference": "SPIORLL:N:C2/#BRProcessDefinition#F2#EG-ECMAUTO-ROUTEEDIT-BRANCH-REWORK3_MHSFEOL2HK-14LPE.01"
        },
        "pdiDefinitionFlag": false,
        "pdiDefinitionResetFlag": false,
        "mainDINotChangeFlag": false,
        "mainDIScriptNotChangeFlag": false,
        "photoLayer": {
          "identifier": "RM",
          "stringifiedObjectReference": "SPIORLL:N:C2/#BRPhotoLayer#F2#RM"
        },
        "carrierCategory": {
          "identifier": "BEOL",
          "stringifiedObjectReference": "SPIORLL:N:C2/#BRCarrierCategory#F2#BEOL"
        },
        "processOperationNumber": "",
        "correspondingOperations": [

        ],
        "responsibleOperationNumbers": [

        ],
        "recycleSamplingOperationNumber": "",
        "mandatoryOperationRequiredFlag": false,
        "autoBankInRequiredFlag": false,
        "endOfMonitorRelationFlag": false,
        "monitorGroupReleaseFlag": false,
        "flowBatchControl": {
          "sectionControlCategory": "",
          "name": "",
          "targetOperationFlag": false,
          "flowBatchingOffsetTime": 0.0,
          "maxBatchSize": 0,
          "minBatchSize": 0,
          "minWaferCount": 0
        },
        "pilotWaferProcessControl": {
          "name": "",
          "maxPilotProcessCount": 0
        },
        "defaultMeasDCSpec": {
          "identifier": "",
          "stringifiedObjectReference": ""
        },
        "measDCSpecsByTechnology": [

        ],
        "measDCSpecsByProductGroup": [

        ],
        "measDCSpecs": [

        ],
        "defaultTestSpec": {
          "identifier": "",
          "stringifiedObjectReference": ""
        },
        "testSpecsByTechnology": [

        ],
        "testSpecsByProductGroup": [

        ],
        "testSpecs": [

        ],
        "deltaDCDefinitions": [

        ],
        "defaultDeltaDCSpecs": [

        ],
        "deltaDCSpecsByTechnology": [

        ],
        "deltaDCSpecsByProductGroup": [

        ],
        "deltaDCSpecs": [

        ],
        "subProcessDefinitions": [

        ],
        "reworkProcessDefinitions": [

        ],
        "defaultReworkLimit": -1,
        "reworkLimitsByTechnology": [

        ],
        "reworkLimitsByProductGroup": [

        ],
        "reworkLimits": [

        ],
        "defaultProcessLimit": -1,
        "processLimitsByTechnology": [

        ],
        "processLimitsByProductGroup": [

        ],
        "processLimits": [

        ],
        "postScript": {
          "identifier": "",
          "stringifiedObjectReference": ""
        },
        "pre1Script": {
          "identifier": "",
          "stringifiedObjectReference": ""
        },
        "pre2Script": {
          "identifier": "",
          "stringifiedObjectReference": ""
        },
        "postScripts": [

        ],
        "pre1Scripts": [

        ],
        "pre2Scripts": [

        ],
        "defaultTimeRestrictions": [

        ],
        "timeRestrictionsByTechnology": [

        ],
        "timeRestrictionsByProductGroup": [

        ],
        "timeRestrictions": [

        ],
        "defaultReplaceTimeRestrictionsForSubRoute": [

        ],
        "replaceTimeRestrictionsByTechnologyForSubRoute": [

        ],
        "replaceTimeRestrictionsByProductGroupForSubRoute": [

        ],
        "replaceTimeRestrictionsForSubRoute": [

        ],
        "defaultReplaceTimeRestrictionsForReworkRoute": [

        ],
        "replaceTimeRestrictionsByTechnologyForReworkRoute": [

        ],
        "replaceTimeRestrictionsByProductGroupForReworkRoute": [

        ],
        "replaceTimeRestrictionsForReworkRoute": [

        ],
        "defaultProcessLagTime": 0,
        "processLagTimesByTechnology": [

        ],
        "processLagTimesByProductGroup": [

        ],
        "processLagTimes": [

        ],
        "equipmentMonitorSections": [

        ],
        "userDataSets": [

        ]
      },
      {
        "moduleNumber": "100",
        "moduleProcessDefinition": {
          "identifier": "D14ECMAUTO-PROCESS-REWORK-COUNT1_LPEEGHK-B.04",
          "stringifiedObjectReference": "SPIORLL:N:C2/#BRModuleProcessDefinition#F2#D14ECMAUTO-PROCESS-REWORK-COUNT1_LPEEGHK-B.04"
        },
        "sameTimeReleaseInChangeNoticeFlag": false,
        "moduleProcessDefinitionInChangeNotice": {
          "identifier": "",
          "stringifiedObjectReference": ""
        },
        "stage": {
          "identifier": "RMG",
          "stringifiedObjectReference": "SPIORLL:N:C2/#BRStage#F2#RMG"
        },
        "operationNumber": "100.103",
        "processDefinition": {
          "identifier": "EG-ECMAUTO-ROUTEEDIT-BRANCH-REWORK4_MHSFEOL2HK-14LPE.01",
          "stringifiedObjectReference": "SPIORLL:N:C2/#BRProcessDefinition#F2#EG-ECMAUTO-ROUTEEDIT-BRANCH-REWORK4_MHSFEOL2HK-14LPE.01"
        },
        "pdiDefinitionFlag": false,
        "pdiDefinitionResetFlag": false,
        "mainDINotChangeFlag": false,
        "mainDIScriptNotChangeFlag": false,
        "photoLayer": {
          "identifier": "RM",
          "stringifiedObjectReference": "SPIORLL:N:C2/#BRPhotoLayer#F2#RM"
        },
        "carrierCategory": {
          "identifier": "BEOL",
          "stringifiedObjectReference": "SPIORLL:N:C2/#BRCarrierCategory#F2#BEOL"
        },
        "processOperationNumber": "",
        "correspondingOperations": [

        ],
        "responsibleOperationNumbers": [

        ],
        "recycleSamplingOperationNumber": "",
        "mandatoryOperationRequiredFlag": false,
        "autoBankInRequiredFlag": false,
        "endOfMonitorRelationFlag": false,
        "monitorGroupReleaseFlag": false,
        "flowBatchControl": {
          "sectionControlCategory": "",
          "name": "",
          "targetOperationFlag": false,
          "flowBatchingOffsetTime": 0.0,
          "maxBatchSize": 0,
          "minBatchSize": 0,
          "minWaferCount": 0
        },
        "pilotWaferProcessControl": {
          "name": "",
          "maxPilotProcessCount": 0
        },
        "defaultMeasDCSpec": {
          "identifier": "",
          "stringifiedObjectReference": ""
        },
        "measDCSpecsByTechnology": [

        ],
        "measDCSpecsByProductGroup": [

        ],
        "measDCSpecs": [

        ],
        "defaultTestSpec": {
          "identifier": "",
          "stringifiedObjectReference": ""
        },
        "testSpecsByTechnology": [

        ],
        "testSpecsByProductGroup": [

        ],
        "testSpecs": [

        ],
        "deltaDCDefinitions": [

        ],
        "defaultDeltaDCSpecs": [

        ],
        "deltaDCSpecsByTechnology": [

        ],
        "deltaDCSpecsByProductGroup": [

        ],
        "deltaDCSpecs": [

        ],
        "subProcessDefinitions": [

        ],
        "reworkProcessDefinitions": [

        ],
        "defaultReworkLimit": -1,
        "reworkLimitsByTechnology": [

        ],
        "reworkLimitsByProductGroup": [

        ],
        "reworkLimits": [

        ],
        "defaultProcessLimit": 1,
        "processLimitsByTechnology": [
          {
            "technology": {
              "identifier": "14ECMAUTO",
              "stringifiedObjectReference": "SPIORLL:N:C2/#BRTechnology#F2#14ECMAUTO"
            },
            "limit": 1
          }
        ],
        "processLimitsByProductGroup": [
          {
            "productGroup": {
              "identifier": "BCV14ECMAUTOLPE1",
              "stringifiedObjectReference": "SPIORLL:N:C2/#BRProductGroup#F2#BCV14ECMAUTOLPE1"
            },
            "limit": 1
          }
        ],
        "processLimits": [
          {
            "product": {
              "identifier": "EAGLEECMAUTO-PROCESSREWORK-COUNT.04",
              "stringifiedObjectReference": "SPIORLL:N:C2/#BRProduct#F2#EAGLEECMAUTO-PROCESSREWORK-COUNT.04"
            },
            "limit": 1
          }
        ],
        "postScript": {
          "identifier": "",
          "stringifiedObjectReference": ""
        },
        "pre1Script": {
          "identifier": "",
          "stringifiedObjectReference": ""
        },
        "pre2Script": {
          "identifier": "",
          "stringifiedObjectReference": ""
        },
        "postScripts": [

        ],
        "pre1Scripts": [

        ],
        "pre2Scripts": [

        ],
        "defaultTimeRestrictions": [

        ],
        "timeRestrictionsByTechnology": [

        ],
        "timeRestrictionsByProductGroup": [

        ],
        "timeRestrictions": [

        ],
        "defaultReplaceTimeRestrictionsForSubRoute": [

        ],
        "replaceTimeRestrictionsByTechnologyForSubRoute": [

        ],
        "replaceTimeRestrictionsByProductGroupForSubRoute": [

        ],
        "replaceTimeRestrictionsForSubRoute": [

        ],
        "defaultReplaceTimeRestrictionsForReworkRoute": [

        ],
        "replaceTimeRestrictionsByTechnologyForReworkRoute": [

        ],
        "replaceTimeRestrictionsByProductGroupForReworkRoute": [

        ],
        "replaceTimeRestrictionsForReworkRoute": [

        ],
        "defaultProcessLagTime": 0,
        "processLagTimesByTechnology": [

        ],
        "processLagTimesByProductGroup": [

        ],
        "processLagTimes": [

        ],
        "equipmentMonitorSections": [

        ],
        "userDataSets": [

        ]
      },
      {
        "moduleNumber": "200",
        "moduleProcessDefinition": {
          "identifier": "D14ECMAUTO-PROCESS-REWORK-COUNT2_LPEEGHK-B.04",
          "stringifiedObjectReference": "SPIORLL:N:C2/#BRModuleProcessDefinition#F2#D14ECMAUTO-PROCESS-REWORK-COUNT2_LPEEGHK-B.04"
        },
        "sameTimeReleaseInChangeNoticeFlag": false,
        "moduleProcessDefinitionInChangeNotice": {
          "identifier": "",
          "stringifiedObjectReference": ""
        },
        "stage": {
          "identifier": "RMG",
          "stringifiedObjectReference": "SPIORLL:N:C2/#BRStage#F2#RMG"
        },
        "operationNumber": "200.100",
        "processDefinition": {
          "identifier": "EG-ECMAUTO-ROUTEEDIT-BRANCH-REWORK5_MHSFEOL2HK-14LPE.01",
          "stringifiedObjectReference": "SPIORLL:N:C2/#BRProcessDefinition#F2#EG-ECMAUTO-ROUTEEDIT-BRANCH-REWORK5_MHSFEOL2HK-14LPE.01"
        },
        "pdiDefinitionFlag": false,
        "pdiDefinitionResetFlag": false,
        "mainDINotChangeFlag": false,
        "mainDIScriptNotChangeFlag": false,
        "photoLayer": {
          "identifier": "RM",
          "stringifiedObjectReference": "SPIORLL:N:C2/#BRPhotoLayer#F2#RM"
        },
        "carrierCategory": {
          "identifier": "BEOL",
          "stringifiedObjectReference": "SPIORLL:N:C2/#BRCarrierCategory#F2#BEOL"
        },
        "processOperationNumber": "",
        "correspondingOperations": [

        ],
        "responsibleOperationNumbers": [
          "200.100"
        ],
        "recycleSamplingOperationNumber": "",
        "mandatoryOperationRequiredFlag": false,
        "autoBankInRequiredFlag": false,
        "endOfMonitorRelationFlag": false,
        "monitorGroupReleaseFlag": false,
        "flowBatchControl": {
          "sectionControlCategory": "",
          "name": "",
          "targetOperationFlag": false,
          "flowBatchingOffsetTime": 0.0,
          "maxBatchSize": 0,
          "minBatchSize": 0,
          "minWaferCount": 0
        },
        "pilotWaferProcessControl": {
          "name": "",
          "maxPilotProcessCount": 0
        },
        "defaultMeasDCSpec": {
          "identifier": "",
          "stringifiedObjectReference": ""
        },
        "measDCSpecsByTechnology": [

        ],
        "measDCSpecsByProductGroup": [

        ],
        "measDCSpecs": [

        ],
        "defaultTestSpec": {
          "identifier": "",
          "stringifiedObjectReference": ""
        },
        "testSpecsByTechnology": [

        ],
        "testSpecsByProductGroup": [

        ],
        "testSpecs": [

        ],
        "deltaDCDefinitions": [

        ],
        "defaultDeltaDCSpecs": [

        ],
        "deltaDCSpecsByTechnology": [

        ],
        "deltaDCSpecsByProductGroup": [

        ],
        "deltaDCSpecs": [

        ],
        "subProcessDefinitions": [
          {
            "mainProcessDefinition": {
              "identifier": "SL-EAGLEECMAUTO-ROUTEEDIT-BRANCH2.01",
              "stringifiedObjectReference": "SPIORLL:N:C2/#BRMainProcessDefinition#F2#SL-EAGLEECMAUTO-ROUTEEDIT-BRANCH2.01"
            },
            "joiningOperationNumber": "200.103"
          }
        ],
        "reworkProcessDefinitions": [
          {
            "mainProcessDefinition": {
              "identifier": "SL-EAGLEECMAUTO-ROUTEEDIT-REWORK2.01",
              "stringifiedObjectReference": "SPIORLL:N:C2/#BRMainProcessDefinition#F2#SL-EAGLEECMAUTO-ROUTEEDIT-REWORK2.01"
            },
            "joiningOperationNumber": "200.102"
          }
        ],
        "defaultReworkLimit": 1,
        "reworkLimitsByTechnology": [

        ],
        "reworkLimitsByProductGroup": [

        ],
        "reworkLimits": [

        ],
        "defaultProcessLimit": 1,
        "processLimitsByTechnology": [

        ],
        "processLimitsByProductGroup": [

        ],
        "processLimits": [

        ],
        "postScript": {
          "identifier": "",
          "stringifiedObjectReference": ""
        },
        "pre1Script": {
          "identifier": "",
          "stringifiedObjectReference": ""
        },
        "pre2Script": {
          "identifier": "",
          "stringifiedObjectReference": ""
        },
        "postScripts": [

        ],
        "pre1Scripts": [

        ],
        "pre2Scripts": [

        ],
        "defaultTimeRestrictions": [

        ],
        "timeRestrictionsByTechnology": [

        ],
        "timeRestrictionsByProductGroup": [

        ],
        "timeRestrictions": [

        ],
        "defaultReplaceTimeRestrictionsForSubRoute": [

        ],
        "replaceTimeRestrictionsByTechnologyForSubRoute": [

        ],
        "replaceTimeRestrictionsByProductGroupForSubRoute": [

        ],
        "replaceTimeRestrictionsForSubRoute": [

        ],
        "defaultReplaceTimeRestrictionsForReworkRoute": [

        ],
        "replaceTimeRestrictionsByTechnologyForReworkRoute": [

        ],
        "replaceTimeRestrictionsByProductGroupForReworkRoute": [

        ],
        "replaceTimeRestrictionsForReworkRoute": [

        ],
        "defaultProcessLagTime": 0,
        "processLagTimesByTechnology": [

        ],
        "processLagTimesByProductGroup": [

        ],
        "processLagTimes": [

        ],
        "equipmentMonitorSections": [

        ],
        "userDataSets": [

        ]
      },
      {
        "moduleNumber": "200",
        "moduleProcessDefinition": {
          "identifier": "D14ECMAUTO-PROCESS-REWORK-COUNT2_LPEEGHK-B.04",
          "stringifiedObjectReference": "SPIORLL:N:C2/#BRModuleProcessDefinition#F2#D14ECMAUTO-PROCESS-REWORK-COUNT2_LPEEGHK-B.04"
        },
        "sameTimeReleaseInChangeNoticeFlag": false,
        "moduleProcessDefinitionInChangeNotice": {
          "identifier": "",
          "stringifiedObjectReference": ""
        },
        "stage": {
          "identifier": "RMG",
          "stringifiedObjectReference": "SPIORLL:N:C2/#BRStage#F2#RMG"
        },
        "operationNumber": "200.101",
        "processDefinition": {
          "identifier": "EG-ECMAUTO-ROUTEEDIT-BRANCH-REWORK6_MHSFEOL2HK-14LPE.01",
          "stringifiedObjectReference": "SPIORLL:N:C2/#BRProcessDefinition#F2#EG-ECMAUTO-ROUTEEDIT-BRANCH-REWORK6_MHSFEOL2HK-14LPE.01"
        },
        "pdiDefinitionFlag": false,
        "pdiDefinitionResetFlag": false,
        "mainDINotChangeFlag": false,
        "mainDIScriptNotChangeFlag": false,
        "photoLayer": {
          "identifier": "RM",
          "stringifiedObjectReference": "SPIORLL:N:C2/#BRPhotoLayer#F2#RM"
        },
        "carrierCategory": {
          "identifier": "BEOL",
          "stringifiedObjectReference": "SPIORLL:N:C2/#BRCarrierCategory#F2#BEOL"
        },
        "processOperationNumber": "",
        "correspondingOperations": [

        ],
        "responsibleOperationNumbers": [
          "200.101"
        ],
        "recycleSamplingOperationNumber": "",
        "mandatoryOperationRequiredFlag": false,
        "autoBankInRequiredFlag": false,
        "endOfMonitorRelationFlag": false,
        "monitorGroupReleaseFlag": false,
        "flowBatchControl": {
          "sectionControlCategory": "",
          "name": "",
          "targetOperationFlag": false,
          "flowBatchingOffsetTime": 0.0,
          "maxBatchSize": 0,
          "minBatchSize": 0,
          "minWaferCount": 0
        },
        "pilotWaferProcessControl": {
          "name": "",
          "maxPilotProcessCount": 0
        },
        "defaultMeasDCSpec": {
          "identifier": "",
          "stringifiedObjectReference": ""
        },
        "measDCSpecsByTechnology": [

        ],
        "measDCSpecsByProductGroup": [

        ],
        "measDCSpecs": [

        ],
        "defaultTestSpec": {
          "identifier": "",
          "stringifiedObjectReference": ""
        },
        "testSpecsByTechnology": [

        ],
        "testSpecsByProductGroup": [

        ],
        "testSpecs": [

        ],
        "deltaDCDefinitions": [

        ],
        "defaultDeltaDCSpecs": [

        ],
        "deltaDCSpecsByTechnology": [

        ],
        "deltaDCSpecsByProductGroup": [

        ],
        "deltaDCSpecs": [

        ],
        "subProcessDefinitions": [
          {
            "mainProcessDefinition": {
              "identifier": "SL-EAGLEECMAUTO-ROUTEEDIT-BRANCH2.01",
              "stringifiedObjectReference": "SPIORLL:N:C2/#BRMainProcessDefinition#F2#SL-EAGLEECMAUTO-ROUTEEDIT-BRANCH2.01"
            },
            "joiningOperationNumber": "200.103"
          }
        ],
        "reworkProcessDefinitions": [
          {
            "mainProcessDefinition": {
              "identifier": "SL-EAGLEECMAUTO-ROUTEEDIT-REWORK2.01",
              "stringifiedObjectReference": "SPIORLL:N:C2/#BRMainProcessDefinition#F2#SL-EAGLEECMAUTO-ROUTEEDIT-REWORK2.01"
            },
            "joiningOperationNumber": "200.100"
          }
        ],
        "defaultReworkLimit": -1,
        "reworkLimitsByTechnology": [
          {
            "technology": {
              "identifier": "14ECMAUTO",
              "stringifiedObjectReference": "SPIORLL:N:C2/#BRTechnology#F2#14ECMAUTO"
            },
            "limit": 1
          }
        ],
        "reworkLimitsByProductGroup": [

        ],
        "reworkLimits": [

        ],
        "defaultProcessLimit": -1,
        "processLimitsByTechnology": [
          {
            "technology": {
              "identifier": "14ECMAUTO",
              "stringifiedObjectReference": "SPIORLL:N:C2/#BRTechnology#F2#14ECMAUTO"
            },
            "limit": 1
          }
        ],
        "processLimitsByProductGroup": [

        ],
        "processLimits": [

        ],
        "postScript": {
          "identifier": "",
          "stringifiedObjectReference": ""
        },
        "pre1Script": {
          "identifier": "",
          "stringifiedObjectReference": ""
        },
        "pre2Script": {
          "identifier": "",
          "stringifiedObjectReference": ""
        },
        "postScripts": [

        ],
        "pre1Scripts": [

        ],
        "pre2Scripts": [

        ],
        "defaultTimeRestrictions": [

        ],
        "timeRestrictionsByTechnology": [

        ],
        "timeRestrictionsByProductGroup": [

        ],
        "timeRestrictions": [

        ],
        "defaultReplaceTimeRestrictionsForSubRoute": [

        ],
        "replaceTimeRestrictionsByTechnologyForSubRoute": [

        ],
        "replaceTimeRestrictionsByProductGroupForSubRoute": [

        ],
        "replaceTimeRestrictionsForSubRoute": [

        ],
        "defaultReplaceTimeRestrictionsForReworkRoute": [

        ],
        "replaceTimeRestrictionsByTechnologyForReworkRoute": [

        ],
        "replaceTimeRestrictionsByProductGroupForReworkRoute": [

        ],
        "replaceTimeRestrictionsForReworkRoute": [

        ],
        "defaultProcessLagTime": 0,
        "processLagTimesByTechnology": [

        ],
        "processLagTimesByProductGroup": [

        ],
        "processLagTimes": [

        ],
        "equipmentMonitorSections": [

        ],
        "userDataSets": [

        ]
      },
      {
        "moduleNumber": "200",
        "moduleProcessDefinition": {
          "identifier": "D14ECMAUTO-PROCESS-REWORK-COUNT2_LPEEGHK-B.04",
          "stringifiedObjectReference": "SPIORLL:N:C2/#BRModuleProcessDefinition#F2#D14ECMAUTO-PROCESS-REWORK-COUNT2_LPEEGHK-B.04"
        },
        "sameTimeReleaseInChangeNoticeFlag": false,
        "moduleProcessDefinitionInChangeNotice": {
          "identifier": "",
          "stringifiedObjectReference": ""
        },
        "stage": {
          "identifier": "RMG",
          "stringifiedObjectReference": "SPIORLL:N:C2/#BRStage#F2#RMG"
        },
        "operationNumber": "200.102",
        "processDefinition": {
          "identifier": "EG-ECMAUTO-ROUTEEDIT-BRANCH-REWORK7_MHSFEOL2HK-14LPE.01",
          "stringifiedObjectReference": "SPIORLL:N:C2/#BRProcessDefinition#F2#EG-ECMAUTO-ROUTEEDIT-BRANCH-REWORK7_MHSFEOL2HK-14LPE.01"
        },
        "pdiDefinitionFlag": false,
        "pdiDefinitionResetFlag": false,
        "mainDINotChangeFlag": false,
        "mainDIScriptNotChangeFlag": false,
        "photoLayer": {
          "identifier": "RM",
          "stringifiedObjectReference": "SPIORLL:N:C2/#BRPhotoLayer#F2#RM"
        },
        "carrierCategory": {
          "identifier": "BEOL",
          "stringifiedObjectReference": "SPIORLL:N:C2/#BRCarrierCategory#F2#BEOL"
        },
        "processOperationNumber": "",
        "correspondingOperations": [

        ],
        "responsibleOperationNumbers": [
          "200.102"
        ],
        "recycleSamplingOperationNumber": "",
        "mandatoryOperationRequiredFlag": false,
        "autoBankInRequiredFlag": false,
        "endOfMonitorRelationFlag": false,
        "monitorGroupReleaseFlag": false,
        "flowBatchControl": {
          "sectionControlCategory": "",
          "name": "",
          "targetOperationFlag": false,
          "flowBatchingOffsetTime": 0.0,
          "maxBatchSize": 0,
          "minBatchSize": 0,
          "minWaferCount": 0
        },
        "pilotWaferProcessControl": {
          "name": "",
          "maxPilotProcessCount": 0
        },
        "defaultMeasDCSpec": {
          "identifier": "",
          "stringifiedObjectReference": ""
        },
        "measDCSpecsByTechnology": [

        ],
        "measDCSpecsByProductGroup": [

        ],
        "measDCSpecs": [

        ],
        "defaultTestSpec": {
          "identifier": "",
          "stringifiedObjectReference": ""
        },
        "testSpecsByTechnology": [

        ],
        "testSpecsByProductGroup": [

        ],
        "testSpecs": [

        ],
        "deltaDCDefinitions": [

        ],
        "defaultDeltaDCSpecs": [

        ],
        "deltaDCSpecsByTechnology": [

        ],
        "deltaDCSpecsByProductGroup": [

        ],
        "deltaDCSpecs": [

        ],
        "subProcessDefinitions": [
          {
            "mainProcessDefinition": {
              "identifier": "SL-EAGLEECMAUTO-ROUTEEDIT-BRANCH2.01",
              "stringifiedObjectReference": "SPIORLL:N:C2/#BRMainProcessDefinition#F2#SL-EAGLEECMAUTO-ROUTEEDIT-BRANCH2.01"
            },
            "joiningOperationNumber": "200.103"
          }
        ],
        "reworkProcessDefinitions": [
          {
            "mainProcessDefinition": {
              "identifier": "SL-EAGLEECMAUTO-ROUTEEDIT-REWORK2.01",
              "stringifiedObjectReference": "SPIORLL:N:C2/#BRMainProcessDefinition#F2#SL-EAGLEECMAUTO-ROUTEEDIT-REWORK2.01"
            },
            "joiningOperationNumber": "200.100"
          }
        ],
        "defaultReworkLimit": -1,
        "reworkLimitsByTechnology": [

        ],
        "reworkLimitsByProductGroup": [
          {
            "productGroup": {
              "identifier": "BCV14ECMAUTOLPE1",
              "stringifiedObjectReference": "SPIORLL:N:C2/#BRProductGroup#F2#BCV14ECMAUTOLPE1"
            },
            "limit": 1
          }
        ],
        "reworkLimits": [

        ],
        "defaultProcessLimit": -1,
        "processLimitsByTechnology": [

        ],
        "processLimitsByProductGroup": [
          {
            "productGroup": {
              "identifier": "BCV14ECMAUTOLPE1",
              "stringifiedObjectReference": "SPIORLL:N:C2/#BRProductGroup#F2#BCV14ECMAUTOLPE1"
            },
            "limit": 1
          }
        ],
        "processLimits": [

        ],
        "postScript": {
          "identifier": "",
          "stringifiedObjectReference": ""
        },
        "pre1Script": {
          "identifier": "",
          "stringifiedObjectReference": ""
        },
        "pre2Script": {
          "identifier": "",
          "stringifiedObjectReference": ""
        },
        "postScripts": [

        ],
        "pre1Scripts": [

        ],
        "pre2Scripts": [

        ],
        "defaultTimeRestrictions": [

        ],
        "timeRestrictionsByTechnology": [

        ],
        "timeRestrictionsByProductGroup": [

        ],
        "timeRestrictions": [

        ],
        "defaultReplaceTimeRestrictionsForSubRoute": [

        ],
        "replaceTimeRestrictionsByTechnologyForSubRoute": [

        ],
        "replaceTimeRestrictionsByProductGroupForSubRoute": [

        ],
        "replaceTimeRestrictionsForSubRoute": [

        ],
        "defaultReplaceTimeRestrictionsForReworkRoute": [

        ],
        "replaceTimeRestrictionsByTechnologyForReworkRoute": [

        ],
        "replaceTimeRestrictionsByProductGroupForReworkRoute": [

        ],
        "replaceTimeRestrictionsForReworkRoute": [

        ],
        "defaultProcessLagTime": 0,
        "processLagTimesByTechnology": [

        ],
        "processLagTimesByProductGroup": [

        ],
        "processLagTimes": [

        ],
        "equipmentMonitorSections": [

        ],
        "userDataSets": [

        ]
      },
      {
        "moduleNumber": "200",
        "moduleProcessDefinition": {
          "identifier": "D14ECMAUTO-PROCESS-REWORK-COUNT2_LPEEGHK-B.04",
          "stringifiedObjectReference": "SPIORLL:N:C2/#BRModuleProcessDefinition#F2#D14ECMAUTO-PROCESS-REWORK-COUNT2_LPEEGHK-B.04"
        },
        "sameTimeReleaseInChangeNoticeFlag": false,
        "moduleProcessDefinitionInChangeNotice": {
          "identifier": "",
          "stringifiedObjectReference": ""
        },
        "stage": {
          "identifier": "RMG",
          "stringifiedObjectReference": "SPIORLL:N:C2/#BRStage#F2#RMG"
        },
        "operationNumber": "200.103",
        "processDefinition": {
          "identifier": "EG-ECMAUTO-ROUTEEDIT-BRANCH-REWORK8_MHSFEOL2HK-14LPE.01",
          "stringifiedObjectReference": "SPIORLL:N:C2/#BRProcessDefinition#F2#EG-ECMAUTO-ROUTEEDIT-BRANCH-REWORK8_MHSFEOL2HK-14LPE.01"
        },
        "pdiDefinitionFlag": false,
        "pdiDefinitionResetFlag": false,
        "mainDINotChangeFlag": false,
        "mainDIScriptNotChangeFlag": false,
        "photoLayer": {
          "identifier": "RM",
          "stringifiedObjectReference": "SPIORLL:N:C2/#BRPhotoLayer#F2#RM"
        },
        "carrierCategory": {
          "identifier": "BEOL",
          "stringifiedObjectReference": "SPIORLL:N:C2/#BRCarrierCategory#F2#BEOL"
        },
        "processOperationNumber": "",
        "correspondingOperations": [

        ],
        "responsibleOperationNumbers": [
          "200.103"
        ],
        "recycleSamplingOperationNumber": "",
        "mandatoryOperationRequiredFlag": false,
        "autoBankInRequiredFlag": false,
        "endOfMonitorRelationFlag": false,
        "monitorGroupReleaseFlag": false,
        "flowBatchControl": {
          "sectionControlCategory": "",
          "name": "",
          "targetOperationFlag": false,
          "flowBatchingOffsetTime": 0.0,
          "maxBatchSize": 0,
          "minBatchSize": 0,
          "minWaferCount": 0
        },
        "pilotWaferProcessControl": {
          "name": "",
          "maxPilotProcessCount": 0
        },
        "defaultMeasDCSpec": {
          "identifier": "",
          "stringifiedObjectReference": ""
        },
        "measDCSpecsByTechnology": [

        ],
        "measDCSpecsByProductGroup": [

        ],
        "measDCSpecs": [

        ],
        "defaultTestSpec": {
          "identifier": "",
          "stringifiedObjectReference": ""
        },
        "testSpecsByTechnology": [

        ],
        "testSpecsByProductGroup": [

        ],
        "testSpecs": [

        ],
        "deltaDCDefinitions": [

        ],
        "defaultDeltaDCSpecs": [

        ],
        "deltaDCSpecsByTechnology": [

        ],
        "deltaDCSpecsByProductGroup": [

        ],
        "deltaDCSpecs": [

        ],
        "subProcessDefinitions": [

        ],
        "reworkProcessDefinitions": [

        ],
        "defaultReworkLimit": -1,
        "reworkLimitsByTechnology": [

        ],
        "reworkLimitsByProductGroup": [

        ],
        "reworkLimits": [
          {
            "product": {
              "identifier": "EAGLEECMAUTO-PROCESSREWORK-COUNT.04",
              "stringifiedObjectReference": "SPIORLL:N:C2/#BRProduct#F2#EAGLEECMAUTO-PROCESSREWORK-COUNT.04"
            },
            "limit": 1
          }
        ],
        "defaultProcessLimit": -1,
        "processLimitsByTechnology": [

        ],
        "processLimitsByProductGroup": [

        ],
        "processLimits": [
          {
            "product": {
              "identifier": "EAGLEECMAUTO-PROCESSREWORK-COUNT.04",
              "stringifiedObjectReference": "SPIORLL:N:C2/#BRProduct#F2#EAGLEECMAUTO-PROCESSREWORK-COUNT.04"
            },
            "limit": 1
          }
        ],
        "postScript": {
          "identifier": "",
          "stringifiedObjectReference": ""
        },
        "pre1Script": {
          "identifier": "",
          "stringifiedObjectReference": ""
        },
        "pre2Script": {
          "identifier": "",
          "stringifiedObjectReference": ""
        },
        "postScripts": [

        ],
        "pre1Scripts": [

        ],
        "pre2Scripts": [

        ],
        "defaultTimeRestrictions": [

        ],
        "timeRestrictionsByTechnology": [

        ],
        "timeRestrictionsByProductGroup": [

        ],
        "timeRestrictions": [

        ],
        "defaultReplaceTimeRestrictionsForSubRoute": [

        ],
        "replaceTimeRestrictionsByTechnologyForSubRoute": [

        ],
        "replaceTimeRestrictionsByProductGroupForSubRoute": [

        ],
        "replaceTimeRestrictionsForSubRoute": [

        ],
        "defaultReplaceTimeRestrictionsForReworkRoute": [

        ],
        "replaceTimeRestrictionsByTechnologyForReworkRoute": [

        ],
        "replaceTimeRestrictionsByProductGroupForReworkRoute": [

        ],
        "replaceTimeRestrictionsForReworkRoute": [

        ],
        "defaultProcessLagTime": 0,
        "processLagTimesByTechnology": [

        ],
        "processLagTimesByProductGroup": [

        ],
        "processLagTimes": [

        ],
        "equipmentMonitorSections": [

        ],
        "userDataSets": [

        ]
      },
      {
        "moduleNumber": "200",
        "moduleProcessDefinition": {
          "identifier": "D14ECMAUTO-PROCESS-REWORK-COUNT2_LPEEGHK-B.04",
          "stringifiedObjectReference": "SPIORLL:N:C2/#BRModuleProcessDefinition#F2#D14ECMAUTO-PROCESS-REWORK-COUNT2_LPEEGHK-B.04"
        },
        "sameTimeReleaseInChangeNoticeFlag": false,
        "moduleProcessDefinitionInChangeNotice": {
          "identifier": "",
          "stringifiedObjectReference": ""
        },
        "stage": {
          "identifier": "RMG",
          "stringifiedObjectReference": "SPIORLL:N:C2/#BRStage#F2#RMG"
        },
        "operationNumber": "200.104",
        "processDefinition": {
          "identifier": "EG-ECMAUTO-ROUTEEDIT-BRANCH-REWORK10_MHSFEOL2HK-14LPE.01",
          "stringifiedObjectReference": "SPIORLL:N:C2/#BRProcessDefinition#F2#EG-ECMAUTO-ROUTEEDIT-BRANCH-REWORK10_MHSFEOL2HK-14LPE.01"
        },
        "pdiDefinitionFlag": false,
        "pdiDefinitionResetFlag": false,
        "mainDINotChangeFlag": false,
        "mainDIScriptNotChangeFlag": false,
        "photoLayer": {
          "identifier": "RM",
          "stringifiedObjectReference": "SPIORLL:N:C2/#BRPhotoLayer#F2#RM"
        },
        "carrierCategory": {
          "identifier": "BEOL",
          "stringifiedObjectReference": "SPIORLL:N:C2/#BRCarrierCategory#F2#BEOL"
        },
        "processOperationNumber": "",
        "correspondingOperations": [

        ],
        "responsibleOperationNumbers": [

        ],
        "recycleSamplingOperationNumber": "",
        "mandatoryOperationRequiredFlag": false,
        "autoBankInRequiredFlag": false,
        "endOfMonitorRelationFlag": false,
        "monitorGroupReleaseFlag": false,
        "flowBatchControl": {
          "sectionControlCategory": "",
          "name": "",
          "targetOperationFlag": false,
          "flowBatchingOffsetTime": 0.0,
          "maxBatchSize": 0,
          "minBatchSize": 0,
          "minWaferCount": 0
        },
        "pilotWaferProcessControl": {
          "name": "",
          "maxPilotProcessCount": 0
        },
        "defaultMeasDCSpec": {
          "identifier": "",
          "stringifiedObjectReference": ""
        },
        "measDCSpecsByTechnology": [

        ],
        "measDCSpecsByProductGroup": [

        ],
        "measDCSpecs": [

        ],
        "defaultTestSpec": {
          "identifier": "",
          "stringifiedObjectReference": ""
        },
        "testSpecsByTechnology": [

        ],
        "testSpecsByProductGroup": [

        ],
        "testSpecs": [

        ],
        "deltaDCDefinitions": [

        ],
        "defaultDeltaDCSpecs": [

        ],
        "deltaDCSpecsByTechnology": [

        ],
        "deltaDCSpecsByProductGroup": [

        ],
        "deltaDCSpecs": [

        ],
        "subProcessDefinitions": [

        ],
        "reworkProcessDefinitions": [

        ],
        "defaultReworkLimit": -1,
        "reworkLimitsByTechnology": [

        ],
        "reworkLimitsByProductGroup": [

        ],
        "reworkLimits": [

        ],
        "defaultProcessLimit": -1,
        "processLimitsByTechnology": [

        ],
        "processLimitsByProductGroup": [

        ],
        "processLimits": [

        ],
        "postScript": {
          "identifier": "",
          "stringifiedObjectReference": ""
        },
        "pre1Script": {
          "identifier": "",
          "stringifiedObjectReference": ""
        },
        "pre2Script": {
          "identifier": "",
          "stringifiedObjectReference": ""
        },
        "postScripts": [

        ],
        "pre1Scripts": [

        ],
        "pre2Scripts": [

        ],
        "defaultTimeRestrictions": [

        ],
        "timeRestrictionsByTechnology": [

        ],
        "timeRestrictionsByProductGroup": [

        ],
        "timeRestrictions": [

        ],
        "defaultReplaceTimeRestrictionsForSubRoute": [

        ],
        "replaceTimeRestrictionsByTechnologyForSubRoute": [

        ],
        "replaceTimeRestrictionsByProductGroupForSubRoute": [

        ],
        "replaceTimeRestrictionsForSubRoute": [

        ],
        "defaultReplaceTimeRestrictionsForReworkRoute": [

        ],
        "replaceTimeRestrictionsByTechnologyForReworkRoute": [

        ],
        "replaceTimeRestrictionsByProductGroupForReworkRoute": [

        ],
        "replaceTimeRestrictionsForReworkRoute": [

        ],
        "defaultProcessLagTime": 0,
        "processLagTimesByTechnology": [

        ],
        "processLagTimesByProductGroup": [

        ],
        "processLagTimes": [

        ],
        "equipmentMonitorSections": [

        ],
        "userDataSets": [

        ]
      },
      {
        "moduleNumber": "300",
        "moduleProcessDefinition": {
          "identifier": "D14ECMAUTO-PROCESS-REWORK-COUNT3_LPEEGHK-B.04",
          "stringifiedObjectReference": "SPIORLL:N:C2/#BRModuleProcessDefinition#F2#D14ECMAUTO-PROCESS-REWORK-COUNT3_LPEEGHK-B.04"
        },
        "sameTimeReleaseInChangeNoticeFlag": false,
        "moduleProcessDefinitionInChangeNotice": {
          "identifier": "",
          "stringifiedObjectReference": ""
        },
        "stage": {
          "identifier": "RMG",
          "stringifiedObjectReference": "SPIORLL:N:C2/#BRStage#F2#RMG"
        },
        "operationNumber": "300.100",
        "processDefinition": {
          "identifier": "EG-ECMAUTO-ROUTEEDIT-BRANCH-REWORK9_MHSFEOL2HK-14LPE.01",
          "stringifiedObjectReference": "SPIORLL:N:C2/#BRProcessDefinition#F2#EG-ECMAUTO-ROUTEEDIT-BRANCH-REWORK9_MHSFEOL2HK-14LPE.01"
        },
        "pdiDefinitionFlag": false,
        "pdiDefinitionResetFlag": false,
        "mainDINotChangeFlag": false,
        "mainDIScriptNotChangeFlag": false,
        "photoLayer": {
          "identifier": "RM",
          "stringifiedObjectReference": "SPIORLL:N:C2/#BRPhotoLayer#F2#RM"
        },
        "carrierCategory": {
          "identifier": "BEOL",
          "stringifiedObjectReference": "SPIORLL:N:C2/#BRCarrierCategory#F2#BEOL"
        },
        "processOperationNumber": "",
        "correspondingOperations": [

        ],
        "responsibleOperationNumbers": [
          "300.100"
        ],
        "recycleSamplingOperationNumber": "",
        "mandatoryOperationRequiredFlag": false,
        "autoBankInRequiredFlag": false,
        "endOfMonitorRelationFlag": false,
        "monitorGroupReleaseFlag": false,
        "flowBatchControl": {
          "sectionControlCategory": "",
          "name": "",
          "targetOperationFlag": false,
          "flowBatchingOffsetTime": 0.0,
          "maxBatchSize": 0,
          "minBatchSize": 0,
          "minWaferCount": 0
        },
        "pilotWaferProcessControl": {
          "name": "",
          "maxPilotProcessCount": 0
        },
        "defaultMeasDCSpec": {
          "identifier": "",
          "stringifiedObjectReference": ""
        },
        "measDCSpecsByTechnology": [

        ],
        "measDCSpecsByProductGroup": [

        ],
        "measDCSpecs": [

        ],
        "defaultTestSpec": {
          "identifier": "",
          "stringifiedObjectReference": ""
        },
        "testSpecsByTechnology": [

        ],
        "testSpecsByProductGroup": [

        ],
        "testSpecs": [

        ],
        "deltaDCDefinitions": [

        ],
        "defaultDeltaDCSpecs": [

        ],
        "deltaDCSpecsByTechnology": [

        ],
        "deltaDCSpecsByProductGroup": [

        ],
        "deltaDCSpecs": [

        ],
        "subProcessDefinitions": [

        ],
        "reworkProcessDefinitions": [

        ],
        "defaultReworkLimit": 1,
        "reworkLimitsByTechnology": [

        ],
        "reworkLimitsByProductGroup": [

        ],
        "reworkLimits": [

        ],
        "defaultProcessLimit": -1,
        "processLimitsByTechnology": [

        ],
        "processLimitsByProductGroup": [

        ],
        "processLimits": [

        ],
        "postScript": {
          "identifier": "",
          "stringifiedObjectReference": ""
        },
        "pre1Script": {
          "identifier": "",
          "stringifiedObjectReference": ""
        },
        "pre2Script": {
          "identifier": "",
          "stringifiedObjectReference": ""
        },
        "postScripts": [

        ],
        "pre1Scripts": [

        ],
        "pre2Scripts": [

        ],
        "defaultTimeRestrictions": [

        ],
        "timeRestrictionsByTechnology": [

        ],
        "timeRestrictionsByProductGroup": [

        ],
        "timeRestrictions": [

        ],
        "defaultReplaceTimeRestrictionsForSubRoute": [

        ],
        "replaceTimeRestrictionsByTechnologyForSubRoute": [

        ],
        "replaceTimeRestrictionsByProductGroupForSubRoute": [

        ],
        "replaceTimeRestrictionsForSubRoute": [

        ],
        "defaultReplaceTimeRestrictionsForReworkRoute": [

        ],
        "replaceTimeRestrictionsByTechnologyForReworkRoute": [

        ],
        "replaceTimeRestrictionsByProductGroupForReworkRoute": [

        ],
        "replaceTimeRestrictionsForReworkRoute": [

        ],
        "defaultProcessLagTime": 0,
        "processLagTimesByTechnology": [

        ],
        "processLagTimesByProductGroup": [

        ],
        "processLagTimes": [

        ],
        "equipmentMonitorSections": [

        ],
        "userDataSets": [

        ]
      },
      {
        "moduleNumber": "300",
        "moduleProcessDefinition": {
          "identifier": "D14ECMAUTO-PROCESS-REWORK-COUNT3_LPEEGHK-B.04",
          "stringifiedObjectReference": "SPIORLL:N:C2/#BRModuleProcessDefinition#F2#D14ECMAUTO-PROCESS-REWORK-COUNT3_LPEEGHK-B.04"
        },
        "sameTimeReleaseInChangeNoticeFlag": false,
        "moduleProcessDefinitionInChangeNotice": {
          "identifier": "",
          "stringifiedObjectReference": ""
        },
        "stage": {
          "identifier": "RMG",
          "stringifiedObjectReference": "SPIORLL:N:C2/#BRStage#F2#RMG"
        },
        "operationNumber": "300.101",
        "processDefinition": {
          "identifier": "EG-ECMAUTO-ROUTEEDIT-BRANCH-REWORK10_MHSFEOL2HK-14LPE.01",
          "stringifiedObjectReference": "SPIORLL:N:C2/#BRProcessDefinition#F2#EG-ECMAUTO-ROUTEEDIT-BRANCH-REWORK10_MHSFEOL2HK-14LPE.01"
        },
        "pdiDefinitionFlag": false,
        "pdiDefinitionResetFlag": false,
        "mainDINotChangeFlag": false,
        "mainDIScriptNotChangeFlag": false,
        "photoLayer": {
          "identifier": "RM",
          "stringifiedObjectReference": "SPIORLL:N:C2/#BRPhotoLayer#F2#RM"
        },
        "carrierCategory": {
          "identifier": "BEOL",
          "stringifiedObjectReference": "SPIORLL:N:C2/#BRCarrierCategory#F2#BEOL"
        },
        "processOperationNumber": "",
        "correspondingOperations": [

        ],
        "responsibleOperationNumbers": [
          "300.101"
        ],
        "recycleSamplingOperationNumber": "",
        "mandatoryOperationRequiredFlag": false,
        "autoBankInRequiredFlag": false,
        "endOfMonitorRelationFlag": false,
        "monitorGroupReleaseFlag": false,
        "flowBatchControl": {
          "sectionControlCategory": "",
          "name": "",
          "targetOperationFlag": false,
          "flowBatchingOffsetTime": 0.0,
          "maxBatchSize": 0,
          "minBatchSize": 0,
          "minWaferCount": 0
        },
        "pilotWaferProcessControl": {
          "name": "",
          "maxPilotProcessCount": 0
        },
        "defaultMeasDCSpec": {
          "identifier": "",
          "stringifiedObjectReference": ""
        },
        "measDCSpecsByTechnology": [

        ],
        "measDCSpecsByProductGroup": [

        ],
        "measDCSpecs": [

        ],
        "defaultTestSpec": {
          "identifier": "",
          "stringifiedObjectReference": ""
        },
        "testSpecsByTechnology": [

        ],
        "testSpecsByProductGroup": [

        ],
        "testSpecs": [

        ],
        "deltaDCDefinitions": [

        ],
        "defaultDeltaDCSpecs": [

        ],
        "deltaDCSpecsByTechnology": [

        ],
        "deltaDCSpecsByProductGroup": [

        ],
        "deltaDCSpecs": [

        ],
        "subProcessDefinitions": [
          {
            "mainProcessDefinition": {
              "identifier": "SL-EAGLEECMAUTO-ROUTEEDIT-BRANCH4.01",
              "stringifiedObjectReference": "SPIORLL:N:C2/#BRMainProcessDefinition#F2#SL-EAGLEECMAUTO-ROUTEEDIT-BRANCH4.01"
            },
            "joiningOperationNumber": "300.103"
          },
          {
            "mainProcessDefinition": {
              "identifier": "SL-EAGLEECMAUTO-ROUTEEDIT-BRANCH5.01",
              "stringifiedObjectReference": "SPIORLL:N:C2/#BRMainProcessDefinition#F2#SL-EAGLEECMAUTO-ROUTEEDIT-BRANCH5.01"
            },
            "joiningOperationNumber": "300.103"
          }
        ],
        "reworkProcessDefinitions": [
          {
            "mainProcessDefinition": {
              "identifier": "SL-EAGLEECMAUTO-ROUTEEDIT-REWORK4.01",
              "stringifiedObjectReference": "SPIORLL:N:C2/#BRMainProcessDefinition#F2#SL-EAGLEECMAUTO-ROUTEEDIT-REWORK4.01"
            },
            "joiningOperationNumber": "300.103"
          },
          {
            "mainProcessDefinition": {
              "identifier": "SL-EAGLEECMAUTO-ROUTEEDIT-REWORK5.01",
              "stringifiedObjectReference": "SPIORLL:N:C2/#BRMainProcessDefinition#F2#SL-EAGLEECMAUTO-ROUTEEDIT-REWORK5.01"
            },
            "joiningOperationNumber": "300.103"
          }
        ],
        "defaultReworkLimit": -1,
        "reworkLimitsByTechnology": [
          {
            "technology": {
              "identifier": "14ECMAUTO",
              "stringifiedObjectReference": "SPIORLL:N:C2/#BRTechnology#F2#14ECMAUTO"
            },
            "limit": 1
          }
        ],
        "reworkLimitsByProductGroup": [

        ],
        "reworkLimits": [

        ],
        "defaultProcessLimit": -1,
        "processLimitsByTechnology": [

        ],
        "processLimitsByProductGroup": [

        ],
        "processLimits": [

        ],
        "postScript": {
          "identifier": "",
          "stringifiedObjectReference": ""
        },
        "pre1Script": {
          "identifier": "",
          "stringifiedObjectReference": ""
        },
        "pre2Script": {
          "identifier": "",
          "stringifiedObjectReference": ""
        },
        "postScripts": [

        ],
        "pre1Scripts": [

        ],
        "pre2Scripts": [

        ],
        "defaultTimeRestrictions": [

        ],
        "timeRestrictionsByTechnology": [

        ],
        "timeRestrictionsByProductGroup": [

        ],
        "timeRestrictions": [

        ],
        "defaultReplaceTimeRestrictionsForSubRoute": [

        ],
        "replaceTimeRestrictionsByTechnologyForSubRoute": [

        ],
        "replaceTimeRestrictionsByProductGroupForSubRoute": [

        ],
        "replaceTimeRestrictionsForSubRoute": [

        ],
        "defaultReplaceTimeRestrictionsForReworkRoute": [

        ],
        "replaceTimeRestrictionsByTechnologyForReworkRoute": [

        ],
        "replaceTimeRestrictionsByProductGroupForReworkRoute": [

        ],
        "replaceTimeRestrictionsForReworkRoute": [

        ],
        "defaultProcessLagTime": 0,
        "processLagTimesByTechnology": [

        ],
        "processLagTimesByProductGroup": [

        ],
        "processLagTimes": [

        ],
        "equipmentMonitorSections": [

        ],
        "userDataSets": [

        ]
      },
      {
        "moduleNumber": "300",
        "moduleProcessDefinition": {
          "identifier": "D14ECMAUTO-PROCESS-REWORK-COUNT3_LPEEGHK-B.04",
          "stringifiedObjectReference": "SPIORLL:N:C2/#BRModuleProcessDefinition#F2#D14ECMAUTO-PROCESS-REWORK-COUNT3_LPEEGHK-B.04"
        },
        "sameTimeReleaseInChangeNoticeFlag": false,
        "moduleProcessDefinitionInChangeNotice": {
          "identifier": "",
          "stringifiedObjectReference": ""
        },
        "stage": {
          "identifier": "RMG",
          "stringifiedObjectReference": "SPIORLL:N:C2/#BRStage#F2#RMG"
        },
        "operationNumber": "300.102",
        "processDefinition": {
          "identifier": "EG-ECMAUTO-ROUTEEDIT-BRANCH-REWORK11_MHSFEOL2HK-14LPE.01",
          "stringifiedObjectReference": "SPIORLL:N:C2/#BRProcessDefinition#F2#EG-ECMAUTO-ROUTEEDIT-BRANCH-REWORK11_MHSFEOL2HK-14LPE.01"
        },
        "pdiDefinitionFlag": false,
        "pdiDefinitionResetFlag": false,
        "mainDINotChangeFlag": false,
        "mainDIScriptNotChangeFlag": false,
        "photoLayer": {
          "identifier": "RM",
          "stringifiedObjectReference": "SPIORLL:N:C2/#BRPhotoLayer#F2#RM"
        },
        "carrierCategory": {
          "identifier": "BEOL",
          "stringifiedObjectReference": "SPIORLL:N:C2/#BRCarrierCategory#F2#BEOL"
        },
        "processOperationNumber": "",
        "correspondingOperations": [

        ],
        "responsibleOperationNumbers": [
          "300.102"
        ],
        "recycleSamplingOperationNumber": "",
        "mandatoryOperationRequiredFlag": false,
        "autoBankInRequiredFlag": false,
        "endOfMonitorRelationFlag": false,
        "monitorGroupReleaseFlag": false,
        "flowBatchControl": {
          "sectionControlCategory": "",
          "name": "",
          "targetOperationFlag": false,
          "flowBatchingOffsetTime": 0.0,
          "maxBatchSize": 0,
          "minBatchSize": 0,
          "minWaferCount": 0
        },
        "pilotWaferProcessControl": {
          "name": "",
          "maxPilotProcessCount": 0
        },
        "defaultMeasDCSpec": {
          "identifier": "",
          "stringifiedObjectReference": ""
        },
        "measDCSpecsByTechnology": [

        ],
        "measDCSpecsByProductGroup": [

        ],
        "measDCSpecs": [

        ],
        "defaultTestSpec": {
          "identifier": "",
          "stringifiedObjectReference": ""
        },
        "testSpecsByTechnology": [

        ],
        "testSpecsByProductGroup": [

        ],
        "testSpecs": [

        ],
        "deltaDCDefinitions": [

        ],
        "defaultDeltaDCSpecs": [

        ],
        "deltaDCSpecsByTechnology": [

        ],
        "deltaDCSpecsByProductGroup": [

        ],
        "deltaDCSpecs": [

        ],
        "subProcessDefinitions": [

        ],
        "reworkProcessDefinitions": [

        ],
        "defaultReworkLimit": -1,
        "reworkLimitsByTechnology": [

        ],
        "reworkLimitsByProductGroup": [
          {
            "productGroup": {
              "identifier": "BCV14ECMAUTOLPE1",
              "stringifiedObjectReference": "SPIORLL:N:C2/#BRProductGroup#F2#BCV14ECMAUTOLPE1"
            },
            "limit": 1
          }
        ],
        "reworkLimits": [

        ],
        "defaultProcessLimit": -1,
        "processLimitsByTechnology": [

        ],
        "processLimitsByProductGroup": [

        ],
        "processLimits": [

        ],
        "postScript": {
          "identifier": "",
          "stringifiedObjectReference": ""
        },
        "pre1Script": {
          "identifier": "",
          "stringifiedObjectReference": ""
        },
        "pre2Script": {
          "identifier": "",
          "stringifiedObjectReference": ""
        },
        "postScripts": [

        ],
        "pre1Scripts": [

        ],
        "pre2Scripts": [

        ],
        "defaultTimeRestrictions": [

        ],
        "timeRestrictionsByTechnology": [

        ],
        "timeRestrictionsByProductGroup": [

        ],
        "timeRestrictions": [

        ],
        "defaultReplaceTimeRestrictionsForSubRoute": [

        ],
        "replaceTimeRestrictionsByTechnologyForSubRoute": [

        ],
        "replaceTimeRestrictionsByProductGroupForSubRoute": [

        ],
        "replaceTimeRestrictionsForSubRoute": [

        ],
        "defaultReplaceTimeRestrictionsForReworkRoute": [

        ],
        "replaceTimeRestrictionsByTechnologyForReworkRoute": [

        ],
        "replaceTimeRestrictionsByProductGroupForReworkRoute": [

        ],
        "replaceTimeRestrictionsForReworkRoute": [

        ],
        "defaultProcessLagTime": 0,
        "processLagTimesByTechnology": [

        ],
        "processLagTimesByProductGroup": [

        ],
        "processLagTimes": [

        ],
        "equipmentMonitorSections": [

        ],
        "userDataSets": [

        ]
      },
      {
        "moduleNumber": "300",
        "moduleProcessDefinition": {
          "identifier": "D14ECMAUTO-PROCESS-REWORK-COUNT3_LPEEGHK-B.04",
          "stringifiedObjectReference": "SPIORLL:N:C2/#BRModuleProcessDefinition#F2#D14ECMAUTO-PROCESS-REWORK-COUNT3_LPEEGHK-B.04"
        },
        "sameTimeReleaseInChangeNoticeFlag": false,
        "moduleProcessDefinitionInChangeNotice": {
          "identifier": "",
          "stringifiedObjectReference": ""
        },
        "stage": {
          "identifier": "RMG",
          "stringifiedObjectReference": "SPIORLL:N:C2/#BRStage#F2#RMG"
        },
        "operationNumber": "300.103",
        "processDefinition": {
          "identifier": "EG-ECMAUTO-ROUTEEDIT-BRANCH-REWORK12_MHSFEOL2HK-14LPE.01",
          "stringifiedObjectReference": "SPIORLL:N:C2/#BRProcessDefinition#F2#EG-ECMAUTO-ROUTEEDIT-BRANCH-REWORK12_MHSFEOL2HK-14LPE.01"
        },
        "pdiDefinitionFlag": false,
        "pdiDefinitionResetFlag": false,
        "mainDINotChangeFlag": false,
        "mainDIScriptNotChangeFlag": false,
        "photoLayer": {
          "identifier": "RM",
          "stringifiedObjectReference": "SPIORLL:N:C2/#BRPhotoLayer#F2#RM"
        },
        "carrierCategory": {
          "identifier": "BEOL",
          "stringifiedObjectReference": "SPIORLL:N:C2/#BRCarrierCategory#F2#BEOL"
        },
        "processOperationNumber": "",
        "correspondingOperations": [

        ],
        "responsibleOperationNumbers": [
          "300.103"
        ],
        "recycleSamplingOperationNumber": "",
        "mandatoryOperationRequiredFlag": false,
        "autoBankInRequiredFlag": false,
        "endOfMonitorRelationFlag": false,
        "monitorGroupReleaseFlag": false,
        "flowBatchControl": {
          "sectionControlCategory": "",
          "name": "",
          "targetOperationFlag": false,
          "flowBatchingOffsetTime": 0.0,
          "maxBatchSize": 0,
          "minBatchSize": 0,
          "minWaferCount": 0
        },
        "pilotWaferProcessControl": {
          "name": "",
          "maxPilotProcessCount": 0
        },
        "defaultMeasDCSpec": {
          "identifier": "",
          "stringifiedObjectReference": ""
        },
        "measDCSpecsByTechnology": [

        ],
        "measDCSpecsByProductGroup": [

        ],
        "measDCSpecs": [

        ],
        "defaultTestSpec": {
          "identifier": "",
          "stringifiedObjectReference": ""
        },
        "testSpecsByTechnology": [

        ],
        "testSpecsByProductGroup": [

        ],
        "testSpecs": [

        ],
        "deltaDCDefinitions": [

        ],
        "defaultDeltaDCSpecs": [

        ],
        "deltaDCSpecsByTechnology": [

        ],
        "deltaDCSpecsByProductGroup": [

        ],
        "deltaDCSpecs": [

        ],
        "subProcessDefinitions": [

        ],
        "reworkProcessDefinitions": [

        ],
        "defaultReworkLimit": -1,
        "reworkLimitsByTechnology": [

        ],
        "reworkLimitsByProductGroup": [

        ],
        "reworkLimits": [
          {
            "product": {
              "identifier": "EAGLEECMAUTO-PROCESSREWORK-COUNT.04",
              "stringifiedObjectReference": "SPIORLL:N:C2/#BRProduct#F2#EAGLEECMAUTO-PROCESSREWORK-COUNT.04"
            },
            "limit": 1
          }
        ],
        "defaultProcessLimit": -1,
        "processLimitsByTechnology": [

        ],
        "processLimitsByProductGroup": [

        ],
        "processLimits": [

        ],
        "postScript": {
          "identifier": "",
          "stringifiedObjectReference": ""
        },
        "pre1Script": {
          "identifier": "",
          "stringifiedObjectReference": ""
        },
        "pre2Script": {
          "identifier": "",
          "stringifiedObjectReference": ""
        },
        "postScripts": [

        ],
        "pre1Scripts": [

        ],
        "pre2Scripts": [

        ],
        "defaultTimeRestrictions": [

        ],
        "timeRestrictionsByTechnology": [

        ],
        "timeRestrictionsByProductGroup": [

        ],
        "timeRestrictions": [

        ],
        "defaultReplaceTimeRestrictionsForSubRoute": [

        ],
        "replaceTimeRestrictionsByTechnologyForSubRoute": [

        ],
        "replaceTimeRestrictionsByProductGroupForSubRoute": [

        ],
        "replaceTimeRestrictionsForSubRoute": [

        ],
        "defaultReplaceTimeRestrictionsForReworkRoute": [

        ],
        "replaceTimeRestrictionsByTechnologyForReworkRoute": [

        ],
        "replaceTimeRestrictionsByProductGroupForReworkRoute": [

        ],
        "replaceTimeRestrictionsForReworkRoute": [

        ],
        "defaultProcessLagTime": 0,
        "processLagTimesByTechnology": [

        ],
        "processLagTimesByProductGroup": [

        ],
        "processLagTimes": [

        ],
        "equipmentMonitorSections": [

        ],
        "userDataSets": [

        ]
      },
      {
        "moduleNumber": "300",
        "moduleProcessDefinition": {
          "identifier": "D14ECMAUTO-PROCESS-REWORK-COUNT3_LPEEGHK-B.04",
          "stringifiedObjectReference": "SPIORLL:N:C2/#BRModuleProcessDefinition#F2#D14ECMAUTO-PROCESS-REWORK-COUNT3_LPEEGHK-B.04"
        },
        "sameTimeReleaseInChangeNoticeFlag": false,
        "moduleProcessDefinitionInChangeNotice": {
          "identifier": "",
          "stringifiedObjectReference": ""
        },
        "stage": {
          "identifier": "RMG",
          "stringifiedObjectReference": "SPIORLL:N:C2/#BRStage#F2#RMG"
        },
        "operationNumber": "300.104",
        "processDefinition": {
          "identifier": "EG-ECMAUTO-ROUTEEDIT-BRANCH-REWORK8_MHSFEOL2HK-14LPE.01",
          "stringifiedObjectReference": "SPIORLL:N:C2/#BRProcessDefinition#F2#EG-ECMAUTO-ROUTEEDIT-BRANCH-REWORK8_MHSFEOL2HK-14LPE.01"
        },
        "pdiDefinitionFlag": false,
        "pdiDefinitionResetFlag": false,
        "mainDINotChangeFlag": false,
        "mainDIScriptNotChangeFlag": false,
        "photoLayer": {
          "identifier": "",
          "stringifiedObjectReference": ""
        },
        "carrierCategory": {
          "identifier": "",
          "stringifiedObjectReference": ""
        },
        "processOperationNumber": "",
        "correspondingOperations": [

        ],
        "responsibleOperationNumbers": [

        ],
        "recycleSamplingOperationNumber": "",
        "mandatoryOperationRequiredFlag": false,
        "autoBankInRequiredFlag": false,
        "endOfMonitorRelationFlag": false,
        "monitorGroupReleaseFlag": false,
        "flowBatchControl": {
          "sectionControlCategory": "",
          "name": "",
          "targetOperationFlag": false,
          "flowBatchingOffsetTime": 0.0,
          "maxBatchSize": 0,
          "minBatchSize": 0,
          "minWaferCount": 0
        },
        "pilotWaferProcessControl": {
          "name": "",
          "maxPilotProcessCount": 0
        },
        "defaultMeasDCSpec": {
          "identifier": "",
          "stringifiedObjectReference": ""
        },
        "measDCSpecsByTechnology": [

        ],
        "measDCSpecsByProductGroup": [

        ],
        "measDCSpecs": [

        ],
        "defaultTestSpec": {
          "identifier": "",
          "stringifiedObjectReference": ""
        },
        "testSpecsByTechnology": [

        ],
        "testSpecsByProductGroup": [

        ],
        "testSpecs": [

        ],
        "deltaDCDefinitions": [

        ],
        "defaultDeltaDCSpecs": [

        ],
        "deltaDCSpecsByTechnology": [

        ],
        "deltaDCSpecsByProductGroup": [

        ],
        "deltaDCSpecs": [

        ],
        "subProcessDefinitions": [

        ],
        "reworkProcessDefinitions": [

        ],
        "defaultReworkLimit": -1,
        "reworkLimitsByTechnology": [

        ],
        "reworkLimitsByProductGroup": [

        ],
        "reworkLimits": [

        ],
        "defaultProcessLimit": -1,
        "processLimitsByTechnology": [

        ],
        "processLimitsByProductGroup": [

        ],
        "processLimits": [

        ],
        "postScript": {
          "identifier": "",
          "stringifiedObjectReference": ""
        },
        "pre1Script": {
          "identifier": "",
          "stringifiedObjectReference": ""
        },
        "pre2Script": {
          "identifier": "",
          "stringifiedObjectReference": ""
        },
        "postScripts": [

        ],
        "pre1Scripts": [

        ],
        "pre2Scripts": [

        ],
        "defaultTimeRestrictions": [

        ],
        "timeRestrictionsByTechnology": [

        ],
        "timeRestrictionsByProductGroup": [

        ],
        "timeRestrictions": [

        ],
        "defaultReplaceTimeRestrictionsForSubRoute": [

        ],
        "replaceTimeRestrictionsByTechnologyForSubRoute": [

        ],
        "replaceTimeRestrictionsByProductGroupForSubRoute": [

        ],
        "replaceTimeRestrictionsForSubRoute": [

        ],
        "defaultReplaceTimeRestrictionsForReworkRoute": [

        ],
        "replaceTimeRestrictionsByTechnologyForReworkRoute": [

        ],
        "replaceTimeRestrictionsByProductGroupForReworkRoute": [

        ],
        "replaceTimeRestrictionsForReworkRoute": [

        ],
        "defaultProcessLagTime": 0,
        "processLagTimesByTechnology": [

        ],
        "processLagTimesByProductGroup": [

        ],
        "processLagTimes": [

        ],
        "equipmentMonitorSections": [

        ],
        "userDataSets": [

        ]
      },
      {
        "moduleNumber": "400",
        "moduleProcessDefinition": {
          "identifier": "FABOUT.01",
          "stringifiedObjectReference": "SPIORLL:N:C2/#BRModuleProcessDefinition#F2#FABOUT.01"
        },
        "sameTimeReleaseInChangeNoticeFlag": false,
        "moduleProcessDefinitionInChangeNotice": {
          "identifier": "",
          "stringifiedObjectReference": ""
        },
        "stage": {
          "identifier": "RMG",
          "stringifiedObjectReference": "SPIORLL:N:C2/#BRStage#F2#RMG"
        },
        "operationNumber": "400.9998",
        "processDefinition": {
          "identifier": "LOTSHIPDESIG.01",
          "stringifiedObjectReference": "SPIORLL:N:C2/#BRProcessDefinition#F2#LOTSHIPDESIG.01"
        },
        "pdiDefinitionFlag": false,
        "pdiDefinitionResetFlag": false,
        "mainDINotChangeFlag": false,
        "mainDIScriptNotChangeFlag": false,
        "photoLayer": {
          "identifier": "",
          "stringifiedObjectReference": ""
        },
        "carrierCategory": {
          "identifier": "",
          "stringifiedObjectReference": ""
        },
        "processOperationNumber": "",
        "correspondingOperations": [

        ],
        "responsibleOperationNumbers": [

        ],
        "recycleSamplingOperationNumber": "",
        "mandatoryOperationRequiredFlag": false,
        "autoBankInRequiredFlag": false,
        "endOfMonitorRelationFlag": false,
        "monitorGroupReleaseFlag": false,
        "flowBatchControl": {
          "sectionControlCategory": "",
          "name": "",
          "targetOperationFlag": false,
          "flowBatchingOffsetTime": 0.0,
          "maxBatchSize": 0,
          "minBatchSize": 0,
          "minWaferCount": 0
        },
        "pilotWaferProcessControl": {
          "name": "",
          "maxPilotProcessCount": 0
        },
        "defaultMeasDCSpec": {
          "identifier": "",
          "stringifiedObjectReference": ""
        },
        "measDCSpecsByTechnology": [

        ],
        "measDCSpecsByProductGroup": [

        ],
        "measDCSpecs": [

        ],
        "defaultTestSpec": {
          "identifier": "",
          "stringifiedObjectReference": ""
        },
        "testSpecsByTechnology": [

        ],
        "testSpecsByProductGroup": [

        ],
        "testSpecs": [

        ],
        "deltaDCDefinitions": [

        ],
        "defaultDeltaDCSpecs": [

        ],
        "deltaDCSpecsByTechnology": [

        ],
        "deltaDCSpecsByProductGroup": [

        ],
        "deltaDCSpecs": [

        ],
        "subProcessDefinitions": [

        ],
        "reworkProcessDefinitions": [

        ],
        "defaultReworkLimit": -1,
        "reworkLimitsByTechnology": [

        ],
        "reworkLimitsByProductGroup": [

        ],
        "reworkLimits": [

        ],
        "defaultProcessLimit": -1,
        "processLimitsByTechnology": [

        ],
        "processLimitsByProductGroup": [

        ],
        "processLimits": [

        ],
        "postScript": {
          "identifier": "",
          "stringifiedObjectReference": ""
        },
        "pre1Script": {
          "identifier": "",
          "stringifiedObjectReference": ""
        },
        "pre2Script": {
          "identifier": "",
          "stringifiedObjectReference": ""
        },
        "postScripts": [

        ],
        "pre1Scripts": [

        ],
        "pre2Scripts": [

        ],
        "defaultTimeRestrictions": [

        ],
        "timeRestrictionsByTechnology": [

        ],
        "timeRestrictionsByProductGroup": [

        ],
        "timeRestrictions": [

        ],
        "defaultReplaceTimeRestrictionsForSubRoute": [

        ],
        "replaceTimeRestrictionsByTechnologyForSubRoute": [

        ],
        "replaceTimeRestrictionsByProductGroupForSubRoute": [

        ],
        "replaceTimeRestrictionsForSubRoute": [

        ],
        "defaultReplaceTimeRestrictionsForReworkRoute": [

        ],
        "replaceTimeRestrictionsByTechnologyForReworkRoute": [

        ],
        "replaceTimeRestrictionsByProductGroupForReworkRoute": [

        ],
        "replaceTimeRestrictionsForReworkRoute": [

        ],
        "defaultProcessLagTime": 0,
        "processLagTimesByTechnology": [

        ],
        "processLagTimesByProductGroup": [

        ],
        "processLagTimes": [

        ],
        "equipmentMonitorSections": [

        ],
        "userDataSets": [

        ]
      },
      {
        "moduleNumber": "400",
        "moduleProcessDefinition": {
          "identifier": "FABOUT.01",
          "stringifiedObjectReference": "SPIORLL:N:C2/#BRModuleProcessDefinition#F2#FABOUT.01"
        },
        "sameTimeReleaseInChangeNoticeFlag": false,
        "moduleProcessDefinitionInChangeNotice": {
          "identifier": "",
          "stringifiedObjectReference": ""
        },
        "stage": {
          "identifier": "RMG",
          "stringifiedObjectReference": "SPIORLL:N:C2/#BRStage#F2#RMG"
        },
        "operationNumber": "400.9999",
        "processDefinition": {
          "identifier": "BANKIN.01",
          "stringifiedObjectReference": "SPIORLL:N:C2/#BRProcessDefinition#F2#BANKIN.01"
        },
        "pdiDefinitionFlag": false,
        "pdiDefinitionResetFlag": false,
        "mainDINotChangeFlag": false,
        "mainDIScriptNotChangeFlag": false,
        "photoLayer": {
          "identifier": "RM",
          "stringifiedObjectReference": "SPIORLL:N:C2/#BRPhotoLayer#F2#RM"
        },
        "carrierCategory": {
          "identifier": "BEOL",
          "stringifiedObjectReference": "SPIORLL:N:C2/#BRCarrierCategory#F2#BEOL"
        },
        "processOperationNumber": "",
        "correspondingOperations": [

        ],
        "responsibleOperationNumbers": [

        ],
        "recycleSamplingOperationNumber": "",
        "mandatoryOperationRequiredFlag": false,
        "autoBankInRequiredFlag": false,
        "endOfMonitorRelationFlag": false,
        "monitorGroupReleaseFlag": false,
        "flowBatchControl": {
          "sectionControlCategory": "",
          "name": "",
          "targetOperationFlag": false,
          "flowBatchingOffsetTime": 0.0,
          "maxBatchSize": 0,
          "minBatchSize": 0,
          "minWaferCount": 0
        },
        "pilotWaferProcessControl": {
          "name": "",
          "maxPilotProcessCount": 0
        },
        "defaultMeasDCSpec": {
          "identifier": "",
          "stringifiedObjectReference": ""
        },
        "measDCSpecsByTechnology": [

        ],
        "measDCSpecsByProductGroup": [

        ],
        "measDCSpecs": [

        ],
        "defaultTestSpec": {
          "identifier": "",
          "stringifiedObjectReference": ""
        },
        "testSpecsByTechnology": [

        ],
        "testSpecsByProductGroup": [

        ],
        "testSpecs": [

        ],
        "deltaDCDefinitions": [

        ],
        "defaultDeltaDCSpecs": [

        ],
        "deltaDCSpecsByTechnology": [

        ],
        "deltaDCSpecsByProductGroup": [

        ],
        "deltaDCSpecs": [

        ],
        "subProcessDefinitions": [

        ],
        "reworkProcessDefinitions": [

        ],
        "defaultReworkLimit": -1,
        "reworkLimitsByTechnology": [

        ],
        "reworkLimitsByProductGroup": [

        ],
        "reworkLimits": [

        ],
        "defaultProcessLimit": -1,
        "processLimitsByTechnology": [

        ],
        "processLimitsByProductGroup": [

        ],
        "processLimits": [

        ],
        "postScript": {
          "identifier": "",
          "stringifiedObjectReference": ""
        },
        "pre1Script": {
          "identifier": "",
          "stringifiedObjectReference": ""
        },
        "pre2Script": {
          "identifier": "",
          "stringifiedObjectReference": ""
        },
        "postScripts": [

        ],
        "pre1Scripts": [

        ],
        "pre2Scripts": [

        ],
        "defaultTimeRestrictions": [

        ],
        "timeRestrictionsByTechnology": [

        ],
        "timeRestrictionsByProductGroup": [

        ],
        "timeRestrictions": [

        ],
        "defaultReplaceTimeRestrictionsForSubRoute": [

        ],
        "replaceTimeRestrictionsByTechnologyForSubRoute": [

        ],
        "replaceTimeRestrictionsByProductGroupForSubRoute": [

        ],
        "replaceTimeRestrictionsForSubRoute": [

        ],
        "defaultReplaceTimeRestrictionsForReworkRoute": [

        ],
        "replaceTimeRestrictionsByTechnologyForReworkRoute": [

        ],
        "replaceTimeRestrictionsByProductGroupForReworkRoute": [

        ],
        "replaceTimeRestrictionsForReworkRoute": [

        ],
        "defaultProcessLagTime": 0,
        "processLagTimesByTechnology": [

        ],
        "processLagTimesByProductGroup": [

        ],
        "processLagTimes": [

        ],
        "equipmentMonitorSections": [

        ],
        "userDataSets": [

        ]
      }
    ],
    "expandFlag": {
      "_notNeedToExpand": 0,
      "notNeedToExpand": 0,
      "_needToExpand": 0,
      "needToExpand": 0,
      "_expanded": 0,
      "expanded": 0,
      "_needToLateExpand": 0,
      "needToLateExpand": 0
    },
    "dynamicRouteFlag": false,
    "mainDIGroup": {
      "identifier": "",
      "stringifiedObjectReference": ""
    },
    "userDataSets": [
      {
        "name": "RouteType",
        "type": "String",
        "value": "SL",
        "originator": ""
      },
      {
        "name": "RouteState",
        "type": "String",
        "value": "DEV",
        "originator": ""
      },
      {
        "name": "RouteTechnology",
        "type": "String",
        "value": "14LPE",
        "originator": ""
      },
      {
        "name": "RouteSubnode",
        "type": "String",
        "value": "14LPE",
        "originator": ""
      },
      {
        "name": "RouteProgramID",
        "type": "String",
        "value": "14LPE",
        "originator": ""
      }
    ],
    "siClassInfo": null
  }
}