{
  "objectId": {
    "identifier": "SL-EAGLEECMAUTO-RE-ADD-MODULE-QTLT13.01",
    "stringifiedObjectReference": "SPIORLL:N:C2/#BRMainProcessDefinition#F2#SL-EAGLEECMAUTO-RE-ADD-MODULE-QTLT13.01"
  },
  "propertyInfo": {
    "changeNotice": {
      "identifier": "",
      "stringifiedObjectReference": ""
    },
    "createdDateTime": "2017-12-02-05.29.00.915689",
    "createdUser": {
      "identifier": "X-UNITTEST",
      "stringifiedObjectReference": ""
    },
    "lastUpdatedDateTime": "2018-03-15-09.17.20.763737",
    "lastUpdatedUser": {
      "identifier": "asalla",
      "stringifiedObjectReference": ""
    },
    "lastCheckOutDateTime": "2018-03-15-09.38.35.554334",
    "lastCheckOutUser": {
      "identifier": "asalla",
      "stringifiedObjectReference": ""
    },
    "lastCheckInDateTime": "2018-03-15-09.38.37.106882",
    "lastCheckInUser": {
      "identifier": "asalla",
      "stringifiedObjectReference": ""
    },
    "lastReleasedDateTime": "2018-03-15-09.38.37.106882",
    "lastReleasedUser": {
      "identifier": "asalla",
      "stringifiedObjectReference": ""
    },
    "lastRollBackDateTime": "",
    "lastRollBackUser": {
      "identifier": "",
      "stringifiedObjectReference": ""
    },
    "lastArchivedDateTime": "",
    "lastArchivedUser": {
      "identifier": "",
      "stringifiedObjectReference": ""
    },
    "lastRestoredDateTime": "",
    "lastRestoredUser": {
      "identifier": "",
      "stringifiedObjectReference": ""
    },
    "lastActionUser": {
      "identifier": "asalla",
      "stringifiedObjectReference": ""
    },
    "lastActionDateTime": "2018-03-15-09.38.37.106882",
    "lastActionEventCode": "EVRLSOBJ",
    "lastComment": "",
    "currentInWorkState": "NotInWork",
    "currentSetUpState": "Released",
    "permission": "Group",
    "permissionRead": "Public",
    "permissionReleaseDelete": "Public",
    "userGroup": {
      "identifier": "FSS",
      "stringifiedObjectReference": "SPIORLL:N:C2/#BRUserGroup#F2#FSS"
    },
    "userGroupRead": {
      "identifier": "",
      "stringifiedObjectReference": ""
    },
    "userGroupReleaseDelete": {
      "identifier": "",
      "stringifiedObjectReference": ""
    },
    "owner": {
      "identifier": "asalla",
      "stringifiedObjectReference": "SPIORLL:N:C2/#BRUser#F2#asalla"
    },
    "batchReleaseFlag": false
  },
  "documentEntityInfo": {
    "documentSpecification": "SL-EAGLEECMAUTO-RE-ADD-MODULE-QTLT13",
    "activeFlag": false,
    "reserveFlag": false,
    "obsoleteFlag": false,
    "lastActivatedUser": {
      "identifier": "",
      "stringifiedObjectReference": ""
    },
    "lastActivatedDateTime": "",
    "lastInactivatedUser": {
      "identifier": "",
      "stringifiedObjectReference": ""
    },
    "lastInactivatedDateTime": "",
    "lastReservedUser": {
      "identifier": "",
      "stringifiedObjectReference": ""
    },
    "lastReservedDateTime": "",
    "lastCanceledReserveChangeActiveUser": {
      "identifier": "",
      "stringifiedObjectReference": ""
    },
    "lastCanceledReserveChangeActiveDateTime": "",
    "lastObsoleteUser": {
      "identifier": "",
      "stringifiedObjectReference": ""
    },
    "lastObsoleteDateTime": "",
    "lastCancelObsoleteUser": {
      "identifier": "",
      "stringifiedObjectReference": ""
    },
    "lastCancelObsoleteDateTime": ""
  },
  "classInfo": {
    "identifier": "SL-EAGLEECMAUTO-RE-ADD-MODULE-QTLT13.01",
    "mainProcessDefinitionId": "SL-EAGLEECMAUTO-RE-ADD-MODULE-QTLT13",
    "version": "01",
    "description": "Short Loop",
    "mainProcessDefinitionType": "Production",
    "processFlowType": "Main",
    "monitorRouteFlag": false,
    "mfgLayer": {
      "identifier": "PROD",
      "stringifiedObjectReference": "SPIORLL:N:C2/#BRMFGLayer#F2#PROD"
    },
    "startBank": {
      "identifier": "O-ZEROINV",
      "stringifiedObjectReference": "SPIORLL:N:C2/#BRBank#F2#O-ZEROINV"
    },
    "endBank": {
      "identifier": "O-ENDFG",
      "stringifiedObjectReference": "SPIORLL:N:C2/#BRBank#F2#O-ENDFG"
    },
    "mainProcessDefinitionOwner": {
      "identifier": "aboggava",
      "stringifiedObjectReference": "SPIORLL:N:C2/#BRUser#F2#aboggava"
    },
    "moduleProcessDefinitions": [
      {
        "moduleNumber": "1000",
        "moduleProcessDefinitionId": "D14ECMAUTO-RE-ADD-MODULE-MODPD36_LPEEGHK-B",
        "version": "01",
        "moduleProcessDefinition": {
          "identifier": "D14ECMAUTO-RE-ADD-MODULE-MODPD36_LPEEGHK-B.01",
          "stringifiedObjectReference": "SPIORLL:N:C2/#BRModuleProcessDefinition#F2#D14ECMAUTO-RE-ADD-MODULE-MODPD36_LPEEGHK-B.01"
        },
        "sameTimeReleaseInChangeNoticeFlag": false,
        "moduleProcessDefinitionInChangeNotice": {
          "identifier": "",
          "stringifiedObjectReference": ""
        },
        "stage": {
          "identifier": "RMG",
          "stringifiedObjectReference": "SPIORLL:N:C2/#BRStage#F2#RMG"
        }
      },
      {
        "moduleNumber": "1200",
        "moduleProcessDefinitionId": "D14ECMAUTO-RE-ADD-MODULE-MODPD37_LPEEGHK-B",
        "version": "01",
        "moduleProcessDefinition": {
          "identifier": "D14ECMAUTO-RE-ADD-MODULE-MODPD37_LPEEGHK-B.01",
          "stringifiedObjectReference": "SPIORLL:N:C2/#BRModuleProcessDefinition#F2#D14ECMAUTO-RE-ADD-MODULE-MODPD37_LPEEGHK-B.01"
        },
        "sameTimeReleaseInChangeNoticeFlag": false,
        "moduleProcessDefinitionInChangeNotice": {
          "identifier": "",
          "stringifiedObjectReference": ""
        },
        "stage": {
          "identifier": "RMG",
          "stringifiedObjectReference": "SPIORLL:N:C2/#BRStage#F2#RMG"
        }
      },
      {
        "moduleNumber": "1400",
        "moduleProcessDefinitionId": "D14ECMAUTO-RE-ADD-MODULE-MODPD38_LPEEGHK-B",
        "version": "01",
        "moduleProcessDefinition": {
          "identifier": "D14ECMAUTO-RE-ADD-MODULE-MODPD38_LPEEGHK-B.01",
          "stringifiedObjectReference": "SPIORLL:N:C2/#BRModuleProcessDefinition#F2#D14ECMAUTO-RE-ADD-MODULE-MODPD38_LPEEGHK-B.01"
        },
        "sameTimeReleaseInChangeNoticeFlag": false,
        "moduleProcessDefinitionInChangeNotice": {
          "identifier": "",
          "stringifiedObjectReference": ""
        },
        "stage": {
          "identifier": "RMG",
          "stringifiedObjectReference": "SPIORLL:N:C2/#BRStage#F2#RMG"
        }
      },
      {
        "moduleNumber": "1600",
        "moduleProcessDefinitionId": "FABOUT",
        "version": "01",
        "moduleProcessDefinition": {
          "identifier": "FABOUT.01",
          "stringifiedObjectReference": "SPIORLL:N:C2/#BRModuleProcessDefinition#F2#FABOUT.01"
        },
        "sameTimeReleaseInChangeNoticeFlag": false,
        "moduleProcessDefinitionInChangeNotice": {
          "identifier": "",
          "stringifiedObjectReference": ""
        },
        "stage": {
          "identifier": "DSF",
          "stringifiedObjectReference": "SPIORLL:N:C2/#BRStage#F2#DSF"
        }
      }
    ],
    "mainProcessOperations": [
      {
        "moduleNumber": "1000",
        "moduleProcessDefinition": {
          "identifier": "D14ECMAUTO-RE-ADD-MODULE-MODPD36_LPEEGHK-B.01",
          "stringifiedObjectReference": "SPIORLL:N:C2/#BRModuleProcessDefinition#F2#D14ECMAUTO-RE-ADD-MODULE-MODPD36_LPEEGHK-B.01"
        },
        "sameTimeReleaseInChangeNoticeFlag": false,
        "moduleProcessDefinitionInChangeNotice": {
          "identifier": "",
          "stringifiedObjectReference": ""
        },
        "stage": {
          "identifier": "RMG",
          "stringifiedObjectReference": "SPIORLL:N:C2/#BRStage#F2#RMG"
        },
        "operationNumber": "1000.1000",
        "processDefinition": {
          "identifier": "EG-ECMAUTO-ROUTEEDIT-NEW-QTLT1_MHSFEOL2HK-14LPE.01",
          "stringifiedObjectReference": "SPIORLL:N:C2/#BRProcessDefinition#F2#EG-ECMAUTO-ROUTEEDIT-NEW-QTLT1_MHSFEOL2HK-14LPE.01"
        },
        "pdiDefinitionFlag": false,
        "pdiDefinitionResetFlag": false,
        "mainDINotChangeFlag": false,
        "mainDIScriptNotChangeFlag": false,
        "photoLayer": {
          "identifier": "3GAUTO",
          "stringifiedObjectReference": "SPIORLL:N:C2/#BRPhotoLayer#F2#3GAUTO"
        },
        "carrierCategory": {
          "identifier": "BEOL",
          "stringifiedObjectReference": "SPIORLL:N:C2/#BRCarrierCategory#F2#BEOL"
        },
        "processOperationNumber": "",
        "correspondingOperations": [

        ],
        "responsibleOperationNumbers": [

        ],
        "recycleSamplingOperationNumber": "",
        "mandatoryOperationRequiredFlag": false,
        "autoBankInRequiredFlag": false,
        "endOfMonitorRelationFlag": false,
        "monitorGroupReleaseFlag": false,
        "flowBatchControl": {
          "sectionControlCategory": "",
          "name": "",
          "targetOperationFlag": false,
          "flowBatchingOffsetTime": 0.0,
          "maxBatchSize": 0,
          "minBatchSize": 0,
          "minWaferCount": 0
        },
        "pilotWaferProcessControl": {
          "name": "",
          "maxPilotProcessCount": 0
        },
        "defaultMeasDCSpec": {
          "identifier": "",
          "stringifiedObjectReference": ""
        },
        "measDCSpecsByTechnology": [

        ],
        "measDCSpecsByProductGroup": [

        ],
        "measDCSpecs": [

        ],
        "defaultTestSpec": {
          "identifier": "",
          "stringifiedObjectReference": ""
        },
        "testSpecsByTechnology": [

        ],
        "testSpecsByProductGroup": [

        ],
        "testSpecs": [

        ],
        "deltaDCDefinitions": [

        ],
        "defaultDeltaDCSpecs": [

        ],
        "deltaDCSpecsByTechnology": [

        ],
        "deltaDCSpecsByProductGroup": [

        ],
        "deltaDCSpecs": [

        ],
        "subProcessDefinitions": [

        ],
        "reworkProcessDefinitions": [

        ],
        "defaultReworkLimit": -1,
        "reworkLimitsByTechnology": [

        ],
        "reworkLimitsByProductGroup": [

        ],
        "reworkLimits": [

        ],
        "defaultProcessLimit": -1,
        "processLimitsByTechnology": [

        ],
        "processLimitsByProductGroup": [

        ],
        "processLimits": [

        ],
        "postScript": {
          "identifier": "",
          "stringifiedObjectReference": ""
        },
        "pre1Script": {
          "identifier": "",
          "stringifiedObjectReference": ""
        },
        "pre2Script": {
          "identifier": "",
          "stringifiedObjectReference": ""
        },
        "postScripts": [

        ],
        "pre1Scripts": [

        ],
        "pre2Scripts": [

        ],
        "defaultTimeRestrictions": [

        ],
        "timeRestrictionsByTechnology": [

        ],
        "timeRestrictionsByProductGroup": [

        ],
        "timeRestrictions": [

        ],
        "defaultReplaceTimeRestrictionsForSubRoute": [

        ],
        "replaceTimeRestrictionsByTechnologyForSubRoute": [

        ],
        "replaceTimeRestrictionsByProductGroupForSubRoute": [

        ],
        "replaceTimeRestrictionsForSubRoute": [

        ],
        "defaultReplaceTimeRestrictionsForReworkRoute": [

        ],
        "replaceTimeRestrictionsByTechnologyForReworkRoute": [

        ],
        "replaceTimeRestrictionsByProductGroupForReworkRoute": [

        ],
        "replaceTimeRestrictionsForReworkRoute": [

        ],
        "defaultProcessLagTime": 0,
        "processLagTimesByTechnology": [

        ],
        "processLagTimesByProductGroup": [

        ],
        "processLagTimes": [

        ],
        "equipmentMonitorSections": [

        ],
        "userDataSets": [

        ]
      },
      {
        "moduleNumber": "1000",
        "moduleProcessDefinition": {
          "identifier": "D14ECMAUTO-RE-ADD-MODULE-MODPD36_LPEEGHK-B.01",
          "stringifiedObjectReference": "SPIORLL:N:C2/#BRModuleProcessDefinition#F2#D14ECMAUTO-RE-ADD-MODULE-MODPD36_LPEEGHK-B.01"
        },
        "sameTimeReleaseInChangeNoticeFlag": false,
        "moduleProcessDefinitionInChangeNotice": {
          "identifier": "",
          "stringifiedObjectReference": ""
        },
        "stage": {
          "identifier": "RMG",
          "stringifiedObjectReference": "SPIORLL:N:C2/#BRStage#F2#RMG"
        },
        "operationNumber": "1000.2000",
        "processDefinition": {
          "identifier": "EG-ECMAUTO-ROUTEEDIT-NEW-QTLT2_MHSFEOL2HK-14LPE.01",
          "stringifiedObjectReference": "SPIORLL:N:C2/#BRProcessDefinition#F2#EG-ECMAUTO-ROUTEEDIT-NEW-QTLT2_MHSFEOL2HK-14LPE.01"
        },
        "pdiDefinitionFlag": false,
        "pdiDefinitionResetFlag": false,
        "mainDINotChangeFlag": false,
        "mainDIScriptNotChangeFlag": false,
        "photoLayer": {
          "identifier": "3GAUTO",
          "stringifiedObjectReference": "SPIORLL:N:C2/#BRPhotoLayer#F2#3GAUTO"
        },
        "carrierCategory": {
          "identifier": "BEOL",
          "stringifiedObjectReference": "SPIORLL:N:C2/#BRCarrierCategory#F2#BEOL"
        },
        "processOperationNumber": "",
        "correspondingOperations": [

        ],
        "responsibleOperationNumbers": [

        ],
        "recycleSamplingOperationNumber": "",
        "mandatoryOperationRequiredFlag": false,
        "autoBankInRequiredFlag": false,
        "endOfMonitorRelationFlag": false,
        "monitorGroupReleaseFlag": false,
        "flowBatchControl": {
          "sectionControlCategory": "",
          "name": "",
          "targetOperationFlag": false,
          "flowBatchingOffsetTime": 0.0,
          "maxBatchSize": 0,
          "minBatchSize": 0,
          "minWaferCount": 0
        },
        "pilotWaferProcessControl": {
          "name": "",
          "maxPilotProcessCount": 0
        },
        "defaultMeasDCSpec": {
          "identifier": "",
          "stringifiedObjectReference": ""
        },
        "measDCSpecsByTechnology": [

        ],
        "measDCSpecsByProductGroup": [

        ],
        "measDCSpecs": [

        ],
        "defaultTestSpec": {
          "identifier": "",
          "stringifiedObjectReference": ""
        },
        "testSpecsByTechnology": [

        ],
        "testSpecsByProductGroup": [

        ],
        "testSpecs": [

        ],
        "deltaDCDefinitions": [

        ],
        "defaultDeltaDCSpecs": [

        ],
        "deltaDCSpecsByTechnology": [

        ],
        "deltaDCSpecsByProductGroup": [

        ],
        "deltaDCSpecs": [

        ],
        "subProcessDefinitions": [

        ],
        "reworkProcessDefinitions": [

        ],
        "defaultReworkLimit": -1,
        "reworkLimitsByTechnology": [

        ],
        "reworkLimitsByProductGroup": [

        ],
        "reworkLimits": [

        ],
        "defaultProcessLimit": -1,
        "processLimitsByTechnology": [

        ],
        "processLimitsByProductGroup": [

        ],
        "processLimits": [

        ],
        "postScript": {
          "identifier": "",
          "stringifiedObjectReference": ""
        },
        "pre1Script": {
          "identifier": "",
          "stringifiedObjectReference": ""
        },
        "pre2Script": {
          "identifier": "",
          "stringifiedObjectReference": ""
        },
        "postScripts": [

        ],
        "pre1Scripts": [

        ],
        "pre2Scripts": [

        ],
        "defaultTimeRestrictions": [

        ],
        "timeRestrictionsByTechnology": [

        ],
        "timeRestrictionsByProductGroup": [

        ],
        "timeRestrictions": [

        ],
        "defaultReplaceTimeRestrictionsForSubRoute": [

        ],
        "replaceTimeRestrictionsByTechnologyForSubRoute": [

        ],
        "replaceTimeRestrictionsByProductGroupForSubRoute": [

        ],
        "replaceTimeRestrictionsForSubRoute": [

        ],
        "defaultReplaceTimeRestrictionsForReworkRoute": [

        ],
        "replaceTimeRestrictionsByTechnologyForReworkRoute": [

        ],
        "replaceTimeRestrictionsByProductGroupForReworkRoute": [

        ],
        "replaceTimeRestrictionsForReworkRoute": [

        ],
        "defaultProcessLagTime": 0,
        "processLagTimesByTechnology": [

        ],
        "processLagTimesByProductGroup": [

        ],
        "processLagTimes": [

        ],
        "equipmentMonitorSections": [

        ],
        "userDataSets": [

        ]
      },
      {
        "moduleNumber": "1000",
        "moduleProcessDefinition": {
          "identifier": "D14ECMAUTO-RE-ADD-MODULE-MODPD36_LPEEGHK-B.01",
          "stringifiedObjectReference": "SPIORLL:N:C2/#BRModuleProcessDefinition#F2#D14ECMAUTO-RE-ADD-MODULE-MODPD36_LPEEGHK-B.01"
        },
        "sameTimeReleaseInChangeNoticeFlag": false,
        "moduleProcessDefinitionInChangeNotice": {
          "identifier": "",
          "stringifiedObjectReference": ""
        },
        "stage": {
          "identifier": "RMG",
          "stringifiedObjectReference": "SPIORLL:N:C2/#BRStage#F2#RMG"
        },
        "operationNumber": "1000.3000",
        "processDefinition": {
          "identifier": "EG-ECMAUTO-ROUTEEDIT-NEW-QTLT3_MHSFEOL2HK-14LPE.01",
          "stringifiedObjectReference": "SPIORLL:N:C2/#BRProcessDefinition#F2#EG-ECMAUTO-ROUTEEDIT-NEW-QTLT3_MHSFEOL2HK-14LPE.01"
        },
        "pdiDefinitionFlag": false,
        "pdiDefinitionResetFlag": false,
        "mainDINotChangeFlag": false,
        "mainDIScriptNotChangeFlag": false,
        "photoLayer": {
          "identifier": "3GAUTO",
          "stringifiedObjectReference": "SPIORLL:N:C2/#BRPhotoLayer#F2#3GAUTO"
        },
        "carrierCategory": {
          "identifier": "BEOL",
          "stringifiedObjectReference": "SPIORLL:N:C2/#BRCarrierCategory#F2#BEOL"
        },
        "processOperationNumber": "",
        "correspondingOperations": [

        ],
        "responsibleOperationNumbers": [

        ],
        "recycleSamplingOperationNumber": "",
        "mandatoryOperationRequiredFlag": false,
        "autoBankInRequiredFlag": false,
        "endOfMonitorRelationFlag": false,
        "monitorGroupReleaseFlag": false,
        "flowBatchControl": {
          "sectionControlCategory": "",
          "name": "",
          "targetOperationFlag": false,
          "flowBatchingOffsetTime": 0.0,
          "maxBatchSize": 0,
          "minBatchSize": 0,
          "minWaferCount": 0
        },
        "pilotWaferProcessControl": {
          "name": "",
          "maxPilotProcessCount": 0
        },
        "defaultMeasDCSpec": {
          "identifier": "",
          "stringifiedObjectReference": ""
        },
        "measDCSpecsByTechnology": [

        ],
        "measDCSpecsByProductGroup": [

        ],
        "measDCSpecs": [

        ],
        "defaultTestSpec": {
          "identifier": "",
          "stringifiedObjectReference": ""
        },
        "testSpecsByTechnology": [

        ],
        "testSpecsByProductGroup": [

        ],
        "testSpecs": [

        ],
        "deltaDCDefinitions": [

        ],
        "defaultDeltaDCSpecs": [

        ],
        "deltaDCSpecsByTechnology": [

        ],
        "deltaDCSpecsByProductGroup": [

        ],
        "deltaDCSpecs": [

        ],
        "subProcessDefinitions": [

        ],
        "reworkProcessDefinitions": [

        ],
        "defaultReworkLimit": -1,
        "reworkLimitsByTechnology": [

        ],
        "reworkLimitsByProductGroup": [

        ],
        "reworkLimits": [

        ],
        "defaultProcessLimit": -1,
        "processLimitsByTechnology": [

        ],
        "processLimitsByProductGroup": [

        ],
        "processLimits": [

        ],
        "postScript": {
          "identifier": "",
          "stringifiedObjectReference": ""
        },
        "pre1Script": {
          "identifier": "",
          "stringifiedObjectReference": ""
        },
        "pre2Script": {
          "identifier": "",
          "stringifiedObjectReference": ""
        },
        "postScripts": [

        ],
        "pre1Scripts": [

        ],
        "pre2Scripts": [

        ],
        "defaultTimeRestrictions": [

        ],
        "timeRestrictionsByTechnology": [

        ],
        "timeRestrictionsByProductGroup": [

        ],
        "timeRestrictions": [

        ],
        "defaultReplaceTimeRestrictionsForSubRoute": [

        ],
        "replaceTimeRestrictionsByTechnologyForSubRoute": [

        ],
        "replaceTimeRestrictionsByProductGroupForSubRoute": [

        ],
        "replaceTimeRestrictionsForSubRoute": [

        ],
        "defaultReplaceTimeRestrictionsForReworkRoute": [

        ],
        "replaceTimeRestrictionsByTechnologyForReworkRoute": [

        ],
        "replaceTimeRestrictionsByProductGroupForReworkRoute": [

        ],
        "replaceTimeRestrictionsForReworkRoute": [

        ],
        "defaultProcessLagTime": 0,
        "processLagTimesByTechnology": [

        ],
        "processLagTimesByProductGroup": [

        ],
        "processLagTimes": [

        ],
        "equipmentMonitorSections": [

        ],
        "userDataSets": [

        ]
      },
      {
        "moduleNumber": "1000",
        "moduleProcessDefinition": {
          "identifier": "D14ECMAUTO-RE-ADD-MODULE-MODPD36_LPEEGHK-B.01",
          "stringifiedObjectReference": "SPIORLL:N:C2/#BRModuleProcessDefinition#F2#D14ECMAUTO-RE-ADD-MODULE-MODPD36_LPEEGHK-B.01"
        },
        "sameTimeReleaseInChangeNoticeFlag": false,
        "moduleProcessDefinitionInChangeNotice": {
          "identifier": "",
          "stringifiedObjectReference": ""
        },
        "stage": {
          "identifier": "RMG",
          "stringifiedObjectReference": "SPIORLL:N:C2/#BRStage#F2#RMG"
        },
        "operationNumber": "1000.4000",
        "processDefinition": {
          "identifier": "EG-ECMAUTO-ROUTEEDIT-NEW-QTLT4_MHSFEOL2HK-14LPE.01",
          "stringifiedObjectReference": "SPIORLL:N:C2/#BRProcessDefinition#F2#EG-ECMAUTO-ROUTEEDIT-NEW-QTLT4_MHSFEOL2HK-14LPE.01"
        },
        "pdiDefinitionFlag": false,
        "pdiDefinitionResetFlag": false,
        "mainDINotChangeFlag": false,
        "mainDIScriptNotChangeFlag": false,
        "photoLayer": {
          "identifier": "3GAUTO",
          "stringifiedObjectReference": "SPIORLL:N:C2/#BRPhotoLayer#F2#3GAUTO"
        },
        "carrierCategory": {
          "identifier": "BEOL",
          "stringifiedObjectReference": "SPIORLL:N:C2/#BRCarrierCategory#F2#BEOL"
        },
        "processOperationNumber": "",
        "correspondingOperations": [

        ],
        "responsibleOperationNumbers": [

        ],
        "recycleSamplingOperationNumber": "",
        "mandatoryOperationRequiredFlag": false,
        "autoBankInRequiredFlag": false,
        "endOfMonitorRelationFlag": false,
        "monitorGroupReleaseFlag": false,
        "flowBatchControl": {
          "sectionControlCategory": "",
          "name": "",
          "targetOperationFlag": false,
          "flowBatchingOffsetTime": 0.0,
          "maxBatchSize": 0,
          "minBatchSize": 0,
          "minWaferCount": 0
        },
        "pilotWaferProcessControl": {
          "name": "",
          "maxPilotProcessCount": 0
        },
        "defaultMeasDCSpec": {
          "identifier": "",
          "stringifiedObjectReference": ""
        },
        "measDCSpecsByTechnology": [

        ],
        "measDCSpecsByProductGroup": [

        ],
        "measDCSpecs": [

        ],
        "defaultTestSpec": {
          "identifier": "",
          "stringifiedObjectReference": ""
        },
        "testSpecsByTechnology": [

        ],
        "testSpecsByProductGroup": [

        ],
        "testSpecs": [

        ],
        "deltaDCDefinitions": [

        ],
        "defaultDeltaDCSpecs": [

        ],
        "deltaDCSpecsByTechnology": [

        ],
        "deltaDCSpecsByProductGroup": [

        ],
        "deltaDCSpecs": [

        ],
        "subProcessDefinitions": [

        ],
        "reworkProcessDefinitions": [

        ],
        "defaultReworkLimit": -1,
        "reworkLimitsByTechnology": [

        ],
        "reworkLimitsByProductGroup": [

        ],
        "reworkLimits": [

        ],
        "defaultProcessLimit": -1,
        "processLimitsByTechnology": [

        ],
        "processLimitsByProductGroup": [

        ],
        "processLimits": [

        ],
        "postScript": {
          "identifier": "",
          "stringifiedObjectReference": ""
        },
        "pre1Script": {
          "identifier": "",
          "stringifiedObjectReference": ""
        },
        "pre2Script": {
          "identifier": "",
          "stringifiedObjectReference": ""
        },
        "postScripts": [

        ],
        "pre1Scripts": [

        ],
        "pre2Scripts": [

        ],
        "defaultTimeRestrictions": [

        ],
        "timeRestrictionsByTechnology": [

        ],
        "timeRestrictionsByProductGroup": [

        ],
        "timeRestrictions": [

        ],
        "defaultReplaceTimeRestrictionsForSubRoute": [

        ],
        "replaceTimeRestrictionsByTechnologyForSubRoute": [

        ],
        "replaceTimeRestrictionsByProductGroupForSubRoute": [

        ],
        "replaceTimeRestrictionsForSubRoute": [

        ],
        "defaultReplaceTimeRestrictionsForReworkRoute": [

        ],
        "replaceTimeRestrictionsByTechnologyForReworkRoute": [

        ],
        "replaceTimeRestrictionsByProductGroupForReworkRoute": [

        ],
        "replaceTimeRestrictionsForReworkRoute": [

        ],
        "defaultProcessLagTime": 0,
        "processLagTimesByTechnology": [

        ],
        "processLagTimesByProductGroup": [

        ],
        "processLagTimes": [

        ],
        "equipmentMonitorSections": [

        ],
        "userDataSets": [

        ]
      },
      {
        "moduleNumber": "1200",
        "moduleProcessDefinition": {
          "identifier": "D14ECMAUTO-RE-ADD-MODULE-MODPD37_LPEEGHK-B.01",
          "stringifiedObjectReference": "SPIORLL:N:C2/#BRModuleProcessDefinition#F2#D14ECMAUTO-RE-ADD-MODULE-MODPD37_LPEEGHK-B.01"
        },
        "sameTimeReleaseInChangeNoticeFlag": false,
        "moduleProcessDefinitionInChangeNotice": {
          "identifier": "",
          "stringifiedObjectReference": ""
        },
        "stage": {
          "identifier": "RMG",
          "stringifiedObjectReference": "SPIORLL:N:C2/#BRStage#F2#RMG"
        },
        "operationNumber": "1200.1000",
        "processDefinition": {
          "identifier": "EG-ECMAUTO-ROUTEEDIT-NEW-QTLT1_MHSFEOL2HK-14LPE.01",
          "stringifiedObjectReference": "SPIORLL:N:C2/#BRProcessDefinition#F2#EG-ECMAUTO-ROUTEEDIT-NEW-QTLT1_MHSFEOL2HK-14LPE.01"
        },
        "pdiDefinitionFlag": false,
        "pdiDefinitionResetFlag": false,
        "mainDINotChangeFlag": false,
        "mainDIScriptNotChangeFlag": false,
        "photoLayer": {
          "identifier": "3GAUTO",
          "stringifiedObjectReference": "SPIORLL:N:C2/#BRPhotoLayer#F2#3GAUTO"
        },
        "carrierCategory": {
          "identifier": "BEOL",
          "stringifiedObjectReference": "SPIORLL:N:C2/#BRCarrierCategory#F2#BEOL"
        },
        "processOperationNumber": "",
        "correspondingOperations": [

        ],
        "responsibleOperationNumbers": [

        ],
        "recycleSamplingOperationNumber": "",
        "mandatoryOperationRequiredFlag": false,
        "autoBankInRequiredFlag": false,
        "endOfMonitorRelationFlag": false,
        "monitorGroupReleaseFlag": false,
        "flowBatchControl": {
          "sectionControlCategory": "",
          "name": "",
          "targetOperationFlag": false,
          "flowBatchingOffsetTime": 0.0,
          "maxBatchSize": 0,
          "minBatchSize": 0,
          "minWaferCount": 0
        },
        "pilotWaferProcessControl": {
          "name": "",
          "maxPilotProcessCount": 0
        },
        "defaultMeasDCSpec": {
          "identifier": "",
          "stringifiedObjectReference": ""
        },
        "measDCSpecsByTechnology": [

        ],
        "measDCSpecsByProductGroup": [

        ],
        "measDCSpecs": [

        ],
        "defaultTestSpec": {
          "identifier": "",
          "stringifiedObjectReference": ""
        },
        "testSpecsByTechnology": [

        ],
        "testSpecsByProductGroup": [

        ],
        "testSpecs": [

        ],
        "deltaDCDefinitions": [

        ],
        "defaultDeltaDCSpecs": [

        ],
        "deltaDCSpecsByTechnology": [

        ],
        "deltaDCSpecsByProductGroup": [

        ],
        "deltaDCSpecs": [

        ],
        "subProcessDefinitions": [

        ],
        "reworkProcessDefinitions": [

        ],
        "defaultReworkLimit": -1,
        "reworkLimitsByTechnology": [

        ],
        "reworkLimitsByProductGroup": [

        ],
        "reworkLimits": [

        ],
        "defaultProcessLimit": -1,
        "processLimitsByTechnology": [

        ],
        "processLimitsByProductGroup": [

        ],
        "processLimits": [

        ],
        "postScript": {
          "identifier": "",
          "stringifiedObjectReference": ""
        },
        "pre1Script": {
          "identifier": "",
          "stringifiedObjectReference": ""
        },
        "pre2Script": {
          "identifier": "",
          "stringifiedObjectReference": ""
        },
        "postScripts": [

        ],
        "pre1Scripts": [

        ],
        "pre2Scripts": [

        ],
        "defaultTimeRestrictions": [

        ],
        "timeRestrictionsByTechnology": [

        ],
        "timeRestrictionsByProductGroup": [

        ],
        "timeRestrictions": [

        ],
        "defaultReplaceTimeRestrictionsForSubRoute": [

        ],
        "replaceTimeRestrictionsByTechnologyForSubRoute": [

        ],
        "replaceTimeRestrictionsByProductGroupForSubRoute": [

        ],
        "replaceTimeRestrictionsForSubRoute": [

        ],
        "defaultReplaceTimeRestrictionsForReworkRoute": [

        ],
        "replaceTimeRestrictionsByTechnologyForReworkRoute": [

        ],
        "replaceTimeRestrictionsByProductGroupForReworkRoute": [

        ],
        "replaceTimeRestrictionsForReworkRoute": [

        ],
        "defaultProcessLagTime": 0,
        "processLagTimesByTechnology": [

        ],
        "processLagTimesByProductGroup": [

        ],
        "processLagTimes": [

        ],
        "equipmentMonitorSections": [

        ],
        "userDataSets": [

        ]
      },
      {
        "moduleNumber": "1200",
        "moduleProcessDefinition": {
          "identifier": "D14ECMAUTO-RE-ADD-MODULE-MODPD37_LPEEGHK-B.01",
          "stringifiedObjectReference": "SPIORLL:N:C2/#BRModuleProcessDefinition#F2#D14ECMAUTO-RE-ADD-MODULE-MODPD37_LPEEGHK-B.01"
        },
        "sameTimeReleaseInChangeNoticeFlag": false,
        "moduleProcessDefinitionInChangeNotice": {
          "identifier": "",
          "stringifiedObjectReference": ""
        },
        "stage": {
          "identifier": "RMG",
          "stringifiedObjectReference": "SPIORLL:N:C2/#BRStage#F2#RMG"
        },
        "operationNumber": "1200.2000",
        "processDefinition": {
          "identifier": "EG-ECMAUTO-ROUTEEDIT-NEW-QTLT2_MHSFEOL2HK-14LPE.01",
          "stringifiedObjectReference": "SPIORLL:N:C2/#BRProcessDefinition#F2#EG-ECMAUTO-ROUTEEDIT-NEW-QTLT2_MHSFEOL2HK-14LPE.01"
        },
        "pdiDefinitionFlag": false,
        "pdiDefinitionResetFlag": false,
        "mainDINotChangeFlag": false,
        "mainDIScriptNotChangeFlag": false,
        "photoLayer": {
          "identifier": "3GAUTO",
          "stringifiedObjectReference": "SPIORLL:N:C2/#BRPhotoLayer#F2#3GAUTO"
        },
        "carrierCategory": {
          "identifier": "BEOL",
          "stringifiedObjectReference": "SPIORLL:N:C2/#BRCarrierCategory#F2#BEOL"
        },
        "processOperationNumber": "",
        "correspondingOperations": [

        ],
        "responsibleOperationNumbers": [

        ],
        "recycleSamplingOperationNumber": "",
        "mandatoryOperationRequiredFlag": false,
        "autoBankInRequiredFlag": false,
        "endOfMonitorRelationFlag": false,
        "monitorGroupReleaseFlag": false,
        "flowBatchControl": {
          "sectionControlCategory": "",
          "name": "",
          "targetOperationFlag": false,
          "flowBatchingOffsetTime": 0.0,
          "maxBatchSize": 0,
          "minBatchSize": 0,
          "minWaferCount": 0
        },
        "pilotWaferProcessControl": {
          "name": "",
          "maxPilotProcessCount": 0
        },
        "defaultMeasDCSpec": {
          "identifier": "",
          "stringifiedObjectReference": ""
        },
        "measDCSpecsByTechnology": [

        ],
        "measDCSpecsByProductGroup": [

        ],
        "measDCSpecs": [

        ],
        "defaultTestSpec": {
          "identifier": "",
          "stringifiedObjectReference": ""
        },
        "testSpecsByTechnology": [

        ],
        "testSpecsByProductGroup": [

        ],
        "testSpecs": [

        ],
        "deltaDCDefinitions": [

        ],
        "defaultDeltaDCSpecs": [

        ],
        "deltaDCSpecsByTechnology": [

        ],
        "deltaDCSpecsByProductGroup": [

        ],
        "deltaDCSpecs": [

        ],
        "subProcessDefinitions": [

        ],
        "reworkProcessDefinitions": [

        ],
        "defaultReworkLimit": -1,
        "reworkLimitsByTechnology": [

        ],
        "reworkLimitsByProductGroup": [

        ],
        "reworkLimits": [

        ],
        "defaultProcessLimit": -1,
        "processLimitsByTechnology": [

        ],
        "processLimitsByProductGroup": [

        ],
        "processLimits": [

        ],
        "postScript": {
          "identifier": "",
          "stringifiedObjectReference": ""
        },
        "pre1Script": {
          "identifier": "",
          "stringifiedObjectReference": ""
        },
        "pre2Script": {
          "identifier": "",
          "stringifiedObjectReference": ""
        },
        "postScripts": [

        ],
        "pre1Scripts": [

        ],
        "pre2Scripts": [

        ],
        "defaultTimeRestrictions": [

        ],
        "timeRestrictionsByTechnology": [

        ],
        "timeRestrictionsByProductGroup": [

        ],
        "timeRestrictions": [

        ],
        "defaultReplaceTimeRestrictionsForSubRoute": [

        ],
        "replaceTimeRestrictionsByTechnologyForSubRoute": [

        ],
        "replaceTimeRestrictionsByProductGroupForSubRoute": [

        ],
        "replaceTimeRestrictionsForSubRoute": [

        ],
        "defaultReplaceTimeRestrictionsForReworkRoute": [

        ],
        "replaceTimeRestrictionsByTechnologyForReworkRoute": [

        ],
        "replaceTimeRestrictionsByProductGroupForReworkRoute": [

        ],
        "replaceTimeRestrictionsForReworkRoute": [

        ],
        "defaultProcessLagTime": 0,
        "processLagTimesByTechnology": [

        ],
        "processLagTimesByProductGroup": [

        ],
        "processLagTimes": [

        ],
        "equipmentMonitorSections": [

        ],
        "userDataSets": [

        ]
      },
      {
        "moduleNumber": "1200",
        "moduleProcessDefinition": {
          "identifier": "D14ECMAUTO-RE-ADD-MODULE-MODPD37_LPEEGHK-B.01",
          "stringifiedObjectReference": "SPIORLL:N:C2/#BRModuleProcessDefinition#F2#D14ECMAUTO-RE-ADD-MODULE-MODPD37_LPEEGHK-B.01"
        },
        "sameTimeReleaseInChangeNoticeFlag": false,
        "moduleProcessDefinitionInChangeNotice": {
          "identifier": "",
          "stringifiedObjectReference": ""
        },
        "stage": {
          "identifier": "RMG",
          "stringifiedObjectReference": "SPIORLL:N:C2/#BRStage#F2#RMG"
        },
        "operationNumber": "1200.3000",
        "processDefinition": {
          "identifier": "EG-ECMAUTO-ROUTEEDIT-NEW-QTLT3_MHSFEOL2HK-14LPE.01",
          "stringifiedObjectReference": "SPIORLL:N:C2/#BRProcessDefinition#F2#EG-ECMAUTO-ROUTEEDIT-NEW-QTLT3_MHSFEOL2HK-14LPE.01"
        },
        "pdiDefinitionFlag": false,
        "pdiDefinitionResetFlag": false,
        "mainDINotChangeFlag": false,
        "mainDIScriptNotChangeFlag": false,
        "photoLayer": {
          "identifier": "3GAUTO",
          "stringifiedObjectReference": "SPIORLL:N:C2/#BRPhotoLayer#F2#3GAUTO"
        },
        "carrierCategory": {
          "identifier": "BEOL",
          "stringifiedObjectReference": "SPIORLL:N:C2/#BRCarrierCategory#F2#BEOL"
        },
        "processOperationNumber": "",
        "correspondingOperations": [

        ],
        "responsibleOperationNumbers": [

        ],
        "recycleSamplingOperationNumber": "",
        "mandatoryOperationRequiredFlag": false,
        "autoBankInRequiredFlag": false,
        "endOfMonitorRelationFlag": false,
        "monitorGroupReleaseFlag": false,
        "flowBatchControl": {
          "sectionControlCategory": "",
          "name": "",
          "targetOperationFlag": false,
          "flowBatchingOffsetTime": 0.0,
          "maxBatchSize": 0,
          "minBatchSize": 0,
          "minWaferCount": 0
        },
        "pilotWaferProcessControl": {
          "name": "",
          "maxPilotProcessCount": 0
        },
        "defaultMeasDCSpec": {
          "identifier": "",
          "stringifiedObjectReference": ""
        },
        "measDCSpecsByTechnology": [

        ],
        "measDCSpecsByProductGroup": [

        ],
        "measDCSpecs": [

        ],
        "defaultTestSpec": {
          "identifier": "",
          "stringifiedObjectReference": ""
        },
        "testSpecsByTechnology": [

        ],
        "testSpecsByProductGroup": [

        ],
        "testSpecs": [

        ],
        "deltaDCDefinitions": [

        ],
        "defaultDeltaDCSpecs": [

        ],
        "deltaDCSpecsByTechnology": [

        ],
        "deltaDCSpecsByProductGroup": [

        ],
        "deltaDCSpecs": [

        ],
        "subProcessDefinitions": [

        ],
        "reworkProcessDefinitions": [

        ],
        "defaultReworkLimit": -1,
        "reworkLimitsByTechnology": [

        ],
        "reworkLimitsByProductGroup": [

        ],
        "reworkLimits": [

        ],
        "defaultProcessLimit": -1,
        "processLimitsByTechnology": [

        ],
        "processLimitsByProductGroup": [

        ],
        "processLimits": [

        ],
        "postScript": {
          "identifier": "",
          "stringifiedObjectReference": ""
        },
        "pre1Script": {
          "identifier": "",
          "stringifiedObjectReference": ""
        },
        "pre2Script": {
          "identifier": "",
          "stringifiedObjectReference": ""
        },
        "postScripts": [

        ],
        "pre1Scripts": [

        ],
        "pre2Scripts": [

        ],
        "defaultTimeRestrictions": [

        ],
        "timeRestrictionsByTechnology": [

        ],
        "timeRestrictionsByProductGroup": [

        ],
        "timeRestrictions": [

        ],
        "defaultReplaceTimeRestrictionsForSubRoute": [

        ],
        "replaceTimeRestrictionsByTechnologyForSubRoute": [

        ],
        "replaceTimeRestrictionsByProductGroupForSubRoute": [

        ],
        "replaceTimeRestrictionsForSubRoute": [

        ],
        "defaultReplaceTimeRestrictionsForReworkRoute": [

        ],
        "replaceTimeRestrictionsByTechnologyForReworkRoute": [

        ],
        "replaceTimeRestrictionsByProductGroupForReworkRoute": [

        ],
        "replaceTimeRestrictionsForReworkRoute": [

        ],
        "defaultProcessLagTime": 0,
        "processLagTimesByTechnology": [

        ],
        "processLagTimesByProductGroup": [

        ],
        "processLagTimes": [

        ],
        "equipmentMonitorSections": [

        ],
        "userDataSets": [

        ]
      },
      {
        "moduleNumber": "1200",
        "moduleProcessDefinition": {
          "identifier": "D14ECMAUTO-RE-ADD-MODULE-MODPD37_LPEEGHK-B.01",
          "stringifiedObjectReference": "SPIORLL:N:C2/#BRModuleProcessDefinition#F2#D14ECMAUTO-RE-ADD-MODULE-MODPD37_LPEEGHK-B.01"
        },
        "sameTimeReleaseInChangeNoticeFlag": false,
        "moduleProcessDefinitionInChangeNotice": {
          "identifier": "",
          "stringifiedObjectReference": ""
        },
        "stage": {
          "identifier": "RMG",
          "stringifiedObjectReference": "SPIORLL:N:C2/#BRStage#F2#RMG"
        },
        "operationNumber": "1200.4000",
        "processDefinition": {
          "identifier": "EG-ECMAUTO-ROUTEEDIT-NEW-QTLT4_MHSFEOL2HK-14LPE.01",
          "stringifiedObjectReference": "SPIORLL:N:C2/#BRProcessDefinition#F2#EG-ECMAUTO-ROUTEEDIT-NEW-QTLT4_MHSFEOL2HK-14LPE.01"
        },
        "pdiDefinitionFlag": false,
        "pdiDefinitionResetFlag": false,
        "mainDINotChangeFlag": false,
        "mainDIScriptNotChangeFlag": false,
        "photoLayer": {
          "identifier": "3GAUTO",
          "stringifiedObjectReference": "SPIORLL:N:C2/#BRPhotoLayer#F2#3GAUTO"
        },
        "carrierCategory": {
          "identifier": "BEOL",
          "stringifiedObjectReference": "SPIORLL:N:C2/#BRCarrierCategory#F2#BEOL"
        },
        "processOperationNumber": "",
        "correspondingOperations": [

        ],
        "responsibleOperationNumbers": [

        ],
        "recycleSamplingOperationNumber": "",
        "mandatoryOperationRequiredFlag": false,
        "autoBankInRequiredFlag": false,
        "endOfMonitorRelationFlag": false,
        "monitorGroupReleaseFlag": false,
        "flowBatchControl": {
          "sectionControlCategory": "",
          "name": "",
          "targetOperationFlag": false,
          "flowBatchingOffsetTime": 0.0,
          "maxBatchSize": 0,
          "minBatchSize": 0,
          "minWaferCount": 0
        },
        "pilotWaferProcessControl": {
          "name": "",
          "maxPilotProcessCount": 0
        },
        "defaultMeasDCSpec": {
          "identifier": "",
          "stringifiedObjectReference": ""
        },
        "measDCSpecsByTechnology": [

        ],
        "measDCSpecsByProductGroup": [

        ],
        "measDCSpecs": [

        ],
        "defaultTestSpec": {
          "identifier": "",
          "stringifiedObjectReference": ""
        },
        "testSpecsByTechnology": [

        ],
        "testSpecsByProductGroup": [

        ],
        "testSpecs": [

        ],
        "deltaDCDefinitions": [

        ],
        "defaultDeltaDCSpecs": [

        ],
        "deltaDCSpecsByTechnology": [

        ],
        "deltaDCSpecsByProductGroup": [

        ],
        "deltaDCSpecs": [

        ],
        "subProcessDefinitions": [

        ],
        "reworkProcessDefinitions": [

        ],
        "defaultReworkLimit": -1,
        "reworkLimitsByTechnology": [

        ],
        "reworkLimitsByProductGroup": [

        ],
        "reworkLimits": [

        ],
        "defaultProcessLimit": -1,
        "processLimitsByTechnology": [

        ],
        "processLimitsByProductGroup": [

        ],
        "processLimits": [

        ],
        "postScript": {
          "identifier": "",
          "stringifiedObjectReference": ""
        },
        "pre1Script": {
          "identifier": "",
          "stringifiedObjectReference": ""
        },
        "pre2Script": {
          "identifier": "",
          "stringifiedObjectReference": ""
        },
        "postScripts": [

        ],
        "pre1Scripts": [

        ],
        "pre2Scripts": [

        ],
        "defaultTimeRestrictions": [

        ],
        "timeRestrictionsByTechnology": [

        ],
        "timeRestrictionsByProductGroup": [

        ],
        "timeRestrictions": [

        ],
        "defaultReplaceTimeRestrictionsForSubRoute": [

        ],
        "replaceTimeRestrictionsByTechnologyForSubRoute": [

        ],
        "replaceTimeRestrictionsByProductGroupForSubRoute": [

        ],
        "replaceTimeRestrictionsForSubRoute": [

        ],
        "defaultReplaceTimeRestrictionsForReworkRoute": [

        ],
        "replaceTimeRestrictionsByTechnologyForReworkRoute": [

        ],
        "replaceTimeRestrictionsByProductGroupForReworkRoute": [

        ],
        "replaceTimeRestrictionsForReworkRoute": [

        ],
        "defaultProcessLagTime": 0,
        "processLagTimesByTechnology": [

        ],
        "processLagTimesByProductGroup": [

        ],
        "processLagTimes": [

        ],
        "equipmentMonitorSections": [

        ],
        "userDataSets": [

        ]
      },
      {
        "moduleNumber": "1400",
        "moduleProcessDefinition": {
          "identifier": "D14ECMAUTO-RE-ADD-MODULE-MODPD38_LPEEGHK-B.01",
          "stringifiedObjectReference": "SPIORLL:N:C2/#BRModuleProcessDefinition#F2#D14ECMAUTO-RE-ADD-MODULE-MODPD38_LPEEGHK-B.01"
        },
        "sameTimeReleaseInChangeNoticeFlag": false,
        "moduleProcessDefinitionInChangeNotice": {
          "identifier": "",
          "stringifiedObjectReference": ""
        },
        "stage": {
          "identifier": "RMG",
          "stringifiedObjectReference": "SPIORLL:N:C2/#BRStage#F2#RMG"
        },
        "operationNumber": "1400.1000",
        "processDefinition": {
          "identifier": "EG-ECMAUTO-ROUTEEDIT-NEW-QTLT1_MHSFEOL2HK-14LPE.01",
          "stringifiedObjectReference": "SPIORLL:N:C2/#BRProcessDefinition#F2#EG-ECMAUTO-ROUTEEDIT-NEW-QTLT1_MHSFEOL2HK-14LPE.01"
        },
        "pdiDefinitionFlag": false,
        "pdiDefinitionResetFlag": false,
        "mainDINotChangeFlag": false,
        "mainDIScriptNotChangeFlag": false,
        "photoLayer": {
          "identifier": "3GAUTO",
          "stringifiedObjectReference": "SPIORLL:N:C2/#BRPhotoLayer#F2#3GAUTO"
        },
        "carrierCategory": {
          "identifier": "BEOL",
          "stringifiedObjectReference": "SPIORLL:N:C2/#BRCarrierCategory#F2#BEOL"
        },
        "processOperationNumber": "",
        "correspondingOperations": [

        ],
        "responsibleOperationNumbers": [

        ],
        "recycleSamplingOperationNumber": "",
        "mandatoryOperationRequiredFlag": false,
        "autoBankInRequiredFlag": false,
        "endOfMonitorRelationFlag": false,
        "monitorGroupReleaseFlag": false,
        "flowBatchControl": {
          "sectionControlCategory": "",
          "name": "",
          "targetOperationFlag": false,
          "flowBatchingOffsetTime": 0.0,
          "maxBatchSize": 0,
          "minBatchSize": 0,
          "minWaferCount": 0
        },
        "pilotWaferProcessControl": {
          "name": "",
          "maxPilotProcessCount": 0
        },
        "defaultMeasDCSpec": {
          "identifier": "",
          "stringifiedObjectReference": ""
        },
        "measDCSpecsByTechnology": [

        ],
        "measDCSpecsByProductGroup": [

        ],
        "measDCSpecs": [

        ],
        "defaultTestSpec": {
          "identifier": "",
          "stringifiedObjectReference": ""
        },
        "testSpecsByTechnology": [

        ],
        "testSpecsByProductGroup": [

        ],
        "testSpecs": [

        ],
        "deltaDCDefinitions": [

        ],
        "defaultDeltaDCSpecs": [

        ],
        "deltaDCSpecsByTechnology": [

        ],
        "deltaDCSpecsByProductGroup": [

        ],
        "deltaDCSpecs": [

        ],
        "subProcessDefinitions": [

        ],
        "reworkProcessDefinitions": [

        ],
        "defaultReworkLimit": -1,
        "reworkLimitsByTechnology": [

        ],
        "reworkLimitsByProductGroup": [

        ],
        "reworkLimits": [

        ],
        "defaultProcessLimit": -1,
        "processLimitsByTechnology": [

        ],
        "processLimitsByProductGroup": [

        ],
        "processLimits": [

        ],
        "postScript": {
          "identifier": "",
          "stringifiedObjectReference": ""
        },
        "pre1Script": {
          "identifier": "",
          "stringifiedObjectReference": ""
        },
        "pre2Script": {
          "identifier": "",
          "stringifiedObjectReference": ""
        },
        "postScripts": [

        ],
        "pre1Scripts": [

        ],
        "pre2Scripts": [

        ],
        "defaultTimeRestrictions": [

        ],
        "timeRestrictionsByTechnology": [

        ],
        "timeRestrictionsByProductGroup": [

        ],
        "timeRestrictions": [

        ],
        "defaultReplaceTimeRestrictionsForSubRoute": [

        ],
        "replaceTimeRestrictionsByTechnologyForSubRoute": [

        ],
        "replaceTimeRestrictionsByProductGroupForSubRoute": [

        ],
        "replaceTimeRestrictionsForSubRoute": [

        ],
        "defaultReplaceTimeRestrictionsForReworkRoute": [

        ],
        "replaceTimeRestrictionsByTechnologyForReworkRoute": [

        ],
        "replaceTimeRestrictionsByProductGroupForReworkRoute": [

        ],
        "replaceTimeRestrictionsForReworkRoute": [

        ],
        "defaultProcessLagTime": 0,
        "processLagTimesByTechnology": [

        ],
        "processLagTimesByProductGroup": [

        ],
        "processLagTimes": [

        ],
        "equipmentMonitorSections": [

        ],
        "userDataSets": [

        ]
      },
      {
        "moduleNumber": "1400",
        "moduleProcessDefinition": {
          "identifier": "D14ECMAUTO-RE-ADD-MODULE-MODPD38_LPEEGHK-B.01",
          "stringifiedObjectReference": "SPIORLL:N:C2/#BRModuleProcessDefinition#F2#D14ECMAUTO-RE-ADD-MODULE-MODPD38_LPEEGHK-B.01"
        },
        "sameTimeReleaseInChangeNoticeFlag": false,
        "moduleProcessDefinitionInChangeNotice": {
          "identifier": "",
          "stringifiedObjectReference": ""
        },
        "stage": {
          "identifier": "RMG",
          "stringifiedObjectReference": "SPIORLL:N:C2/#BRStage#F2#RMG"
        },
        "operationNumber": "1400.2000",
        "processDefinition": {
          "identifier": "EG-ECMAUTO-ROUTEEDIT-NEW-QTLT2_MHSFEOL2HK-14LPE.01",
          "stringifiedObjectReference": "SPIORLL:N:C2/#BRProcessDefinition#F2#EG-ECMAUTO-ROUTEEDIT-NEW-QTLT2_MHSFEOL2HK-14LPE.01"
        },
        "pdiDefinitionFlag": false,
        "pdiDefinitionResetFlag": false,
        "mainDINotChangeFlag": false,
        "mainDIScriptNotChangeFlag": false,
        "photoLayer": {
          "identifier": "3GAUTO",
          "stringifiedObjectReference": "SPIORLL:N:C2/#BRPhotoLayer#F2#3GAUTO"
        },
        "carrierCategory": {
          "identifier": "BEOL",
          "stringifiedObjectReference": "SPIORLL:N:C2/#BRCarrierCategory#F2#BEOL"
        },
        "processOperationNumber": "",
        "correspondingOperations": [

        ],
        "responsibleOperationNumbers": [

        ],
        "recycleSamplingOperationNumber": "",
        "mandatoryOperationRequiredFlag": false,
        "autoBankInRequiredFlag": false,
        "endOfMonitorRelationFlag": false,
        "monitorGroupReleaseFlag": false,
        "flowBatchControl": {
          "sectionControlCategory": "",
          "name": "",
          "targetOperationFlag": false,
          "flowBatchingOffsetTime": 0.0,
          "maxBatchSize": 0,
          "minBatchSize": 0,
          "minWaferCount": 0
        },
        "pilotWaferProcessControl": {
          "name": "",
          "maxPilotProcessCount": 0
        },
        "defaultMeasDCSpec": {
          "identifier": "",
          "stringifiedObjectReference": ""
        },
        "measDCSpecsByTechnology": [

        ],
        "measDCSpecsByProductGroup": [

        ],
        "measDCSpecs": [

        ],
        "defaultTestSpec": {
          "identifier": "",
          "stringifiedObjectReference": ""
        },
        "testSpecsByTechnology": [

        ],
        "testSpecsByProductGroup": [

        ],
        "testSpecs": [

        ],
        "deltaDCDefinitions": [

        ],
        "defaultDeltaDCSpecs": [

        ],
        "deltaDCSpecsByTechnology": [

        ],
        "deltaDCSpecsByProductGroup": [

        ],
        "deltaDCSpecs": [

        ],
        "subProcessDefinitions": [

        ],
        "reworkProcessDefinitions": [

        ],
        "defaultReworkLimit": -1,
        "reworkLimitsByTechnology": [

        ],
        "reworkLimitsByProductGroup": [

        ],
        "reworkLimits": [

        ],
        "defaultProcessLimit": -1,
        "processLimitsByTechnology": [

        ],
        "processLimitsByProductGroup": [

        ],
        "processLimits": [

        ],
        "postScript": {
          "identifier": "",
          "stringifiedObjectReference": ""
        },
        "pre1Script": {
          "identifier": "",
          "stringifiedObjectReference": ""
        },
        "pre2Script": {
          "identifier": "",
          "stringifiedObjectReference": ""
        },
        "postScripts": [

        ],
        "pre1Scripts": [

        ],
        "pre2Scripts": [

        ],
        "defaultTimeRestrictions": [

        ],
        "timeRestrictionsByTechnology": [

        ],
        "timeRestrictionsByProductGroup": [

        ],
        "timeRestrictions": [

        ],
        "defaultReplaceTimeRestrictionsForSubRoute": [

        ],
        "replaceTimeRestrictionsByTechnologyForSubRoute": [

        ],
        "replaceTimeRestrictionsByProductGroupForSubRoute": [

        ],
        "replaceTimeRestrictionsForSubRoute": [

        ],
        "defaultReplaceTimeRestrictionsForReworkRoute": [

        ],
        "replaceTimeRestrictionsByTechnologyForReworkRoute": [

        ],
        "replaceTimeRestrictionsByProductGroupForReworkRoute": [

        ],
        "replaceTimeRestrictionsForReworkRoute": [

        ],
        "defaultProcessLagTime": 0,
        "processLagTimesByTechnology": [

        ],
        "processLagTimesByProductGroup": [

        ],
        "processLagTimes": [

        ],
        "equipmentMonitorSections": [

        ],
        "userDataSets": [

        ]
      },
      {
        "moduleNumber": "1400",
        "moduleProcessDefinition": {
          "identifier": "D14ECMAUTO-RE-ADD-MODULE-MODPD38_LPEEGHK-B.01",
          "stringifiedObjectReference": "SPIORLL:N:C2/#BRModuleProcessDefinition#F2#D14ECMAUTO-RE-ADD-MODULE-MODPD38_LPEEGHK-B.01"
        },
        "sameTimeReleaseInChangeNoticeFlag": false,
        "moduleProcessDefinitionInChangeNotice": {
          "identifier": "",
          "stringifiedObjectReference": ""
        },
        "stage": {
          "identifier": "RMG",
          "stringifiedObjectReference": "SPIORLL:N:C2/#BRStage#F2#RMG"
        },
        "operationNumber": "1400.3000",
        "processDefinition": {
          "identifier": "EG-ECMAUTO-ROUTEEDIT-NEW-QTLT3_MHSFEOL2HK-14LPE.01",
          "stringifiedObjectReference": "SPIORLL:N:C2/#BRProcessDefinition#F2#EG-ECMAUTO-ROUTEEDIT-NEW-QTLT3_MHSFEOL2HK-14LPE.01"
        },
        "pdiDefinitionFlag": false,
        "pdiDefinitionResetFlag": false,
        "mainDINotChangeFlag": false,
        "mainDIScriptNotChangeFlag": false,
        "photoLayer": {
          "identifier": "3GAUTO",
          "stringifiedObjectReference": "SPIORLL:N:C2/#BRPhotoLayer#F2#3GAUTO"
        },
        "carrierCategory": {
          "identifier": "BEOL",
          "stringifiedObjectReference": "SPIORLL:N:C2/#BRCarrierCategory#F2#BEOL"
        },
        "processOperationNumber": "",
        "correspondingOperations": [

        ],
        "responsibleOperationNumbers": [

        ],
        "recycleSamplingOperationNumber": "",
        "mandatoryOperationRequiredFlag": false,
        "autoBankInRequiredFlag": false,
        "endOfMonitorRelationFlag": false,
        "monitorGroupReleaseFlag": false,
        "flowBatchControl": {
          "sectionControlCategory": "",
          "name": "",
          "targetOperationFlag": false,
          "flowBatchingOffsetTime": 0.0,
          "maxBatchSize": 0,
          "minBatchSize": 0,
          "minWaferCount": 0
        },
        "pilotWaferProcessControl": {
          "name": "",
          "maxPilotProcessCount": 0
        },
        "defaultMeasDCSpec": {
          "identifier": "",
          "stringifiedObjectReference": ""
        },
        "measDCSpecsByTechnology": [

        ],
        "measDCSpecsByProductGroup": [

        ],
        "measDCSpecs": [

        ],
        "defaultTestSpec": {
          "identifier": "",
          "stringifiedObjectReference": ""
        },
        "testSpecsByTechnology": [

        ],
        "testSpecsByProductGroup": [

        ],
        "testSpecs": [

        ],
        "deltaDCDefinitions": [

        ],
        "defaultDeltaDCSpecs": [

        ],
        "deltaDCSpecsByTechnology": [

        ],
        "deltaDCSpecsByProductGroup": [

        ],
        "deltaDCSpecs": [

        ],
        "subProcessDefinitions": [

        ],
        "reworkProcessDefinitions": [

        ],
        "defaultReworkLimit": -1,
        "reworkLimitsByTechnology": [

        ],
        "reworkLimitsByProductGroup": [

        ],
        "reworkLimits": [

        ],
        "defaultProcessLimit": -1,
        "processLimitsByTechnology": [

        ],
        "processLimitsByProductGroup": [

        ],
        "processLimits": [

        ],
        "postScript": {
          "identifier": "",
          "stringifiedObjectReference": ""
        },
        "pre1Script": {
          "identifier": "",
          "stringifiedObjectReference": ""
        },
        "pre2Script": {
          "identifier": "",
          "stringifiedObjectReference": ""
        },
        "postScripts": [

        ],
        "pre1Scripts": [

        ],
        "pre2Scripts": [

        ],
        "defaultTimeRestrictions": [

        ],
        "timeRestrictionsByTechnology": [

        ],
        "timeRestrictionsByProductGroup": [

        ],
        "timeRestrictions": [

        ],
        "defaultReplaceTimeRestrictionsForSubRoute": [

        ],
        "replaceTimeRestrictionsByTechnologyForSubRoute": [

        ],
        "replaceTimeRestrictionsByProductGroupForSubRoute": [

        ],
        "replaceTimeRestrictionsForSubRoute": [

        ],
        "defaultReplaceTimeRestrictionsForReworkRoute": [

        ],
        "replaceTimeRestrictionsByTechnologyForReworkRoute": [

        ],
        "replaceTimeRestrictionsByProductGroupForReworkRoute": [

        ],
        "replaceTimeRestrictionsForReworkRoute": [

        ],
        "defaultProcessLagTime": 0,
        "processLagTimesByTechnology": [

        ],
        "processLagTimesByProductGroup": [

        ],
        "processLagTimes": [

        ],
        "equipmentMonitorSections": [

        ],
        "userDataSets": [

        ]
      },
      {
        "moduleNumber": "1400",
        "moduleProcessDefinition": {
          "identifier": "D14ECMAUTO-RE-ADD-MODULE-MODPD38_LPEEGHK-B.01",
          "stringifiedObjectReference": "SPIORLL:N:C2/#BRModuleProcessDefinition#F2#D14ECMAUTO-RE-ADD-MODULE-MODPD38_LPEEGHK-B.01"
        },
        "sameTimeReleaseInChangeNoticeFlag": false,
        "moduleProcessDefinitionInChangeNotice": {
          "identifier": "",
          "stringifiedObjectReference": ""
        },
        "stage": {
          "identifier": "RMG",
          "stringifiedObjectReference": "SPIORLL:N:C2/#BRStage#F2#RMG"
        },
        "operationNumber": "1400.4000",
        "processDefinition": {
          "identifier": "EG-ECMAUTO-ROUTEEDIT-NEW-QTLT4_MHSFEOL2HK-14LPE.01",
          "stringifiedObjectReference": "SPIORLL:N:C2/#BRProcessDefinition#F2#EG-ECMAUTO-ROUTEEDIT-NEW-QTLT4_MHSFEOL2HK-14LPE.01"
        },
        "pdiDefinitionFlag": false,
        "pdiDefinitionResetFlag": false,
        "mainDINotChangeFlag": false,
        "mainDIScriptNotChangeFlag": false,
        "photoLayer": {
          "identifier": "3GAUTO",
          "stringifiedObjectReference": "SPIORLL:N:C2/#BRPhotoLayer#F2#3GAUTO"
        },
        "carrierCategory": {
          "identifier": "BEOL",
          "stringifiedObjectReference": "SPIORLL:N:C2/#BRCarrierCategory#F2#BEOL"
        },
        "processOperationNumber": "",
        "correspondingOperations": [

        ],
        "responsibleOperationNumbers": [

        ],
        "recycleSamplingOperationNumber": "",
        "mandatoryOperationRequiredFlag": false,
        "autoBankInRequiredFlag": false,
        "endOfMonitorRelationFlag": false,
        "monitorGroupReleaseFlag": false,
        "flowBatchControl": {
          "sectionControlCategory": "",
          "name": "",
          "targetOperationFlag": false,
          "flowBatchingOffsetTime": 0.0,
          "maxBatchSize": 0,
          "minBatchSize": 0,
          "minWaferCount": 0
        },
        "pilotWaferProcessControl": {
          "name": "",
          "maxPilotProcessCount": 0
        },
        "defaultMeasDCSpec": {
          "identifier": "",
          "stringifiedObjectReference": ""
        },
        "measDCSpecsByTechnology": [

        ],
        "measDCSpecsByProductGroup": [

        ],
        "measDCSpecs": [

        ],
        "defaultTestSpec": {
          "identifier": "",
          "stringifiedObjectReference": ""
        },
        "testSpecsByTechnology": [

        ],
        "testSpecsByProductGroup": [

        ],
        "testSpecs": [

        ],
        "deltaDCDefinitions": [

        ],
        "defaultDeltaDCSpecs": [

        ],
        "deltaDCSpecsByTechnology": [

        ],
        "deltaDCSpecsByProductGroup": [

        ],
        "deltaDCSpecs": [

        ],
        "subProcessDefinitions": [

        ],
        "reworkProcessDefinitions": [

        ],
        "defaultReworkLimit": -1,
        "reworkLimitsByTechnology": [

        ],
        "reworkLimitsByProductGroup": [

        ],
        "reworkLimits": [

        ],
        "defaultProcessLimit": -1,
        "processLimitsByTechnology": [

        ],
        "processLimitsByProductGroup": [

        ],
        "processLimits": [

        ],
        "postScript": {
          "identifier": "",
          "stringifiedObjectReference": ""
        },
        "pre1Script": {
          "identifier": "",
          "stringifiedObjectReference": ""
        },
        "pre2Script": {
          "identifier": "",
          "stringifiedObjectReference": ""
        },
        "postScripts": [

        ],
        "pre1Scripts": [

        ],
        "pre2Scripts": [

        ],
        "defaultTimeRestrictions": [

        ],
        "timeRestrictionsByTechnology": [

        ],
        "timeRestrictionsByProductGroup": [

        ],
        "timeRestrictions": [

        ],
        "defaultReplaceTimeRestrictionsForSubRoute": [

        ],
        "replaceTimeRestrictionsByTechnologyForSubRoute": [

        ],
        "replaceTimeRestrictionsByProductGroupForSubRoute": [

        ],
        "replaceTimeRestrictionsForSubRoute": [

        ],
        "defaultReplaceTimeRestrictionsForReworkRoute": [

        ],
        "replaceTimeRestrictionsByTechnologyForReworkRoute": [

        ],
        "replaceTimeRestrictionsByProductGroupForReworkRoute": [

        ],
        "replaceTimeRestrictionsForReworkRoute": [

        ],
        "defaultProcessLagTime": 0,
        "processLagTimesByTechnology": [

        ],
        "processLagTimesByProductGroup": [

        ],
        "processLagTimes": [

        ],
        "equipmentMonitorSections": [

        ],
        "userDataSets": [

        ]
      },
      {
        "moduleNumber": "1600",
        "moduleProcessDefinition": {
          "identifier": "FABOUT.01",
          "stringifiedObjectReference": "SPIORLL:N:C2/#BRModuleProcessDefinition#F2#FABOUT.01"
        },
        "sameTimeReleaseInChangeNoticeFlag": false,
        "moduleProcessDefinitionInChangeNotice": {
          "identifier": "",
          "stringifiedObjectReference": ""
        },
        "stage": {
          "identifier": "DSF",
          "stringifiedObjectReference": "SPIORLL:N:C2/#BRStage#F2#DSF"
        },
        "operationNumber": "1600.9998",
        "processDefinition": {
          "identifier": "LOTSHIPDESIG.01",
          "stringifiedObjectReference": "SPIORLL:N:C2/#BRProcessDefinition#F2#LOTSHIPDESIG.01"
        },
        "pdiDefinitionFlag": false,
        "pdiDefinitionResetFlag": false,
        "mainDINotChangeFlag": false,
        "mainDIScriptNotChangeFlag": false,
        "photoLayer": {
          "identifier": "3GAUTO",
          "stringifiedObjectReference": "SPIORLL:N:C2/#BRPhotoLayer#F2#3GAUTO"
        },
        "carrierCategory": {
          "identifier": "BEOL",
          "stringifiedObjectReference": "SPIORLL:N:C2/#BRCarrierCategory#F2#BEOL"
        },
        "processOperationNumber": "",
        "correspondingOperations": [

        ],
        "responsibleOperationNumbers": [

        ],
        "recycleSamplingOperationNumber": "",
        "mandatoryOperationRequiredFlag": false,
        "autoBankInRequiredFlag": false,
        "endOfMonitorRelationFlag": false,
        "monitorGroupReleaseFlag": false,
        "flowBatchControl": {
          "sectionControlCategory": "",
          "name": "",
          "targetOperationFlag": false,
          "flowBatchingOffsetTime": 0.0,
          "maxBatchSize": 0,
          "minBatchSize": 0,
          "minWaferCount": 0
        },
        "pilotWaferProcessControl": {
          "name": "",
          "maxPilotProcessCount": 0
        },
        "defaultMeasDCSpec": {
          "identifier": "",
          "stringifiedObjectReference": ""
        },
        "measDCSpecsByTechnology": [

        ],
        "measDCSpecsByProductGroup": [

        ],
        "measDCSpecs": [

        ],
        "defaultTestSpec": {
          "identifier": "",
          "stringifiedObjectReference": ""
        },
        "testSpecsByTechnology": [

        ],
        "testSpecsByProductGroup": [

        ],
        "testSpecs": [

        ],
        "deltaDCDefinitions": [

        ],
        "defaultDeltaDCSpecs": [

        ],
        "deltaDCSpecsByTechnology": [

        ],
        "deltaDCSpecsByProductGroup": [

        ],
        "deltaDCSpecs": [

        ],
        "subProcessDefinitions": [

        ],
        "reworkProcessDefinitions": [

        ],
        "defaultReworkLimit": -1,
        "reworkLimitsByTechnology": [

        ],
        "reworkLimitsByProductGroup": [

        ],
        "reworkLimits": [

        ],
        "defaultProcessLimit": -1,
        "processLimitsByTechnology": [

        ],
        "processLimitsByProductGroup": [

        ],
        "processLimits": [

        ],
        "postScript": {
          "identifier": "",
          "stringifiedObjectReference": ""
        },
        "pre1Script": {
          "identifier": "",
          "stringifiedObjectReference": ""
        },
        "pre2Script": {
          "identifier": "",
          "stringifiedObjectReference": ""
        },
        "postScripts": [

        ],
        "pre1Scripts": [

        ],
        "pre2Scripts": [

        ],
        "defaultTimeRestrictions": [

        ],
        "timeRestrictionsByTechnology": [

        ],
        "timeRestrictionsByProductGroup": [

        ],
        "timeRestrictions": [

        ],
        "defaultReplaceTimeRestrictionsForSubRoute": [

        ],
        "replaceTimeRestrictionsByTechnologyForSubRoute": [

        ],
        "replaceTimeRestrictionsByProductGroupForSubRoute": [

        ],
        "replaceTimeRestrictionsForSubRoute": [

        ],
        "defaultReplaceTimeRestrictionsForReworkRoute": [

        ],
        "replaceTimeRestrictionsByTechnologyForReworkRoute": [

        ],
        "replaceTimeRestrictionsByProductGroupForReworkRoute": [

        ],
        "replaceTimeRestrictionsForReworkRoute": [

        ],
        "defaultProcessLagTime": 0,
        "processLagTimesByTechnology": [

        ],
        "processLagTimesByProductGroup": [

        ],
        "processLagTimes": [

        ],
        "equipmentMonitorSections": [

        ],
        "userDataSets": [

        ]
      },
      {
        "moduleNumber": "1600",
        "moduleProcessDefinition": {
          "identifier": "FABOUT.01",
          "stringifiedObjectReference": "SPIORLL:N:C2/#BRModuleProcessDefinition#F2#FABOUT.01"
        },
        "sameTimeReleaseInChangeNoticeFlag": false,
        "moduleProcessDefinitionInChangeNotice": {
          "identifier": "",
          "stringifiedObjectReference": ""
        },
        "stage": {
          "identifier": "DSF",
          "stringifiedObjectReference": "SPIORLL:N:C2/#BRStage#F2#DSF"
        },
        "operationNumber": "1600.9999",
        "processDefinition": {
          "identifier": "BANKIN.01",
          "stringifiedObjectReference": "SPIORLL:N:C2/#BRProcessDefinition#F2#BANKIN.01"
        },
        "pdiDefinitionFlag": false,
        "pdiDefinitionResetFlag": false,
        "mainDINotChangeFlag": false,
        "mainDIScriptNotChangeFlag": false,
        "photoLayer": {
          "identifier": "",
          "stringifiedObjectReference": ""
        },
        "carrierCategory": {
          "identifier": "",
          "stringifiedObjectReference": ""
        },
        "processOperationNumber": "",
        "correspondingOperations": [

        ],
        "responsibleOperationNumbers": [

        ],
        "recycleSamplingOperationNumber": "",
        "mandatoryOperationRequiredFlag": false,
        "autoBankInRequiredFlag": false,
        "endOfMonitorRelationFlag": false,
        "monitorGroupReleaseFlag": false,
        "flowBatchControl": {
          "sectionControlCategory": "",
          "name": "",
          "targetOperationFlag": false,
          "flowBatchingOffsetTime": 0.0,
          "maxBatchSize": 0,
          "minBatchSize": 0,
          "minWaferCount": 0
        },
        "pilotWaferProcessControl": {
          "name": "",
          "maxPilotProcessCount": 0
        },
        "defaultMeasDCSpec": {
          "identifier": "",
          "stringifiedObjectReference": ""
        },
        "measDCSpecsByTechnology": [

        ],
        "measDCSpecsByProductGroup": [

        ],
        "measDCSpecs": [

        ],
        "defaultTestSpec": {
          "identifier": "",
          "stringifiedObjectReference": ""
        },
        "testSpecsByTechnology": [

        ],
        "testSpecsByProductGroup": [

        ],
        "testSpecs": [

        ],
        "deltaDCDefinitions": [

        ],
        "defaultDeltaDCSpecs": [

        ],
        "deltaDCSpecsByTechnology": [

        ],
        "deltaDCSpecsByProductGroup": [

        ],
        "deltaDCSpecs": [

        ],
        "subProcessDefinitions": [

        ],
        "reworkProcessDefinitions": [

        ],
        "defaultReworkLimit": -1,
        "reworkLimitsByTechnology": [

        ],
        "reworkLimitsByProductGroup": [

        ],
        "reworkLimits": [

        ],
        "defaultProcessLimit": -1,
        "processLimitsByTechnology": [

        ],
        "processLimitsByProductGroup": [

        ],
        "processLimits": [

        ],
        "postScript": {
          "identifier": "",
          "stringifiedObjectReference": ""
        },
        "pre1Script": {
          "identifier": "",
          "stringifiedObjectReference": ""
        },
        "pre2Script": {
          "identifier": "",
          "stringifiedObjectReference": ""
        },
        "postScripts": [

        ],
        "pre1Scripts": [

        ],
        "pre2Scripts": [

        ],
        "defaultTimeRestrictions": [

        ],
        "timeRestrictionsByTechnology": [

        ],
        "timeRestrictionsByProductGroup": [

        ],
        "timeRestrictions": [

        ],
        "defaultReplaceTimeRestrictionsForSubRoute": [

        ],
        "replaceTimeRestrictionsByTechnologyForSubRoute": [

        ],
        "replaceTimeRestrictionsByProductGroupForSubRoute": [

        ],
        "replaceTimeRestrictionsForSubRoute": [

        ],
        "defaultReplaceTimeRestrictionsForReworkRoute": [

        ],
        "replaceTimeRestrictionsByTechnologyForReworkRoute": [

        ],
        "replaceTimeRestrictionsByProductGroupForReworkRoute": [

        ],
        "replaceTimeRestrictionsForReworkRoute": [

        ],
        "defaultProcessLagTime": 0,
        "processLagTimesByTechnology": [

        ],
        "processLagTimesByProductGroup": [

        ],
        "processLagTimes": [

        ],
        "equipmentMonitorSections": [

        ],
        "userDataSets": [

        ]
      }
    ],
    "expandFlag": {
      "_notNeedToExpand": 0,
      "notNeedToExpand": 0,
      "_needToExpand": 0,
      "needToExpand": 0,
      "_expanded": 0,
      "expanded": 0,
      "_needToLateExpand": 0,
      "needToLateExpand": 0
    },
    "dynamicRouteFlag": false,
    "mainDIGroup": {
      "identifier": "",
      "stringifiedObjectReference": ""
    },
    "userDataSets": [
      {
        "name": "RouteType",
        "type": "String",
        "value": "SL",
        "originator": ""
      },
      {
        "name": "RouteState",
        "type": "String",
        "value": "DEV",
        "originator": ""
      },
      {
        "name": "RouteTechnology",
        "type": "String",
        "value": "14LPE",
        "originator": ""
      },
      {
        "name": "RouteSubnode",
        "type": "String",
        "value": "14LPE",
        "originator": ""
      },
      {
        "name": "RouteProgramID",
        "type": "String",
        "value": "14LPE",
        "originator": ""
      }
    ],
    "siClassInfo": null
  }
}