{
  "objectId": {
    "identifier": "SL-ECMAUTO-LRA-MNPD08.01",
    "stringifiedObjectReference": "SPIORLL:N:C2/#BRMainProcessDefinition#F2#SL-ECMAUTO-LRA-MNPD08.01"
  },
  "propertyInfo": {
    "changeNotice": {
      "identifier": "",
      "stringifiedObjectReference": ""
    },
    "createdDateTime": "2017-12-02-05.42.47.534903",
    "createdUser": {
      "identifier": "X-UNITTEST",
      "stringifiedObjectReference": ""
    },
    "lastUpdatedDateTime": "2018-03-15-09.14.48.106636",
    "lastUpdatedUser": {
      "identifier": "asalla",
      "stringifiedObjectReference": ""
    },
    "lastCheckOutDateTime": "2018-03-15-09.38.35.554334",
    "lastCheckOutUser": {
      "identifier": "asalla",
      "stringifiedObjectReference": ""
    },
    "lastCheckInDateTime": "2018-03-15-09.38.37.106882",
    "lastCheckInUser": {
      "identifier": "asalla",
      "stringifiedObjectReference": ""
    },
    "lastReleasedDateTime": "2018-03-15-09.38.37.106882",
    "lastReleasedUser": {
      "identifier": "asalla",
      "stringifiedObjectReference": ""
    },
    "lastRollBackDateTime": "",
    "lastRollBackUser": {
      "identifier": "",
      "stringifiedObjectReference": ""
    },
    "lastArchivedDateTime": "",
    "lastArchivedUser": {
      "identifier": "",
      "stringifiedObjectReference": ""
    },
    "lastRestoredDateTime": "",
    "lastRestoredUser": {
      "identifier": "",
      "stringifiedObjectReference": ""
    },
    "lastActionUser": {
      "identifier": "asalla",
      "stringifiedObjectReference": ""
    },
    "lastActionDateTime": "2018-03-15-09.38.37.106882",
    "lastActionEventCode": "EVRLSOBJ",
    "lastComment": "",
    "currentInWorkState": "NotInWork",
    "currentSetUpState": "Released",
    "permission": "Group",
    "permissionRead": "Public",
    "permissionReleaseDelete": "Public",
    "userGroup": {
      "identifier": "FSS",
      "stringifiedObjectReference": "SPIORLL:N:C2/#BRUserGroup#F2#FSS"
    },
    "userGroupRead": {
      "identifier": "",
      "stringifiedObjectReference": ""
    },
    "userGroupReleaseDelete": {
      "identifier": "",
      "stringifiedObjectReference": ""
    },
    "owner": {
      "identifier": "snukala",
      "stringifiedObjectReference": "SPIORLL:N:C2/#BRUser#F2#snukala"
    },
    "batchReleaseFlag": false
  },
  "documentEntityInfo": {
    "documentSpecification": "SL-ECMAUTO-LRA-MNPD08",
    "activeFlag": false,
    "reserveFlag": false,
    "obsoleteFlag": false,
    "lastActivatedUser": {
      "identifier": "",
      "stringifiedObjectReference": ""
    },
    "lastActivatedDateTime": "",
    "lastInactivatedUser": {
      "identifier": "",
      "stringifiedObjectReference": ""
    },
    "lastInactivatedDateTime": "",
    "lastReservedUser": {
      "identifier": "",
      "stringifiedObjectReference": ""
    },
    "lastReservedDateTime": "",
    "lastCanceledReserveChangeActiveUser": {
      "identifier": "",
      "stringifiedObjectReference": ""
    },
    "lastCanceledReserveChangeActiveDateTime": "",
    "lastObsoleteUser": {
      "identifier": "",
      "stringifiedObjectReference": ""
    },
    "lastObsoleteDateTime": "",
    "lastCancelObsoleteUser": {
      "identifier": "",
      "stringifiedObjectReference": ""
    },
    "lastCancelObsoleteDateTime": ""
  },
  "classInfo": {
    "identifier": "SL-ECMAUTO-LRA-MNPD08.01",
    "mainProcessDefinitionId": "SL-ECMAUTO-LRA-MNPD08",
    "version": "01",
    "description": "SL-ECMAUTO-LRA-MNPD08",
    "mainProcessDefinitionType": "Production",
    "processFlowType": "Main",
    "monitorRouteFlag": false,
    "mfgLayer": {
      "identifier": "PROD",
      "stringifiedObjectReference": "SPIORLL:N:C2/#BRMFGLayer#F2#PROD"
    },
    "startBank": {
      "identifier": "O-ZEROINV",
      "stringifiedObjectReference": "SPIORLL:N:C2/#BRBank#F2#O-ZEROINV"
    },
    "endBank": {
      "identifier": "O-ENDFG",
      "stringifiedObjectReference": "SPIORLL:N:C2/#BRBank#F2#O-ENDFG"
    },
    "mainProcessDefinitionOwner": {
      "identifier": "aboggava",
      "stringifiedObjectReference": "SPIORLL:N:C2/#BRUser#F2#aboggava"
    },
    "moduleProcessDefinitions": [
      {
        "moduleNumber": "1000",
        "moduleProcessDefinitionId": "SL-ECMAUTO-LRA-MODPD34",
        "version": "01",
        "moduleProcessDefinition": {
          "identifier": "SL-ECMAUTO-LRA-MODPD34.01",
          "stringifiedObjectReference": "SPIORLL:N:C2/#BRModuleProcessDefinition#F2#SL-ECMAUTO-LRA-MODPD34.01"
        },
        "sameTimeReleaseInChangeNoticeFlag": false,
        "moduleProcessDefinitionInChangeNotice": {
          "identifier": "",
          "stringifiedObjectReference": ""
        },
        "stage": {
          "identifier": "RMG",
          "stringifiedObjectReference": "SPIORLL:N:C2/#BRStage#F2#RMG"
        }
      },
      {
        "moduleNumber": "2000",
        "moduleProcessDefinitionId": "SL-ECMAUTO-LRA-MODPD35",
        "version": "01",
        "moduleProcessDefinition": {
          "identifier": "SL-ECMAUTO-LRA-MODPD35.01",
          "stringifiedObjectReference": "SPIORLL:N:C2/#BRModuleProcessDefinition#F2#SL-ECMAUTO-LRA-MODPD35.01"
        },
        "sameTimeReleaseInChangeNoticeFlag": false,
        "moduleProcessDefinitionInChangeNotice": {
          "identifier": "",
          "stringifiedObjectReference": ""
        },
        "stage": {
          "identifier": "RMG",
          "stringifiedObjectReference": "SPIORLL:N:C2/#BRStage#F2#RMG"
        }
      },
      {
        "moduleNumber": "3000",
        "moduleProcessDefinitionId": "SL-ECMAUTO-LRA-MODPD36",
        "version": "01",
        "moduleProcessDefinition": {
          "identifier": "SL-ECMAUTO-LRA-MODPD36.01",
          "stringifiedObjectReference": "SPIORLL:N:C2/#BRModuleProcessDefinition#F2#SL-ECMAUTO-LRA-MODPD36.01"
        },
        "sameTimeReleaseInChangeNoticeFlag": false,
        "moduleProcessDefinitionInChangeNotice": {
          "identifier": "",
          "stringifiedObjectReference": ""
        },
        "stage": {
          "identifier": "SIL",
          "stringifiedObjectReference": "SPIORLL:N:C2/#BRStage#F2#SIL"
        }
      },
      {
        "moduleNumber": "4000",
        "moduleProcessDefinitionId": "SL-ECMAUTO-LRA-MODPD37",
        "version": "01",
        "moduleProcessDefinition": {
          "identifier": "SL-ECMAUTO-LRA-MODPD37.01",
          "stringifiedObjectReference": "SPIORLL:N:C2/#BRModuleProcessDefinition#F2#SL-ECMAUTO-LRA-MODPD37.01"
        },
        "sameTimeReleaseInChangeNoticeFlag": false,
        "moduleProcessDefinitionInChangeNotice": {
          "identifier": "",
          "stringifiedObjectReference": ""
        },
        "stage": {
          "identifier": "SIL",
          "stringifiedObjectReference": "SPIORLL:N:C2/#BRStage#F2#SIL"
        }
      },
      {
        "moduleNumber": "5000",
        "moduleProcessDefinitionId": "FABOUT",
        "version": "01",
        "moduleProcessDefinition": {
          "identifier": "FABOUT.01",
          "stringifiedObjectReference": "SPIORLL:N:C2/#BRModuleProcessDefinition#F2#FABOUT.01"
        },
        "sameTimeReleaseInChangeNoticeFlag": false,
        "moduleProcessDefinitionInChangeNotice": {
          "identifier": "",
          "stringifiedObjectReference": ""
        },
        "stage": {
          "identifier": "DSF",
          "stringifiedObjectReference": "SPIORLL:N:C2/#BRStage#F2#DSF"
        }
      }
    ],
    "mainProcessOperations": [
      {
        "moduleNumber": "1000",
        "moduleProcessDefinition": {
          "identifier": "SL-ECMAUTO-LRA-MODPD34.01",
          "stringifiedObjectReference": "SPIORLL:N:C2/#BRModuleProcessDefinition#F2#SL-ECMAUTO-LRA-MODPD34.01"
        },
        "sameTimeReleaseInChangeNoticeFlag": false,
        "moduleProcessDefinitionInChangeNotice": {
          "identifier": "",
          "stringifiedObjectReference": ""
        },
        "stage": {
          "identifier": "RMG",
          "stringifiedObjectReference": "SPIORLL:N:C2/#BRStage#F2#RMG"
        },
        "operationNumber": "1000.1000",
        "processDefinition": {
          "identifier": "ECMAUTO-LRA-PD134.01",
          "stringifiedObjectReference": "SPIORLL:N:C2/#BRProcessDefinition#F2#ECMAUTO-LRA-PD134.01"
        },
        "pdiDefinitionFlag": false,
        "pdiDefinitionResetFlag": false,
        "mainDINotChangeFlag": false,
        "mainDIScriptNotChangeFlag": false,
        "photoLayer": {
          "identifier": "3GAUTO",
          "stringifiedObjectReference": "SPIORLL:N:C2/#BRPhotoLayer#F2#3GAUTO"
        },
        "carrierCategory": {
          "identifier": "BEOP",
          "stringifiedObjectReference": "SPIORLL:N:C2/#BRCarrierCategory#F2#BEOP"
        },
        "processOperationNumber": "",
        "correspondingOperations": [

        ],
        "responsibleOperationNumbers": [

        ],
        "recycleSamplingOperationNumber": "",
        "mandatoryOperationRequiredFlag": false,
        "autoBankInRequiredFlag": false,
        "endOfMonitorRelationFlag": false,
        "monitorGroupReleaseFlag": false,
        "flowBatchControl": {
          "sectionControlCategory": "",
          "name": "",
          "targetOperationFlag": false,
          "flowBatchingOffsetTime": 0.0,
          "maxBatchSize": 0,
          "minBatchSize": 0,
          "minWaferCount": 0
        },
        "pilotWaferProcessControl": {
          "name": "",
          "maxPilotProcessCount": 0
        },
        "defaultMeasDCSpec": {
          "identifier": "",
          "stringifiedObjectReference": ""
        },
        "measDCSpecsByTechnology": [

        ],
        "measDCSpecsByProductGroup": [

        ],
        "measDCSpecs": [

        ],
        "defaultTestSpec": {
          "identifier": "",
          "stringifiedObjectReference": ""
        },
        "testSpecsByTechnology": [

        ],
        "testSpecsByProductGroup": [

        ],
        "testSpecs": [

        ],
        "deltaDCDefinitions": [

        ],
        "defaultDeltaDCSpecs": [

        ],
        "deltaDCSpecsByTechnology": [

        ],
        "deltaDCSpecsByProductGroup": [

        ],
        "deltaDCSpecs": [

        ],
        "subProcessDefinitions": [

        ],
        "reworkProcessDefinitions": [

        ],
        "defaultReworkLimit": -1,
        "reworkLimitsByTechnology": [

        ],
        "reworkLimitsByProductGroup": [

        ],
        "reworkLimits": [

        ],
        "defaultProcessLimit": -1,
        "processLimitsByTechnology": [

        ],
        "processLimitsByProductGroup": [

        ],
        "processLimits": [

        ],
        "postScript": {
          "identifier": "",
          "stringifiedObjectReference": ""
        },
        "pre1Script": {
          "identifier": "PCL-PRE1",
          "stringifiedObjectReference": "SPIORLL:N:C2/#BRScript#F2#PCL-PRE1"
        },
        "pre2Script": {
          "identifier": "",
          "stringifiedObjectReference": ""
        },
        "postScripts": [

        ],
        "pre1Scripts": [
          {
            "identifier": "PCL-PRE1",
            "stringifiedObjectReference": "SPIORLL:N:C2/#BRScript#F2#PCL-PRE1"
          }
        ],
        "pre2Scripts": [

        ],
        "defaultTimeRestrictions": [

        ],
        "timeRestrictionsByTechnology": [

        ],
        "timeRestrictionsByProductGroup": [

        ],
        "timeRestrictions": [

        ],
        "defaultReplaceTimeRestrictionsForSubRoute": [

        ],
        "replaceTimeRestrictionsByTechnologyForSubRoute": [

        ],
        "replaceTimeRestrictionsByProductGroupForSubRoute": [

        ],
        "replaceTimeRestrictionsForSubRoute": [

        ],
        "defaultReplaceTimeRestrictionsForReworkRoute": [

        ],
        "replaceTimeRestrictionsByTechnologyForReworkRoute": [

        ],
        "replaceTimeRestrictionsByProductGroupForReworkRoute": [

        ],
        "replaceTimeRestrictionsForReworkRoute": [

        ],
        "defaultProcessLagTime": 0,
        "processLagTimesByTechnology": [

        ],
        "processLagTimesByProductGroup": [

        ],
        "processLagTimes": [

        ],
        "equipmentMonitorSections": [

        ],
        "userDataSets": [

        ]
      },
      {
        "moduleNumber": "1000",
        "moduleProcessDefinition": {
          "identifier": "SL-ECMAUTO-LRA-MODPD34.01",
          "stringifiedObjectReference": "SPIORLL:N:C2/#BRModuleProcessDefinition#F2#SL-ECMAUTO-LRA-MODPD34.01"
        },
        "sameTimeReleaseInChangeNoticeFlag": false,
        "moduleProcessDefinitionInChangeNotice": {
          "identifier": "",
          "stringifiedObjectReference": ""
        },
        "stage": {
          "identifier": "RMG",
          "stringifiedObjectReference": "SPIORLL:N:C2/#BRStage#F2#RMG"
        },
        "operationNumber": "1000.2000",
        "processDefinition": {
          "identifier": "ECMAUTO-LRA-PD135.01",
          "stringifiedObjectReference": "SPIORLL:N:C2/#BRProcessDefinition#F2#ECMAUTO-LRA-PD135.01"
        },
        "pdiDefinitionFlag": false,
        "pdiDefinitionResetFlag": false,
        "mainDINotChangeFlag": false,
        "mainDIScriptNotChangeFlag": false,
        "photoLayer": {
          "identifier": "3GAUTO",
          "stringifiedObjectReference": "SPIORLL:N:C2/#BRPhotoLayer#F2#3GAUTO"
        },
        "carrierCategory": {
          "identifier": "BEOP",
          "stringifiedObjectReference": "SPIORLL:N:C2/#BRCarrierCategory#F2#BEOP"
        },
        "processOperationNumber": "",
        "correspondingOperations": [

        ],
        "responsibleOperationNumbers": [

        ],
        "recycleSamplingOperationNumber": "",
        "mandatoryOperationRequiredFlag": false,
        "autoBankInRequiredFlag": false,
        "endOfMonitorRelationFlag": false,
        "monitorGroupReleaseFlag": false,
        "flowBatchControl": {
          "sectionControlCategory": "",
          "name": "",
          "targetOperationFlag": false,
          "flowBatchingOffsetTime": 0.0,
          "maxBatchSize": 0,
          "minBatchSize": 0,
          "minWaferCount": 0
        },
        "pilotWaferProcessControl": {
          "name": "",
          "maxPilotProcessCount": 0
        },
        "defaultMeasDCSpec": {
          "identifier": "",
          "stringifiedObjectReference": ""
        },
        "measDCSpecsByTechnology": [

        ],
        "measDCSpecsByProductGroup": [

        ],
        "measDCSpecs": [

        ],
        "defaultTestSpec": {
          "identifier": "",
          "stringifiedObjectReference": ""
        },
        "testSpecsByTechnology": [

        ],
        "testSpecsByProductGroup": [

        ],
        "testSpecs": [

        ],
        "deltaDCDefinitions": [

        ],
        "defaultDeltaDCSpecs": [

        ],
        "deltaDCSpecsByTechnology": [

        ],
        "deltaDCSpecsByProductGroup": [

        ],
        "deltaDCSpecs": [

        ],
        "subProcessDefinitions": [

        ],
        "reworkProcessDefinitions": [

        ],
        "defaultReworkLimit": -1,
        "reworkLimitsByTechnology": [

        ],
        "reworkLimitsByProductGroup": [

        ],
        "reworkLimits": [

        ],
        "defaultProcessLimit": -1,
        "processLimitsByTechnology": [

        ],
        "processLimitsByProductGroup": [

        ],
        "processLimits": [

        ],
        "postScript": {
          "identifier": "",
          "stringifiedObjectReference": ""
        },
        "pre1Script": {
          "identifier": "PCL-PRE1",
          "stringifiedObjectReference": "SPIORLL:N:C2/#BRScript#F2#PCL-PRE1"
        },
        "pre2Script": {
          "identifier": "",
          "stringifiedObjectReference": ""
        },
        "postScripts": [

        ],
        "pre1Scripts": [
          {
            "identifier": "PCL-PRE1",
            "stringifiedObjectReference": "SPIORLL:N:C2/#BRScript#F2#PCL-PRE1"
          }
        ],
        "pre2Scripts": [

        ],
        "defaultTimeRestrictions": [

        ],
        "timeRestrictionsByTechnology": [

        ],
        "timeRestrictionsByProductGroup": [

        ],
        "timeRestrictions": [

        ],
        "defaultReplaceTimeRestrictionsForSubRoute": [

        ],
        "replaceTimeRestrictionsByTechnologyForSubRoute": [

        ],
        "replaceTimeRestrictionsByProductGroupForSubRoute": [

        ],
        "replaceTimeRestrictionsForSubRoute": [

        ],
        "defaultReplaceTimeRestrictionsForReworkRoute": [

        ],
        "replaceTimeRestrictionsByTechnologyForReworkRoute": [

        ],
        "replaceTimeRestrictionsByProductGroupForReworkRoute": [

        ],
        "replaceTimeRestrictionsForReworkRoute": [

        ],
        "defaultProcessLagTime": 0,
        "processLagTimesByTechnology": [

        ],
        "processLagTimesByProductGroup": [

        ],
        "processLagTimes": [

        ],
        "equipmentMonitorSections": [

        ],
        "userDataSets": [

        ]
      },
      {
        "moduleNumber": "1000",
        "moduleProcessDefinition": {
          "identifier": "SL-ECMAUTO-LRA-MODPD34.01",
          "stringifiedObjectReference": "SPIORLL:N:C2/#BRModuleProcessDefinition#F2#SL-ECMAUTO-LRA-MODPD34.01"
        },
        "sameTimeReleaseInChangeNoticeFlag": false,
        "moduleProcessDefinitionInChangeNotice": {
          "identifier": "",
          "stringifiedObjectReference": ""
        },
        "stage": {
          "identifier": "RMG",
          "stringifiedObjectReference": "SPIORLL:N:C2/#BRStage#F2#RMG"
        },
        "operationNumber": "1000.3000",
        "processDefinition": {
          "identifier": "ECMAUTO-LRA-PD136.01",
          "stringifiedObjectReference": "SPIORLL:N:C2/#BRProcessDefinition#F2#ECMAUTO-LRA-PD136.01"
        },
        "pdiDefinitionFlag": false,
        "pdiDefinitionResetFlag": false,
        "mainDINotChangeFlag": false,
        "mainDIScriptNotChangeFlag": false,
        "photoLayer": {
          "identifier": "3GAUTO",
          "stringifiedObjectReference": "SPIORLL:N:C2/#BRPhotoLayer#F2#3GAUTO"
        },
        "carrierCategory": {
          "identifier": "BEOP",
          "stringifiedObjectReference": "SPIORLL:N:C2/#BRCarrierCategory#F2#BEOP"
        },
        "processOperationNumber": "",
        "correspondingOperations": [

        ],
        "responsibleOperationNumbers": [

        ],
        "recycleSamplingOperationNumber": "",
        "mandatoryOperationRequiredFlag": false,
        "autoBankInRequiredFlag": false,
        "endOfMonitorRelationFlag": false,
        "monitorGroupReleaseFlag": false,
        "flowBatchControl": {
          "sectionControlCategory": "",
          "name": "",
          "targetOperationFlag": false,
          "flowBatchingOffsetTime": 0.0,
          "maxBatchSize": 0,
          "minBatchSize": 0,
          "minWaferCount": 0
        },
        "pilotWaferProcessControl": {
          "name": "",
          "maxPilotProcessCount": 0
        },
        "defaultMeasDCSpec": {
          "identifier": "",
          "stringifiedObjectReference": ""
        },
        "measDCSpecsByTechnology": [

        ],
        "measDCSpecsByProductGroup": [

        ],
        "measDCSpecs": [

        ],
        "defaultTestSpec": {
          "identifier": "",
          "stringifiedObjectReference": ""
        },
        "testSpecsByTechnology": [

        ],
        "testSpecsByProductGroup": [

        ],
        "testSpecs": [

        ],
        "deltaDCDefinitions": [

        ],
        "defaultDeltaDCSpecs": [

        ],
        "deltaDCSpecsByTechnology": [

        ],
        "deltaDCSpecsByProductGroup": [

        ],
        "deltaDCSpecs": [

        ],
        "subProcessDefinitions": [

        ],
        "reworkProcessDefinitions": [

        ],
        "defaultReworkLimit": -1,
        "reworkLimitsByTechnology": [

        ],
        "reworkLimitsByProductGroup": [

        ],
        "reworkLimits": [

        ],
        "defaultProcessLimit": -1,
        "processLimitsByTechnology": [

        ],
        "processLimitsByProductGroup": [

        ],
        "processLimits": [

        ],
        "postScript": {
          "identifier": "",
          "stringifiedObjectReference": ""
        },
        "pre1Script": {
          "identifier": "PCL-PRE1",
          "stringifiedObjectReference": "SPIORLL:N:C2/#BRScript#F2#PCL-PRE1"
        },
        "pre2Script": {
          "identifier": "",
          "stringifiedObjectReference": ""
        },
        "postScripts": [

        ],
        "pre1Scripts": [
          {
            "identifier": "PCL-PRE1",
            "stringifiedObjectReference": "SPIORLL:N:C2/#BRScript#F2#PCL-PRE1"
          }
        ],
        "pre2Scripts": [

        ],
        "defaultTimeRestrictions": [

        ],
        "timeRestrictionsByTechnology": [

        ],
        "timeRestrictionsByProductGroup": [

        ],
        "timeRestrictions": [

        ],
        "defaultReplaceTimeRestrictionsForSubRoute": [

        ],
        "replaceTimeRestrictionsByTechnologyForSubRoute": [

        ],
        "replaceTimeRestrictionsByProductGroupForSubRoute": [

        ],
        "replaceTimeRestrictionsForSubRoute": [

        ],
        "defaultReplaceTimeRestrictionsForReworkRoute": [

        ],
        "replaceTimeRestrictionsByTechnologyForReworkRoute": [

        ],
        "replaceTimeRestrictionsByProductGroupForReworkRoute": [

        ],
        "replaceTimeRestrictionsForReworkRoute": [

        ],
        "defaultProcessLagTime": 0,
        "processLagTimesByTechnology": [

        ],
        "processLagTimesByProductGroup": [

        ],
        "processLagTimes": [

        ],
        "equipmentMonitorSections": [

        ],
        "userDataSets": [

        ]
      },
      {
        "moduleNumber": "1000",
        "moduleProcessDefinition": {
          "identifier": "SL-ECMAUTO-LRA-MODPD34.01",
          "stringifiedObjectReference": "SPIORLL:N:C2/#BRModuleProcessDefinition#F2#SL-ECMAUTO-LRA-MODPD34.01"
        },
        "sameTimeReleaseInChangeNoticeFlag": false,
        "moduleProcessDefinitionInChangeNotice": {
          "identifier": "",
          "stringifiedObjectReference": ""
        },
        "stage": {
          "identifier": "RMG",
          "stringifiedObjectReference": "SPIORLL:N:C2/#BRStage#F2#RMG"
        },
        "operationNumber": "1000.4000",
        "processDefinition": {
          "identifier": "ECMAUTO-LRA-PD137.01",
          "stringifiedObjectReference": "SPIORLL:N:C2/#BRProcessDefinition#F2#ECMAUTO-LRA-PD137.01"
        },
        "pdiDefinitionFlag": false,
        "pdiDefinitionResetFlag": false,
        "mainDINotChangeFlag": false,
        "mainDIScriptNotChangeFlag": false,
        "photoLayer": {
          "identifier": "3GAUTO",
          "stringifiedObjectReference": "SPIORLL:N:C2/#BRPhotoLayer#F2#3GAUTO"
        },
        "carrierCategory": {
          "identifier": "BEOP",
          "stringifiedObjectReference": "SPIORLL:N:C2/#BRCarrierCategory#F2#BEOP"
        },
        "processOperationNumber": "",
        "correspondingOperations": [

        ],
        "responsibleOperationNumbers": [

        ],
        "recycleSamplingOperationNumber": "",
        "mandatoryOperationRequiredFlag": false,
        "autoBankInRequiredFlag": false,
        "endOfMonitorRelationFlag": false,
        "monitorGroupReleaseFlag": false,
        "flowBatchControl": {
          "sectionControlCategory": "",
          "name": "",
          "targetOperationFlag": false,
          "flowBatchingOffsetTime": 0.0,
          "maxBatchSize": 0,
          "minBatchSize": 0,
          "minWaferCount": 0
        },
        "pilotWaferProcessControl": {
          "name": "",
          "maxPilotProcessCount": 0
        },
        "defaultMeasDCSpec": {
          "identifier": "",
          "stringifiedObjectReference": ""
        },
        "measDCSpecsByTechnology": [

        ],
        "measDCSpecsByProductGroup": [

        ],
        "measDCSpecs": [

        ],
        "defaultTestSpec": {
          "identifier": "",
          "stringifiedObjectReference": ""
        },
        "testSpecsByTechnology": [

        ],
        "testSpecsByProductGroup": [

        ],
        "testSpecs": [

        ],
        "deltaDCDefinitions": [

        ],
        "defaultDeltaDCSpecs": [

        ],
        "deltaDCSpecsByTechnology": [

        ],
        "deltaDCSpecsByProductGroup": [

        ],
        "deltaDCSpecs": [

        ],
        "subProcessDefinitions": [

        ],
        "reworkProcessDefinitions": [

        ],
        "defaultReworkLimit": -1,
        "reworkLimitsByTechnology": [

        ],
        "reworkLimitsByProductGroup": [

        ],
        "reworkLimits": [

        ],
        "defaultProcessLimit": -1,
        "processLimitsByTechnology": [

        ],
        "processLimitsByProductGroup": [

        ],
        "processLimits": [

        ],
        "postScript": {
          "identifier": "",
          "stringifiedObjectReference": ""
        },
        "pre1Script": {
          "identifier": "PCL-PRE1",
          "stringifiedObjectReference": "SPIORLL:N:C2/#BRScript#F2#PCL-PRE1"
        },
        "pre2Script": {
          "identifier": "",
          "stringifiedObjectReference": ""
        },
        "postScripts": [

        ],
        "pre1Scripts": [
          {
            "identifier": "PCL-PRE1",
            "stringifiedObjectReference": "SPIORLL:N:C2/#BRScript#F2#PCL-PRE1"
          }
        ],
        "pre2Scripts": [

        ],
        "defaultTimeRestrictions": [

        ],
        "timeRestrictionsByTechnology": [

        ],
        "timeRestrictionsByProductGroup": [

        ],
        "timeRestrictions": [

        ],
        "defaultReplaceTimeRestrictionsForSubRoute": [

        ],
        "replaceTimeRestrictionsByTechnologyForSubRoute": [

        ],
        "replaceTimeRestrictionsByProductGroupForSubRoute": [

        ],
        "replaceTimeRestrictionsForSubRoute": [

        ],
        "defaultReplaceTimeRestrictionsForReworkRoute": [

        ],
        "replaceTimeRestrictionsByTechnologyForReworkRoute": [

        ],
        "replaceTimeRestrictionsByProductGroupForReworkRoute": [

        ],
        "replaceTimeRestrictionsForReworkRoute": [

        ],
        "defaultProcessLagTime": 0,
        "processLagTimesByTechnology": [

        ],
        "processLagTimesByProductGroup": [

        ],
        "processLagTimes": [

        ],
        "equipmentMonitorSections": [

        ],
        "userDataSets": [

        ]
      },
      {
        "moduleNumber": "2000",
        "moduleProcessDefinition": {
          "identifier": "SL-ECMAUTO-LRA-MODPD35.01",
          "stringifiedObjectReference": "SPIORLL:N:C2/#BRModuleProcessDefinition#F2#SL-ECMAUTO-LRA-MODPD35.01"
        },
        "sameTimeReleaseInChangeNoticeFlag": false,
        "moduleProcessDefinitionInChangeNotice": {
          "identifier": "",
          "stringifiedObjectReference": ""
        },
        "stage": {
          "identifier": "RMG",
          "stringifiedObjectReference": "SPIORLL:N:C2/#BRStage#F2#RMG"
        },
        "operationNumber": "2000.1000",
        "processDefinition": {
          "identifier": "ECMAUTO-LRA-PD138.01",
          "stringifiedObjectReference": "SPIORLL:N:C2/#BRProcessDefinition#F2#ECMAUTO-LRA-PD138.01"
        },
        "pdiDefinitionFlag": false,
        "pdiDefinitionResetFlag": false,
        "mainDINotChangeFlag": false,
        "mainDIScriptNotChangeFlag": false,
        "photoLayer": {
          "identifier": "3GAUTO",
          "stringifiedObjectReference": "SPIORLL:N:C2/#BRPhotoLayer#F2#3GAUTO"
        },
        "carrierCategory": {
          "identifier": "BEOP",
          "stringifiedObjectReference": "SPIORLL:N:C2/#BRCarrierCategory#F2#BEOP"
        },
        "processOperationNumber": "",
        "correspondingOperations": [

        ],
        "responsibleOperationNumbers": [
          "2000.1000"
        ],
        "recycleSamplingOperationNumber": "",
        "mandatoryOperationRequiredFlag": false,
        "autoBankInRequiredFlag": false,
        "endOfMonitorRelationFlag": false,
        "monitorGroupReleaseFlag": false,
        "flowBatchControl": {
          "sectionControlCategory": "",
          "name": "",
          "targetOperationFlag": false,
          "flowBatchingOffsetTime": 0.0,
          "maxBatchSize": 0,
          "minBatchSize": 0,
          "minWaferCount": 0
        },
        "pilotWaferProcessControl": {
          "name": "",
          "maxPilotProcessCount": 0
        },
        "defaultMeasDCSpec": {
          "identifier": "",
          "stringifiedObjectReference": ""
        },
        "measDCSpecsByTechnology": [

        ],
        "measDCSpecsByProductGroup": [

        ],
        "measDCSpecs": [

        ],
        "defaultTestSpec": {
          "identifier": "",
          "stringifiedObjectReference": ""
        },
        "testSpecsByTechnology": [

        ],
        "testSpecsByProductGroup": [

        ],
        "testSpecs": [

        ],
        "deltaDCDefinitions": [

        ],
        "defaultDeltaDCSpecs": [

        ],
        "deltaDCSpecsByTechnology": [

        ],
        "deltaDCSpecsByProductGroup": [

        ],
        "deltaDCSpecs": [

        ],
        "subProcessDefinitions": [

        ],
        "reworkProcessDefinitions": [

        ],
        "defaultReworkLimit": -1,
        "reworkLimitsByTechnology": [

        ],
        "reworkLimitsByProductGroup": [

        ],
        "reworkLimits": [

        ],
        "defaultProcessLimit": -1,
        "processLimitsByTechnology": [

        ],
        "processLimitsByProductGroup": [

        ],
        "processLimits": [

        ],
        "postScript": {
          "identifier": "",
          "stringifiedObjectReference": ""
        },
        "pre1Script": {
          "identifier": "PCL-PRE1",
          "stringifiedObjectReference": "SPIORLL:N:C2/#BRScript#F2#PCL-PRE1"
        },
        "pre2Script": {
          "identifier": "",
          "stringifiedObjectReference": ""
        },
        "postScripts": [

        ],
        "pre1Scripts": [
          {
            "identifier": "PCL-PRE1",
            "stringifiedObjectReference": "SPIORLL:N:C2/#BRScript#F2#PCL-PRE1"
          }
        ],
        "pre2Scripts": [

        ],
        "defaultTimeRestrictions": [

        ],
        "timeRestrictionsByTechnology": [

        ],
        "timeRestrictionsByProductGroup": [

        ],
        "timeRestrictions": [

        ],
        "defaultReplaceTimeRestrictionsForSubRoute": [

        ],
        "replaceTimeRestrictionsByTechnologyForSubRoute": [

        ],
        "replaceTimeRestrictionsByProductGroupForSubRoute": [

        ],
        "replaceTimeRestrictionsForSubRoute": [

        ],
        "defaultReplaceTimeRestrictionsForReworkRoute": [

        ],
        "replaceTimeRestrictionsByTechnologyForReworkRoute": [

        ],
        "replaceTimeRestrictionsByProductGroupForReworkRoute": [

        ],
        "replaceTimeRestrictionsForReworkRoute": [

        ],
        "defaultProcessLagTime": 0,
        "processLagTimesByTechnology": [

        ],
        "processLagTimesByProductGroup": [

        ],
        "processLagTimes": [

        ],
        "equipmentMonitorSections": [

        ],
        "userDataSets": [

        ]
      },
      {
        "moduleNumber": "2000",
        "moduleProcessDefinition": {
          "identifier": "SL-ECMAUTO-LRA-MODPD35.01",
          "stringifiedObjectReference": "SPIORLL:N:C2/#BRModuleProcessDefinition#F2#SL-ECMAUTO-LRA-MODPD35.01"
        },
        "sameTimeReleaseInChangeNoticeFlag": false,
        "moduleProcessDefinitionInChangeNotice": {
          "identifier": "",
          "stringifiedObjectReference": ""
        },
        "stage": {
          "identifier": "RMG",
          "stringifiedObjectReference": "SPIORLL:N:C2/#BRStage#F2#RMG"
        },
        "operationNumber": "2000.2000",
        "processDefinition": {
          "identifier": "ECMAUTO-LRA-PD139.01",
          "stringifiedObjectReference": "SPIORLL:N:C2/#BRProcessDefinition#F2#ECMAUTO-LRA-PD139.01"
        },
        "pdiDefinitionFlag": false,
        "pdiDefinitionResetFlag": false,
        "mainDINotChangeFlag": false,
        "mainDIScriptNotChangeFlag": false,
        "photoLayer": {
          "identifier": "3GAUTO",
          "stringifiedObjectReference": "SPIORLL:N:C2/#BRPhotoLayer#F2#3GAUTO"
        },
        "carrierCategory": {
          "identifier": "BEOP",
          "stringifiedObjectReference": "SPIORLL:N:C2/#BRCarrierCategory#F2#BEOP"
        },
        "processOperationNumber": "",
        "correspondingOperations": [

        ],
        "responsibleOperationNumbers": [

        ],
        "recycleSamplingOperationNumber": "",
        "mandatoryOperationRequiredFlag": false,
        "autoBankInRequiredFlag": false,
        "endOfMonitorRelationFlag": false,
        "monitorGroupReleaseFlag": false,
        "flowBatchControl": {
          "sectionControlCategory": "",
          "name": "",
          "targetOperationFlag": false,
          "flowBatchingOffsetTime": 0.0,
          "maxBatchSize": 0,
          "minBatchSize": 0,
          "minWaferCount": 0
        },
        "pilotWaferProcessControl": {
          "name": "",
          "maxPilotProcessCount": 0
        },
        "defaultMeasDCSpec": {
          "identifier": "",
          "stringifiedObjectReference": ""
        },
        "measDCSpecsByTechnology": [

        ],
        "measDCSpecsByProductGroup": [

        ],
        "measDCSpecs": [

        ],
        "defaultTestSpec": {
          "identifier": "",
          "stringifiedObjectReference": ""
        },
        "testSpecsByTechnology": [

        ],
        "testSpecsByProductGroup": [

        ],
        "testSpecs": [

        ],
        "deltaDCDefinitions": [

        ],
        "defaultDeltaDCSpecs": [

        ],
        "deltaDCSpecsByTechnology": [

        ],
        "deltaDCSpecsByProductGroup": [

        ],
        "deltaDCSpecs": [

        ],
        "subProcessDefinitions": [

        ],
        "reworkProcessDefinitions": [

        ],
        "defaultReworkLimit": -1,
        "reworkLimitsByTechnology": [

        ],
        "reworkLimitsByProductGroup": [

        ],
        "reworkLimits": [

        ],
        "defaultProcessLimit": -1,
        "processLimitsByTechnology": [

        ],
        "processLimitsByProductGroup": [

        ],
        "processLimits": [

        ],
        "postScript": {
          "identifier": "",
          "stringifiedObjectReference": ""
        },
        "pre1Script": {
          "identifier": "PCL-PRE1",
          "stringifiedObjectReference": "SPIORLL:N:C2/#BRScript#F2#PCL-PRE1"
        },
        "pre2Script": {
          "identifier": "",
          "stringifiedObjectReference": ""
        },
        "postScripts": [

        ],
        "pre1Scripts": [
          {
            "identifier": "PCL-PRE1",
            "stringifiedObjectReference": "SPIORLL:N:C2/#BRScript#F2#PCL-PRE1"
          }
        ],
        "pre2Scripts": [

        ],
        "defaultTimeRestrictions": [

        ],
        "timeRestrictionsByTechnology": [

        ],
        "timeRestrictionsByProductGroup": [

        ],
        "timeRestrictions": [

        ],
        "defaultReplaceTimeRestrictionsForSubRoute": [

        ],
        "replaceTimeRestrictionsByTechnologyForSubRoute": [

        ],
        "replaceTimeRestrictionsByProductGroupForSubRoute": [

        ],
        "replaceTimeRestrictionsForSubRoute": [

        ],
        "defaultReplaceTimeRestrictionsForReworkRoute": [

        ],
        "replaceTimeRestrictionsByTechnologyForReworkRoute": [

        ],
        "replaceTimeRestrictionsByProductGroupForReworkRoute": [

        ],
        "replaceTimeRestrictionsForReworkRoute": [

        ],
        "defaultProcessLagTime": 0,
        "processLagTimesByTechnology": [

        ],
        "processLagTimesByProductGroup": [

        ],
        "processLagTimes": [

        ],
        "equipmentMonitorSections": [

        ],
        "userDataSets": [

        ]
      },
      {
        "moduleNumber": "2000",
        "moduleProcessDefinition": {
          "identifier": "SL-ECMAUTO-LRA-MODPD35.01",
          "stringifiedObjectReference": "SPIORLL:N:C2/#BRModuleProcessDefinition#F2#SL-ECMAUTO-LRA-MODPD35.01"
        },
        "sameTimeReleaseInChangeNoticeFlag": false,
        "moduleProcessDefinitionInChangeNotice": {
          "identifier": "",
          "stringifiedObjectReference": ""
        },
        "stage": {
          "identifier": "RMG",
          "stringifiedObjectReference": "SPIORLL:N:C2/#BRStage#F2#RMG"
        },
        "operationNumber": "2000.3000",
        "processDefinition": {
          "identifier": "ECMAUTO-LRA-PD140.01",
          "stringifiedObjectReference": "SPIORLL:N:C2/#BRProcessDefinition#F2#ECMAUTO-LRA-PD140.01"
        },
        "pdiDefinitionFlag": false,
        "pdiDefinitionResetFlag": false,
        "mainDINotChangeFlag": false,
        "mainDIScriptNotChangeFlag": false,
        "photoLayer": {
          "identifier": "3GAUTO",
          "stringifiedObjectReference": "SPIORLL:N:C2/#BRPhotoLayer#F2#3GAUTO"
        },
        "carrierCategory": {
          "identifier": "BEOP",
          "stringifiedObjectReference": "SPIORLL:N:C2/#BRCarrierCategory#F2#BEOP"
        },
        "processOperationNumber": "",
        "correspondingOperations": [

        ],
        "responsibleOperationNumbers": [

        ],
        "recycleSamplingOperationNumber": "",
        "mandatoryOperationRequiredFlag": false,
        "autoBankInRequiredFlag": false,
        "endOfMonitorRelationFlag": false,
        "monitorGroupReleaseFlag": false,
        "flowBatchControl": {
          "sectionControlCategory": "",
          "name": "",
          "targetOperationFlag": false,
          "flowBatchingOffsetTime": 0.0,
          "maxBatchSize": 0,
          "minBatchSize": 0,
          "minWaferCount": 0
        },
        "pilotWaferProcessControl": {
          "name": "",
          "maxPilotProcessCount": 0
        },
        "defaultMeasDCSpec": {
          "identifier": "",
          "stringifiedObjectReference": ""
        },
        "measDCSpecsByTechnology": [

        ],
        "measDCSpecsByProductGroup": [

        ],
        "measDCSpecs": [

        ],
        "defaultTestSpec": {
          "identifier": "",
          "stringifiedObjectReference": ""
        },
        "testSpecsByTechnology": [

        ],
        "testSpecsByProductGroup": [

        ],
        "testSpecs": [

        ],
        "deltaDCDefinitions": [

        ],
        "defaultDeltaDCSpecs": [

        ],
        "deltaDCSpecsByTechnology": [

        ],
        "deltaDCSpecsByProductGroup": [

        ],
        "deltaDCSpecs": [

        ],
        "subProcessDefinitions": [

        ],
        "reworkProcessDefinitions": [

        ],
        "defaultReworkLimit": -1,
        "reworkLimitsByTechnology": [

        ],
        "reworkLimitsByProductGroup": [

        ],
        "reworkLimits": [

        ],
        "defaultProcessLimit": -1,
        "processLimitsByTechnology": [

        ],
        "processLimitsByProductGroup": [

        ],
        "processLimits": [

        ],
        "postScript": {
          "identifier": "",
          "stringifiedObjectReference": ""
        },
        "pre1Script": {
          "identifier": "PCL-PRE1",
          "stringifiedObjectReference": "SPIORLL:N:C2/#BRScript#F2#PCL-PRE1"
        },
        "pre2Script": {
          "identifier": "",
          "stringifiedObjectReference": ""
        },
        "postScripts": [

        ],
        "pre1Scripts": [
          {
            "identifier": "PCL-PRE1",
            "stringifiedObjectReference": "SPIORLL:N:C2/#BRScript#F2#PCL-PRE1"
          }
        ],
        "pre2Scripts": [

        ],
        "defaultTimeRestrictions": [

        ],
        "timeRestrictionsByTechnology": [

        ],
        "timeRestrictionsByProductGroup": [

        ],
        "timeRestrictions": [

        ],
        "defaultReplaceTimeRestrictionsForSubRoute": [

        ],
        "replaceTimeRestrictionsByTechnologyForSubRoute": [

        ],
        "replaceTimeRestrictionsByProductGroupForSubRoute": [

        ],
        "replaceTimeRestrictionsForSubRoute": [

        ],
        "defaultReplaceTimeRestrictionsForReworkRoute": [

        ],
        "replaceTimeRestrictionsByTechnologyForReworkRoute": [

        ],
        "replaceTimeRestrictionsByProductGroupForReworkRoute": [

        ],
        "replaceTimeRestrictionsForReworkRoute": [

        ],
        "defaultProcessLagTime": 0,
        "processLagTimesByTechnology": [

        ],
        "processLagTimesByProductGroup": [

        ],
        "processLagTimes": [

        ],
        "equipmentMonitorSections": [

        ],
        "userDataSets": [

        ]
      },
      {
        "moduleNumber": "2000",
        "moduleProcessDefinition": {
          "identifier": "SL-ECMAUTO-LRA-MODPD35.01",
          "stringifiedObjectReference": "SPIORLL:N:C2/#BRModuleProcessDefinition#F2#SL-ECMAUTO-LRA-MODPD35.01"
        },
        "sameTimeReleaseInChangeNoticeFlag": false,
        "moduleProcessDefinitionInChangeNotice": {
          "identifier": "",
          "stringifiedObjectReference": ""
        },
        "stage": {
          "identifier": "RMG",
          "stringifiedObjectReference": "SPIORLL:N:C2/#BRStage#F2#RMG"
        },
        "operationNumber": "2000.4000",
        "processDefinition": {
          "identifier": "ECMAUTO-LRA-PD141.01",
          "stringifiedObjectReference": "SPIORLL:N:C2/#BRProcessDefinition#F2#ECMAUTO-LRA-PD141.01"
        },
        "pdiDefinitionFlag": false,
        "pdiDefinitionResetFlag": false,
        "mainDINotChangeFlag": false,
        "mainDIScriptNotChangeFlag": false,
        "photoLayer": {
          "identifier": "3GAUTO",
          "stringifiedObjectReference": "SPIORLL:N:C2/#BRPhotoLayer#F2#3GAUTO"
        },
        "carrierCategory": {
          "identifier": "BEOP",
          "stringifiedObjectReference": "SPIORLL:N:C2/#BRCarrierCategory#F2#BEOP"
        },
        "processOperationNumber": "",
        "correspondingOperations": [

        ],
        "responsibleOperationNumbers": [

        ],
        "recycleSamplingOperationNumber": "",
        "mandatoryOperationRequiredFlag": false,
        "autoBankInRequiredFlag": false,
        "endOfMonitorRelationFlag": false,
        "monitorGroupReleaseFlag": false,
        "flowBatchControl": {
          "sectionControlCategory": "",
          "name": "",
          "targetOperationFlag": false,
          "flowBatchingOffsetTime": 0.0,
          "maxBatchSize": 0,
          "minBatchSize": 0,
          "minWaferCount": 0
        },
        "pilotWaferProcessControl": {
          "name": "",
          "maxPilotProcessCount": 0
        },
        "defaultMeasDCSpec": {
          "identifier": "",
          "stringifiedObjectReference": ""
        },
        "measDCSpecsByTechnology": [

        ],
        "measDCSpecsByProductGroup": [

        ],
        "measDCSpecs": [

        ],
        "defaultTestSpec": {
          "identifier": "",
          "stringifiedObjectReference": ""
        },
        "testSpecsByTechnology": [

        ],
        "testSpecsByProductGroup": [

        ],
        "testSpecs": [

        ],
        "deltaDCDefinitions": [

        ],
        "defaultDeltaDCSpecs": [

        ],
        "deltaDCSpecsByTechnology": [

        ],
        "deltaDCSpecsByProductGroup": [

        ],
        "deltaDCSpecs": [

        ],
        "subProcessDefinitions": [

        ],
        "reworkProcessDefinitions": [

        ],
        "defaultReworkLimit": -1,
        "reworkLimitsByTechnology": [

        ],
        "reworkLimitsByProductGroup": [

        ],
        "reworkLimits": [

        ],
        "defaultProcessLimit": -1,
        "processLimitsByTechnology": [

        ],
        "processLimitsByProductGroup": [

        ],
        "processLimits": [

        ],
        "postScript": {
          "identifier": "",
          "stringifiedObjectReference": ""
        },
        "pre1Script": {
          "identifier": "PCL-PRE1",
          "stringifiedObjectReference": "SPIORLL:N:C2/#BRScript#F2#PCL-PRE1"
        },
        "pre2Script": {
          "identifier": "",
          "stringifiedObjectReference": ""
        },
        "postScripts": [

        ],
        "pre1Scripts": [
          {
            "identifier": "PCL-PRE1",
            "stringifiedObjectReference": "SPIORLL:N:C2/#BRScript#F2#PCL-PRE1"
          }
        ],
        "pre2Scripts": [

        ],
        "defaultTimeRestrictions": [

        ],
        "timeRestrictionsByTechnology": [

        ],
        "timeRestrictionsByProductGroup": [

        ],
        "timeRestrictions": [

        ],
        "defaultReplaceTimeRestrictionsForSubRoute": [

        ],
        "replaceTimeRestrictionsByTechnologyForSubRoute": [

        ],
        "replaceTimeRestrictionsByProductGroupForSubRoute": [

        ],
        "replaceTimeRestrictionsForSubRoute": [

        ],
        "defaultReplaceTimeRestrictionsForReworkRoute": [

        ],
        "replaceTimeRestrictionsByTechnologyForReworkRoute": [

        ],
        "replaceTimeRestrictionsByProductGroupForReworkRoute": [

        ],
        "replaceTimeRestrictionsForReworkRoute": [

        ],
        "defaultProcessLagTime": 0,
        "processLagTimesByTechnology": [

        ],
        "processLagTimesByProductGroup": [

        ],
        "processLagTimes": [

        ],
        "equipmentMonitorSections": [

        ],
        "userDataSets": [

        ]
      },
      {
        "moduleNumber": "3000",
        "moduleProcessDefinition": {
          "identifier": "SL-ECMAUTO-LRA-MODPD36.01",
          "stringifiedObjectReference": "SPIORLL:N:C2/#BRModuleProcessDefinition#F2#SL-ECMAUTO-LRA-MODPD36.01"
        },
        "sameTimeReleaseInChangeNoticeFlag": false,
        "moduleProcessDefinitionInChangeNotice": {
          "identifier": "",
          "stringifiedObjectReference": ""
        },
        "stage": {
          "identifier": "SIL",
          "stringifiedObjectReference": "SPIORLL:N:C2/#BRStage#F2#SIL"
        },
        "operationNumber": "3000.1000",
        "processDefinition": {
          "identifier": "ECMAUTO-LRA-PD142.01",
          "stringifiedObjectReference": "SPIORLL:N:C2/#BRProcessDefinition#F2#ECMAUTO-LRA-PD142.01"
        },
        "pdiDefinitionFlag": false,
        "pdiDefinitionResetFlag": false,
        "mainDINotChangeFlag": false,
        "mainDIScriptNotChangeFlag": false,
        "photoLayer": {
          "identifier": "3GAUTO",
          "stringifiedObjectReference": "SPIORLL:N:C2/#BRPhotoLayer#F2#3GAUTO"
        },
        "carrierCategory": {
          "identifier": "BEOP",
          "stringifiedObjectReference": "SPIORLL:N:C2/#BRCarrierCategory#F2#BEOP"
        },
        "processOperationNumber": "",
        "correspondingOperations": [

        ],
        "responsibleOperationNumbers": [

        ],
        "recycleSamplingOperationNumber": "",
        "mandatoryOperationRequiredFlag": false,
        "autoBankInRequiredFlag": false,
        "endOfMonitorRelationFlag": false,
        "monitorGroupReleaseFlag": false,
        "flowBatchControl": {
          "sectionControlCategory": "",
          "name": "",
          "targetOperationFlag": false,
          "flowBatchingOffsetTime": 0.0,
          "maxBatchSize": 0,
          "minBatchSize": 0,
          "minWaferCount": 0
        },
        "pilotWaferProcessControl": {
          "name": "",
          "maxPilotProcessCount": 0
        },
        "defaultMeasDCSpec": {
          "identifier": "",
          "stringifiedObjectReference": ""
        },
        "measDCSpecsByTechnology": [

        ],
        "measDCSpecsByProductGroup": [

        ],
        "measDCSpecs": [

        ],
        "defaultTestSpec": {
          "identifier": "",
          "stringifiedObjectReference": ""
        },
        "testSpecsByTechnology": [

        ],
        "testSpecsByProductGroup": [

        ],
        "testSpecs": [

        ],
        "deltaDCDefinitions": [

        ],
        "defaultDeltaDCSpecs": [

        ],
        "deltaDCSpecsByTechnology": [

        ],
        "deltaDCSpecsByProductGroup": [

        ],
        "deltaDCSpecs": [

        ],
        "subProcessDefinitions": [

        ],
        "reworkProcessDefinitions": [

        ],
        "defaultReworkLimit": -1,
        "reworkLimitsByTechnology": [

        ],
        "reworkLimitsByProductGroup": [

        ],
        "reworkLimits": [

        ],
        "defaultProcessLimit": -1,
        "processLimitsByTechnology": [

        ],
        "processLimitsByProductGroup": [

        ],
        "processLimits": [

        ],
        "postScript": {
          "identifier": "",
          "stringifiedObjectReference": ""
        },
        "pre1Script": {
          "identifier": "PCL-PRE1",
          "stringifiedObjectReference": "SPIORLL:N:C2/#BRScript#F2#PCL-PRE1"
        },
        "pre2Script": {
          "identifier": "",
          "stringifiedObjectReference": ""
        },
        "postScripts": [

        ],
        "pre1Scripts": [
          {
            "identifier": "PCL-PRE1",
            "stringifiedObjectReference": "SPIORLL:N:C2/#BRScript#F2#PCL-PRE1"
          }
        ],
        "pre2Scripts": [

        ],
        "defaultTimeRestrictions": [

        ],
        "timeRestrictionsByTechnology": [

        ],
        "timeRestrictionsByProductGroup": [

        ],
        "timeRestrictions": [

        ],
        "defaultReplaceTimeRestrictionsForSubRoute": [

        ],
        "replaceTimeRestrictionsByTechnologyForSubRoute": [

        ],
        "replaceTimeRestrictionsByProductGroupForSubRoute": [

        ],
        "replaceTimeRestrictionsForSubRoute": [

        ],
        "defaultReplaceTimeRestrictionsForReworkRoute": [

        ],
        "replaceTimeRestrictionsByTechnologyForReworkRoute": [

        ],
        "replaceTimeRestrictionsByProductGroupForReworkRoute": [

        ],
        "replaceTimeRestrictionsForReworkRoute": [

        ],
        "defaultProcessLagTime": 0,
        "processLagTimesByTechnology": [

        ],
        "processLagTimesByProductGroup": [

        ],
        "processLagTimes": [

        ],
        "equipmentMonitorSections": [

        ],
        "userDataSets": [

        ]
      },
      {
        "moduleNumber": "3000",
        "moduleProcessDefinition": {
          "identifier": "SL-ECMAUTO-LRA-MODPD36.01",
          "stringifiedObjectReference": "SPIORLL:N:C2/#BRModuleProcessDefinition#F2#SL-ECMAUTO-LRA-MODPD36.01"
        },
        "sameTimeReleaseInChangeNoticeFlag": false,
        "moduleProcessDefinitionInChangeNotice": {
          "identifier": "",
          "stringifiedObjectReference": ""
        },
        "stage": {
          "identifier": "SIL",
          "stringifiedObjectReference": "SPIORLL:N:C2/#BRStage#F2#SIL"
        },
        "operationNumber": "3000.2000",
        "processDefinition": {
          "identifier": "ECMAUTO-LRA-PD143.01",
          "stringifiedObjectReference": "SPIORLL:N:C2/#BRProcessDefinition#F2#ECMAUTO-LRA-PD143.01"
        },
        "pdiDefinitionFlag": false,
        "pdiDefinitionResetFlag": false,
        "mainDINotChangeFlag": false,
        "mainDIScriptNotChangeFlag": false,
        "photoLayer": {
          "identifier": "3GAUTO",
          "stringifiedObjectReference": "SPIORLL:N:C2/#BRPhotoLayer#F2#3GAUTO"
        },
        "carrierCategory": {
          "identifier": "BEOP",
          "stringifiedObjectReference": "SPIORLL:N:C2/#BRCarrierCategory#F2#BEOP"
        },
        "processOperationNumber": "",
        "correspondingOperations": [

        ],
        "responsibleOperationNumbers": [

        ],
        "recycleSamplingOperationNumber": "",
        "mandatoryOperationRequiredFlag": false,
        "autoBankInRequiredFlag": false,
        "endOfMonitorRelationFlag": false,
        "monitorGroupReleaseFlag": false,
        "flowBatchControl": {
          "sectionControlCategory": "",
          "name": "",
          "targetOperationFlag": false,
          "flowBatchingOffsetTime": 0.0,
          "maxBatchSize": 0,
          "minBatchSize": 0,
          "minWaferCount": 0
        },
        "pilotWaferProcessControl": {
          "name": "",
          "maxPilotProcessCount": 0
        },
        "defaultMeasDCSpec": {
          "identifier": "",
          "stringifiedObjectReference": ""
        },
        "measDCSpecsByTechnology": [

        ],
        "measDCSpecsByProductGroup": [

        ],
        "measDCSpecs": [

        ],
        "defaultTestSpec": {
          "identifier": "",
          "stringifiedObjectReference": ""
        },
        "testSpecsByTechnology": [

        ],
        "testSpecsByProductGroup": [

        ],
        "testSpecs": [

        ],
        "deltaDCDefinitions": [

        ],
        "defaultDeltaDCSpecs": [

        ],
        "deltaDCSpecsByTechnology": [

        ],
        "deltaDCSpecsByProductGroup": [

        ],
        "deltaDCSpecs": [

        ],
        "subProcessDefinitions": [

        ],
        "reworkProcessDefinitions": [

        ],
        "defaultReworkLimit": -1,
        "reworkLimitsByTechnology": [

        ],
        "reworkLimitsByProductGroup": [

        ],
        "reworkLimits": [

        ],
        "defaultProcessLimit": -1,
        "processLimitsByTechnology": [

        ],
        "processLimitsByProductGroup": [

        ],
        "processLimits": [

        ],
        "postScript": {
          "identifier": "",
          "stringifiedObjectReference": ""
        },
        "pre1Script": {
          "identifier": "PCL-PRE1",
          "stringifiedObjectReference": "SPIORLL:N:C2/#BRScript#F2#PCL-PRE1"
        },
        "pre2Script": {
          "identifier": "",
          "stringifiedObjectReference": ""
        },
        "postScripts": [

        ],
        "pre1Scripts": [
          {
            "identifier": "PCL-PRE1",
            "stringifiedObjectReference": "SPIORLL:N:C2/#BRScript#F2#PCL-PRE1"
          }
        ],
        "pre2Scripts": [

        ],
        "defaultTimeRestrictions": [

        ],
        "timeRestrictionsByTechnology": [

        ],
        "timeRestrictionsByProductGroup": [

        ],
        "timeRestrictions": [

        ],
        "defaultReplaceTimeRestrictionsForSubRoute": [

        ],
        "replaceTimeRestrictionsByTechnologyForSubRoute": [

        ],
        "replaceTimeRestrictionsByProductGroupForSubRoute": [

        ],
        "replaceTimeRestrictionsForSubRoute": [

        ],
        "defaultReplaceTimeRestrictionsForReworkRoute": [

        ],
        "replaceTimeRestrictionsByTechnologyForReworkRoute": [

        ],
        "replaceTimeRestrictionsByProductGroupForReworkRoute": [

        ],
        "replaceTimeRestrictionsForReworkRoute": [

        ],
        "defaultProcessLagTime": 0,
        "processLagTimesByTechnology": [

        ],
        "processLagTimesByProductGroup": [

        ],
        "processLagTimes": [

        ],
        "equipmentMonitorSections": [

        ],
        "userDataSets": [

        ]
      },
      {
        "moduleNumber": "3000",
        "moduleProcessDefinition": {
          "identifier": "SL-ECMAUTO-LRA-MODPD36.01",
          "stringifiedObjectReference": "SPIORLL:N:C2/#BRModuleProcessDefinition#F2#SL-ECMAUTO-LRA-MODPD36.01"
        },
        "sameTimeReleaseInChangeNoticeFlag": false,
        "moduleProcessDefinitionInChangeNotice": {
          "identifier": "",
          "stringifiedObjectReference": ""
        },
        "stage": {
          "identifier": "SIL",
          "stringifiedObjectReference": "SPIORLL:N:C2/#BRStage#F2#SIL"
        },
        "operationNumber": "3000.3000",
        "processDefinition": {
          "identifier": "ECMAUTO-LRA-PD144.01",
          "stringifiedObjectReference": "SPIORLL:N:C2/#BRProcessDefinition#F2#ECMAUTO-LRA-PD144.01"
        },
        "pdiDefinitionFlag": false,
        "pdiDefinitionResetFlag": false,
        "mainDINotChangeFlag": false,
        "mainDIScriptNotChangeFlag": false,
        "photoLayer": {
          "identifier": "3GAUTO",
          "stringifiedObjectReference": "SPIORLL:N:C2/#BRPhotoLayer#F2#3GAUTO"
        },
        "carrierCategory": {
          "identifier": "BEOP",
          "stringifiedObjectReference": "SPIORLL:N:C2/#BRCarrierCategory#F2#BEOP"
        },
        "processOperationNumber": "",
        "correspondingOperations": [

        ],
        "responsibleOperationNumbers": [

        ],
        "recycleSamplingOperationNumber": "",
        "mandatoryOperationRequiredFlag": false,
        "autoBankInRequiredFlag": false,
        "endOfMonitorRelationFlag": false,
        "monitorGroupReleaseFlag": false,
        "flowBatchControl": {
          "sectionControlCategory": "",
          "name": "",
          "targetOperationFlag": false,
          "flowBatchingOffsetTime": 0.0,
          "maxBatchSize": 0,
          "minBatchSize": 0,
          "minWaferCount": 0
        },
        "pilotWaferProcessControl": {
          "name": "",
          "maxPilotProcessCount": 0
        },
        "defaultMeasDCSpec": {
          "identifier": "",
          "stringifiedObjectReference": ""
        },
        "measDCSpecsByTechnology": [

        ],
        "measDCSpecsByProductGroup": [

        ],
        "measDCSpecs": [

        ],
        "defaultTestSpec": {
          "identifier": "",
          "stringifiedObjectReference": ""
        },
        "testSpecsByTechnology": [

        ],
        "testSpecsByProductGroup": [

        ],
        "testSpecs": [

        ],
        "deltaDCDefinitions": [

        ],
        "defaultDeltaDCSpecs": [

        ],
        "deltaDCSpecsByTechnology": [

        ],
        "deltaDCSpecsByProductGroup": [

        ],
        "deltaDCSpecs": [

        ],
        "subProcessDefinitions": [

        ],
        "reworkProcessDefinitions": [

        ],
        "defaultReworkLimit": -1,
        "reworkLimitsByTechnology": [

        ],
        "reworkLimitsByProductGroup": [

        ],
        "reworkLimits": [

        ],
        "defaultProcessLimit": -1,
        "processLimitsByTechnology": [

        ],
        "processLimitsByProductGroup": [

        ],
        "processLimits": [

        ],
        "postScript": {
          "identifier": "",
          "stringifiedObjectReference": ""
        },
        "pre1Script": {
          "identifier": "PCL-PRE1",
          "stringifiedObjectReference": "SPIORLL:N:C2/#BRScript#F2#PCL-PRE1"
        },
        "pre2Script": {
          "identifier": "",
          "stringifiedObjectReference": ""
        },
        "postScripts": [

        ],
        "pre1Scripts": [
          {
            "identifier": "PCL-PRE1",
            "stringifiedObjectReference": "SPIORLL:N:C2/#BRScript#F2#PCL-PRE1"
          }
        ],
        "pre2Scripts": [

        ],
        "defaultTimeRestrictions": [

        ],
        "timeRestrictionsByTechnology": [

        ],
        "timeRestrictionsByProductGroup": [

        ],
        "timeRestrictions": [

        ],
        "defaultReplaceTimeRestrictionsForSubRoute": [

        ],
        "replaceTimeRestrictionsByTechnologyForSubRoute": [

        ],
        "replaceTimeRestrictionsByProductGroupForSubRoute": [

        ],
        "replaceTimeRestrictionsForSubRoute": [

        ],
        "defaultReplaceTimeRestrictionsForReworkRoute": [

        ],
        "replaceTimeRestrictionsByTechnologyForReworkRoute": [

        ],
        "replaceTimeRestrictionsByProductGroupForReworkRoute": [

        ],
        "replaceTimeRestrictionsForReworkRoute": [

        ],
        "defaultProcessLagTime": 0,
        "processLagTimesByTechnology": [

        ],
        "processLagTimesByProductGroup": [

        ],
        "processLagTimes": [

        ],
        "equipmentMonitorSections": [

        ],
        "userDataSets": [

        ]
      },
      {
        "moduleNumber": "3000",
        "moduleProcessDefinition": {
          "identifier": "SL-ECMAUTO-LRA-MODPD36.01",
          "stringifiedObjectReference": "SPIORLL:N:C2/#BRModuleProcessDefinition#F2#SL-ECMAUTO-LRA-MODPD36.01"
        },
        "sameTimeReleaseInChangeNoticeFlag": false,
        "moduleProcessDefinitionInChangeNotice": {
          "identifier": "",
          "stringifiedObjectReference": ""
        },
        "stage": {
          "identifier": "SIL",
          "stringifiedObjectReference": "SPIORLL:N:C2/#BRStage#F2#SIL"
        },
        "operationNumber": "3000.4000",
        "processDefinition": {
          "identifier": "ECMAUTO-LRA-PD145.01",
          "stringifiedObjectReference": "SPIORLL:N:C2/#BRProcessDefinition#F2#ECMAUTO-LRA-PD145.01"
        },
        "pdiDefinitionFlag": false,
        "pdiDefinitionResetFlag": false,
        "mainDINotChangeFlag": false,
        "mainDIScriptNotChangeFlag": false,
        "photoLayer": {
          "identifier": "3GAUTO",
          "stringifiedObjectReference": "SPIORLL:N:C2/#BRPhotoLayer#F2#3GAUTO"
        },
        "carrierCategory": {
          "identifier": "BEOP",
          "stringifiedObjectReference": "SPIORLL:N:C2/#BRCarrierCategory#F2#BEOP"
        },
        "processOperationNumber": "",
        "correspondingOperations": [

        ],
        "responsibleOperationNumbers": [

        ],
        "recycleSamplingOperationNumber": "",
        "mandatoryOperationRequiredFlag": false,
        "autoBankInRequiredFlag": false,
        "endOfMonitorRelationFlag": false,
        "monitorGroupReleaseFlag": false,
        "flowBatchControl": {
          "sectionControlCategory": "",
          "name": "",
          "targetOperationFlag": false,
          "flowBatchingOffsetTime": 0.0,
          "maxBatchSize": 0,
          "minBatchSize": 0,
          "minWaferCount": 0
        },
        "pilotWaferProcessControl": {
          "name": "",
          "maxPilotProcessCount": 0
        },
        "defaultMeasDCSpec": {
          "identifier": "",
          "stringifiedObjectReference": ""
        },
        "measDCSpecsByTechnology": [

        ],
        "measDCSpecsByProductGroup": [

        ],
        "measDCSpecs": [

        ],
        "defaultTestSpec": {
          "identifier": "",
          "stringifiedObjectReference": ""
        },
        "testSpecsByTechnology": [

        ],
        "testSpecsByProductGroup": [

        ],
        "testSpecs": [

        ],
        "deltaDCDefinitions": [

        ],
        "defaultDeltaDCSpecs": [

        ],
        "deltaDCSpecsByTechnology": [

        ],
        "deltaDCSpecsByProductGroup": [

        ],
        "deltaDCSpecs": [

        ],
        "subProcessDefinitions": [

        ],
        "reworkProcessDefinitions": [

        ],
        "defaultReworkLimit": -1,
        "reworkLimitsByTechnology": [

        ],
        "reworkLimitsByProductGroup": [

        ],
        "reworkLimits": [

        ],
        "defaultProcessLimit": -1,
        "processLimitsByTechnology": [

        ],
        "processLimitsByProductGroup": [

        ],
        "processLimits": [

        ],
        "postScript": {
          "identifier": "",
          "stringifiedObjectReference": ""
        },
        "pre1Script": {
          "identifier": "PCL-PRE1",
          "stringifiedObjectReference": "SPIORLL:N:C2/#BRScript#F2#PCL-PRE1"
        },
        "pre2Script": {
          "identifier": "",
          "stringifiedObjectReference": ""
        },
        "postScripts": [

        ],
        "pre1Scripts": [
          {
            "identifier": "PCL-PRE1",
            "stringifiedObjectReference": "SPIORLL:N:C2/#BRScript#F2#PCL-PRE1"
          }
        ],
        "pre2Scripts": [

        ],
        "defaultTimeRestrictions": [

        ],
        "timeRestrictionsByTechnology": [

        ],
        "timeRestrictionsByProductGroup": [

        ],
        "timeRestrictions": [

        ],
        "defaultReplaceTimeRestrictionsForSubRoute": [

        ],
        "replaceTimeRestrictionsByTechnologyForSubRoute": [

        ],
        "replaceTimeRestrictionsByProductGroupForSubRoute": [

        ],
        "replaceTimeRestrictionsForSubRoute": [

        ],
        "defaultReplaceTimeRestrictionsForReworkRoute": [

        ],
        "replaceTimeRestrictionsByTechnologyForReworkRoute": [

        ],
        "replaceTimeRestrictionsByProductGroupForReworkRoute": [

        ],
        "replaceTimeRestrictionsForReworkRoute": [

        ],
        "defaultProcessLagTime": 0,
        "processLagTimesByTechnology": [

        ],
        "processLagTimesByProductGroup": [

        ],
        "processLagTimes": [

        ],
        "equipmentMonitorSections": [

        ],
        "userDataSets": [

        ]
      },
      {
        "moduleNumber": "4000",
        "moduleProcessDefinition": {
          "identifier": "SL-ECMAUTO-LRA-MODPD37.01",
          "stringifiedObjectReference": "SPIORLL:N:C2/#BRModuleProcessDefinition#F2#SL-ECMAUTO-LRA-MODPD37.01"
        },
        "sameTimeReleaseInChangeNoticeFlag": false,
        "moduleProcessDefinitionInChangeNotice": {
          "identifier": "",
          "stringifiedObjectReference": ""
        },
        "stage": {
          "identifier": "SIL",
          "stringifiedObjectReference": "SPIORLL:N:C2/#BRStage#F2#SIL"
        },
        "operationNumber": "4000.1000",
        "processDefinition": {
          "identifier": "ECMAUTO-LRA-PD146.01",
          "stringifiedObjectReference": "SPIORLL:N:C2/#BRProcessDefinition#F2#ECMAUTO-LRA-PD146.01"
        },
        "pdiDefinitionFlag": false,
        "pdiDefinitionResetFlag": false,
        "mainDINotChangeFlag": false,
        "mainDIScriptNotChangeFlag": false,
        "photoLayer": {
          "identifier": "3GAUTO",
          "stringifiedObjectReference": "SPIORLL:N:C2/#BRPhotoLayer#F2#3GAUTO"
        },
        "carrierCategory": {
          "identifier": "BEOP",
          "stringifiedObjectReference": "SPIORLL:N:C2/#BRCarrierCategory#F2#BEOP"
        },
        "processOperationNumber": "",
        "correspondingOperations": [

        ],
        "responsibleOperationNumbers": [
          "4000.1000"
        ],
        "recycleSamplingOperationNumber": "",
        "mandatoryOperationRequiredFlag": false,
        "autoBankInRequiredFlag": false,
        "endOfMonitorRelationFlag": false,
        "monitorGroupReleaseFlag": false,
        "flowBatchControl": {
          "sectionControlCategory": "",
          "name": "",
          "targetOperationFlag": false,
          "flowBatchingOffsetTime": 0.0,
          "maxBatchSize": 0,
          "minBatchSize": 0,
          "minWaferCount": 0
        },
        "pilotWaferProcessControl": {
          "name": "",
          "maxPilotProcessCount": 0
        },
        "defaultMeasDCSpec": {
          "identifier": "",
          "stringifiedObjectReference": ""
        },
        "measDCSpecsByTechnology": [

        ],
        "measDCSpecsByProductGroup": [

        ],
        "measDCSpecs": [

        ],
        "defaultTestSpec": {
          "identifier": "",
          "stringifiedObjectReference": ""
        },
        "testSpecsByTechnology": [

        ],
        "testSpecsByProductGroup": [

        ],
        "testSpecs": [

        ],
        "deltaDCDefinitions": [

        ],
        "defaultDeltaDCSpecs": [

        ],
        "deltaDCSpecsByTechnology": [

        ],
        "deltaDCSpecsByProductGroup": [

        ],
        "deltaDCSpecs": [

        ],
        "subProcessDefinitions": [
          {
            "mainProcessDefinition": {
              "identifier": "SL-EAGLEECMAUTO-ROUTEEDIT-BRANCH4.01",
              "stringifiedObjectReference": "SPIORLL:N:C2/#BRMainProcessDefinition#F2#SL-EAGLEECMAUTO-ROUTEEDIT-BRANCH4.01"
            },
            "joiningOperationNumber": "4000.4000"
          }
        ],
        "reworkProcessDefinitions": [
          {
            "mainProcessDefinition": {
              "identifier": "SL-EAGLEECMAUTO-ROUTEEDIT-REWORK4.01",
              "stringifiedObjectReference": "SPIORLL:N:C2/#BRMainProcessDefinition#F2#SL-EAGLEECMAUTO-ROUTEEDIT-REWORK4.01"
            },
            "joiningOperationNumber": "4000.4000"
          }
        ],
        "defaultReworkLimit": 5,
        "reworkLimitsByTechnology": [

        ],
        "reworkLimitsByProductGroup": [

        ],
        "reworkLimits": [

        ],
        "defaultProcessLimit": 5,
        "processLimitsByTechnology": [

        ],
        "processLimitsByProductGroup": [

        ],
        "processLimits": [

        ],
        "postScript": {
          "identifier": "",
          "stringifiedObjectReference": ""
        },
        "pre1Script": {
          "identifier": "PCL-PRE1",
          "stringifiedObjectReference": "SPIORLL:N:C2/#BRScript#F2#PCL-PRE1"
        },
        "pre2Script": {
          "identifier": "",
          "stringifiedObjectReference": ""
        },
        "postScripts": [

        ],
        "pre1Scripts": [
          {
            "identifier": "PCL-PRE1",
            "stringifiedObjectReference": "SPIORLL:N:C2/#BRScript#F2#PCL-PRE1"
          }
        ],
        "pre2Scripts": [

        ],
        "defaultTimeRestrictions": [
          {
            "targetOperationNumber": "4000.4000",
            "duration": 290,
            "action": "LimitOnly",
            "reasonCode": {
              "identifier": "",
              "stringifiedObjectReference": ""
            },
            "actionOperationNumber": "",
            "timing": "",
            "reworkMainProcessDefinition": {
              "identifier": "",
              "stringifiedObjectReference": ""
            },
            "messageDistribution": {
              "identifier": "",
              "stringifiedObjectReference": ""
            },
            "customField": ""
          }
        ],
        "timeRestrictionsByTechnology": [

        ],
        "timeRestrictionsByProductGroup": [

        ],
        "timeRestrictions": [

        ],
        "defaultReplaceTimeRestrictionsForSubRoute": [

        ],
        "replaceTimeRestrictionsByTechnologyForSubRoute": [

        ],
        "replaceTimeRestrictionsByProductGroupForSubRoute": [

        ],
        "replaceTimeRestrictionsForSubRoute": [

        ],
        "defaultReplaceTimeRestrictionsForReworkRoute": [

        ],
        "replaceTimeRestrictionsByTechnologyForReworkRoute": [

        ],
        "replaceTimeRestrictionsByProductGroupForReworkRoute": [

        ],
        "replaceTimeRestrictionsForReworkRoute": [

        ],
        "defaultProcessLagTime": 50,
        "processLagTimesByTechnology": [

        ],
        "processLagTimesByProductGroup": [

        ],
        "processLagTimes": [

        ],
        "equipmentMonitorSections": [

        ],
        "userDataSets": [

        ]
      },
      {
        "moduleNumber": "4000",
        "moduleProcessDefinition": {
          "identifier": "SL-ECMAUTO-LRA-MODPD37.01",
          "stringifiedObjectReference": "SPIORLL:N:C2/#BRModuleProcessDefinition#F2#SL-ECMAUTO-LRA-MODPD37.01"
        },
        "sameTimeReleaseInChangeNoticeFlag": false,
        "moduleProcessDefinitionInChangeNotice": {
          "identifier": "",
          "stringifiedObjectReference": ""
        },
        "stage": {
          "identifier": "SIL",
          "stringifiedObjectReference": "SPIORLL:N:C2/#BRStage#F2#SIL"
        },
        "operationNumber": "4000.2000",
        "processDefinition": {
          "identifier": "ECMAUTO-LRA-PD147.01",
          "stringifiedObjectReference": "SPIORLL:N:C2/#BRProcessDefinition#F2#ECMAUTO-LRA-PD147.01"
        },
        "pdiDefinitionFlag": false,
        "pdiDefinitionResetFlag": false,
        "mainDINotChangeFlag": false,
        "mainDIScriptNotChangeFlag": false,
        "photoLayer": {
          "identifier": "3GAUTO",
          "stringifiedObjectReference": "SPIORLL:N:C2/#BRPhotoLayer#F2#3GAUTO"
        },
        "carrierCategory": {
          "identifier": "BEOP",
          "stringifiedObjectReference": "SPIORLL:N:C2/#BRCarrierCategory#F2#BEOP"
        },
        "processOperationNumber": "",
        "correspondingOperations": [

        ],
        "responsibleOperationNumbers": [

        ],
        "recycleSamplingOperationNumber": "",
        "mandatoryOperationRequiredFlag": false,
        "autoBankInRequiredFlag": false,
        "endOfMonitorRelationFlag": false,
        "monitorGroupReleaseFlag": false,
        "flowBatchControl": {
          "sectionControlCategory": "",
          "name": "",
          "targetOperationFlag": false,
          "flowBatchingOffsetTime": 0.0,
          "maxBatchSize": 0,
          "minBatchSize": 0,
          "minWaferCount": 0
        },
        "pilotWaferProcessControl": {
          "name": "",
          "maxPilotProcessCount": 0
        },
        "defaultMeasDCSpec": {
          "identifier": "",
          "stringifiedObjectReference": ""
        },
        "measDCSpecsByTechnology": [

        ],
        "measDCSpecsByProductGroup": [

        ],
        "measDCSpecs": [

        ],
        "defaultTestSpec": {
          "identifier": "",
          "stringifiedObjectReference": ""
        },
        "testSpecsByTechnology": [

        ],
        "testSpecsByProductGroup": [

        ],
        "testSpecs": [

        ],
        "deltaDCDefinitions": [

        ],
        "defaultDeltaDCSpecs": [

        ],
        "deltaDCSpecsByTechnology": [

        ],
        "deltaDCSpecsByProductGroup": [

        ],
        "deltaDCSpecs": [

        ],
        "subProcessDefinitions": [

        ],
        "reworkProcessDefinitions": [

        ],
        "defaultReworkLimit": -1,
        "reworkLimitsByTechnology": [

        ],
        "reworkLimitsByProductGroup": [

        ],
        "reworkLimits": [

        ],
        "defaultProcessLimit": -1,
        "processLimitsByTechnology": [

        ],
        "processLimitsByProductGroup": [

        ],
        "processLimits": [

        ],
        "postScript": {
          "identifier": "",
          "stringifiedObjectReference": ""
        },
        "pre1Script": {
          "identifier": "PCL-PRE1",
          "stringifiedObjectReference": "SPIORLL:N:C2/#BRScript#F2#PCL-PRE1"
        },
        "pre2Script": {
          "identifier": "",
          "stringifiedObjectReference": ""
        },
        "postScripts": [

        ],
        "pre1Scripts": [
          {
            "identifier": "PCL-PRE1",
            "stringifiedObjectReference": "SPIORLL:N:C2/#BRScript#F2#PCL-PRE1"
          }
        ],
        "pre2Scripts": [

        ],
        "defaultTimeRestrictions": [

        ],
        "timeRestrictionsByTechnology": [

        ],
        "timeRestrictionsByProductGroup": [

        ],
        "timeRestrictions": [

        ],
        "defaultReplaceTimeRestrictionsForSubRoute": [

        ],
        "replaceTimeRestrictionsByTechnologyForSubRoute": [

        ],
        "replaceTimeRestrictionsByProductGroupForSubRoute": [

        ],
        "replaceTimeRestrictionsForSubRoute": [

        ],
        "defaultReplaceTimeRestrictionsForReworkRoute": [

        ],
        "replaceTimeRestrictionsByTechnologyForReworkRoute": [

        ],
        "replaceTimeRestrictionsByProductGroupForReworkRoute": [

        ],
        "replaceTimeRestrictionsForReworkRoute": [

        ],
        "defaultProcessLagTime": 0,
        "processLagTimesByTechnology": [

        ],
        "processLagTimesByProductGroup": [

        ],
        "processLagTimes": [

        ],
        "equipmentMonitorSections": [

        ],
        "userDataSets": [

        ]
      },
      {
        "moduleNumber": "4000",
        "moduleProcessDefinition": {
          "identifier": "SL-ECMAUTO-LRA-MODPD37.01",
          "stringifiedObjectReference": "SPIORLL:N:C2/#BRModuleProcessDefinition#F2#SL-ECMAUTO-LRA-MODPD37.01"
        },
        "sameTimeReleaseInChangeNoticeFlag": false,
        "moduleProcessDefinitionInChangeNotice": {
          "identifier": "",
          "stringifiedObjectReference": ""
        },
        "stage": {
          "identifier": "SIL",
          "stringifiedObjectReference": "SPIORLL:N:C2/#BRStage#F2#SIL"
        },
        "operationNumber": "4000.3000",
        "processDefinition": {
          "identifier": "ECMAUTO-LRA-PD148.01",
          "stringifiedObjectReference": "SPIORLL:N:C2/#BRProcessDefinition#F2#ECMAUTO-LRA-PD148.01"
        },
        "pdiDefinitionFlag": false,
        "pdiDefinitionResetFlag": false,
        "mainDINotChangeFlag": false,
        "mainDIScriptNotChangeFlag": false,
        "photoLayer": {
          "identifier": "3GAUTO",
          "stringifiedObjectReference": "SPIORLL:N:C2/#BRPhotoLayer#F2#3GAUTO"
        },
        "carrierCategory": {
          "identifier": "BEOP",
          "stringifiedObjectReference": "SPIORLL:N:C2/#BRCarrierCategory#F2#BEOP"
        },
        "processOperationNumber": "",
        "correspondingOperations": [

        ],
        "responsibleOperationNumbers": [

        ],
        "recycleSamplingOperationNumber": "",
        "mandatoryOperationRequiredFlag": false,
        "autoBankInRequiredFlag": false,
        "endOfMonitorRelationFlag": false,
        "monitorGroupReleaseFlag": false,
        "flowBatchControl": {
          "sectionControlCategory": "",
          "name": "",
          "targetOperationFlag": false,
          "flowBatchingOffsetTime": 0.0,
          "maxBatchSize": 0,
          "minBatchSize": 0,
          "minWaferCount": 0
        },
        "pilotWaferProcessControl": {
          "name": "",
          "maxPilotProcessCount": 0
        },
        "defaultMeasDCSpec": {
          "identifier": "",
          "stringifiedObjectReference": ""
        },
        "measDCSpecsByTechnology": [

        ],
        "measDCSpecsByProductGroup": [

        ],
        "measDCSpecs": [

        ],
        "defaultTestSpec": {
          "identifier": "",
          "stringifiedObjectReference": ""
        },
        "testSpecsByTechnology": [

        ],
        "testSpecsByProductGroup": [

        ],
        "testSpecs": [

        ],
        "deltaDCDefinitions": [

        ],
        "defaultDeltaDCSpecs": [

        ],
        "deltaDCSpecsByTechnology": [

        ],
        "deltaDCSpecsByProductGroup": [

        ],
        "deltaDCSpecs": [

        ],
        "subProcessDefinitions": [

        ],
        "reworkProcessDefinitions": [

        ],
        "defaultReworkLimit": -1,
        "reworkLimitsByTechnology": [

        ],
        "reworkLimitsByProductGroup": [

        ],
        "reworkLimits": [

        ],
        "defaultProcessLimit": -1,
        "processLimitsByTechnology": [

        ],
        "processLimitsByProductGroup": [

        ],
        "processLimits": [

        ],
        "postScript": {
          "identifier": "",
          "stringifiedObjectReference": ""
        },
        "pre1Script": {
          "identifier": "PCL-PRE1",
          "stringifiedObjectReference": "SPIORLL:N:C2/#BRScript#F2#PCL-PRE1"
        },
        "pre2Script": {
          "identifier": "",
          "stringifiedObjectReference": ""
        },
        "postScripts": [

        ],
        "pre1Scripts": [
          {
            "identifier": "PCL-PRE1",
            "stringifiedObjectReference": "SPIORLL:N:C2/#BRScript#F2#PCL-PRE1"
          }
        ],
        "pre2Scripts": [

        ],
        "defaultTimeRestrictions": [

        ],
        "timeRestrictionsByTechnology": [

        ],
        "timeRestrictionsByProductGroup": [

        ],
        "timeRestrictions": [

        ],
        "defaultReplaceTimeRestrictionsForSubRoute": [

        ],
        "replaceTimeRestrictionsByTechnologyForSubRoute": [

        ],
        "replaceTimeRestrictionsByProductGroupForSubRoute": [

        ],
        "replaceTimeRestrictionsForSubRoute": [

        ],
        "defaultReplaceTimeRestrictionsForReworkRoute": [

        ],
        "replaceTimeRestrictionsByTechnologyForReworkRoute": [

        ],
        "replaceTimeRestrictionsByProductGroupForReworkRoute": [

        ],
        "replaceTimeRestrictionsForReworkRoute": [

        ],
        "defaultProcessLagTime": 0,
        "processLagTimesByTechnology": [

        ],
        "processLagTimesByProductGroup": [

        ],
        "processLagTimes": [

        ],
        "equipmentMonitorSections": [

        ],
        "userDataSets": [

        ]
      },
      {
        "moduleNumber": "4000",
        "moduleProcessDefinition": {
          "identifier": "SL-ECMAUTO-LRA-MODPD37.01",
          "stringifiedObjectReference": "SPIORLL:N:C2/#BRModuleProcessDefinition#F2#SL-ECMAUTO-LRA-MODPD37.01"
        },
        "sameTimeReleaseInChangeNoticeFlag": false,
        "moduleProcessDefinitionInChangeNotice": {
          "identifier": "",
          "stringifiedObjectReference": ""
        },
        "stage": {
          "identifier": "SIL",
          "stringifiedObjectReference": "SPIORLL:N:C2/#BRStage#F2#SIL"
        },
        "operationNumber": "4000.4000",
        "processDefinition": {
          "identifier": "ECMAUTO-LRA-PD149.01",
          "stringifiedObjectReference": "SPIORLL:N:C2/#BRProcessDefinition#F2#ECMAUTO-LRA-PD149.01"
        },
        "pdiDefinitionFlag": false,
        "pdiDefinitionResetFlag": false,
        "mainDINotChangeFlag": false,
        "mainDIScriptNotChangeFlag": false,
        "photoLayer": {
          "identifier": "3GAUTO",
          "stringifiedObjectReference": "SPIORLL:N:C2/#BRPhotoLayer#F2#3GAUTO"
        },
        "carrierCategory": {
          "identifier": "BEOP",
          "stringifiedObjectReference": "SPIORLL:N:C2/#BRCarrierCategory#F2#BEOP"
        },
        "processOperationNumber": "",
        "correspondingOperations": [

        ],
        "responsibleOperationNumbers": [

        ],
        "recycleSamplingOperationNumber": "",
        "mandatoryOperationRequiredFlag": false,
        "autoBankInRequiredFlag": false,
        "endOfMonitorRelationFlag": false,
        "monitorGroupReleaseFlag": false,
        "flowBatchControl": {
          "sectionControlCategory": "",
          "name": "",
          "targetOperationFlag": false,
          "flowBatchingOffsetTime": 0.0,
          "maxBatchSize": 0,
          "minBatchSize": 0,
          "minWaferCount": 0
        },
        "pilotWaferProcessControl": {
          "name": "",
          "maxPilotProcessCount": 0
        },
        "defaultMeasDCSpec": {
          "identifier": "",
          "stringifiedObjectReference": ""
        },
        "measDCSpecsByTechnology": [

        ],
        "measDCSpecsByProductGroup": [

        ],
        "measDCSpecs": [

        ],
        "defaultTestSpec": {
          "identifier": "",
          "stringifiedObjectReference": ""
        },
        "testSpecsByTechnology": [

        ],
        "testSpecsByProductGroup": [

        ],
        "testSpecs": [

        ],
        "deltaDCDefinitions": [

        ],
        "defaultDeltaDCSpecs": [

        ],
        "deltaDCSpecsByTechnology": [

        ],
        "deltaDCSpecsByProductGroup": [

        ],
        "deltaDCSpecs": [

        ],
        "subProcessDefinitions": [

        ],
        "reworkProcessDefinitions": [

        ],
        "defaultReworkLimit": -1,
        "reworkLimitsByTechnology": [

        ],
        "reworkLimitsByProductGroup": [

        ],
        "reworkLimits": [

        ],
        "defaultProcessLimit": -1,
        "processLimitsByTechnology": [

        ],
        "processLimitsByProductGroup": [

        ],
        "processLimits": [

        ],
        "postScript": {
          "identifier": "",
          "stringifiedObjectReference": ""
        },
        "pre1Script": {
          "identifier": "PCL-PRE1",
          "stringifiedObjectReference": "SPIORLL:N:C2/#BRScript#F2#PCL-PRE1"
        },
        "pre2Script": {
          "identifier": "",
          "stringifiedObjectReference": ""
        },
        "postScripts": [

        ],
        "pre1Scripts": [
          {
            "identifier": "PCL-PRE1",
            "stringifiedObjectReference": "SPIORLL:N:C2/#BRScript#F2#PCL-PRE1"
          }
        ],
        "pre2Scripts": [

        ],
        "defaultTimeRestrictions": [

        ],
        "timeRestrictionsByTechnology": [

        ],
        "timeRestrictionsByProductGroup": [

        ],
        "timeRestrictions": [

        ],
        "defaultReplaceTimeRestrictionsForSubRoute": [

        ],
        "replaceTimeRestrictionsByTechnologyForSubRoute": [

        ],
        "replaceTimeRestrictionsByProductGroupForSubRoute": [

        ],
        "replaceTimeRestrictionsForSubRoute": [

        ],
        "defaultReplaceTimeRestrictionsForReworkRoute": [

        ],
        "replaceTimeRestrictionsByTechnologyForReworkRoute": [

        ],
        "replaceTimeRestrictionsByProductGroupForReworkRoute": [

        ],
        "replaceTimeRestrictionsForReworkRoute": [

        ],
        "defaultProcessLagTime": 0,
        "processLagTimesByTechnology": [

        ],
        "processLagTimesByProductGroup": [

        ],
        "processLagTimes": [

        ],
        "equipmentMonitorSections": [

        ],
        "userDataSets": [

        ]
      },
      {
        "moduleNumber": "5000",
        "moduleProcessDefinition": {
          "identifier": "FABOUT.01",
          "stringifiedObjectReference": "SPIORLL:N:C2/#BRModuleProcessDefinition#F2#FABOUT.01"
        },
        "sameTimeReleaseInChangeNoticeFlag": false,
        "moduleProcessDefinitionInChangeNotice": {
          "identifier": "",
          "stringifiedObjectReference": ""
        },
        "stage": {
          "identifier": "DSF",
          "stringifiedObjectReference": "SPIORLL:N:C2/#BRStage#F2#DSF"
        },
        "operationNumber": "5000.9998",
        "processDefinition": {
          "identifier": "LOTSHIPDESIG.01",
          "stringifiedObjectReference": "SPIORLL:N:C2/#BRProcessDefinition#F2#LOTSHIPDESIG.01"
        },
        "pdiDefinitionFlag": false,
        "pdiDefinitionResetFlag": false,
        "mainDINotChangeFlag": false,
        "mainDIScriptNotChangeFlag": false,
        "photoLayer": {
          "identifier": "",
          "stringifiedObjectReference": ""
        },
        "carrierCategory": {
          "identifier": "",
          "stringifiedObjectReference": ""
        },
        "processOperationNumber": "",
        "correspondingOperations": [

        ],
        "responsibleOperationNumbers": [

        ],
        "recycleSamplingOperationNumber": "",
        "mandatoryOperationRequiredFlag": false,
        "autoBankInRequiredFlag": false,
        "endOfMonitorRelationFlag": false,
        "monitorGroupReleaseFlag": false,
        "flowBatchControl": {
          "sectionControlCategory": "",
          "name": "",
          "targetOperationFlag": false,
          "flowBatchingOffsetTime": 0.0,
          "maxBatchSize": 0,
          "minBatchSize": 0,
          "minWaferCount": 0
        },
        "pilotWaferProcessControl": {
          "name": "",
          "maxPilotProcessCount": 0
        },
        "defaultMeasDCSpec": {
          "identifier": "",
          "stringifiedObjectReference": ""
        },
        "measDCSpecsByTechnology": [

        ],
        "measDCSpecsByProductGroup": [

        ],
        "measDCSpecs": [

        ],
        "defaultTestSpec": {
          "identifier": "",
          "stringifiedObjectReference": ""
        },
        "testSpecsByTechnology": [

        ],
        "testSpecsByProductGroup": [

        ],
        "testSpecs": [

        ],
        "deltaDCDefinitions": [

        ],
        "defaultDeltaDCSpecs": [

        ],
        "deltaDCSpecsByTechnology": [

        ],
        "deltaDCSpecsByProductGroup": [

        ],
        "deltaDCSpecs": [

        ],
        "subProcessDefinitions": [

        ],
        "reworkProcessDefinitions": [

        ],
        "defaultReworkLimit": -1,
        "reworkLimitsByTechnology": [

        ],
        "reworkLimitsByProductGroup": [

        ],
        "reworkLimits": [

        ],
        "defaultProcessLimit": -1,
        "processLimitsByTechnology": [

        ],
        "processLimitsByProductGroup": [

        ],
        "processLimits": [

        ],
        "postScript": {
          "identifier": "",
          "stringifiedObjectReference": ""
        },
        "pre1Script": {
          "identifier": "",
          "stringifiedObjectReference": ""
        },
        "pre2Script": {
          "identifier": "",
          "stringifiedObjectReference": ""
        },
        "postScripts": [

        ],
        "pre1Scripts": [

        ],
        "pre2Scripts": [

        ],
        "defaultTimeRestrictions": [

        ],
        "timeRestrictionsByTechnology": [

        ],
        "timeRestrictionsByProductGroup": [

        ],
        "timeRestrictions": [

        ],
        "defaultReplaceTimeRestrictionsForSubRoute": [

        ],
        "replaceTimeRestrictionsByTechnologyForSubRoute": [

        ],
        "replaceTimeRestrictionsByProductGroupForSubRoute": [

        ],
        "replaceTimeRestrictionsForSubRoute": [

        ],
        "defaultReplaceTimeRestrictionsForReworkRoute": [

        ],
        "replaceTimeRestrictionsByTechnologyForReworkRoute": [

        ],
        "replaceTimeRestrictionsByProductGroupForReworkRoute": [

        ],
        "replaceTimeRestrictionsForReworkRoute": [

        ],
        "defaultProcessLagTime": 0,
        "processLagTimesByTechnology": [

        ],
        "processLagTimesByProductGroup": [

        ],
        "processLagTimes": [

        ],
        "equipmentMonitorSections": [

        ],
        "userDataSets": [

        ]
      },
      {
        "moduleNumber": "5000",
        "moduleProcessDefinition": {
          "identifier": "FABOUT.01",
          "stringifiedObjectReference": "SPIORLL:N:C2/#BRModuleProcessDefinition#F2#FABOUT.01"
        },
        "sameTimeReleaseInChangeNoticeFlag": false,
        "moduleProcessDefinitionInChangeNotice": {
          "identifier": "",
          "stringifiedObjectReference": ""
        },
        "stage": {
          "identifier": "DSF",
          "stringifiedObjectReference": "SPIORLL:N:C2/#BRStage#F2#DSF"
        },
        "operationNumber": "5000.9999",
        "processDefinition": {
          "identifier": "BANKIN.01",
          "stringifiedObjectReference": "SPIORLL:N:C2/#BRProcessDefinition#F2#BANKIN.01"
        },
        "pdiDefinitionFlag": false,
        "pdiDefinitionResetFlag": false,
        "mainDINotChangeFlag": false,
        "mainDIScriptNotChangeFlag": false,
        "photoLayer": {
          "identifier": "",
          "stringifiedObjectReference": ""
        },
        "carrierCategory": {
          "identifier": "",
          "stringifiedObjectReference": ""
        },
        "processOperationNumber": "",
        "correspondingOperations": [

        ],
        "responsibleOperationNumbers": [

        ],
        "recycleSamplingOperationNumber": "",
        "mandatoryOperationRequiredFlag": false,
        "autoBankInRequiredFlag": false,
        "endOfMonitorRelationFlag": false,
        "monitorGroupReleaseFlag": false,
        "flowBatchControl": {
          "sectionControlCategory": "",
          "name": "",
          "targetOperationFlag": false,
          "flowBatchingOffsetTime": 0.0,
          "maxBatchSize": 0,
          "minBatchSize": 0,
          "minWaferCount": 0
        },
        "pilotWaferProcessControl": {
          "name": "",
          "maxPilotProcessCount": 0
        },
        "defaultMeasDCSpec": {
          "identifier": "",
          "stringifiedObjectReference": ""
        },
        "measDCSpecsByTechnology": [

        ],
        "measDCSpecsByProductGroup": [

        ],
        "measDCSpecs": [

        ],
        "defaultTestSpec": {
          "identifier": "",
          "stringifiedObjectReference": ""
        },
        "testSpecsByTechnology": [

        ],
        "testSpecsByProductGroup": [

        ],
        "testSpecs": [

        ],
        "deltaDCDefinitions": [

        ],
        "defaultDeltaDCSpecs": [

        ],
        "deltaDCSpecsByTechnology": [

        ],
        "deltaDCSpecsByProductGroup": [

        ],
        "deltaDCSpecs": [

        ],
        "subProcessDefinitions": [

        ],
        "reworkProcessDefinitions": [

        ],
        "defaultReworkLimit": -1,
        "reworkLimitsByTechnology": [

        ],
        "reworkLimitsByProductGroup": [

        ],
        "reworkLimits": [

        ],
        "defaultProcessLimit": -1,
        "processLimitsByTechnology": [

        ],
        "processLimitsByProductGroup": [

        ],
        "processLimits": [

        ],
        "postScript": {
          "identifier": "",
          "stringifiedObjectReference": ""
        },
        "pre1Script": {
          "identifier": "",
          "stringifiedObjectReference": ""
        },
        "pre2Script": {
          "identifier": "",
          "stringifiedObjectReference": ""
        },
        "postScripts": [

        ],
        "pre1Scripts": [

        ],
        "pre2Scripts": [

        ],
        "defaultTimeRestrictions": [

        ],
        "timeRestrictionsByTechnology": [

        ],
        "timeRestrictionsByProductGroup": [

        ],
        "timeRestrictions": [

        ],
        "defaultReplaceTimeRestrictionsForSubRoute": [

        ],
        "replaceTimeRestrictionsByTechnologyForSubRoute": [

        ],
        "replaceTimeRestrictionsByProductGroupForSubRoute": [

        ],
        "replaceTimeRestrictionsForSubRoute": [

        ],
        "defaultReplaceTimeRestrictionsForReworkRoute": [

        ],
        "replaceTimeRestrictionsByTechnologyForReworkRoute": [

        ],
        "replaceTimeRestrictionsByProductGroupForReworkRoute": [

        ],
        "replaceTimeRestrictionsForReworkRoute": [

        ],
        "defaultProcessLagTime": 0,
        "processLagTimesByTechnology": [

        ],
        "processLagTimesByProductGroup": [

        ],
        "processLagTimes": [

        ],
        "equipmentMonitorSections": [

        ],
        "userDataSets": [

        ]
      }
    ],
    "expandFlag": {
      "_notNeedToExpand": 0,
      "notNeedToExpand": 0,
      "_needToExpand": 0,
      "needToExpand": 0,
      "_expanded": 0,
      "expanded": 0,
      "_needToLateExpand": 0,
      "needToLateExpand": 0
    },
    "dynamicRouteFlag": false,
    "mainDIGroup": {
      "identifier": "",
      "stringifiedObjectReference": ""
    },
    "userDataSets": [
      {
        "name": "RouteType",
        "type": "String",
        "value": "SL",
        "originator": ""
      },
      {
        "name": "RouteState",
        "type": "String",
        "value": "DEV",
        "originator": ""
      },
      {
        "name": "RouteTechnology",
        "type": "String",
        "value": "14LPE",
        "originator": ""
      },
      {
        "name": "RouteSubnode",
        "type": "String",
        "value": "14LPE",
        "originator": ""
      },
      {
        "name": "RouteProgramID",
        "type": "String",
        "value": "14LPE",
        "originator": ""
      }
    ],
    "siClassInfo": null
  }
}