{
  "objectId": {
    "identifier": "D14ECMAUTO-CS-MOTETHAN50_QTLT5_LPEEGHK-B.01",
    "stringifiedObjectReference": "SPIORLL:N:C2/#BRModuleProcessDefinition#F2#D14ECMAUTO-CS-MOTETHAN50_QTLT5_LPEEGHK-B.01"
  },
  "propertyInfo": {
    "changeNotice": {
      "identifier": "",
      "stringifiedObjectReference": ""
    },
    "createdDateTime": "2017-12-01-11.28.41.327231",
    "createdUser": {
      "identifier": "asalla",
      "stringifiedObjectReference": ""
    },
    "lastUpdatedDateTime": "2018-03-15-09.03.47.696720",
    "lastUpdatedUser": {
      "identifier": "asalla",
      "stringifiedObjectReference": ""
    },
    "lastCheckOutDateTime": "2018-03-15-09.22.29.177499",
    "lastCheckOutUser": {
      "identifier": "asalla",
      "stringifiedObjectReference": ""
    },
    "lastCheckInDateTime": "2018-03-15-09.23.38.350514",
    "lastCheckInUser": {
      "identifier": "asalla",
      "stringifiedObjectReference": ""
    },
    "lastReleasedDateTime": "2018-03-15-09.23.38.350514",
    "lastReleasedUser": {
      "identifier": "asalla",
      "stringifiedObjectReference": ""
    },
    "lastRollBackDateTime": "",
    "lastRollBackUser": {
      "identifier": "",
      "stringifiedObjectReference": ""
    },
    "lastArchivedDateTime": "",
    "lastArchivedUser": {
      "identifier": "",
      "stringifiedObjectReference": ""
    },
    "lastRestoredDateTime": "",
    "lastRestoredUser": {
      "identifier": "",
      "stringifiedObjectReference": ""
    },
    "lastActionUser": {
      "identifier": "asalla",
      "stringifiedObjectReference": ""
    },
    "lastActionDateTime": "2018-03-15-09.23.38.350514",
    "lastActionEventCode": "EVRLSOBJ",
    "lastComment": "",
    "currentInWorkState": "NotInWork",
    "currentSetUpState": "Released",
    "permission": "Group",
    "permissionRead": "Public",
    "permissionReleaseDelete": "Public",
    "userGroup": {
      "identifier": "FSS",
      "stringifiedObjectReference": "SPIORLL:N:C2/#BRUserGroup#F2#FSS"
    },
    "userGroupRead": {
      "identifier": "",
      "stringifiedObjectReference": ""
    },
    "userGroupReleaseDelete": {
      "identifier": "",
      "stringifiedObjectReference": ""
    },
    "owner": {
      "identifier": "aboggava",
      "stringifiedObjectReference": "SPIORLL:N:C2/#BRUser#F2#aboggava"
    },
    "batchReleaseFlag": false
  },
  "documentEntityInfo": {
    "documentSpecification": "D14ECMAUTO-CS-MOTETHAN50_QTLT5_LPEEGHK-B",
    "activeFlag": false,
    "reserveFlag": false,
    "obsoleteFlag": false,
    "lastActivatedUser": {
      "identifier": "",
      "stringifiedObjectReference": ""
    },
    "lastActivatedDateTime": "",
    "lastInactivatedUser": {
      "identifier": "",
      "stringifiedObjectReference": ""
    },
    "lastInactivatedDateTime": "",
    "lastReservedUser": {
      "identifier": "",
      "stringifiedObjectReference": ""
    },
    "lastReservedDateTime": "",
    "lastCanceledReserveChangeActiveUser": {
      "identifier": "",
      "stringifiedObjectReference": ""
    },
    "lastCanceledReserveChangeActiveDateTime": "",
    "lastObsoleteUser": {
      "identifier": "",
      "stringifiedObjectReference": ""
    },
    "lastObsoleteDateTime": "",
    "lastCancelObsoleteUser": {
      "identifier": "",
      "stringifiedObjectReference": ""
    },
    "lastCancelObsoleteDateTime": ""
  },
  "classInfo": {
    "identifier": "D14ECMAUTO-CS-MOTETHAN50_QTLT5_LPEEGHK-B.01",
    "moduleProcessDefinitionId": "D14ECMAUTO-CS-MOTETHAN50_QTLT5_LPEEGHK-B",
    "version": "01",
    "description": "IL HK DEP-SL",
    "moduleProcessOperations": [
      {
        "operationNumber": "101",
        "processDefinitionId": "EG-ECMAUTO-ROUTEEDIT-CS-MOTETHAN50_QTLT1_MHSFEOL2HK-14LPE",
        "version": "01",
        "processDefinition": {
          "identifier": "EG-ECMAUTO-ROUTEEDIT-CS-MOTETHAN50_QTLT1_MHSFEOL2HK-14LPE.01",
          "stringifiedObjectReference": "SPIORLL:N:C2/#BRProcessDefinition#F2#EG-ECMAUTO-ROUTEEDIT-CS-MOTETHAN50_QTLT1_MHSFEOL2HK-14LPE.01"
        },
        "pdiDefinitionFlag": false,
        "pdiDefinitionResetFlag": false,
        "processOperationNumber": "",
        "correspondingOperations": [

        ],
        "responsibleOperationNumbers": [

        ],
        "recycleSamplingOperationNumber": "",
        "mandatoryOperationRequiredFlag": true,
        "flowBatchControl": {
          "sectionControlCategory": "",
          "name": "",
          "targetOperationFlag": false,
          "flowBatchingOffsetTime": 0.0,
          "maxBatchSize": 0,
          "minBatchSize": 0,
          "minWaferCount": 0
        },
        "pilotWaferProcessControl": {
          "name": "",
          "maxPilotProcessCount": 0
        },
        "defaultMeasDCSpec": {
          "identifier": "",
          "stringifiedObjectReference": ""
        },
        "measDCSpecsByTechnology": [

        ],
        "measDCSpecsByProductGroup": [

        ],
        "measDCSpecs": [

        ],
        "defaultTestSpec": {
          "identifier": "",
          "stringifiedObjectReference": ""
        },
        "testSpecsByTechnology": [

        ],
        "testSpecsByProductGroup": [

        ],
        "testSpecs": [

        ],
        "deltaDCDefinitions": [

        ],
        "defaultDeltaDCSpecs": [

        ],
        "deltaDCSpecsByTechnology": [

        ],
        "deltaDCSpecsByProductGroup": [

        ],
        "deltaDCSpecs": [

        ],
        "subProcessDefinitions": [

        ],
        "reworkProcessDefinitions": [

        ],
        "defaultReworkLimit": -1,
        "reworkLimitsByTechnology": [

        ],
        "reworkLimitsByProductGroup": [

        ],
        "reworkLimits": [

        ],
        "defaultProcessLimit": -1,
        "processLimitsByTechnology": [

        ],
        "processLimitsByProductGroup": [

        ],
        "processLimits": [

        ],
        "postScript": {
          "identifier": "",
          "stringifiedObjectReference": ""
        },
        "pre1Script": {
          "identifier": "PCL-PRE1",
          "stringifiedObjectReference": "SPIORLL:N:C2/#BRScript#F2#PCL-PRE1"
        },
        "pre2Script": {
          "identifier": "",
          "stringifiedObjectReference": ""
        },
        "postScripts": [

        ],
        "pre1Scripts": [
          {
            "identifier": "PCL-PRE1",
            "stringifiedObjectReference": "SPIORLL:N:C2/#BRScript#F2#PCL-PRE1"
          }
        ],
        "pre2Scripts": [

        ],
        "defaultTimeRestrictions": [

        ],
        "timeRestrictionsByTechnology": [

        ],
        "timeRestrictionsByProductGroup": [

        ],
        "timeRestrictions": [

        ],
        "defaultReplaceTimeRestrictionsForSubRoute": [

        ],
        "replaceTimeRestrictionsByTechnologyForSubRoute": [

        ],
        "replaceTimeRestrictionsByProductGroupForSubRoute": [

        ],
        "replaceTimeRestrictionsForSubRoute": [

        ],
        "defaultReplaceTimeRestrictionsForReworkRoute": [

        ],
        "replaceTimeRestrictionsByTechnologyForReworkRoute": [

        ],
        "replaceTimeRestrictionsByProductGroupForReworkRoute": [

        ],
        "replaceTimeRestrictionsForReworkRoute": [

        ],
        "defaultProcessLagTime": 100,
        "processLagTimesByTechnology": [
          {
            "technology": {
              "identifier": "14ECM",
              "stringifiedObjectReference": "SPIORLL:N:C2/#BRTechnology#F2#14ECM"
            },
            "duration": 120
          }
        ],
        "processLagTimesByProductGroup": [
          {
            "productGroup": {
              "identifier": "BCV14ECMLPE1",
              "stringifiedObjectReference": "SPIORLL:N:C2/#BRProductGroup#F2#BCV14ECMLPE1"
            },
            "duration": 140
          }
        ],
        "processLagTimes": [
          {
            "product": {
              "identifier": "EAGLEECMAUTO-ROUTEEDIT-NEW-QTLT.01",
              "stringifiedObjectReference": "SPIORLL:N:C2/#BRProduct#F2#EAGLEECMAUTO-ROUTEEDIT-NEW-QTLT.01"
            },
            "duration": 130
          }
        ],
        "equipmentMonitorSections": [

        ]
      },
      {
        "operationNumber": "102",
        "processDefinitionId": "EG-ECMAUTO-ROUTEEDIT-CS-MOTETHAN50_QTLT2_MHSFEOL2HK-14LPE",
        "version": "01",
        "processDefinition": {
          "identifier": "EG-ECMAUTO-ROUTEEDIT-CS-MOTETHAN50_QTLT2_MHSFEOL2HK-14LPE.01",
          "stringifiedObjectReference": "SPIORLL:N:C2/#BRProcessDefinition#F2#EG-ECMAUTO-ROUTEEDIT-CS-MOTETHAN50_QTLT2_MHSFEOL2HK-14LPE.01"
        },
        "pdiDefinitionFlag": false,
        "pdiDefinitionResetFlag": false,
        "processOperationNumber": "",
        "correspondingOperations": [

        ],
        "responsibleOperationNumbers": [

        ],
        "recycleSamplingOperationNumber": "",
        "mandatoryOperationRequiredFlag": true,
        "flowBatchControl": {
          "sectionControlCategory": "",
          "name": "",
          "targetOperationFlag": false,
          "flowBatchingOffsetTime": 0.0,
          "maxBatchSize": 0,
          "minBatchSize": 0,
          "minWaferCount": 0
        },
        "pilotWaferProcessControl": {
          "name": "",
          "maxPilotProcessCount": 0
        },
        "defaultMeasDCSpec": {
          "identifier": "",
          "stringifiedObjectReference": ""
        },
        "measDCSpecsByTechnology": [

        ],
        "measDCSpecsByProductGroup": [

        ],
        "measDCSpecs": [

        ],
        "defaultTestSpec": {
          "identifier": "",
          "stringifiedObjectReference": ""
        },
        "testSpecsByTechnology": [

        ],
        "testSpecsByProductGroup": [

        ],
        "testSpecs": [

        ],
        "deltaDCDefinitions": [

        ],
        "defaultDeltaDCSpecs": [

        ],
        "deltaDCSpecsByTechnology": [

        ],
        "deltaDCSpecsByProductGroup": [

        ],
        "deltaDCSpecs": [

        ],
        "subProcessDefinitions": [

        ],
        "reworkProcessDefinitions": [

        ],
        "defaultReworkLimit": -1,
        "reworkLimitsByTechnology": [

        ],
        "reworkLimitsByProductGroup": [

        ],
        "reworkLimits": [

        ],
        "defaultProcessLimit": -1,
        "processLimitsByTechnology": [

        ],
        "processLimitsByProductGroup": [

        ],
        "processLimits": [

        ],
        "postScript": {
          "identifier": "",
          "stringifiedObjectReference": ""
        },
        "pre1Script": {
          "identifier": "",
          "stringifiedObjectReference": ""
        },
        "pre2Script": {
          "identifier": "",
          "stringifiedObjectReference": ""
        },
        "postScripts": [

        ],
        "pre1Scripts": [

        ],
        "pre2Scripts": [

        ],
        "defaultTimeRestrictions": [

        ],
        "timeRestrictionsByTechnology": [

        ],
        "timeRestrictionsByProductGroup": [

        ],
        "timeRestrictions": [

        ],
        "defaultReplaceTimeRestrictionsForSubRoute": [

        ],
        "replaceTimeRestrictionsByTechnologyForSubRoute": [

        ],
        "replaceTimeRestrictionsByProductGroupForSubRoute": [

        ],
        "replaceTimeRestrictionsForSubRoute": [

        ],
        "defaultReplaceTimeRestrictionsForReworkRoute": [

        ],
        "replaceTimeRestrictionsByTechnologyForReworkRoute": [

        ],
        "replaceTimeRestrictionsByProductGroupForReworkRoute": [

        ],
        "replaceTimeRestrictionsForReworkRoute": [

        ],
        "defaultProcessLagTime": 0,
        "processLagTimesByTechnology": [

        ],
        "processLagTimesByProductGroup": [

        ],
        "processLagTimes": [

        ],
        "equipmentMonitorSections": [

        ]
      },
      {
        "operationNumber": "103",
        "processDefinitionId": "EG-ECMAUTO-ROUTEEDIT-CS-MOTETHAN50_QTLT3_MHSFEOL2HK-14LPE",
        "version": "01",
        "processDefinition": {
          "identifier": "EG-ECMAUTO-ROUTEEDIT-CS-MOTETHAN50_QTLT3_MHSFEOL2HK-14LPE.01",
          "stringifiedObjectReference": "SPIORLL:N:C2/#BRProcessDefinition#F2#EG-ECMAUTO-ROUTEEDIT-CS-MOTETHAN50_QTLT3_MHSFEOL2HK-14LPE.01"
        },
        "pdiDefinitionFlag": false,
        "pdiDefinitionResetFlag": false,
        "processOperationNumber": "",
        "correspondingOperations": [

        ],
        "responsibleOperationNumbers": [

        ],
        "recycleSamplingOperationNumber": "",
        "mandatoryOperationRequiredFlag": true,
        "flowBatchControl": {
          "sectionControlCategory": "",
          "name": "",
          "targetOperationFlag": false,
          "flowBatchingOffsetTime": 0.0,
          "maxBatchSize": 0,
          "minBatchSize": 0,
          "minWaferCount": 0
        },
        "pilotWaferProcessControl": {
          "name": "",
          "maxPilotProcessCount": 0
        },
        "defaultMeasDCSpec": {
          "identifier": "",
          "stringifiedObjectReference": ""
        },
        "measDCSpecsByTechnology": [

        ],
        "measDCSpecsByProductGroup": [

        ],
        "measDCSpecs": [

        ],
        "defaultTestSpec": {
          "identifier": "",
          "stringifiedObjectReference": ""
        },
        "testSpecsByTechnology": [

        ],
        "testSpecsByProductGroup": [

        ],
        "testSpecs": [

        ],
        "deltaDCDefinitions": [

        ],
        "defaultDeltaDCSpecs": [

        ],
        "deltaDCSpecsByTechnology": [

        ],
        "deltaDCSpecsByProductGroup": [

        ],
        "deltaDCSpecs": [

        ],
        "subProcessDefinitions": [

        ],
        "reworkProcessDefinitions": [

        ],
        "defaultReworkLimit": -1,
        "reworkLimitsByTechnology": [

        ],
        "reworkLimitsByProductGroup": [

        ],
        "reworkLimits": [

        ],
        "defaultProcessLimit": -1,
        "processLimitsByTechnology": [

        ],
        "processLimitsByProductGroup": [

        ],
        "processLimits": [

        ],
        "postScript": {
          "identifier": "",
          "stringifiedObjectReference": ""
        },
        "pre1Script": {
          "identifier": "",
          "stringifiedObjectReference": ""
        },
        "pre2Script": {
          "identifier": "",
          "stringifiedObjectReference": ""
        },
        "postScripts": [

        ],
        "pre1Scripts": [

        ],
        "pre2Scripts": [

        ],
        "defaultTimeRestrictions": [
          {
            "targetOperationNumber": "104",
            "duration": 500,
            "action": "ImmediateHold",
            "reasonCode": {
              "identifier": "LotHold.QTOV",
              "stringifiedObjectReference": "SPIORLL:N:C2/#BRReasonCode#F2#LotHold.QTOV"
            },
            "actionOperationNumber": "",
            "timing": "",
            "reworkMainProcessDefinition": {
              "identifier": "",
              "stringifiedObjectReference": ""
            },
            "messageDistribution": {
              "identifier": "",
              "stringifiedObjectReference": ""
            },
            "customField": "C2"
          },
          {
            "targetOperationNumber": "104",
            "duration": 300,
            "action": "Mail",
            "reasonCode": {
              "identifier": "Mail.QTOV",
              "stringifiedObjectReference": "SPIORLL:N:C2/#BRReasonCode#F2#Mail.QTOV"
            },
            "actionOperationNumber": "",
            "timing": "",
            "reworkMainProcessDefinition": {
              "identifier": "",
              "stringifiedObjectReference": ""
            },
            "messageDistribution": {
              "identifier": "QT-OVER",
              "stringifiedObjectReference": "SPIORLL:N:C2/#BRMessageDistribution#F2#QT-OVER"
            },
            "customField": "C4"
          },
          {
            "targetOperationNumber": "104",
            "duration": 300,
            "action": "FutureHold",
            "reasonCode": {
              "identifier": "FutureHold.QTOV",
              "stringifiedObjectReference": "SPIORLL:N:C2/#BRReasonCode#F2#FutureHold.QTOV"
            },
            "actionOperationNumber": "106",
            "timing": "PRE",
            "reworkMainProcessDefinition": {
              "identifier": "",
              "stringifiedObjectReference": ""
            },
            "messageDistribution": {
              "identifier": "",
              "stringifiedObjectReference": ""
            },
            "customField": "C2"
          }
        ],
        "timeRestrictionsByTechnology": [
          {
            "technology": {
              "identifier": "14ECMAUTO",
              "stringifiedObjectReference": "SPIORLL:N:C2/#BRTechnology#F2#14ECMAUTO"
            },
            "targetOperationNumber": "104",
            "duration": 400,
            "action": "FutureHold",
            "reasonCode": {
              "identifier": "FutureHold.QDSP",
              "stringifiedObjectReference": "SPIORLL:N:C2/#BRReasonCode#F2#FutureHold.QDSP"
            },
            "actionOperationNumber": "105",
            "timing": "PRE",
            "reworkMainProcessDefinition": {
              "identifier": "",
              "stringifiedObjectReference": ""
            },
            "messageDistribution": {
              "identifier": "",
              "stringifiedObjectReference": ""
            },
            "customField": "C2"
          },
          {
            "technology": {
              "identifier": "14ECMAUTO",
              "stringifiedObjectReference": "SPIORLL:N:C2/#BRTechnology#F2#14ECMAUTO"
            },
            "targetOperationNumber": "104",
            "duration": 400,
            "action": "Mail",
            "reasonCode": {
              "identifier": "Mail.QTOV",
              "stringifiedObjectReference": "SPIORLL:N:C2/#BRReasonCode#F2#Mail.QTOV"
            },
            "actionOperationNumber": "",
            "timing": "",
            "reworkMainProcessDefinition": {
              "identifier": "",
              "stringifiedObjectReference": ""
            },
            "messageDistribution": {
              "identifier": "QT-OVER",
              "stringifiedObjectReference": "SPIORLL:N:C2/#BRMessageDistribution#F2#QT-OVER"
            },
            "customField": "C2"
          },
          {
            "technology": {
              "identifier": "14ECMAUTO",
              "stringifiedObjectReference": "SPIORLL:N:C2/#BRTechnology#F2#14ECMAUTO"
            },
            "targetOperationNumber": "104",
            "duration": 500,
            "action": "ImmediateHold",
            "reasonCode": {
              "identifier": "LotHold.QDSP",
              "stringifiedObjectReference": "SPIORLL:N:C2/#BRReasonCode#F2#LotHold.QDSP"
            },
            "actionOperationNumber": "",
            "timing": "",
            "reworkMainProcessDefinition": {
              "identifier": "",
              "stringifiedObjectReference": ""
            },
            "messageDistribution": {
              "identifier": "",
              "stringifiedObjectReference": ""
            },
            "customField": "C2"
          }
        ],
        "timeRestrictionsByProductGroup": [
          {
            "productGroup": {
              "identifier": "BCV14ECMAUTOLPE1",
              "stringifiedObjectReference": "SPIORLL:N:C2/#BRProductGroup#F2#BCV14ECMAUTOLPE1"
            },
            "targetOperationNumber": "104",
            "duration": 500,
            "action": "FutureHold",
            "reasonCode": {
              "identifier": "FutureHold.QMRB",
              "stringifiedObjectReference": "SPIORLL:N:C2/#BRReasonCode#F2#FutureHold.QMRB"
            },
            "actionOperationNumber": "104",
            "timing": "PRE",
            "reworkMainProcessDefinition": {
              "identifier": "",
              "stringifiedObjectReference": ""
            },
            "messageDistribution": {
              "identifier": "",
              "stringifiedObjectReference": ""
            },
            "customField": "C1"
          },
          {
            "productGroup": {
              "identifier": "BCV14ECMAUTOLPE1",
              "stringifiedObjectReference": "SPIORLL:N:C2/#BRProductGroup#F2#BCV14ECMAUTOLPE1"
            },
            "targetOperationNumber": "104",
            "duration": 500,
            "action": "ImmediateHold",
            "reasonCode": {
              "identifier": "LotHold.NQRV",
              "stringifiedObjectReference": "SPIORLL:N:C2/#BRReasonCode#F2#LotHold.NQRV"
            },
            "actionOperationNumber": "",
            "timing": "",
            "reworkMainProcessDefinition": {
              "identifier": "",
              "stringifiedObjectReference": ""
            },
            "messageDistribution": {
              "identifier": "",
              "stringifiedObjectReference": ""
            },
            "customField": "C2"
          },
          {
            "productGroup": {
              "identifier": "BCV14ECMAUTOLPE1",
              "stringifiedObjectReference": "SPIORLL:N:C2/#BRProductGroup#F2#BCV14ECMAUTOLPE1"
            },
            "targetOperationNumber": "104",
            "duration": 500,
            "action": "Mail",
            "reasonCode": {
              "identifier": "Mail.QTOV",
              "stringifiedObjectReference": "SPIORLL:N:C2/#BRReasonCode#F2#Mail.QTOV"
            },
            "actionOperationNumber": "",
            "timing": "",
            "reworkMainProcessDefinition": {
              "identifier": "",
              "stringifiedObjectReference": ""
            },
            "messageDistribution": {
              "identifier": "QT-OVER",
              "stringifiedObjectReference": "SPIORLL:N:C2/#BRMessageDistribution#F2#QT-OVER"
            },
            "customField": "C1"
          }
        ],
        "timeRestrictions": [
          {
            "product": {
              "identifier": "EAGLEECMAUTO-ROUTEEDIT-NEW-QTLT.01",
              "stringifiedObjectReference": "SPIORLL:N:C2/#BRProduct#F2#EAGLEECMAUTO-ROUTEEDIT-NEW-QTLT.01"
            },
            "targetOperationNumber": "104",
            "duration": 500,
            "action": "FutureHold",
            "reasonCode": {
              "identifier": "FutureHold.QMRB",
              "stringifiedObjectReference": "SPIORLL:N:C2/#BRReasonCode#F2#FutureHold.QMRB"
            },
            "actionOperationNumber": "106",
            "timing": "PRE",
            "reworkMainProcessDefinition": {
              "identifier": "",
              "stringifiedObjectReference": ""
            },
            "messageDistribution": {
              "identifier": "",
              "stringifiedObjectReference": ""
            },
            "customField": "C1"
          },
          {
            "product": {
              "identifier": "EAGLEECMAUTO-ROUTEEDIT-NEW-QTLT.01",
              "stringifiedObjectReference": "SPIORLL:N:C2/#BRProduct#F2#EAGLEECMAUTO-ROUTEEDIT-NEW-QTLT.01"
            },
            "targetOperationNumber": "104",
            "duration": 500,
            "action": "ImmediateHold",
            "reasonCode": {
              "identifier": "LotHold.NQRV",
              "stringifiedObjectReference": "SPIORLL:N:C2/#BRReasonCode#F2#LotHold.NQRV"
            },
            "actionOperationNumber": "",
            "timing": "",
            "reworkMainProcessDefinition": {
              "identifier": "",
              "stringifiedObjectReference": ""
            },
            "messageDistribution": {
              "identifier": "",
              "stringifiedObjectReference": ""
            },
            "customField": "C2"
          },
          {
            "product": {
              "identifier": "EAGLEECMAUTO-ROUTEEDIT-NEW-QTLT.01",
              "stringifiedObjectReference": "SPIORLL:N:C2/#BRProduct#F2#EAGLEECMAUTO-ROUTEEDIT-NEW-QTLT.01"
            },
            "targetOperationNumber": "104",
            "duration": 600,
            "action": "Mail",
            "reasonCode": {
              "identifier": "Mail.QTOV",
              "stringifiedObjectReference": "SPIORLL:N:C2/#BRReasonCode#F2#Mail.QTOV"
            },
            "actionOperationNumber": "",
            "timing": "",
            "reworkMainProcessDefinition": {
              "identifier": "",
              "stringifiedObjectReference": ""
            },
            "messageDistribution": {
              "identifier": "QT-OVER",
              "stringifiedObjectReference": "SPIORLL:N:C2/#BRMessageDistribution#F2#QT-OVER"
            },
            "customField": "C4"
          }
        ],
        "defaultReplaceTimeRestrictionsForSubRoute": [

        ],
        "replaceTimeRestrictionsByTechnologyForSubRoute": [

        ],
        "replaceTimeRestrictionsByProductGroupForSubRoute": [

        ],
        "replaceTimeRestrictionsForSubRoute": [

        ],
        "defaultReplaceTimeRestrictionsForReworkRoute": [

        ],
        "replaceTimeRestrictionsByTechnologyForReworkRoute": [

        ],
        "replaceTimeRestrictionsByProductGroupForReworkRoute": [

        ],
        "replaceTimeRestrictionsForReworkRoute": [

        ],
        "defaultProcessLagTime": 0,
        "processLagTimesByTechnology": [

        ],
        "processLagTimesByProductGroup": [

        ],
        "processLagTimes": [

        ],
        "equipmentMonitorSections": [

        ]
      },
      {
        "operationNumber": "104",
        "processDefinitionId": "EG-ECMAUTO-ROUTEEDIT-CS-MOTETHAN50_QTLT4_MHSFEOL2HK-14LPE",
        "version": "01",
        "processDefinition": {
          "identifier": "EG-ECMAUTO-ROUTEEDIT-CS-MOTETHAN50_QTLT4_MHSFEOL2HK-14LPE.01",
          "stringifiedObjectReference": "SPIORLL:N:C2/#BRProcessDefinition#F2#EG-ECMAUTO-ROUTEEDIT-CS-MOTETHAN50_QTLT4_MHSFEOL2HK-14LPE.01"
        },
        "pdiDefinitionFlag": false,
        "pdiDefinitionResetFlag": false,
        "processOperationNumber": "",
        "correspondingOperations": [

        ],
        "responsibleOperationNumbers": [

        ],
        "recycleSamplingOperationNumber": "",
        "mandatoryOperationRequiredFlag": true,
        "flowBatchControl": {
          "sectionControlCategory": "",
          "name": "",
          "targetOperationFlag": false,
          "flowBatchingOffsetTime": 0.0,
          "maxBatchSize": 0,
          "minBatchSize": 0,
          "minWaferCount": 0
        },
        "pilotWaferProcessControl": {
          "name": "",
          "maxPilotProcessCount": 0
        },
        "defaultMeasDCSpec": {
          "identifier": "",
          "stringifiedObjectReference": ""
        },
        "measDCSpecsByTechnology": [

        ],
        "measDCSpecsByProductGroup": [

        ],
        "measDCSpecs": [

        ],
        "defaultTestSpec": {
          "identifier": "",
          "stringifiedObjectReference": ""
        },
        "testSpecsByTechnology": [

        ],
        "testSpecsByProductGroup": [

        ],
        "testSpecs": [

        ],
        "deltaDCDefinitions": [

        ],
        "defaultDeltaDCSpecs": [

        ],
        "deltaDCSpecsByTechnology": [

        ],
        "deltaDCSpecsByProductGroup": [

        ],
        "deltaDCSpecs": [

        ],
        "subProcessDefinitions": [

        ],
        "reworkProcessDefinitions": [

        ],
        "defaultReworkLimit": -1,
        "reworkLimitsByTechnology": [

        ],
        "reworkLimitsByProductGroup": [

        ],
        "reworkLimits": [

        ],
        "defaultProcessLimit": -1,
        "processLimitsByTechnology": [

        ],
        "processLimitsByProductGroup": [

        ],
        "processLimits": [

        ],
        "postScript": {
          "identifier": "",
          "stringifiedObjectReference": ""
        },
        "pre1Script": {
          "identifier": "",
          "stringifiedObjectReference": ""
        },
        "pre2Script": {
          "identifier": "",
          "stringifiedObjectReference": ""
        },
        "postScripts": [

        ],
        "pre1Scripts": [

        ],
        "pre2Scripts": [

        ],
        "defaultTimeRestrictions": [

        ],
        "timeRestrictionsByTechnology": [

        ],
        "timeRestrictionsByProductGroup": [

        ],
        "timeRestrictions": [

        ],
        "defaultReplaceTimeRestrictionsForSubRoute": [

        ],
        "replaceTimeRestrictionsByTechnologyForSubRoute": [

        ],
        "replaceTimeRestrictionsByProductGroupForSubRoute": [

        ],
        "replaceTimeRestrictionsForSubRoute": [

        ],
        "defaultReplaceTimeRestrictionsForReworkRoute": [

        ],
        "replaceTimeRestrictionsByTechnologyForReworkRoute": [

        ],
        "replaceTimeRestrictionsByProductGroupForReworkRoute": [

        ],
        "replaceTimeRestrictionsForReworkRoute": [

        ],
        "defaultProcessLagTime": 0,
        "processLagTimesByTechnology": [

        ],
        "processLagTimesByProductGroup": [

        ],
        "processLagTimes": [

        ],
        "equipmentMonitorSections": [

        ]
      },
      {
        "operationNumber": "105",
        "processDefinitionId": "EG-ECMAUTO-ROUTEEDIT-CS-MOTETHAN50_QTLT5_MHSFEOL2HK-14LPE",
        "version": "01",
        "processDefinition": {
          "identifier": "EG-ECMAUTO-ROUTEEDIT-CS-MOTETHAN50_QTLT5_MHSFEOL2HK-14LPE.01",
          "stringifiedObjectReference": "SPIORLL:N:C2/#BRProcessDefinition#F2#EG-ECMAUTO-ROUTEEDIT-CS-MOTETHAN50_QTLT5_MHSFEOL2HK-14LPE.01"
        },
        "pdiDefinitionFlag": false,
        "pdiDefinitionResetFlag": false,
        "processOperationNumber": "",
        "correspondingOperations": [

        ],
        "responsibleOperationNumbers": [

        ],
        "recycleSamplingOperationNumber": "",
        "mandatoryOperationRequiredFlag": true,
        "flowBatchControl": {
          "sectionControlCategory": "",
          "name": "",
          "targetOperationFlag": false,
          "flowBatchingOffsetTime": 0.0,
          "maxBatchSize": 0,
          "minBatchSize": 0,
          "minWaferCount": 0
        },
        "pilotWaferProcessControl": {
          "name": "",
          "maxPilotProcessCount": 0
        },
        "defaultMeasDCSpec": {
          "identifier": "",
          "stringifiedObjectReference": ""
        },
        "measDCSpecsByTechnology": [

        ],
        "measDCSpecsByProductGroup": [

        ],
        "measDCSpecs": [

        ],
        "defaultTestSpec": {
          "identifier": "",
          "stringifiedObjectReference": ""
        },
        "testSpecsByTechnology": [

        ],
        "testSpecsByProductGroup": [

        ],
        "testSpecs": [

        ],
        "deltaDCDefinitions": [

        ],
        "defaultDeltaDCSpecs": [

        ],
        "deltaDCSpecsByTechnology": [

        ],
        "deltaDCSpecsByProductGroup": [

        ],
        "deltaDCSpecs": [

        ],
        "subProcessDefinitions": [

        ],
        "reworkProcessDefinitions": [

        ],
        "defaultReworkLimit": -1,
        "reworkLimitsByTechnology": [

        ],
        "reworkLimitsByProductGroup": [

        ],
        "reworkLimits": [

        ],
        "defaultProcessLimit": -1,
        "processLimitsByTechnology": [

        ],
        "processLimitsByProductGroup": [

        ],
        "processLimits": [

        ],
        "postScript": {
          "identifier": "",
          "stringifiedObjectReference": ""
        },
        "pre1Script": {
          "identifier": "PCL-PRE1",
          "stringifiedObjectReference": "SPIORLL:N:C2/#BRScript#F2#PCL-PRE1"
        },
        "pre2Script": {
          "identifier": "",
          "stringifiedObjectReference": ""
        },
        "postScripts": [

        ],
        "pre1Scripts": [
          {
            "identifier": "PCL-PRE1",
            "stringifiedObjectReference": "SPIORLL:N:C2/#BRScript#F2#PCL-PRE1"
          }
        ],
        "pre2Scripts": [

        ],
        "defaultTimeRestrictions": [

        ],
        "timeRestrictionsByTechnology": [

        ],
        "timeRestrictionsByProductGroup": [

        ],
        "timeRestrictions": [

        ],
        "defaultReplaceTimeRestrictionsForSubRoute": [

        ],
        "replaceTimeRestrictionsByTechnologyForSubRoute": [

        ],
        "replaceTimeRestrictionsByProductGroupForSubRoute": [

        ],
        "replaceTimeRestrictionsForSubRoute": [

        ],
        "defaultReplaceTimeRestrictionsForReworkRoute": [

        ],
        "replaceTimeRestrictionsByTechnologyForReworkRoute": [

        ],
        "replaceTimeRestrictionsByProductGroupForReworkRoute": [

        ],
        "replaceTimeRestrictionsForReworkRoute": [

        ],
        "defaultProcessLagTime": 0,
        "processLagTimesByTechnology": [

        ],
        "processLagTimesByProductGroup": [

        ],
        "processLagTimes": [

        ],
        "equipmentMonitorSections": [

        ]
      },
      {
        "operationNumber": "106",
        "processDefinitionId": "EG-ECMAUTO-ROUTEEDIT-CS-MOTETHAN50_QTLT6_MHSFEOL2HK-14LPE",
        "version": "01",
        "processDefinition": {
          "identifier": "EG-ECMAUTO-ROUTEEDIT-CS-MOTETHAN50_QTLT6_MHSFEOL2HK-14LPE.01",
          "stringifiedObjectReference": "SPIORLL:N:C2/#BRProcessDefinition#F2#EG-ECMAUTO-ROUTEEDIT-CS-MOTETHAN50_QTLT6_MHSFEOL2HK-14LPE.01"
        },
        "pdiDefinitionFlag": false,
        "pdiDefinitionResetFlag": false,
        "processOperationNumber": "",
        "correspondingOperations": [

        ],
        "responsibleOperationNumbers": [

        ],
        "recycleSamplingOperationNumber": "",
        "mandatoryOperationRequiredFlag": true,
        "flowBatchControl": {
          "sectionControlCategory": "",
          "name": "",
          "targetOperationFlag": false,
          "flowBatchingOffsetTime": 0.0,
          "maxBatchSize": 0,
          "minBatchSize": 0,
          "minWaferCount": 0
        },
        "pilotWaferProcessControl": {
          "name": "",
          "maxPilotProcessCount": 0
        },
        "defaultMeasDCSpec": {
          "identifier": "",
          "stringifiedObjectReference": ""
        },
        "measDCSpecsByTechnology": [

        ],
        "measDCSpecsByProductGroup": [

        ],
        "measDCSpecs": [

        ],
        "defaultTestSpec": {
          "identifier": "",
          "stringifiedObjectReference": ""
        },
        "testSpecsByTechnology": [

        ],
        "testSpecsByProductGroup": [

        ],
        "testSpecs": [

        ],
        "deltaDCDefinitions": [

        ],
        "defaultDeltaDCSpecs": [

        ],
        "deltaDCSpecsByTechnology": [

        ],
        "deltaDCSpecsByProductGroup": [

        ],
        "deltaDCSpecs": [

        ],
        "subProcessDefinitions": [

        ],
        "reworkProcessDefinitions": [

        ],
        "defaultReworkLimit": -1,
        "reworkLimitsByTechnology": [

        ],
        "reworkLimitsByProductGroup": [

        ],
        "reworkLimits": [

        ],
        "defaultProcessLimit": -1,
        "processLimitsByTechnology": [

        ],
        "processLimitsByProductGroup": [

        ],
        "processLimits": [

        ],
        "postScript": {
          "identifier": "",
          "stringifiedObjectReference": ""
        },
        "pre1Script": {
          "identifier": "",
          "stringifiedObjectReference": ""
        },
        "pre2Script": {
          "identifier": "",
          "stringifiedObjectReference": ""
        },
        "postScripts": [

        ],
        "pre1Scripts": [

        ],
        "pre2Scripts": [

        ],
        "defaultTimeRestrictions": [

        ],
        "timeRestrictionsByTechnology": [

        ],
        "timeRestrictionsByProductGroup": [

        ],
        "timeRestrictions": [

        ],
        "defaultReplaceTimeRestrictionsForSubRoute": [

        ],
        "replaceTimeRestrictionsByTechnologyForSubRoute": [

        ],
        "replaceTimeRestrictionsByProductGroupForSubRoute": [

        ],
        "replaceTimeRestrictionsForSubRoute": [

        ],
        "defaultReplaceTimeRestrictionsForReworkRoute": [

        ],
        "replaceTimeRestrictionsByTechnologyForReworkRoute": [

        ],
        "replaceTimeRestrictionsByProductGroupForReworkRoute": [

        ],
        "replaceTimeRestrictionsForReworkRoute": [

        ],
        "defaultProcessLagTime": 0,
        "processLagTimesByTechnology": [

        ],
        "processLagTimesByProductGroup": [

        ],
        "processLagTimes": [

        ],
        "equipmentMonitorSections": [

        ]
      },
      {
        "operationNumber": "107",
        "processDefinitionId": "EG-ECMAUTO-ROUTEEDIT-CS-MOTETHAN50_QTLT7_MHSFEOL2HK-14LPE",
        "version": "01",
        "processDefinition": {
          "identifier": "EG-ECMAUTO-ROUTEEDIT-CS-MOTETHAN50_QTLT7_MHSFEOL2HK-14LPE.01",
          "stringifiedObjectReference": "SPIORLL:N:C2/#BRProcessDefinition#F2#EG-ECMAUTO-ROUTEEDIT-CS-MOTETHAN50_QTLT7_MHSFEOL2HK-14LPE.01"
        },
        "pdiDefinitionFlag": false,
        "pdiDefinitionResetFlag": false,
        "processOperationNumber": "",
        "correspondingOperations": [

        ],
        "responsibleOperationNumbers": [

        ],
        "recycleSamplingOperationNumber": "",
        "mandatoryOperationRequiredFlag": true,
        "flowBatchControl": {
          "sectionControlCategory": "",
          "name": "",
          "targetOperationFlag": false,
          "flowBatchingOffsetTime": 0.0,
          "maxBatchSize": 0,
          "minBatchSize": 0,
          "minWaferCount": 0
        },
        "pilotWaferProcessControl": {
          "name": "",
          "maxPilotProcessCount": 0
        },
        "defaultMeasDCSpec": {
          "identifier": "",
          "stringifiedObjectReference": ""
        },
        "measDCSpecsByTechnology": [

        ],
        "measDCSpecsByProductGroup": [

        ],
        "measDCSpecs": [

        ],
        "defaultTestSpec": {
          "identifier": "",
          "stringifiedObjectReference": ""
        },
        "testSpecsByTechnology": [

        ],
        "testSpecsByProductGroup": [

        ],
        "testSpecs": [

        ],
        "deltaDCDefinitions": [

        ],
        "defaultDeltaDCSpecs": [

        ],
        "deltaDCSpecsByTechnology": [

        ],
        "deltaDCSpecsByProductGroup": [

        ],
        "deltaDCSpecs": [

        ],
        "subProcessDefinitions": [

        ],
        "reworkProcessDefinitions": [

        ],
        "defaultReworkLimit": -1,
        "reworkLimitsByTechnology": [

        ],
        "reworkLimitsByProductGroup": [

        ],
        "reworkLimits": [

        ],
        "defaultProcessLimit": -1,
        "processLimitsByTechnology": [

        ],
        "processLimitsByProductGroup": [

        ],
        "processLimits": [

        ],
        "postScript": {
          "identifier": "",
          "stringifiedObjectReference": ""
        },
        "pre1Script": {
          "identifier": "",
          "stringifiedObjectReference": ""
        },
        "pre2Script": {
          "identifier": "",
          "stringifiedObjectReference": ""
        },
        "postScripts": [

        ],
        "pre1Scripts": [

        ],
        "pre2Scripts": [

        ],
        "defaultTimeRestrictions": [

        ],
        "timeRestrictionsByTechnology": [

        ],
        "timeRestrictionsByProductGroup": [

        ],
        "timeRestrictions": [

        ],
        "defaultReplaceTimeRestrictionsForSubRoute": [

        ],
        "replaceTimeRestrictionsByTechnologyForSubRoute": [

        ],
        "replaceTimeRestrictionsByProductGroupForSubRoute": [

        ],
        "replaceTimeRestrictionsForSubRoute": [

        ],
        "defaultReplaceTimeRestrictionsForReworkRoute": [

        ],
        "replaceTimeRestrictionsByTechnologyForReworkRoute": [

        ],
        "replaceTimeRestrictionsByProductGroupForReworkRoute": [

        ],
        "replaceTimeRestrictionsForReworkRoute": [

        ],
        "defaultProcessLagTime": 0,
        "processLagTimesByTechnology": [

        ],
        "processLagTimesByProductGroup": [

        ],
        "processLagTimes": [

        ],
        "equipmentMonitorSections": [

        ]
      },
      {
        "operationNumber": "108",
        "processDefinitionId": "EG-ECMAUTO-ROUTEEDIT-CS-MOTETHAN50_QTLT8_MHSFEOL2HK-14LPE",
        "version": "01",
        "processDefinition": {
          "identifier": "EG-ECMAUTO-ROUTEEDIT-CS-MOTETHAN50_QTLT8_MHSFEOL2HK-14LPE.01",
          "stringifiedObjectReference": "SPIORLL:N:C2/#BRProcessDefinition#F2#EG-ECMAUTO-ROUTEEDIT-CS-MOTETHAN50_QTLT8_MHSFEOL2HK-14LPE.01"
        },
        "pdiDefinitionFlag": false,
        "pdiDefinitionResetFlag": false,
        "processOperationNumber": "",
        "correspondingOperations": [

        ],
        "responsibleOperationNumbers": [

        ],
        "recycleSamplingOperationNumber": "",
        "mandatoryOperationRequiredFlag": true,
        "flowBatchControl": {
          "sectionControlCategory": "",
          "name": "",
          "targetOperationFlag": false,
          "flowBatchingOffsetTime": 0.0,
          "maxBatchSize": 0,
          "minBatchSize": 0,
          "minWaferCount": 0
        },
        "pilotWaferProcessControl": {
          "name": "",
          "maxPilotProcessCount": 0
        },
        "defaultMeasDCSpec": {
          "identifier": "",
          "stringifiedObjectReference": ""
        },
        "measDCSpecsByTechnology": [

        ],
        "measDCSpecsByProductGroup": [

        ],
        "measDCSpecs": [

        ],
        "defaultTestSpec": {
          "identifier": "",
          "stringifiedObjectReference": ""
        },
        "testSpecsByTechnology": [

        ],
        "testSpecsByProductGroup": [

        ],
        "testSpecs": [

        ],
        "deltaDCDefinitions": [

        ],
        "defaultDeltaDCSpecs": [

        ],
        "deltaDCSpecsByTechnology": [

        ],
        "deltaDCSpecsByProductGroup": [

        ],
        "deltaDCSpecs": [

        ],
        "subProcessDefinitions": [

        ],
        "reworkProcessDefinitions": [

        ],
        "defaultReworkLimit": -1,
        "reworkLimitsByTechnology": [

        ],
        "reworkLimitsByProductGroup": [

        ],
        "reworkLimits": [

        ],
        "defaultProcessLimit": -1,
        "processLimitsByTechnology": [

        ],
        "processLimitsByProductGroup": [

        ],
        "processLimits": [

        ],
        "postScript": {
          "identifier": "",
          "stringifiedObjectReference": ""
        },
        "pre1Script": {
          "identifier": "",
          "stringifiedObjectReference": ""
        },
        "pre2Script": {
          "identifier": "",
          "stringifiedObjectReference": ""
        },
        "postScripts": [

        ],
        "pre1Scripts": [

        ],
        "pre2Scripts": [

        ],
        "defaultTimeRestrictions": [

        ],
        "timeRestrictionsByTechnology": [

        ],
        "timeRestrictionsByProductGroup": [

        ],
        "timeRestrictions": [

        ],
        "defaultReplaceTimeRestrictionsForSubRoute": [

        ],
        "replaceTimeRestrictionsByTechnologyForSubRoute": [

        ],
        "replaceTimeRestrictionsByProductGroupForSubRoute": [

        ],
        "replaceTimeRestrictionsForSubRoute": [

        ],
        "defaultReplaceTimeRestrictionsForReworkRoute": [

        ],
        "replaceTimeRestrictionsByTechnologyForReworkRoute": [

        ],
        "replaceTimeRestrictionsByProductGroupForReworkRoute": [

        ],
        "replaceTimeRestrictionsForReworkRoute": [

        ],
        "defaultProcessLagTime": 0,
        "processLagTimesByTechnology": [

        ],
        "processLagTimesByProductGroup": [

        ],
        "processLagTimes": [

        ],
        "equipmentMonitorSections": [

        ]
      },
      {
        "operationNumber": "109",
        "processDefinitionId": "EG-ECMAUTO-ROUTEEDIT-CS-MOTETHAN50_QTLT9_MHSFEOL2HK-14LPE",
        "version": "01",
        "processDefinition": {
          "identifier": "EG-ECMAUTO-ROUTEEDIT-CS-MOTETHAN50_QTLT9_MHSFEOL2HK-14LPE.01",
          "stringifiedObjectReference": "SPIORLL:N:C2/#BRProcessDefinition#F2#EG-ECMAUTO-ROUTEEDIT-CS-MOTETHAN50_QTLT9_MHSFEOL2HK-14LPE.01"
        },
        "pdiDefinitionFlag": false,
        "pdiDefinitionResetFlag": false,
        "processOperationNumber": "",
        "correspondingOperations": [

        ],
        "responsibleOperationNumbers": [

        ],
        "recycleSamplingOperationNumber": "",
        "mandatoryOperationRequiredFlag": true,
        "flowBatchControl": {
          "sectionControlCategory": "",
          "name": "",
          "targetOperationFlag": false,
          "flowBatchingOffsetTime": 0.0,
          "maxBatchSize": 0,
          "minBatchSize": 0,
          "minWaferCount": 0
        },
        "pilotWaferProcessControl": {
          "name": "",
          "maxPilotProcessCount": 0
        },
        "defaultMeasDCSpec": {
          "identifier": "",
          "stringifiedObjectReference": ""
        },
        "measDCSpecsByTechnology": [

        ],
        "measDCSpecsByProductGroup": [

        ],
        "measDCSpecs": [

        ],
        "defaultTestSpec": {
          "identifier": "",
          "stringifiedObjectReference": ""
        },
        "testSpecsByTechnology": [

        ],
        "testSpecsByProductGroup": [

        ],
        "testSpecs": [

        ],
        "deltaDCDefinitions": [

        ],
        "defaultDeltaDCSpecs": [

        ],
        "deltaDCSpecsByTechnology": [

        ],
        "deltaDCSpecsByProductGroup": [

        ],
        "deltaDCSpecs": [

        ],
        "subProcessDefinitions": [

        ],
        "reworkProcessDefinitions": [

        ],
        "defaultReworkLimit": -1,
        "reworkLimitsByTechnology": [

        ],
        "reworkLimitsByProductGroup": [

        ],
        "reworkLimits": [

        ],
        "defaultProcessLimit": -1,
        "processLimitsByTechnology": [

        ],
        "processLimitsByProductGroup": [

        ],
        "processLimits": [

        ],
        "postScript": {
          "identifier": "",
          "stringifiedObjectReference": ""
        },
        "pre1Script": {
          "identifier": "PCL-PRE1",
          "stringifiedObjectReference": "SPIORLL:N:C2/#BRScript#F2#PCL-PRE1"
        },
        "pre2Script": {
          "identifier": "",
          "stringifiedObjectReference": ""
        },
        "postScripts": [

        ],
        "pre1Scripts": [
          {
            "identifier": "PCL-PRE1",
            "stringifiedObjectReference": "SPIORLL:N:C2/#BRScript#F2#PCL-PRE1"
          }
        ],
        "pre2Scripts": [

        ],
        "defaultTimeRestrictions": [

        ],
        "timeRestrictionsByTechnology": [

        ],
        "timeRestrictionsByProductGroup": [

        ],
        "timeRestrictions": [

        ],
        "defaultReplaceTimeRestrictionsForSubRoute": [

        ],
        "replaceTimeRestrictionsByTechnologyForSubRoute": [

        ],
        "replaceTimeRestrictionsByProductGroupForSubRoute": [

        ],
        "replaceTimeRestrictionsForSubRoute": [

        ],
        "defaultReplaceTimeRestrictionsForReworkRoute": [

        ],
        "replaceTimeRestrictionsByTechnologyForReworkRoute": [

        ],
        "replaceTimeRestrictionsByProductGroupForReworkRoute": [

        ],
        "replaceTimeRestrictionsForReworkRoute": [

        ],
        "defaultProcessLagTime": 0,
        "processLagTimesByTechnology": [

        ],
        "processLagTimesByProductGroup": [

        ],
        "processLagTimes": [

        ],
        "equipmentMonitorSections": [

        ]
      },
      {
        "operationNumber": "110",
        "processDefinitionId": "EG-ECMAUTO-ROUTEEDIT-CS-MOTETHAN50_QTLT10_MHSFEOL2HK-14LPE",
        "version": "01",
        "processDefinition": {
          "identifier": "EG-ECMAUTO-ROUTEEDIT-CS-MOTETHAN50_QTLT10_MHSFEOL2HK-14LPE.01",
          "stringifiedObjectReference": "SPIORLL:N:C2/#BRProcessDefinition#F2#EG-ECMAUTO-ROUTEEDIT-CS-MOTETHAN50_QTLT10_MHSFEOL2HK-14LPE.01"
        },
        "pdiDefinitionFlag": false,
        "pdiDefinitionResetFlag": false,
        "processOperationNumber": "",
        "correspondingOperations": [

        ],
        "responsibleOperationNumbers": [

        ],
        "recycleSamplingOperationNumber": "",
        "mandatoryOperationRequiredFlag": true,
        "flowBatchControl": {
          "sectionControlCategory": "",
          "name": "",
          "targetOperationFlag": false,
          "flowBatchingOffsetTime": 0.0,
          "maxBatchSize": 0,
          "minBatchSize": 0,
          "minWaferCount": 0
        },
        "pilotWaferProcessControl": {
          "name": "",
          "maxPilotProcessCount": 0
        },
        "defaultMeasDCSpec": {
          "identifier": "",
          "stringifiedObjectReference": ""
        },
        "measDCSpecsByTechnology": [

        ],
        "measDCSpecsByProductGroup": [

        ],
        "measDCSpecs": [

        ],
        "defaultTestSpec": {
          "identifier": "",
          "stringifiedObjectReference": ""
        },
        "testSpecsByTechnology": [

        ],
        "testSpecsByProductGroup": [

        ],
        "testSpecs": [

        ],
        "deltaDCDefinitions": [

        ],
        "defaultDeltaDCSpecs": [

        ],
        "deltaDCSpecsByTechnology": [

        ],
        "deltaDCSpecsByProductGroup": [

        ],
        "deltaDCSpecs": [

        ],
        "subProcessDefinitions": [

        ],
        "reworkProcessDefinitions": [

        ],
        "defaultReworkLimit": -1,
        "reworkLimitsByTechnology": [

        ],
        "reworkLimitsByProductGroup": [

        ],
        "reworkLimits": [

        ],
        "defaultProcessLimit": -1,
        "processLimitsByTechnology": [

        ],
        "processLimitsByProductGroup": [

        ],
        "processLimits": [

        ],
        "postScript": {
          "identifier": "",
          "stringifiedObjectReference": ""
        },
        "pre1Script": {
          "identifier": "",
          "stringifiedObjectReference": ""
        },
        "pre2Script": {
          "identifier": "",
          "stringifiedObjectReference": ""
        },
        "postScripts": [

        ],
        "pre1Scripts": [

        ],
        "pre2Scripts": [

        ],
        "defaultTimeRestrictions": [

        ],
        "timeRestrictionsByTechnology": [

        ],
        "timeRestrictionsByProductGroup": [

        ],
        "timeRestrictions": [

        ],
        "defaultReplaceTimeRestrictionsForSubRoute": [

        ],
        "replaceTimeRestrictionsByTechnologyForSubRoute": [

        ],
        "replaceTimeRestrictionsByProductGroupForSubRoute": [

        ],
        "replaceTimeRestrictionsForSubRoute": [

        ],
        "defaultReplaceTimeRestrictionsForReworkRoute": [

        ],
        "replaceTimeRestrictionsByTechnologyForReworkRoute": [

        ],
        "replaceTimeRestrictionsByProductGroupForReworkRoute": [

        ],
        "replaceTimeRestrictionsForReworkRoute": [

        ],
        "defaultProcessLagTime": 0,
        "processLagTimesByTechnology": [

        ],
        "processLagTimesByProductGroup": [

        ],
        "processLagTimes": [

        ],
        "equipmentMonitorSections": [

        ]
      }
    ],
    "pdiDefinitionFlag": false,
    "pdiDefinitionResetFlag": false,
    "userDataSets": [

    ],
    "siClassInfo": null
  }
}