{
  "objectId": {
    "identifier": "ECMAUTO-UAT-CO1-LT-ADD-MODULE-AFTER02.01",
    "stringifiedObjectReference": "SPIORLL:N:C2/#BRModuleProcessDefinition#F2#ECMAUTO-UAT-CO1-LT-ADD-MODULE-AFTER02.01"
  },
  "propertyInfo": {
    "changeNotice": {
      "identifier": "",
      "stringifiedObjectReference": ""
    },
    "createdDateTime": "2017-12-01-10.56.01.096251",
    "createdUser": {
      "identifier": "asalla",
      "stringifiedObjectReference": ""
    },
    "lastUpdatedDateTime": "2018-03-15-09.09.45.711081",
    "lastUpdatedUser": {
      "identifier": "asalla",
      "stringifiedObjectReference": ""
    },
    "lastCheckOutDateTime": "2018-03-15-09.32.06.296263",
    "lastCheckOutUser": {
      "identifier": "asalla",
      "stringifiedObjectReference": ""
    },
    "lastCheckInDateTime": "2018-03-15-09.32.27.814901",
    "lastCheckInUser": {
      "identifier": "asalla",
      "stringifiedObjectReference": ""
    },
    "lastReleasedDateTime": "2018-03-15-09.32.27.814901",
    "lastReleasedUser": {
      "identifier": "asalla",
      "stringifiedObjectReference": ""
    },
    "lastRollBackDateTime": "",
    "lastRollBackUser": {
      "identifier": "",
      "stringifiedObjectReference": ""
    },
    "lastArchivedDateTime": "",
    "lastArchivedUser": {
      "identifier": "",
      "stringifiedObjectReference": ""
    },
    "lastRestoredDateTime": "",
    "lastRestoredUser": {
      "identifier": "",
      "stringifiedObjectReference": ""
    },
    "lastActionUser": {
      "identifier": "asalla",
      "stringifiedObjectReference": ""
    },
    "lastActionDateTime": "2018-03-15-09.32.27.814901",
    "lastActionEventCode": "EVRLSOBJ",
    "lastComment": "",
    "currentInWorkState": "NotInWork",
    "currentSetUpState": "Released",
    "permission": "Group",
    "permissionRead": "Public",
    "permissionReleaseDelete": "Public",
    "userGroup": {
      "identifier": "FSS",
      "stringifiedObjectReference": "SPIORLL:N:C2/#BRUserGroup#F2#FSS"
    },
    "userGroupRead": {
      "identifier": "",
      "stringifiedObjectReference": ""
    },
    "userGroupReleaseDelete": {
      "identifier": "",
      "stringifiedObjectReference": ""
    },
    "owner": {
      "identifier": "aboggava",
      "stringifiedObjectReference": "SPIORLL:N:C2/#BRUser#F2#aboggava"
    },
    "batchReleaseFlag": false
  },
  "documentEntityInfo": {
    "documentSpecification": "ECMAUTO-UAT-CO1-LT-ADD-MODULE-AFTER02",
    "activeFlag": false,
    "reserveFlag": false,
    "obsoleteFlag": false,
    "lastActivatedUser": {
      "identifier": "",
      "stringifiedObjectReference": ""
    },
    "lastActivatedDateTime": "",
    "lastInactivatedUser": {
      "identifier": "",
      "stringifiedObjectReference": ""
    },
    "lastInactivatedDateTime": "",
    "lastReservedUser": {
      "identifier": "",
      "stringifiedObjectReference": ""
    },
    "lastReservedDateTime": "",
    "lastCanceledReserveChangeActiveUser": {
      "identifier": "",
      "stringifiedObjectReference": ""
    },
    "lastCanceledReserveChangeActiveDateTime": "",
    "lastObsoleteUser": {
      "identifier": "",
      "stringifiedObjectReference": ""
    },
    "lastObsoleteDateTime": "",
    "lastCancelObsoleteUser": {
      "identifier": "",
      "stringifiedObjectReference": ""
    },
    "lastCancelObsoleteDateTime": ""
  },
  "classInfo": {
    "identifier": "ECMAUTO-UAT-CO1-LT-ADD-MODULE-AFTER02.01",
    "moduleProcessDefinitionId": "ECMAUTO-UAT-CO1-LT-ADD-MODULE-AFTER02",
    "version": "01",
    "description": "IL HK DEP-SL",
    "moduleProcessOperations": [
      {
        "operationNumber": "1000",
        "processDefinitionId": "EG-ECMAUTO-ROUTEEDIT-NEW-QTLT7_MHSFEOL2HK-14LPE",
        "version": "01",
        "processDefinition": {
          "identifier": "EG-ECMAUTO-ROUTEEDIT-NEW-QTLT7_MHSFEOL2HK-14LPE.01",
          "stringifiedObjectReference": "SPIORLL:N:C2/#BRProcessDefinition#F2#EG-ECMAUTO-ROUTEEDIT-NEW-QTLT7_MHSFEOL2HK-14LPE.01"
        },
        "pdiDefinitionFlag": false,
        "pdiDefinitionResetFlag": false,
        "processOperationNumber": "",
        "correspondingOperations": [

        ],
        "responsibleOperationNumbers": [

        ],
        "recycleSamplingOperationNumber": "",
        "mandatoryOperationRequiredFlag": true,
        "flowBatchControl": {
          "sectionControlCategory": "",
          "name": "",
          "targetOperationFlag": false,
          "flowBatchingOffsetTime": 0.0,
          "maxBatchSize": 0,
          "minBatchSize": 0,
          "minWaferCount": 0
        },
        "pilotWaferProcessControl": {
          "name": "",
          "maxPilotProcessCount": 0
        },
        "defaultMeasDCSpec": {
          "identifier": "",
          "stringifiedObjectReference": ""
        },
        "measDCSpecsByTechnology": [

        ],
        "measDCSpecsByProductGroup": [

        ],
        "measDCSpecs": [

        ],
        "defaultTestSpec": {
          "identifier": "",
          "stringifiedObjectReference": ""
        },
        "testSpecsByTechnology": [

        ],
        "testSpecsByProductGroup": [

        ],
        "testSpecs": [

        ],
        "deltaDCDefinitions": [

        ],
        "defaultDeltaDCSpecs": [

        ],
        "deltaDCSpecsByTechnology": [

        ],
        "deltaDCSpecsByProductGroup": [

        ],
        "deltaDCSpecs": [

        ],
        "subProcessDefinitions": [

        ],
        "reworkProcessDefinitions": [

        ],
        "defaultReworkLimit": -1,
        "reworkLimitsByTechnology": [

        ],
        "reworkLimitsByProductGroup": [

        ],
        "reworkLimits": [

        ],
        "defaultProcessLimit": -1,
        "processLimitsByTechnology": [

        ],
        "processLimitsByProductGroup": [

        ],
        "processLimits": [

        ],
        "postScript": {
          "identifier": "",
          "stringifiedObjectReference": ""
        },
        "pre1Script": {
          "identifier": "PCL-PRE1",
          "stringifiedObjectReference": "SPIORLL:N:C2/#BRScript#F2#PCL-PRE1"
        },
        "pre2Script": {
          "identifier": "",
          "stringifiedObjectReference": ""
        },
        "postScripts": [

        ],
        "pre1Scripts": [
          {
            "identifier": "PCL-PRE1",
            "stringifiedObjectReference": "SPIORLL:N:C2/#BRScript#F2#PCL-PRE1"
          }
        ],
        "pre2Scripts": [

        ],
        "defaultTimeRestrictions": [

        ],
        "timeRestrictionsByTechnology": [

        ],
        "timeRestrictionsByProductGroup": [

        ],
        "timeRestrictions": [

        ],
        "defaultReplaceTimeRestrictionsForSubRoute": [

        ],
        "replaceTimeRestrictionsByTechnologyForSubRoute": [

        ],
        "replaceTimeRestrictionsByProductGroupForSubRoute": [

        ],
        "replaceTimeRestrictionsForSubRoute": [

        ],
        "defaultReplaceTimeRestrictionsForReworkRoute": [

        ],
        "replaceTimeRestrictionsByTechnologyForReworkRoute": [

        ],
        "replaceTimeRestrictionsByProductGroupForReworkRoute": [

        ],
        "replaceTimeRestrictionsForReworkRoute": [

        ],
        "defaultProcessLagTime": 0,
        "processLagTimesByTechnology": [

        ],
        "processLagTimesByProductGroup": [

        ],
        "processLagTimes": [

        ],
        "equipmentMonitorSections": [

        ]
      },
      {
        "operationNumber": "2000",
        "processDefinitionId": "EG-ECMAUTO-ROUTEEDIT-NEW-QTLT8_MHSFEOL2HK-14LPE",
        "version": "01",
        "processDefinition": {
          "identifier": "EG-ECMAUTO-ROUTEEDIT-NEW-QTLT8_MHSFEOL2HK-14LPE.01",
          "stringifiedObjectReference": "SPIORLL:N:C2/#BRProcessDefinition#F2#EG-ECMAUTO-ROUTEEDIT-NEW-QTLT8_MHSFEOL2HK-14LPE.01"
        },
        "pdiDefinitionFlag": false,
        "pdiDefinitionResetFlag": false,
        "processOperationNumber": "",
        "correspondingOperations": [

        ],
        "responsibleOperationNumbers": [

        ],
        "recycleSamplingOperationNumber": "",
        "mandatoryOperationRequiredFlag": true,
        "flowBatchControl": {
          "sectionControlCategory": "",
          "name": "",
          "targetOperationFlag": false,
          "flowBatchingOffsetTime": 0.0,
          "maxBatchSize": 0,
          "minBatchSize": 0,
          "minWaferCount": 0
        },
        "pilotWaferProcessControl": {
          "name": "",
          "maxPilotProcessCount": 0
        },
        "defaultMeasDCSpec": {
          "identifier": "",
          "stringifiedObjectReference": ""
        },
        "measDCSpecsByTechnology": [

        ],
        "measDCSpecsByProductGroup": [

        ],
        "measDCSpecs": [

        ],
        "defaultTestSpec": {
          "identifier": "",
          "stringifiedObjectReference": ""
        },
        "testSpecsByTechnology": [

        ],
        "testSpecsByProductGroup": [

        ],
        "testSpecs": [

        ],
        "deltaDCDefinitions": [

        ],
        "defaultDeltaDCSpecs": [

        ],
        "deltaDCSpecsByTechnology": [

        ],
        "deltaDCSpecsByProductGroup": [

        ],
        "deltaDCSpecs": [

        ],
        "subProcessDefinitions": [

        ],
        "reworkProcessDefinitions": [

        ],
        "defaultReworkLimit": -1,
        "reworkLimitsByTechnology": [

        ],
        "reworkLimitsByProductGroup": [

        ],
        "reworkLimits": [

        ],
        "defaultProcessLimit": -1,
        "processLimitsByTechnology": [

        ],
        "processLimitsByProductGroup": [

        ],
        "processLimits": [

        ],
        "postScript": {
          "identifier": "",
          "stringifiedObjectReference": ""
        },
        "pre1Script": {
          "identifier": "PCL-PRE1",
          "stringifiedObjectReference": "SPIORLL:N:C2/#BRScript#F2#PCL-PRE1"
        },
        "pre2Script": {
          "identifier": "",
          "stringifiedObjectReference": ""
        },
        "postScripts": [

        ],
        "pre1Scripts": [
          {
            "identifier": "PCL-PRE1",
            "stringifiedObjectReference": "SPIORLL:N:C2/#BRScript#F2#PCL-PRE1"
          }
        ],
        "pre2Scripts": [

        ],
        "defaultTimeRestrictions": [

        ],
        "timeRestrictionsByTechnology": [

        ],
        "timeRestrictionsByProductGroup": [

        ],
        "timeRestrictions": [

        ],
        "defaultReplaceTimeRestrictionsForSubRoute": [

        ],
        "replaceTimeRestrictionsByTechnologyForSubRoute": [

        ],
        "replaceTimeRestrictionsByProductGroupForSubRoute": [

        ],
        "replaceTimeRestrictionsForSubRoute": [

        ],
        "defaultReplaceTimeRestrictionsForReworkRoute": [

        ],
        "replaceTimeRestrictionsByTechnologyForReworkRoute": [

        ],
        "replaceTimeRestrictionsByProductGroupForReworkRoute": [

        ],
        "replaceTimeRestrictionsForReworkRoute": [

        ],
        "defaultProcessLagTime": 0,
        "processLagTimesByTechnology": [

        ],
        "processLagTimesByProductGroup": [

        ],
        "processLagTimes": [

        ],
        "equipmentMonitorSections": [

        ]
      },
      {
        "operationNumber": "3000",
        "processDefinitionId": "EG-ECMAUTO-ROUTEEDIT-NEW-QTLT9_MHSFEOL2HK-14LPE",
        "version": "01",
        "processDefinition": {
          "identifier": "EG-ECMAUTO-ROUTEEDIT-NEW-QTLT9_MHSFEOL2HK-14LPE.01",
          "stringifiedObjectReference": "SPIORLL:N:C2/#BRProcessDefinition#F2#EG-ECMAUTO-ROUTEEDIT-NEW-QTLT9_MHSFEOL2HK-14LPE.01"
        },
        "pdiDefinitionFlag": false,
        "pdiDefinitionResetFlag": false,
        "processOperationNumber": "",
        "correspondingOperations": [

        ],
        "responsibleOperationNumbers": [

        ],
        "recycleSamplingOperationNumber": "",
        "mandatoryOperationRequiredFlag": true,
        "flowBatchControl": {
          "sectionControlCategory": "",
          "name": "",
          "targetOperationFlag": false,
          "flowBatchingOffsetTime": 0.0,
          "maxBatchSize": 0,
          "minBatchSize": 0,
          "minWaferCount": 0
        },
        "pilotWaferProcessControl": {
          "name": "",
          "maxPilotProcessCount": 0
        },
        "defaultMeasDCSpec": {
          "identifier": "",
          "stringifiedObjectReference": ""
        },
        "measDCSpecsByTechnology": [

        ],
        "measDCSpecsByProductGroup": [

        ],
        "measDCSpecs": [

        ],
        "defaultTestSpec": {
          "identifier": "",
          "stringifiedObjectReference": ""
        },
        "testSpecsByTechnology": [

        ],
        "testSpecsByProductGroup": [

        ],
        "testSpecs": [

        ],
        "deltaDCDefinitions": [

        ],
        "defaultDeltaDCSpecs": [

        ],
        "deltaDCSpecsByTechnology": [

        ],
        "deltaDCSpecsByProductGroup": [

        ],
        "deltaDCSpecs": [

        ],
        "subProcessDefinitions": [

        ],
        "reworkProcessDefinitions": [

        ],
        "defaultReworkLimit": -1,
        "reworkLimitsByTechnology": [

        ],
        "reworkLimitsByProductGroup": [

        ],
        "reworkLimits": [

        ],
        "defaultProcessLimit": -1,
        "processLimitsByTechnology": [

        ],
        "processLimitsByProductGroup": [

        ],
        "processLimits": [

        ],
        "postScript": {
          "identifier": "",
          "stringifiedObjectReference": ""
        },
        "pre1Script": {
          "identifier": "PCL-PRE1",
          "stringifiedObjectReference": "SPIORLL:N:C2/#BRScript#F2#PCL-PRE1"
        },
        "pre2Script": {
          "identifier": "",
          "stringifiedObjectReference": ""
        },
        "postScripts": [

        ],
        "pre1Scripts": [
          {
            "identifier": "PCL-PRE1",
            "stringifiedObjectReference": "SPIORLL:N:C2/#BRScript#F2#PCL-PRE1"
          }
        ],
        "pre2Scripts": [

        ],
        "defaultTimeRestrictions": [

        ],
        "timeRestrictionsByTechnology": [

        ],
        "timeRestrictionsByProductGroup": [

        ],
        "timeRestrictions": [

        ],
        "defaultReplaceTimeRestrictionsForSubRoute": [

        ],
        "replaceTimeRestrictionsByTechnologyForSubRoute": [

        ],
        "replaceTimeRestrictionsByProductGroupForSubRoute": [

        ],
        "replaceTimeRestrictionsForSubRoute": [

        ],
        "defaultReplaceTimeRestrictionsForReworkRoute": [

        ],
        "replaceTimeRestrictionsByTechnologyForReworkRoute": [

        ],
        "replaceTimeRestrictionsByProductGroupForReworkRoute": [

        ],
        "replaceTimeRestrictionsForReworkRoute": [

        ],
        "defaultProcessLagTime": 0,
        "processLagTimesByTechnology": [

        ],
        "processLagTimesByProductGroup": [

        ],
        "processLagTimes": [

        ],
        "equipmentMonitorSections": [

        ]
      }
    ],
    "pdiDefinitionFlag": false,
    "pdiDefinitionResetFlag": false,
    "userDataSets": [

    ],
    "siClassInfo": null
  }
}