{
  "objectId": {
    "identifier": "ECMAUTO-LRA-PD25.01",
    "stringifiedObjectReference": "SPIORLL:N:C2/#BRProcessDefinition#F2#ECMAUTO-LRA-PD25.01"
  },
  "propertyInfo": {
    "changeNotice": {
      "identifier": "",
      "stringifiedObjectReference": ""
    },
    "createdDateTime": "2017-12-01-05.21.59.458552",
    "createdUser": {
      "identifier": "asalla",
      "stringifiedObjectReference": ""
    },
    "lastUpdatedDateTime": "2018-03-15-08.56.59.226460",
    "lastUpdatedUser": {
      "identifier": "asalla",
      "stringifiedObjectReference": ""
    },
    "lastCheckOutDateTime": "2018-03-15-08.59.58.990473",
    "lastCheckOutUser": {
      "identifier": "asalla",
      "stringifiedObjectReference": ""
    },
    "lastCheckInDateTime": "2018-03-15-09.00.00.745904",
    "lastCheckInUser": {
      "identifier": "asalla",
      "stringifiedObjectReference": ""
    },
    "lastReleasedDateTime": "2018-03-15-09.00.00.745904",
    "lastReleasedUser": {
      "identifier": "asalla",
      "stringifiedObjectReference": ""
    },
    "lastRollBackDateTime": "",
    "lastRollBackUser": {
      "identifier": "",
      "stringifiedObjectReference": ""
    },
    "lastArchivedDateTime": "",
    "lastArchivedUser": {
      "identifier": "",
      "stringifiedObjectReference": ""
    },
    "lastRestoredDateTime": "",
    "lastRestoredUser": {
      "identifier": "",
      "stringifiedObjectReference": ""
    },
    "lastActionUser": {
      "identifier": "asalla",
      "stringifiedObjectReference": ""
    },
    "lastActionDateTime": "2018-03-15-09.00.00.745904",
    "lastActionEventCode": "EVRLSOBJ",
    "lastComment": "",
    "currentInWorkState": "NotInWork",
    "currentSetUpState": "Released",
    "permission": "Group",
    "permissionRead": "Public",
    "permissionReleaseDelete": "Public",
    "userGroup": {
      "identifier": "FSS",
      "stringifiedObjectReference": "SPIORLL:N:C2/#BRUserGroup#F2#FSS"
    },
    "userGroupRead": {
      "identifier": "",
      "stringifiedObjectReference": ""
    },
    "userGroupReleaseDelete": {
      "identifier": "",
      "stringifiedObjectReference": ""
    },
    "owner": {
      "identifier": "asalla",
      "stringifiedObjectReference": "SPIORLL:N:C2/#BRUser#F2#asalla"
    },
    "batchReleaseFlag": false
  },
  "documentEntityInfo": {
    "documentSpecification": "ECMAUTO-LRA-PD25",
    "activeFlag": false,
    "reserveFlag": false,
    "obsoleteFlag": false,
    "lastActivatedUser": {
      "identifier": "",
      "stringifiedObjectReference": ""
    },
    "lastActivatedDateTime": "",
    "lastInactivatedUser": {
      "identifier": "",
      "stringifiedObjectReference": ""
    },
    "lastInactivatedDateTime": "",
    "lastReservedUser": {
      "identifier": "",
      "stringifiedObjectReference": ""
    },
    "lastReservedDateTime": "",
    "lastCanceledReserveChangeActiveUser": {
      "identifier": "",
      "stringifiedObjectReference": ""
    },
    "lastCanceledReserveChangeActiveDateTime": "",
    "lastObsoleteUser": {
      "identifier": "",
      "stringifiedObjectReference": ""
    },
    "lastObsoleteDateTime": "",
    "lastCancelObsoleteUser": {
      "identifier": "",
      "stringifiedObjectReference": ""
    },
    "lastCancelObsoleteDateTime": ""
  },
  "classInfo": {
    "identifier": "ECMAUTO-LRA-PD25.01",
    "processDefinitionId": "ECMAUTO-LRA-PD25",
    "version": "01",
    "processDefinitionName": "ECMAUTO-LRA-PD25",
    "pdType": "Other",
    "description": "ECMAUTO-LRA-PD25",
    "department": {
      "identifier": "AUT",
      "stringifiedObjectReference": "SPIORLL:N:C2/#BRDepartment#F2#AUT"
    },
    "fpcCategory": {
      "identifier": "",
      "stringifiedObjectReference": ""
    },
    "whiteDefinitionFlag": false,
    "defaultLogicalRecipeId": "A-ECMAUTO-LRA-ID-02",
    "defaultLogicalRecipeVersion": "01",
    "defaultLogicalRecipe": {
      "identifier": "A-ECMAUTO-LRA-ID-02.01",
      "stringifiedObjectReference": "SPIORLL:N:C2/#BRLogicalRecipe#F2#A-ECMAUTO-LRA-ID-02.01"
    },
    "logicalRecipesByTechnology": [

    ],
    "logicalRecipesByProductGroup": [

    ],
    "logicalRecipes": [

    ],
    "specificEquipmentsByTechnology": [

    ],
    "specificEquipmentsByProductGroup": [

    ],
    "specificEquipments": [

    ],
    "equipments": [

    ],
    "standardProcessTime": 1.0,
    "standardWaitTime": 0.0,
    "standardWPH": 0,
    "parts": [

    ],
    "pdiDefinitionFlag": false,
    "pdiDefinitionResetFlag": false,
    "equipmentDIDefinitionFlag": false,
    "equipmentDIDefinitionResetFlag": false,
    "userDataSets": [
      {
        "name": "ProcessTypeWfrSelection",
        "type": "String",
        "value": "MHSFEOL2HK",
        "originator": ""
      },
      {
        "name": "ProcessLayer",
        "type": "String",
        "value": "3GAUTO",
        "originator": ""
      },
      {
        "name": "AutomationType",
        "type": "String",
        "value": "XFR-PZ",
        "originator": ""
      }
    ],
    "siClassInfo": null
  }
}