{
  "objectId": {
    "identifier": "MT_ECM_EQP4",
    "stringifiedObjectReference": "SPIORLL:N:C2/#BREquipment#F2#MT_ECM_EQP4"
  },
  "propertyInfo": {
    "changeNotice": {
      "identifier": "",
      "stringifiedObjectReference": ""
    },
    "createdDateTime": "2016-11-21-02.25.46.509533",
    "createdUser": {
      "identifier": "skatroju",
      "stringifiedObjectReference": ""
    },
    "lastUpdatedDateTime": "2016-11-21-02.25.46.509533",
    "lastUpdatedUser": {
      "identifier": "skatroju",
      "stringifiedObjectReference": ""
    },
    "lastCheckOutDateTime": "2016-11-21-02.32.07.580930",
    "lastCheckOutUser": {
      "identifier": "skatroju",
      "stringifiedObjectReference": ""
    },
    "lastCheckInDateTime": "2016-11-21-02.32.09.250380",
    "lastCheckInUser": {
      "identifier": "skatroju",
      "stringifiedObjectReference": ""
    },
    "lastReleasedDateTime": "2016-11-21-02.32.09.250380",
    "lastReleasedUser": {
      "identifier": "skatroju",
      "stringifiedObjectReference": ""
    },
    "lastRollBackDateTime": "",
    "lastRollBackUser": {
      "identifier": "",
      "stringifiedObjectReference": ""
    },
    "lastArchivedDateTime": "",
    "lastArchivedUser": {
      "identifier": "",
      "stringifiedObjectReference": ""
    },
    "lastRestoredDateTime": "",
    "lastRestoredUser": {
      "identifier": "",
      "stringifiedObjectReference": ""
    },
    "lastActionUser": {
      "identifier": "skatroju",
      "stringifiedObjectReference": ""
    },
    "lastActionDateTime": "2016-11-21-02.32.09.250380",
    "lastActionEventCode": "EVRLSOBJ",
    "lastComment": "",
    "currentInWorkState": "NotInWork",
    "currentSetUpState": "Released",
    "permission": "Public",
    "permissionRead": "Public",
    "permissionReleaseDelete": "Public",
    "userGroup": {
      "identifier": "",
      "stringifiedObjectReference": ""
    },
    "userGroupRead": {
      "identifier": "",
      "stringifiedObjectReference": ""
    },
    "userGroupReleaseDelete": {
      "identifier": "",
      "stringifiedObjectReference": ""
    },
    "owner": {
      "identifier": "sramanat",
      "stringifiedObjectReference": "SPIORLL:N:C2/#BRUser#F2#sramanat"
    },
    "batchReleaseFlag": false
  },
  "documentEntityInfo": {
    "documentSpecification": "",
    "activeFlag": false,
    "reserveFlag": false,
    "obsoleteFlag": false,
    "lastActivatedUser": {
      "identifier": "",
      "stringifiedObjectReference": ""
    },
    "lastActivatedDateTime": "",
    "lastInactivatedUser": {
      "identifier": "",
      "stringifiedObjectReference": ""
    },
    "lastInactivatedDateTime": "",
    "lastReservedUser": {
      "identifier": "",
      "stringifiedObjectReference": ""
    },
    "lastReservedDateTime": "",
    "lastCanceledReserveChangeActiveUser": {
      "identifier": "",
      "stringifiedObjectReference": ""
    },
    "lastCanceledReserveChangeActiveDateTime": "",
    "lastObsoleteUser": {
      "identifier": "",
      "stringifiedObjectReference": ""
    },
    "lastObsoleteDateTime": "",
    "lastCancelObsoleteUser": {
      "identifier": "",
      "stringifiedObjectReference": ""
    },
    "lastCancelObsoleteDateTime": ""
  },
  "classInfo": {
    "identifier": "MT_ECM_EQP4",
    "equipmentId": "MT_ECM_EQP4",
    "description": "ECM - Disposition tool for all processes (virtual tool)",
    "instanceName": "",
    "equipmentOwner": {
      "identifier": "sramanat",
      "stringifiedObjectReference": "SPIORLL:N:C2/#BRUser#F2#sramanat"
    },
    "processResourceNames": [
      "P1",
      "P2",
      "P3",
      "P4"
    ],
    "portResources": [
      {
        "portResourceName": "P1",
        "portGroupName": "P1",
        "loadMode": "INPUT_OUTPUT",
        "associatedPortResourceName": "P1",
        "loadPurposeTypeId": "Any Purpose",
        "loadSequenceNumber": 1,
        "unloadSequenceNumber": 1,
        "carrierCategories": [
          {
            "identifier": "BEOL",
            "stringifiedObjectReference": "SPIORLL:N:C2/#BRCarrierCategory#F2#BEOL"
          },
          {
            "identifier": "FEOL",
            "stringifiedObjectReference": "SPIORLL:N:C2/#BRCarrierCategory#F2#FEOL"
          },
          {
            "identifier": "FOI",
            "stringifiedObjectReference": "SPIORLL:N:C2/#BRCarrierCategory#F2#FOI"
          },
          {
            "identifier": "HK",
            "stringifiedObjectReference": "SPIORLL:N:C2/#BRCarrierCategory#F2#HK"
          },
          {
            "identifier": "MOL",
            "stringifiedObjectReference": "SPIORLL:N:C2/#BRCarrierCategory#F2#MOL"
          }
        ],
        "specialPortControls": [

        ]
      },
      {
        "portResourceName": "P2",
        "portGroupName": "P2",
        "loadMode": "INPUT_OUTPUT",
        "associatedPortResourceName": "P2",
        "loadPurposeTypeId": "Any Purpose",
        "loadSequenceNumber": 1,
        "unloadSequenceNumber": 1,
        "carrierCategories": [
          {
            "identifier": "FEOL",
            "stringifiedObjectReference": "SPIORLL:N:C2/#BRCarrierCategory#F2#FEOL"
          },
          {
            "identifier": "MOL",
            "stringifiedObjectReference": "SPIORLL:N:C2/#BRCarrierCategory#F2#MOL"
          },
          {
            "identifier": "HK",
            "stringifiedObjectReference": "SPIORLL:N:C2/#BRCarrierCategory#F2#HK"
          },
          {
            "identifier": "BEOL",
            "stringifiedObjectReference": "SPIORLL:N:C2/#BRCarrierCategory#F2#BEOL"
          },
          {
            "identifier": "FOI",
            "stringifiedObjectReference": "SPIORLL:N:C2/#BRCarrierCategory#F2#FOI"
          }
        ],
        "specialPortControls": [

        ]
      },
      {
        "portResourceName": "P3",
        "portGroupName": "P3",
        "loadMode": "INPUT_OUTPUT",
        "associatedPortResourceName": "P3",
        "loadPurposeTypeId": "Any Purpose",
        "loadSequenceNumber": 1,
        "unloadSequenceNumber": 1,
        "carrierCategories": [
          {
            "identifier": "FEOL",
            "stringifiedObjectReference": "SPIORLL:N:C2/#BRCarrierCategory#F2#FEOL"
          },
          {
            "identifier": "MOL",
            "stringifiedObjectReference": "SPIORLL:N:C2/#BRCarrierCategory#F2#MOL"
          },
          {
            "identifier": "HK",
            "stringifiedObjectReference": "SPIORLL:N:C2/#BRCarrierCategory#F2#HK"
          },
          {
            "identifier": "BEOL",
            "stringifiedObjectReference": "SPIORLL:N:C2/#BRCarrierCategory#F2#BEOL"
          },
          {
            "identifier": "FOI",
            "stringifiedObjectReference": "SPIORLL:N:C2/#BRCarrierCategory#F2#FOI"
          }
        ],
        "specialPortControls": [

        ]
      },
      {
        "portResourceName": "P4",
        "portGroupName": "P4",
        "loadMode": "INPUT_OUTPUT",
        "associatedPortResourceName": "P4",
        "loadPurposeTypeId": "Any Purpose",
        "loadSequenceNumber": 1,
        "unloadSequenceNumber": 1,
        "carrierCategories": [
          {
            "identifier": "FEOL",
            "stringifiedObjectReference": "SPIORLL:N:C2/#BRCarrierCategory#F2#FEOL"
          },
          {
            "identifier": "MOL",
            "stringifiedObjectReference": "SPIORLL:N:C2/#BRCarrierCategory#F2#MOL"
          },
          {
            "identifier": "HK",
            "stringifiedObjectReference": "SPIORLL:N:C2/#BRCarrierCategory#F2#HK"
          },
          {
            "identifier": "BEOL",
            "stringifiedObjectReference": "SPIORLL:N:C2/#BRCarrierCategory#F2#BEOL"
          },
          {
            "identifier": "FOI",
            "stringifiedObjectReference": "SPIORLL:N:C2/#BRCarrierCategory#F2#FOI"
          }
        ],
        "specialPortControls": [

        ]
      }
    ],
    "bufferResources": [

    ],
    "portGroups": [
      {
        "portGroupName": "P1",
        "accessModes": [
          "Manual"
        ],
        "capableOperationModes": [
          {
            "operationMode": {
              "identifier": "Auto-1",
              "stringifiedObjectReference": "SPIORLL:N:C2/#BROperationMode#F2#Auto-1"
            },
            "validFlag": true
          },
          {
            "operationMode": {
              "identifier": "Manual-1",
              "stringifiedObjectReference": "SPIORLL:N:C2/#BROperationMode#F2#Manual-1"
            },
            "validFlag": true
          },
          {
            "operationMode": {
              "identifier": "Manual-Comp-1",
              "stringifiedObjectReference": "SPIORLL:N:C2/#BROperationMode#F2#Manual-Comp-1"
            },
            "validFlag": true
          },
          {
            "operationMode": {
              "identifier": "Off-Line-1",
              "stringifiedObjectReference": "SPIORLL:N:C2/#BROperationMode#F2#Off-Line-1"
            },
            "validFlag": true
          },
          {
            "operationMode": {
              "identifier": "Semi-1",
              "stringifiedObjectReference": "SPIORLL:N:C2/#BROperationMode#F2#Semi-1"
            },
            "validFlag": true
          },
          {
            "operationMode": {
              "identifier": "Semi-Comp-1",
              "stringifiedObjectReference": "SPIORLL:N:C2/#BROperationMode#F2#Semi-Comp-1"
            },
            "validFlag": true
          },
          {
            "operationMode": {
              "identifier": "Semi-Start-1",
              "stringifiedObjectReference": "SPIORLL:N:C2/#BROperationMode#F2#Semi-Start-1"
            },
            "validFlag": true
          }
        ]
      },
      {
        "portGroupName": "P2",
        "accessModes": [
          "Manual"
        ],
        "capableOperationModes": [
          {
            "operationMode": {
              "identifier": "Auto-1",
              "stringifiedObjectReference": "SPIORLL:N:C2/#BROperationMode#F2#Auto-1"
            },
            "validFlag": true
          },
          {
            "operationMode": {
              "identifier": "Manual-1",
              "stringifiedObjectReference": "SPIORLL:N:C2/#BROperationMode#F2#Manual-1"
            },
            "validFlag": true
          },
          {
            "operationMode": {
              "identifier": "Manual-Comp-1",
              "stringifiedObjectReference": "SPIORLL:N:C2/#BROperationMode#F2#Manual-Comp-1"
            },
            "validFlag": true
          },
          {
            "operationMode": {
              "identifier": "Off-Line-1",
              "stringifiedObjectReference": "SPIORLL:N:C2/#BROperationMode#F2#Off-Line-1"
            },
            "validFlag": true
          },
          {
            "operationMode": {
              "identifier": "Semi-1",
              "stringifiedObjectReference": "SPIORLL:N:C2/#BROperationMode#F2#Semi-1"
            },
            "validFlag": true
          },
          {
            "operationMode": {
              "identifier": "Semi-Comp-1",
              "stringifiedObjectReference": "SPIORLL:N:C2/#BROperationMode#F2#Semi-Comp-1"
            },
            "validFlag": true
          },
          {
            "operationMode": {
              "identifier": "Semi-Start-1",
              "stringifiedObjectReference": "SPIORLL:N:C2/#BROperationMode#F2#Semi-Start-1"
            },
            "validFlag": true
          }
        ]
      },
      {
        "portGroupName": "P3",
        "accessModes": [
          "Manual"
        ],
        "capableOperationModes": [
          {
            "operationMode": {
              "identifier": "Auto-1",
              "stringifiedObjectReference": "SPIORLL:N:C2/#BROperationMode#F2#Auto-1"
            },
            "validFlag": true
          },
          {
            "operationMode": {
              "identifier": "Manual-1",
              "stringifiedObjectReference": "SPIORLL:N:C2/#BROperationMode#F2#Manual-1"
            },
            "validFlag": true
          },
          {
            "operationMode": {
              "identifier": "Manual-Comp-1",
              "stringifiedObjectReference": "SPIORLL:N:C2/#BROperationMode#F2#Manual-Comp-1"
            },
            "validFlag": true
          },
          {
            "operationMode": {
              "identifier": "Off-Line-1",
              "stringifiedObjectReference": "SPIORLL:N:C2/#BROperationMode#F2#Off-Line-1"
            },
            "validFlag": true
          },
          {
            "operationMode": {
              "identifier": "Semi-1",
              "stringifiedObjectReference": "SPIORLL:N:C2/#BROperationMode#F2#Semi-1"
            },
            "validFlag": true
          },
          {
            "operationMode": {
              "identifier": "Semi-Comp-1",
              "stringifiedObjectReference": "SPIORLL:N:C2/#BROperationMode#F2#Semi-Comp-1"
            },
            "validFlag": true
          },
          {
            "operationMode": {
              "identifier": "Semi-Start-1",
              "stringifiedObjectReference": "SPIORLL:N:C2/#BROperationMode#F2#Semi-Start-1"
            },
            "validFlag": true
          }
        ]
      },
      {
        "portGroupName": "P4",
        "accessModes": [
          "Manual"
        ],
        "capableOperationModes": [
          {
            "operationMode": {
              "identifier": "Auto-1",
              "stringifiedObjectReference": "SPIORLL:N:C2/#BROperationMode#F2#Auto-1"
            },
            "validFlag": true
          },
          {
            "operationMode": {
              "identifier": "Manual-1",
              "stringifiedObjectReference": "SPIORLL:N:C2/#BROperationMode#F2#Manual-1"
            },
            "validFlag": true
          },
          {
            "operationMode": {
              "identifier": "Manual-Comp-1",
              "stringifiedObjectReference": "SPIORLL:N:C2/#BROperationMode#F2#Manual-Comp-1"
            },
            "validFlag": true
          },
          {
            "operationMode": {
              "identifier": "Off-Line-1",
              "stringifiedObjectReference": "SPIORLL:N:C2/#BROperationMode#F2#Off-Line-1"
            },
            "validFlag": true
          },
          {
            "operationMode": {
              "identifier": "Semi-1",
              "stringifiedObjectReference": "SPIORLL:N:C2/#BROperationMode#F2#Semi-1"
            },
            "validFlag": true
          },
          {
            "operationMode": {
              "identifier": "Semi-Comp-1",
              "stringifiedObjectReference": "SPIORLL:N:C2/#BROperationMode#F2#Semi-Comp-1"
            },
            "validFlag": true
          },
          {
            "operationMode": {
              "identifier": "Semi-Start-1",
              "stringifiedObjectReference": "SPIORLL:N:C2/#BROperationMode#F2#Semi-Start-1"
            },
            "validFlag": true
          }
        ]
      }
    ],
    "reticlePodPorts": [

    ],
    "maxReticleCapacity": 0,
    "reticleStoreLimit": 0,
    "takeOutInTransferFlag": false,
    "batchInNotificationRequiredFlag": true,
    "eqpToEqpTransferFlag": true,
    "reticleRequiredFlag": false,
    "fixtureRequiredFlag": false,
    "carrierChangeRequiredFlag": false,
    "carrierIdReadableFlag": true,
    "waferMapCheckableFlag": true,
    "waferIdReadableFlag": false,
    "emptyCarrierEarlyOutFlag": false,
    "processJobControlFlag": false,
    "equipmentCategoryId": "Process",
    "multipleRecipeCapability": "Multiple Recipe",
    "equipmentType": {
      "identifier": "",
      "stringifiedObjectReference": ""
    },
    "onlineModes": [
      "On-Line Remote",
      "Off-Line",
      "On-Line Local"
    ],
    "specialEquipmentControls": [

    ],
    "recipeBodyManageFlag": false,
    "equipmentParameters": [
      {
        "name": "AUTO-3",
        "unit": "",
        "dataType": "String",
        "defaultValue": "+A-D",
        "lowerLimit": "",
        "upperLimit": "",
        "useCurrentValueFlag": false,
        "tag": ""
      },
      {
        "name": "RMSPilot",
        "unit": "",
        "dataType": "String",
        "defaultValue": "YES",
        "lowerLimit": "",
        "upperLimit": "",
        "useCurrentValueFlag": false,
        "tag": ""
      }
    ],
    "whatNextControls": [

    ],
    "processBatchAvailableFlag": false,
    "processBatchUnit": "Carrier",
    "minimumProcessBatchSize": 1,
    "maximumProcessBatchSize": 1,
    "minimumWaferCount": 1,
    "stockers": [

    ],
    "underTrackStoragePriorityFlag": false,
    "cellControllerNode": "A-DISPO!IOR",
    "cellControllers": [
      {
        "keyword": "",
        "cellControllerNode": "A-DISPO!IOR"
      }
    ],
    "supplierName": "none",
    "modelNumber": "none",
    "serialNumber": "none",
    "monitorCreationFlag": false,
    "controlLotBanks": [

    ],
    "waferSamplingPolicyName": "",
    "waferSamplingAttribute": "",
    "operationProcedures": [

    ],
    "maximumRunWafers": 0,
    "maximumRunTime": 0,
    "maximumStartCount": 0,
    "pmIntervalTime": 0,
    "standardWPH": 1,
    "rawEquipmentStateSetId": {
      "identifier": "",
      "stringifiedObjectReference": ""
    },
    "initialEquipmentStateCode": {
      "identifier": "NST.6ESE",
      "stringifiedObjectReference": "SPIORLL:N:C2/#BREquipmentState#F2#NST.6ESE"
    },
    "fpcCategories": [

    ],
    "whiteDefinitionFlag": false,
    "slmCapabilityFlag": false,
    "maxWaferCapacity": 0,
    "userDataSets": [
      {
        "name": "EqpReportType",
        "type": "String",
        "value": "A-DISPO",
        "originator": ""
      },
      {
        "name": "EarlyMovingFOUP",
        "type": "String",
        "value": "NO",
        "originator": ""
      },
      {
        "name": "MCSzone",
        "type": "String",
        "value": "MODULE1",
        "originator": ""
      },
      {
        "name": "AutoArea",
        "type": "String",
        "value": " ",
        "originator": ""
      },
      {
        "name": "ManualArea",
        "type": "String",
        "value": " ",
        "originator": ""
      },
      {
        "name": "AmhsArea",
        "type": "String",
        "value": " ",
        "originator": ""
      },
      {
        "name": "Location",
        "type": "String",
        "value": " ",
        "originator": ""
      },
      {
        "name": "PlatformOwner",
        "type": "String",
        "value": "CFM",
        "originator": ""
      },
      {
        "name": "ProcessType",
        "type": "String",
        "value": "NO",
        "originator": ""
      },
      {
        "name": "RecipeSource",
        "type": "String",
        "value": "RMS",
        "originator": ""
      },
      {
        "name": "CMMS",
        "type": "String",
        "value": "SAPPM",
        "originator": ""
      }
    ],
    "siClassInfo": null
  }
}