{
  "objectId": {
    "identifier": "ECMAUTO_MR_2",
    "stringifiedObjectReference": "SPIORLL:N:C2/#BREquipment#F2#ECMAUTO_MR_2"
  },
  "propertyInfo": {
    "changeNotice": {
      "identifier": "QA1509703565",
      "stringifiedObjectReference": "SPIORLL:N:C2/#BRChangeNotice#F2#QA1509703565"
    },
    "createdDateTime": "2016-11-21-02.58.40.200942",
    "createdUser": {
      "identifier": "snukala",
      "stringifiedObjectReference": ""
    },
    "lastUpdatedDateTime": "2017-11-03-05.06.35.526215",
    "lastUpdatedUser": {
      "identifier": "X-UNITTEST",
      "stringifiedObjectReference": ""
    },
    "lastCheckOutDateTime": "2017-11-03-05.07.02.033828",
    "lastCheckOutUser": {
      "identifier": "X-UNITTEST",
      "stringifiedObjectReference": ""
    },
    "lastCheckInDateTime": "2017-11-03-05.07.02.033828",
    "lastCheckInUser": {
      "identifier": "X-UNITTEST",
      "stringifiedObjectReference": ""
    },
    "lastReleasedDateTime": "2017-11-03-05.07.02.033828",
    "lastReleasedUser": {
      "identifier": "X-UNITTEST",
      "stringifiedObjectReference": ""
    },
    "lastRollBackDateTime": "",
    "lastRollBackUser": {
      "identifier": "",
      "stringifiedObjectReference": ""
    },
    "lastArchivedDateTime": "",
    "lastArchivedUser": {
      "identifier": "",
      "stringifiedObjectReference": ""
    },
    "lastRestoredDateTime": "",
    "lastRestoredUser": {
      "identifier": "",
      "stringifiedObjectReference": ""
    },
    "lastActionUser": {
      "identifier": "X-UNITTEST",
      "stringifiedObjectReference": ""
    },
    "lastActionDateTime": "2017-11-03-05.07.02.033828",
    "lastActionEventCode": "EVRLSCN_ITEM",
    "lastComment": "",
    "currentInWorkState": "NotInWork",
    "currentSetUpState": "Released",
    "permission": "Group",
    "permissionRead": "Public",
    "permissionReleaseDelete": "Public",
    "userGroup": {
      "identifier": "MTQA",
      "stringifiedObjectReference": "SPIORLL:N:C2/#BRUserGroup#F2#MTQA"
    },
    "userGroupRead": {
      "identifier": "",
      "stringifiedObjectReference": ""
    },
    "userGroupReleaseDelete": {
      "identifier": "",
      "stringifiedObjectReference": ""
    },
    "owner": {
      "identifier": "ADMIN",
      "stringifiedObjectReference": "SPIORLL:N:C2/#BRUser#F2#ADMIN"
    },
    "batchReleaseFlag": false
  },
  "documentEntityInfo": {
    "documentSpecification": "",
    "activeFlag": false,
    "reserveFlag": false,
    "obsoleteFlag": false,
    "lastActivatedUser": {
      "identifier": "",
      "stringifiedObjectReference": ""
    },
    "lastActivatedDateTime": "",
    "lastInactivatedUser": {
      "identifier": "",
      "stringifiedObjectReference": ""
    },
    "lastInactivatedDateTime": "",
    "lastReservedUser": {
      "identifier": "",
      "stringifiedObjectReference": ""
    },
    "lastReservedDateTime": "",
    "lastCanceledReserveChangeActiveUser": {
      "identifier": "",
      "stringifiedObjectReference": ""
    },
    "lastCanceledReserveChangeActiveDateTime": "",
    "lastObsoleteUser": {
      "identifier": "",
      "stringifiedObjectReference": ""
    },
    "lastObsoleteDateTime": "",
    "lastCancelObsoleteUser": {
      "identifier": "",
      "stringifiedObjectReference": ""
    },
    "lastCancelObsoleteDateTime": ""
  },
  "classInfo": {
    "identifier": "ECMAUTO_MR_2",
    "equipmentId": "ECMAUTO_MR_2",
    "description": "Eqp for Automation ",
    "instanceName": "",
    "equipmentOwner": {
      "identifier": "snukala",
      "stringifiedObjectReference": "SPIORLL:N:C2/#BRUser#F2#snukala"
    },
    "processResourceNames": [
      "MPC1",
      "MPC2",
      "MPC3",
      "MPC4",
      "MPC5",
      "MPC6",
      "MPC7",
      "MPC8"
    ],
    "portResources": [
      {
        "portResourceName": "P1",
        "portGroupName": "P1",
        "loadMode": "INPUT_OUTPUT",
        "associatedPortResourceName": "P1",
        "loadPurposeTypeId": "Any Purpose",
        "loadSequenceNumber": 1,
        "unloadSequenceNumber": 1,
        "carrierCategories": [
          {
            "identifier": "FEOL",
            "stringifiedObjectReference": "SPIORLL:N:C2/#BRCarrierCategory#F2#FEOL"
          },
          {
            "identifier": "HK",
            "stringifiedObjectReference": "SPIORLL:N:C2/#BRCarrierCategory#F2#HK"
          }
        ],
        "specialPortControls": [

        ]
      },
      {
        "portResourceName": "P2",
        "portGroupName": "P2",
        "loadMode": "INPUT_OUTPUT",
        "associatedPortResourceName": "P2",
        "loadPurposeTypeId": "Any Purpose",
        "loadSequenceNumber": 1,
        "unloadSequenceNumber": 1,
        "carrierCategories": [
          {
            "identifier": "FEOL",
            "stringifiedObjectReference": "SPIORLL:N:C2/#BRCarrierCategory#F2#FEOL"
          },
          {
            "identifier": "HK",
            "stringifiedObjectReference": "SPIORLL:N:C2/#BRCarrierCategory#F2#HK"
          }
        ],
        "specialPortControls": [

        ]
      },
      {
        "portResourceName": "P3",
        "portGroupName": "P3",
        "loadMode": "INPUT_OUTPUT",
        "associatedPortResourceName": "P3",
        "loadPurposeTypeId": "Any Purpose",
        "loadSequenceNumber": 1,
        "unloadSequenceNumber": 1,
        "carrierCategories": [
          {
            "identifier": "FEOL",
            "stringifiedObjectReference": "SPIORLL:N:C2/#BRCarrierCategory#F2#FEOL"
          },
          {
            "identifier": "HK",
            "stringifiedObjectReference": "SPIORLL:N:C2/#BRCarrierCategory#F2#HK"
          }
        ],
        "specialPortControls": [

        ]
      },
      {
        "portResourceName": "P4",
        "portGroupName": "P4",
        "loadMode": "INPUT_OUTPUT",
        "associatedPortResourceName": "P4",
        "loadPurposeTypeId": "Any Purpose",
        "loadSequenceNumber": 1,
        "unloadSequenceNumber": 1,
        "carrierCategories": [
          {
            "identifier": "FEOL",
            "stringifiedObjectReference": "SPIORLL:N:C2/#BRCarrierCategory#F2#FEOL"
          },
          {
            "identifier": "HK",
            "stringifiedObjectReference": "SPIORLL:N:C2/#BRCarrierCategory#F2#HK"
          }
        ],
        "specialPortControls": [

        ]
      }
    ],
    "bufferResources": [

    ],
    "portGroups": [
      {
        "portGroupName": "P1",
        "accessModes": [
          "Auto",
          "Manual"
        ],
        "capableOperationModes": [
          {
            "operationMode": {
              "identifier": "Auto-1",
              "stringifiedObjectReference": "SPIORLL:N:C2/#BROperationMode#F2#Auto-1"
            },
            "validFlag": true
          },
          {
            "operationMode": {
              "identifier": "Auto-2",
              "stringifiedObjectReference": "SPIORLL:N:C2/#BROperationMode#F2#Auto-2"
            },
            "validFlag": true
          },
          {
            "operationMode": {
              "identifier": "Auto-3",
              "stringifiedObjectReference": "SPIORLL:N:C2/#BROperationMode#F2#Auto-3"
            },
            "validFlag": true
          },
          {
            "operationMode": {
              "identifier": "Manual-1",
              "stringifiedObjectReference": "SPIORLL:N:C2/#BROperationMode#F2#Manual-1"
            },
            "validFlag": false
          },
          {
            "operationMode": {
              "identifier": "Manual-2",
              "stringifiedObjectReference": "SPIORLL:N:C2/#BROperationMode#F2#Manual-2"
            },
            "validFlag": false
          },
          {
            "operationMode": {
              "identifier": "Manual-Comp-1",
              "stringifiedObjectReference": "SPIORLL:N:C2/#BROperationMode#F2#Manual-Comp-1"
            },
            "validFlag": false
          },
          {
            "operationMode": {
              "identifier": "Manual-Comp-2",
              "stringifiedObjectReference": "SPIORLL:N:C2/#BROperationMode#F2#Manual-Comp-2"
            },
            "validFlag": false
          },
          {
            "operationMode": {
              "identifier": "Off-Line-1",
              "stringifiedObjectReference": "SPIORLL:N:C2/#BROperationMode#F2#Off-Line-1"
            },
            "validFlag": true
          },
          {
            "operationMode": {
              "identifier": "Off-Line-2",
              "stringifiedObjectReference": "SPIORLL:N:C2/#BROperationMode#F2#Off-Line-2"
            },
            "validFlag": true
          },
          {
            "operationMode": {
              "identifier": "Semi-1",
              "stringifiedObjectReference": "SPIORLL:N:C2/#BROperationMode#F2#Semi-1"
            },
            "validFlag": false
          },
          {
            "operationMode": {
              "identifier": "Semi-2",
              "stringifiedObjectReference": "SPIORLL:N:C2/#BROperationMode#F2#Semi-2"
            },
            "validFlag": false
          },
          {
            "operationMode": {
              "identifier": "Semi-Comp-1",
              "stringifiedObjectReference": "SPIORLL:N:C2/#BROperationMode#F2#Semi-Comp-1"
            },
            "validFlag": true
          },
          {
            "operationMode": {
              "identifier": "Semi-Comp-2",
              "stringifiedObjectReference": "SPIORLL:N:C2/#BROperationMode#F2#Semi-Comp-2"
            },
            "validFlag": true
          },
          {
            "operationMode": {
              "identifier": "Semi-Start-1",
              "stringifiedObjectReference": "SPIORLL:N:C2/#BROperationMode#F2#Semi-Start-1"
            },
            "validFlag": false
          },
          {
            "operationMode": {
              "identifier": "Semi-Start-2",
              "stringifiedObjectReference": "SPIORLL:N:C2/#BROperationMode#F2#Semi-Start-2"
            },
            "validFlag": false
          },
          {
            "operationMode": {
              "identifier": "Semi-Start-3",
              "stringifiedObjectReference": "SPIORLL:N:C2/#BROperationMode#F2#Semi-Start-3"
            },
            "validFlag": false
          }
        ]
      },
      {
        "portGroupName": "P2",
        "accessModes": [
          "Auto",
          "Manual"
        ],
        "capableOperationModes": [
          {
            "operationMode": {
              "identifier": "Auto-1",
              "stringifiedObjectReference": "SPIORLL:N:C2/#BROperationMode#F2#Auto-1"
            },
            "validFlag": true
          },
          {
            "operationMode": {
              "identifier": "Auto-2",
              "stringifiedObjectReference": "SPIORLL:N:C2/#BROperationMode#F2#Auto-2"
            },
            "validFlag": true
          },
          {
            "operationMode": {
              "identifier": "Auto-3",
              "stringifiedObjectReference": "SPIORLL:N:C2/#BROperationMode#F2#Auto-3"
            },
            "validFlag": true
          },
          {
            "operationMode": {
              "identifier": "Manual-1",
              "stringifiedObjectReference": "SPIORLL:N:C2/#BROperationMode#F2#Manual-1"
            },
            "validFlag": false
          },
          {
            "operationMode": {
              "identifier": "Manual-2",
              "stringifiedObjectReference": "SPIORLL:N:C2/#BROperationMode#F2#Manual-2"
            },
            "validFlag": false
          },
          {
            "operationMode": {
              "identifier": "Manual-Comp-1",
              "stringifiedObjectReference": "SPIORLL:N:C2/#BROperationMode#F2#Manual-Comp-1"
            },
            "validFlag": false
          },
          {
            "operationMode": {
              "identifier": "Manual-Comp-2",
              "stringifiedObjectReference": "SPIORLL:N:C2/#BROperationMode#F2#Manual-Comp-2"
            },
            "validFlag": false
          },
          {
            "operationMode": {
              "identifier": "Off-Line-1",
              "stringifiedObjectReference": "SPIORLL:N:C2/#BROperationMode#F2#Off-Line-1"
            },
            "validFlag": true
          },
          {
            "operationMode": {
              "identifier": "Off-Line-2",
              "stringifiedObjectReference": "SPIORLL:N:C2/#BROperationMode#F2#Off-Line-2"
            },
            "validFlag": true
          },
          {
            "operationMode": {
              "identifier": "Semi-1",
              "stringifiedObjectReference": "SPIORLL:N:C2/#BROperationMode#F2#Semi-1"
            },
            "validFlag": false
          },
          {
            "operationMode": {
              "identifier": "Semi-2",
              "stringifiedObjectReference": "SPIORLL:N:C2/#BROperationMode#F2#Semi-2"
            },
            "validFlag": false
          },
          {
            "operationMode": {
              "identifier": "Semi-Comp-1",
              "stringifiedObjectReference": "SPIORLL:N:C2/#BROperationMode#F2#Semi-Comp-1"
            },
            "validFlag": true
          },
          {
            "operationMode": {
              "identifier": "Semi-Comp-2",
              "stringifiedObjectReference": "SPIORLL:N:C2/#BROperationMode#F2#Semi-Comp-2"
            },
            "validFlag": true
          },
          {
            "operationMode": {
              "identifier": "Semi-Start-1",
              "stringifiedObjectReference": "SPIORLL:N:C2/#BROperationMode#F2#Semi-Start-1"
            },
            "validFlag": false
          },
          {
            "operationMode": {
              "identifier": "Semi-Start-2",
              "stringifiedObjectReference": "SPIORLL:N:C2/#BROperationMode#F2#Semi-Start-2"
            },
            "validFlag": false
          },
          {
            "operationMode": {
              "identifier": "Semi-Start-3",
              "stringifiedObjectReference": "SPIORLL:N:C2/#BROperationMode#F2#Semi-Start-3"
            },
            "validFlag": false
          }
        ]
      },
      {
        "portGroupName": "P3",
        "accessModes": [
          "Auto",
          "Manual"
        ],
        "capableOperationModes": [
          {
            "operationMode": {
              "identifier": "Auto-1",
              "stringifiedObjectReference": "SPIORLL:N:C2/#BROperationMode#F2#Auto-1"
            },
            "validFlag": true
          },
          {
            "operationMode": {
              "identifier": "Auto-2",
              "stringifiedObjectReference": "SPIORLL:N:C2/#BROperationMode#F2#Auto-2"
            },
            "validFlag": true
          },
          {
            "operationMode": {
              "identifier": "Auto-3",
              "stringifiedObjectReference": "SPIORLL:N:C2/#BROperationMode#F2#Auto-3"
            },
            "validFlag": true
          },
          {
            "operationMode": {
              "identifier": "Manual-1",
              "stringifiedObjectReference": "SPIORLL:N:C2/#BROperationMode#F2#Manual-1"
            },
            "validFlag": false
          },
          {
            "operationMode": {
              "identifier": "Manual-2",
              "stringifiedObjectReference": "SPIORLL:N:C2/#BROperationMode#F2#Manual-2"
            },
            "validFlag": false
          },
          {
            "operationMode": {
              "identifier": "Manual-Comp-1",
              "stringifiedObjectReference": "SPIORLL:N:C2/#BROperationMode#F2#Manual-Comp-1"
            },
            "validFlag": false
          },
          {
            "operationMode": {
              "identifier": "Manual-Comp-2",
              "stringifiedObjectReference": "SPIORLL:N:C2/#BROperationMode#F2#Manual-Comp-2"
            },
            "validFlag": false
          },
          {
            "operationMode": {
              "identifier": "Off-Line-1",
              "stringifiedObjectReference": "SPIORLL:N:C2/#BROperationMode#F2#Off-Line-1"
            },
            "validFlag": true
          },
          {
            "operationMode": {
              "identifier": "Off-Line-2",
              "stringifiedObjectReference": "SPIORLL:N:C2/#BROperationMode#F2#Off-Line-2"
            },
            "validFlag": true
          },
          {
            "operationMode": {
              "identifier": "Semi-1",
              "stringifiedObjectReference": "SPIORLL:N:C2/#BROperationMode#F2#Semi-1"
            },
            "validFlag": false
          },
          {
            "operationMode": {
              "identifier": "Semi-2",
              "stringifiedObjectReference": "SPIORLL:N:C2/#BROperationMode#F2#Semi-2"
            },
            "validFlag": false
          },
          {
            "operationMode": {
              "identifier": "Semi-Comp-1",
              "stringifiedObjectReference": "SPIORLL:N:C2/#BROperationMode#F2#Semi-Comp-1"
            },
            "validFlag": true
          },
          {
            "operationMode": {
              "identifier": "Semi-Comp-2",
              "stringifiedObjectReference": "SPIORLL:N:C2/#BROperationMode#F2#Semi-Comp-2"
            },
            "validFlag": true
          },
          {
            "operationMode": {
              "identifier": "Semi-Start-1",
              "stringifiedObjectReference": "SPIORLL:N:C2/#BROperationMode#F2#Semi-Start-1"
            },
            "validFlag": false
          },
          {
            "operationMode": {
              "identifier": "Semi-Start-2",
              "stringifiedObjectReference": "SPIORLL:N:C2/#BROperationMode#F2#Semi-Start-2"
            },
            "validFlag": false
          },
          {
            "operationMode": {
              "identifier": "Semi-Start-3",
              "stringifiedObjectReference": "SPIORLL:N:C2/#BROperationMode#F2#Semi-Start-3"
            },
            "validFlag": false
          }
        ]
      },
      {
        "portGroupName": "P4",
        "accessModes": [
          "Auto",
          "Manual"
        ],
        "capableOperationModes": [
          {
            "operationMode": {
              "identifier": "Auto-1",
              "stringifiedObjectReference": "SPIORLL:N:C2/#BROperationMode#F2#Auto-1"
            },
            "validFlag": true
          },
          {
            "operationMode": {
              "identifier": "Auto-2",
              "stringifiedObjectReference": "SPIORLL:N:C2/#BROperationMode#F2#Auto-2"
            },
            "validFlag": true
          },
          {
            "operationMode": {
              "identifier": "Auto-3",
              "stringifiedObjectReference": "SPIORLL:N:C2/#BROperationMode#F2#Auto-3"
            },
            "validFlag": true
          },
          {
            "operationMode": {
              "identifier": "Manual-1",
              "stringifiedObjectReference": "SPIORLL:N:C2/#BROperationMode#F2#Manual-1"
            },
            "validFlag": false
          },
          {
            "operationMode": {
              "identifier": "Manual-2",
              "stringifiedObjectReference": "SPIORLL:N:C2/#BROperationMode#F2#Manual-2"
            },
            "validFlag": false
          },
          {
            "operationMode": {
              "identifier": "Manual-Comp-1",
              "stringifiedObjectReference": "SPIORLL:N:C2/#BROperationMode#F2#Manual-Comp-1"
            },
            "validFlag": false
          },
          {
            "operationMode": {
              "identifier": "Manual-Comp-2",
              "stringifiedObjectReference": "SPIORLL:N:C2/#BROperationMode#F2#Manual-Comp-2"
            },
            "validFlag": false
          },
          {
            "operationMode": {
              "identifier": "Off-Line-1",
              "stringifiedObjectReference": "SPIORLL:N:C2/#BROperationMode#F2#Off-Line-1"
            },
            "validFlag": true
          },
          {
            "operationMode": {
              "identifier": "Off-Line-2",
              "stringifiedObjectReference": "SPIORLL:N:C2/#BROperationMode#F2#Off-Line-2"
            },
            "validFlag": true
          },
          {
            "operationMode": {
              "identifier": "Semi-1",
              "stringifiedObjectReference": "SPIORLL:N:C2/#BROperationMode#F2#Semi-1"
            },
            "validFlag": false
          },
          {
            "operationMode": {
              "identifier": "Semi-2",
              "stringifiedObjectReference": "SPIORLL:N:C2/#BROperationMode#F2#Semi-2"
            },
            "validFlag": false
          },
          {
            "operationMode": {
              "identifier": "Semi-Comp-1",
              "stringifiedObjectReference": "SPIORLL:N:C2/#BROperationMode#F2#Semi-Comp-1"
            },
            "validFlag": true
          },
          {
            "operationMode": {
              "identifier": "Semi-Comp-2",
              "stringifiedObjectReference": "SPIORLL:N:C2/#BROperationMode#F2#Semi-Comp-2"
            },
            "validFlag": true
          },
          {
            "operationMode": {
              "identifier": "Semi-Start-1",
              "stringifiedObjectReference": "SPIORLL:N:C2/#BROperationMode#F2#Semi-Start-1"
            },
            "validFlag": false
          },
          {
            "operationMode": {
              "identifier": "Semi-Start-2",
              "stringifiedObjectReference": "SPIORLL:N:C2/#BROperationMode#F2#Semi-Start-2"
            },
            "validFlag": false
          },
          {
            "operationMode": {
              "identifier": "Semi-Start-3",
              "stringifiedObjectReference": "SPIORLL:N:C2/#BROperationMode#F2#Semi-Start-3"
            },
            "validFlag": false
          }
        ]
      }
    ],
    "reticlePodPorts": [

    ],
    "maxReticleCapacity": 0,
    "reticleStoreLimit": 0,
    "takeOutInTransferFlag": false,
    "batchInNotificationRequiredFlag": true,
    "eqpToEqpTransferFlag": true,
    "reticleRequiredFlag": false,
    "fixtureRequiredFlag": false,
    "carrierChangeRequiredFlag": false,
    "carrierIdReadableFlag": true,
    "waferMapCheckableFlag": true,
    "waferIdReadableFlag": false,
    "emptyCarrierEarlyOutFlag": false,
    "processJobControlFlag": false,
    "equipmentCategoryId": "Process",
    "multipleRecipeCapability": "Multiple Recipe",
    "equipmentType": {
      "identifier": "",
      "stringifiedObjectReference": ""
    },
    "onlineModes": [
      "On-Line Remote",
      "Off-Line",
      "On-Line Local"
    ],
    "specialEquipmentControls": [

    ],
    "recipeBodyManageFlag": false,
    "equipmentParameters": [
      {
        "name": "AUTO-3",
        "unit": "",
        "dataType": "String",
        "defaultValue": "+A-D",
        "lowerLimit": "",
        "upperLimit": "",
        "useCurrentValueFlag": false,
        "tag": ""
      },
      {
        "name": "RMSPilot",
        "unit": "",
        "dataType": "String",
        "defaultValue": "YES",
        "lowerLimit": "",
        "upperLimit": "",
        "useCurrentValueFlag": false,
        "tag": ""
      }
    ],
    "whatNextControls": [

    ],
    "processBatchAvailableFlag": false,
    "processBatchUnit": "Carrier",
    "minimumProcessBatchSize": 1,
    "maximumProcessBatchSize": 1,
    "minimumWaferCount": 1,
    "stockers": [

    ],
    "underTrackStoragePriorityFlag": false,
    "cellControllerNode": "",
    "cellControllers": [

    ],
    "supplierName": "DNS  ",
    "modelNumber": "SS-3100",
    "serialNumber": "TBD",
    "monitorCreationFlag": false,
    "controlLotBanks": [

    ],
    "waferSamplingPolicyName": "",
    "waferSamplingAttribute": "",
    "operationProcedures": [

    ],
    "maximumRunWafers": 0,
    "maximumRunTime": 0,
    "maximumStartCount": 0,
    "pmIntervalTime": 0,
    "standardWPH": 1,
    "rawEquipmentStateSetId": {
      "identifier": "",
      "stringifiedObjectReference": ""
    },
    "initialEquipmentStateCode": {
      "identifier": "NST.6ESE",
      "stringifiedObjectReference": "SPIORLL:N:C2/#BREquipmentState#F2#NST.6ESE"
    },
    "fpcCategories": [

    ],
    "whiteDefinitionFlag": false,
    "slmCapabilityFlag": false,
    "maxWaferCapacity": 0,
    "userDataSets": [
      {
        "name": "EqpReportType",
        "type": "String",
        "value": "D-SCB",
        "originator": ""
      },
      {
        "name": "EarlyMovingFOUP",
        "type": "String",
        "value": "NO",
        "originator": ""
      },
      {
        "name": "MCSzone",
        "type": "String",
        "value": "MODULE1",
        "originator": ""
      },
      {
        "name": "AutoArea",
        "type": "String",
        "value": "1_09E",
        "originator": ""
      },
      {
        "name": "ManualArea",
        "type": "String",
        "value": " ",
        "originator": ""
      },
      {
        "name": "AmhsArea",
        "type": "String",
        "value": " ",
        "originator": ""
      },
      {
        "name": "Location",
        "type": "String",
        "value": "2",
        "originator": ""
      },
      {
        "name": "PlatformOwner",
        "type": "String",
        "value": "TST",
        "originator": ""
      },
      {
        "name": "SourceCarrierCategory",
        "type": "String",
        "value": " ",
        "originator": ""
      },
      {
        "name": "ProcessType",
        "type": "String",
        "value": "NO",
        "originator": ""
      },
      {
        "name": "PCLSpecsJobStart",
        "type": "String",
        "value": "M07-00001112,M07-00002203",
        "originator": ""
      },
      {
        "name": "RecipeSource",
        "type": "String",
        "value": "RMS",
        "originator": ""
      },
      {
        "name": "CMMS",
        "type": "String",
        "value": "SAPPM",
        "originator": ""
      }
    ],
    "siClassInfo": null
  }
}