{
  "objectId": {
    "identifier": "A-P-ECMAUTO-RULES-PROD_ROUTE_1-FULLRA-TOHK.01",
    "stringifiedObjectReference": "SPIORLL:N:C2/#BRLogicalRecipe#F2#A-P-ECMAUTO-RULES-PROD_ROUTE_1-FULLRA-TOHK.01"
  },
  "propertyInfo": {
    "changeNotice": {
      "identifier": "QA1509703565",
      "stringifiedObjectReference": "SPIORLL:N:C2/#BRChangeNotice#F2#QA1509703565"
    },
    "createdDateTime": "2016-11-21-08.04.48.406676",
    "createdUser": {
      "identifier": "aboggava",
      "stringifiedObjectReference": ""
    },
    "lastUpdatedDateTime": "2017-11-03-05.06.49.175121",
    "lastUpdatedUser": {
      "identifier": "X-UNITTEST",
      "stringifiedObjectReference": ""
    },
    "lastCheckOutDateTime": "2017-11-03-05.07.02.033828",
    "lastCheckOutUser": {
      "identifier": "X-UNITTEST",
      "stringifiedObjectReference": ""
    },
    "lastCheckInDateTime": "2017-11-03-05.07.02.033828",
    "lastCheckInUser": {
      "identifier": "X-UNITTEST",
      "stringifiedObjectReference": ""
    },
    "lastReleasedDateTime": "2017-11-03-05.07.02.033828",
    "lastReleasedUser": {
      "identifier": "X-UNITTEST",
      "stringifiedObjectReference": ""
    },
    "lastRollBackDateTime": "",
    "lastRollBackUser": {
      "identifier": "",
      "stringifiedObjectReference": ""
    },
    "lastArchivedDateTime": "",
    "lastArchivedUser": {
      "identifier": "",
      "stringifiedObjectReference": ""
    },
    "lastRestoredDateTime": "",
    "lastRestoredUser": {
      "identifier": "",
      "stringifiedObjectReference": ""
    },
    "lastActionUser": {
      "identifier": "X-UNITTEST",
      "stringifiedObjectReference": ""
    },
    "lastActionDateTime": "2017-11-03-05.07.02.033828",
    "lastActionEventCode": "EVRLSCN_ITEM",
    "lastComment": "",
    "currentInWorkState": "NotInWork",
    "currentSetUpState": "Released",
    "permission": "Group",
    "permissionRead": "Public",
    "permissionReleaseDelete": "Public",
    "userGroup": {
      "identifier": "MTQA",
      "stringifiedObjectReference": "SPIORLL:N:C2/#BRUserGroup#F2#MTQA"
    },
    "userGroupRead": {
      "identifier": "",
      "stringifiedObjectReference": ""
    },
    "userGroupReleaseDelete": {
      "identifier": "",
      "stringifiedObjectReference": ""
    },
    "owner": {
      "identifier": "ADMIN",
      "stringifiedObjectReference": "SPIORLL:N:C2/#BRUser#F2#ADMIN"
    },
    "batchReleaseFlag": false
  },
  "documentEntityInfo": {
    "documentSpecification": "A-P-ECMAUTO-RULES-PROD_ROUTE_1-FULLRA-TOHK",
    "activeFlag": false,
    "reserveFlag": false,
    "obsoleteFlag": false,
    "lastActivatedUser": {
      "identifier": "",
      "stringifiedObjectReference": ""
    },
    "lastActivatedDateTime": "",
    "lastInactivatedUser": {
      "identifier": "",
      "stringifiedObjectReference": ""
    },
    "lastInactivatedDateTime": "",
    "lastReservedUser": {
      "identifier": "",
      "stringifiedObjectReference": ""
    },
    "lastReservedDateTime": "",
    "lastCanceledReserveChangeActiveUser": {
      "identifier": "",
      "stringifiedObjectReference": ""
    },
    "lastCanceledReserveChangeActiveDateTime": "",
    "lastObsoleteUser": {
      "identifier": "",
      "stringifiedObjectReference": ""
    },
    "lastObsoleteDateTime": "",
    "lastCancelObsoleteUser": {
      "identifier": "",
      "stringifiedObjectReference": ""
    },
    "lastCancelObsoleteDateTime": ""
  },
  "classInfo": {
    "identifier": "A-P-ECMAUTO-RULES-PROD_ROUTE_1-FULLRA-TOHK.01",
    "logicalRecipeId": "A-P-ECMAUTO-RULES-PROD_ROUTE_1-FULLRA-TOHK",
    "version": "01",
    "description": "Automated exchange from current carrier to HK FOUP",
    "multipleChamberSupportFlag": false,
    "recipeType": "Other",
    "fpcCategory": {
      "identifier": "",
      "stringifiedObjectReference": ""
    },
    "whiteDefinitionFlag": false,
    "testType": {
      "identifier": "",
      "stringifiedObjectReference": ""
    },
    "defaultRecipeSettings": [
      {
        "recipe": {
          "identifier": "A-P-ECMAUTO.RANDOMIZE-ECMAUTOPROD_ROUTE_1.01",
          "stringifiedObjectReference": "SPIORLL:N:C2/#BRRecipe#F2#A-P-ECMAUTO.RANDOMIZE-ECMAUTOPROD_ROUTE_1.01"
        },
        "processResourceStateSettings": [

        ],
        "processResourceStates": [

        ],
        "recipeParameters": [

        ],
        "dcDefinition": {
          "identifier": "",
          "stringifiedObjectReference": ""
        },
        "dcSpec": {
          "identifier": "",
          "stringifiedObjectReference": ""
        },
        "binDefinition": {
          "identifier": "",
          "stringifiedObjectReference": ""
        },
        "sampleSpec": {
          "identifier": "",
          "stringifiedObjectReference": ""
        },
        "fixtureGroups": [

        ]
      }
    ],
    "equipmentSpecificRecipeSettings": [

    ],
    "monitorProduct": {
      "identifier": "",
      "stringifiedObjectReference": ""
    },
    "monitorHoldFlag": false,
    "subLotType": "",
    "subLotTypes": [

    ],
    "waferSamplingPolicyName": "",
    "waferSamplingAttribute": "",
    "equipmentDIDefinitionFlag": false,
    "equipmentDIDefinitionResetFlag": false,
    "userDataSets": [
      {
        "name": "SpecificationID",
        "type": "String",
        "value": "1",
        "originator": ""
      }
    ],
    "siClassInfo": null
  }
}