{
  "objectId": {
    "identifier": "SL-EAGLEECMAUTO-RE-ADD-OPERATION-QTLT1.01",
    "stringifiedObjectReference": "SPIORLL:N:C2/#BRMainProcessDefinition#F2#SL-EAGLEECMAUTO-RE-ADD-OPERATION-QTLT1.01"
  },
  "propertyInfo": {
    "changeNotice": {
      "identifier": "",
      "stringifiedObjectReference": ""
    },
    "createdDateTime": "2016-11-25-05.16.30.662284",
    "createdUser": {
      "identifier": "aboggava",
      "stringifiedObjectReference": ""
    },
    "lastUpdatedDateTime": "2017-11-17-00.56.47.364502",
    "lastUpdatedUser": {
      "identifier": "lpamu",
      "stringifiedObjectReference": ""
    },
    "lastCheckOutDateTime": "2017-11-17-01.03.43.738075",
    "lastCheckOutUser": {
      "identifier": "lpamu",
      "stringifiedObjectReference": ""
    },
    "lastCheckInDateTime": "2017-11-17-01.03.44.155376",
    "lastCheckInUser": {
      "identifier": "lpamu",
      "stringifiedObjectReference": ""
    },
    "lastReleasedDateTime": "2017-11-17-01.03.44.155376",
    "lastReleasedUser": {
      "identifier": "lpamu",
      "stringifiedObjectReference": ""
    },
    "lastRollBackDateTime": "2017-06-01-04.47.38.041472",
    "lastRollBackUser": {
      "identifier": "X-ECM",
      "stringifiedObjectReference": ""
    },
    "lastArchivedDateTime": "",
    "lastArchivedUser": {
      "identifier": "",
      "stringifiedObjectReference": ""
    },
    "lastRestoredDateTime": "",
    "lastRestoredUser": {
      "identifier": "",
      "stringifiedObjectReference": ""
    },
    "lastActionUser": {
      "identifier": "lpamu",
      "stringifiedObjectReference": ""
    },
    "lastActionDateTime": "2017-11-17-01.03.44.155376",
    "lastActionEventCode": "EVRLSOBJ",
    "lastComment": "",
    "currentInWorkState": "NotInWork",
    "currentSetUpState": "Released",
    "permission": "Public",
    "permissionRead": "Public",
    "permissionReleaseDelete": "Public",
    "userGroup": {
      "identifier": "",
      "stringifiedObjectReference": ""
    },
    "userGroupRead": {
      "identifier": "",
      "stringifiedObjectReference": ""
    },
    "userGroupReleaseDelete": {
      "identifier": "",
      "stringifiedObjectReference": ""
    },
    "owner": {
      "identifier": "aboggava",
      "stringifiedObjectReference": "SPIORLL:N:C2/#BRUser#F2#aboggava"
    },
    "batchReleaseFlag": false
  },
  "documentEntityInfo": {
    "documentSpecification": "SL-EAGLEECMAUTO-RE-ADD-OPERATION-QTLT1",
    "activeFlag": false,
    "reserveFlag": false,
    "obsoleteFlag": false,
    "lastActivatedUser": {
      "identifier": "",
      "stringifiedObjectReference": ""
    },
    "lastActivatedDateTime": "",
    "lastInactivatedUser": {
      "identifier": "",
      "stringifiedObjectReference": ""
    },
    "lastInactivatedDateTime": "",
    "lastReservedUser": {
      "identifier": "",
      "stringifiedObjectReference": ""
    },
    "lastReservedDateTime": "",
    "lastCanceledReserveChangeActiveUser": {
      "identifier": "",
      "stringifiedObjectReference": ""
    },
    "lastCanceledReserveChangeActiveDateTime": "",
    "lastObsoleteUser": {
      "identifier": "",
      "stringifiedObjectReference": ""
    },
    "lastObsoleteDateTime": "",
    "lastCancelObsoleteUser": {
      "identifier": "",
      "stringifiedObjectReference": ""
    },
    "lastCancelObsoleteDateTime": ""
  },
  "classInfo": {
    "identifier": "SL-EAGLEECMAUTO-RE-ADD-OPERATION-QTLT1.01",
    "mainProcessDefinitionId": "SL-EAGLEECMAUTO-RE-ADD-OPERATION-QTLT1",
    "version": "01",
    "description": "For Automation",
    "mainProcessDefinitionType": "Production",
    "processFlowType": "Main",
    "monitorRouteFlag": false,
    "mfgLayer": {
      "identifier": "PROD",
      "stringifiedObjectReference": "SPIORLL:N:C2/#BRMFGLayer#F2#PROD"
    },
    "startBank": {
      "identifier": "O-ZEROINV",
      "stringifiedObjectReference": "SPIORLL:N:C2/#BRBank#F2#O-ZEROINV"
    },
    "endBank": {
      "identifier": "O-ENDFG",
      "stringifiedObjectReference": "SPIORLL:N:C2/#BRBank#F2#O-ENDFG"
    },
    "mainProcessDefinitionOwner": {
      "identifier": "aboggava",
      "stringifiedObjectReference": "SPIORLL:N:C2/#BRUser#F2#aboggava"
    },
    "moduleProcessDefinitions": [
      {
        "moduleNumber": "1000",
        "moduleProcessDefinitionId": "D14ECMAUTO-RE-ADD-OPERATION-MODPD1_LPEEGHK-B",
        "version": "01",
        "moduleProcessDefinition": {
          "identifier": "D14ECMAUTO-RE-ADD-OPERATION-MODPD1_LPEEGHK-B.01",
          "stringifiedObjectReference": "SPIORLL:N:C2/#BRModuleProcessDefinition#F2#D14ECMAUTO-RE-ADD-OPERATION-MODPD1_LPEEGHK-B.01"
        },
        "sameTimeReleaseInChangeNoticeFlag": false,
        "moduleProcessDefinitionInChangeNotice": {
          "identifier": "",
          "stringifiedObjectReference": ""
        },
        "stage": {
          "identifier": "NA",
          "stringifiedObjectReference": "SPIORLL:N:C2/#BRStage#F2#NA"
        }
      },
      {
        "moduleNumber": "1100",
        "moduleProcessDefinitionId": "D14ECMAUTO-RE-ADD-OPERATION-MODPD2_LPEEGHK-B",
        "version": "01",
        "moduleProcessDefinition": {
          "identifier": "D14ECMAUTO-RE-ADD-OPERATION-MODPD2_LPEEGHK-B.01",
          "stringifiedObjectReference": "SPIORLL:N:C2/#BRModuleProcessDefinition#F2#D14ECMAUTO-RE-ADD-OPERATION-MODPD2_LPEEGHK-B.01"
        },
        "sameTimeReleaseInChangeNoticeFlag": false,
        "moduleProcessDefinitionInChangeNotice": {
          "identifier": "",
          "stringifiedObjectReference": ""
        },
        "stage": {
          "identifier": "NA",
          "stringifiedObjectReference": "SPIORLL:N:C2/#BRStage#F2#NA"
        }
      },
      {
        "moduleNumber": "1200",
        "moduleProcessDefinitionId": "D14ECMAUTO-RE-ADD-OPERATION-MODPD3_LPEEGHK-B",
        "version": "01",
        "moduleProcessDefinition": {
          "identifier": "D14ECMAUTO-RE-ADD-OPERATION-MODPD3_LPEEGHK-B.01",
          "stringifiedObjectReference": "SPIORLL:N:C2/#BRModuleProcessDefinition#F2#D14ECMAUTO-RE-ADD-OPERATION-MODPD3_LPEEGHK-B.01"
        },
        "sameTimeReleaseInChangeNoticeFlag": false,
        "moduleProcessDefinitionInChangeNotice": {
          "identifier": "",
          "stringifiedObjectReference": ""
        },
        "stage": {
          "identifier": "NA",
          "stringifiedObjectReference": "SPIORLL:N:C2/#BRStage#F2#NA"
        }
      }
    ],
    "mainProcessOperations": [
      {
        "moduleNumber": "1000",
        "moduleProcessDefinition": {
          "identifier": "D14ECMAUTO-RE-ADD-OPERATION-MODPD1_LPEEGHK-B.01",
          "stringifiedObjectReference": "SPIORLL:N:C2/#BRModuleProcessDefinition#F2#D14ECMAUTO-RE-ADD-OPERATION-MODPD1_LPEEGHK-B.01"
        },
        "sameTimeReleaseInChangeNoticeFlag": false,
        "moduleProcessDefinitionInChangeNotice": {
          "identifier": "",
          "stringifiedObjectReference": ""
        },
        "stage": {
          "identifier": "NA",
          "stringifiedObjectReference": "SPIORLL:N:C2/#BRStage#F2#NA"
        },
        "operationNumber": "1000.1000",
        "processDefinition": {
          "identifier": "EG-ECMAUTO-ROUTEEDIT-NEW-QTLT1_MHSFEOL2HK-14LPE.01",
          "stringifiedObjectReference": "SPIORLL:N:C2/#BRProcessDefinition#F2#EG-ECMAUTO-ROUTEEDIT-NEW-QTLT1_MHSFEOL2HK-14LPE.01"
        },
        "pdiDefinitionFlag": false,
        "pdiDefinitionResetFlag": false,
        "mainDINotChangeFlag": false,
        "mainDIScriptNotChangeFlag": false,
        "photoLayer": {
          "identifier": "",
          "stringifiedObjectReference": ""
        },
        "carrierCategory": {
          "identifier": "",
          "stringifiedObjectReference": ""
        },
        "processOperationNumber": "",
        "correspondingOperations": [

        ],
        "responsibleOperationNumbers": [

        ],
        "recycleSamplingOperationNumber": "",
        "mandatoryOperationRequiredFlag": false,
        "autoBankInRequiredFlag": false,
        "endOfMonitorRelationFlag": false,
        "monitorGroupReleaseFlag": false,
        "flowBatchControl": {
          "sectionControlCategory": "",
          "name": "",
          "targetOperationFlag": false,
          "flowBatchingOffsetTime": 0.0,
          "maxBatchSize": 0,
          "minBatchSize": 0,
          "minWaferCount": 0
        },
        "pilotWaferProcessControl": {
          "name": "",
          "maxPilotProcessCount": 0
        },
        "defaultMeasDCSpec": {
          "identifier": "",
          "stringifiedObjectReference": ""
        },
        "measDCSpecsByTechnology": [

        ],
        "measDCSpecsByProductGroup": [

        ],
        "measDCSpecs": [

        ],
        "defaultTestSpec": {
          "identifier": "",
          "stringifiedObjectReference": ""
        },
        "testSpecsByTechnology": [

        ],
        "testSpecsByProductGroup": [

        ],
        "testSpecs": [

        ],
        "deltaDCDefinitions": [

        ],
        "defaultDeltaDCSpecs": [

        ],
        "deltaDCSpecsByTechnology": [

        ],
        "deltaDCSpecsByProductGroup": [

        ],
        "deltaDCSpecs": [

        ],
        "subProcessDefinitions": [

        ],
        "reworkProcessDefinitions": [

        ],
        "defaultReworkLimit": -1,
        "reworkLimitsByTechnology": [

        ],
        "reworkLimitsByProductGroup": [

        ],
        "reworkLimits": [

        ],
        "defaultProcessLimit": -1,
        "processLimitsByTechnology": [

        ],
        "processLimitsByProductGroup": [

        ],
        "processLimits": [

        ],
        "postScript": {
          "identifier": "",
          "stringifiedObjectReference": ""
        },
        "pre1Script": {
          "identifier": "",
          "stringifiedObjectReference": ""
        },
        "pre2Script": {
          "identifier": "",
          "stringifiedObjectReference": ""
        },
        "postScripts": [

        ],
        "pre1Scripts": [

        ],
        "pre2Scripts": [

        ],
        "defaultTimeRestrictions": [

        ],
        "timeRestrictionsByTechnology": [

        ],
        "timeRestrictionsByProductGroup": [

        ],
        "timeRestrictions": [

        ],
        "defaultReplaceTimeRestrictionsForSubRoute": [

        ],
        "replaceTimeRestrictionsByTechnologyForSubRoute": [

        ],
        "replaceTimeRestrictionsByProductGroupForSubRoute": [

        ],
        "replaceTimeRestrictionsForSubRoute": [

        ],
        "defaultReplaceTimeRestrictionsForReworkRoute": [

        ],
        "replaceTimeRestrictionsByTechnologyForReworkRoute": [

        ],
        "replaceTimeRestrictionsByProductGroupForReworkRoute": [

        ],
        "replaceTimeRestrictionsForReworkRoute": [

        ],
        "defaultProcessLagTime": 0,
        "processLagTimesByTechnology": [

        ],
        "processLagTimesByProductGroup": [

        ],
        "processLagTimes": [

        ],
        "equipmentMonitorSections": [

        ],
        "userDataSets": [

        ]
      },
      {
        "moduleNumber": "1000",
        "moduleProcessDefinition": {
          "identifier": "D14ECMAUTO-RE-ADD-OPERATION-MODPD1_LPEEGHK-B.01",
          "stringifiedObjectReference": "SPIORLL:N:C2/#BRModuleProcessDefinition#F2#D14ECMAUTO-RE-ADD-OPERATION-MODPD1_LPEEGHK-B.01"
        },
        "sameTimeReleaseInChangeNoticeFlag": false,
        "moduleProcessDefinitionInChangeNotice": {
          "identifier": "",
          "stringifiedObjectReference": ""
        },
        "stage": {
          "identifier": "NA",
          "stringifiedObjectReference": "SPIORLL:N:C2/#BRStage#F2#NA"
        },
        "operationNumber": "1000.2000",
        "processDefinition": {
          "identifier": "EG-ECMAUTO-ROUTEEDIT-NEW-QTLT2_MHSFEOL2HK-14LPE.01",
          "stringifiedObjectReference": "SPIORLL:N:C2/#BRProcessDefinition#F2#EG-ECMAUTO-ROUTEEDIT-NEW-QTLT2_MHSFEOL2HK-14LPE.01"
        },
        "pdiDefinitionFlag": false,
        "pdiDefinitionResetFlag": false,
        "mainDINotChangeFlag": false,
        "mainDIScriptNotChangeFlag": false,
        "photoLayer": {
          "identifier": "",
          "stringifiedObjectReference": ""
        },
        "carrierCategory": {
          "identifier": "",
          "stringifiedObjectReference": ""
        },
        "processOperationNumber": "",
        "correspondingOperations": [

        ],
        "responsibleOperationNumbers": [

        ],
        "recycleSamplingOperationNumber": "",
        "mandatoryOperationRequiredFlag": false,
        "autoBankInRequiredFlag": false,
        "endOfMonitorRelationFlag": false,
        "monitorGroupReleaseFlag": false,
        "flowBatchControl": {
          "sectionControlCategory": "",
          "name": "",
          "targetOperationFlag": false,
          "flowBatchingOffsetTime": 0.0,
          "maxBatchSize": 0,
          "minBatchSize": 0,
          "minWaferCount": 0
        },
        "pilotWaferProcessControl": {
          "name": "",
          "maxPilotProcessCount": 0
        },
        "defaultMeasDCSpec": {
          "identifier": "",
          "stringifiedObjectReference": ""
        },
        "measDCSpecsByTechnology": [

        ],
        "measDCSpecsByProductGroup": [

        ],
        "measDCSpecs": [

        ],
        "defaultTestSpec": {
          "identifier": "",
          "stringifiedObjectReference": ""
        },
        "testSpecsByTechnology": [

        ],
        "testSpecsByProductGroup": [

        ],
        "testSpecs": [

        ],
        "deltaDCDefinitions": [

        ],
        "defaultDeltaDCSpecs": [

        ],
        "deltaDCSpecsByTechnology": [

        ],
        "deltaDCSpecsByProductGroup": [

        ],
        "deltaDCSpecs": [

        ],
        "subProcessDefinitions": [

        ],
        "reworkProcessDefinitions": [

        ],
        "defaultReworkLimit": -1,
        "reworkLimitsByTechnology": [

        ],
        "reworkLimitsByProductGroup": [

        ],
        "reworkLimits": [

        ],
        "defaultProcessLimit": -1,
        "processLimitsByTechnology": [

        ],
        "processLimitsByProductGroup": [

        ],
        "processLimits": [

        ],
        "postScript": {
          "identifier": "",
          "stringifiedObjectReference": ""
        },
        "pre1Script": {
          "identifier": "",
          "stringifiedObjectReference": ""
        },
        "pre2Script": {
          "identifier": "",
          "stringifiedObjectReference": ""
        },
        "postScripts": [

        ],
        "pre1Scripts": [

        ],
        "pre2Scripts": [

        ],
        "defaultTimeRestrictions": [

        ],
        "timeRestrictionsByTechnology": [

        ],
        "timeRestrictionsByProductGroup": [

        ],
        "timeRestrictions": [

        ],
        "defaultReplaceTimeRestrictionsForSubRoute": [

        ],
        "replaceTimeRestrictionsByTechnologyForSubRoute": [

        ],
        "replaceTimeRestrictionsByProductGroupForSubRoute": [

        ],
        "replaceTimeRestrictionsForSubRoute": [

        ],
        "defaultReplaceTimeRestrictionsForReworkRoute": [

        ],
        "replaceTimeRestrictionsByTechnologyForReworkRoute": [

        ],
        "replaceTimeRestrictionsByProductGroupForReworkRoute": [

        ],
        "replaceTimeRestrictionsForReworkRoute": [

        ],
        "defaultProcessLagTime": 0,
        "processLagTimesByTechnology": [

        ],
        "processLagTimesByProductGroup": [

        ],
        "processLagTimes": [

        ],
        "equipmentMonitorSections": [

        ],
        "userDataSets": [

        ]
      },
      {
        "moduleNumber": "1000",
        "moduleProcessDefinition": {
          "identifier": "D14ECMAUTO-RE-ADD-OPERATION-MODPD1_LPEEGHK-B.01",
          "stringifiedObjectReference": "SPIORLL:N:C2/#BRModuleProcessDefinition#F2#D14ECMAUTO-RE-ADD-OPERATION-MODPD1_LPEEGHK-B.01"
        },
        "sameTimeReleaseInChangeNoticeFlag": false,
        "moduleProcessDefinitionInChangeNotice": {
          "identifier": "",
          "stringifiedObjectReference": ""
        },
        "stage": {
          "identifier": "NA",
          "stringifiedObjectReference": "SPIORLL:N:C2/#BRStage#F2#NA"
        },
        "operationNumber": "1000.3000",
        "processDefinition": {
          "identifier": "EG-ECMAUTO-ROUTEEDIT-NEW-QTLT3_MHSFEOL2HK-14LPE.01",
          "stringifiedObjectReference": "SPIORLL:N:C2/#BRProcessDefinition#F2#EG-ECMAUTO-ROUTEEDIT-NEW-QTLT3_MHSFEOL2HK-14LPE.01"
        },
        "pdiDefinitionFlag": false,
        "pdiDefinitionResetFlag": false,
        "mainDINotChangeFlag": false,
        "mainDIScriptNotChangeFlag": false,
        "photoLayer": {
          "identifier": "",
          "stringifiedObjectReference": ""
        },
        "carrierCategory": {
          "identifier": "",
          "stringifiedObjectReference": ""
        },
        "processOperationNumber": "",
        "correspondingOperations": [

        ],
        "responsibleOperationNumbers": [

        ],
        "recycleSamplingOperationNumber": "",
        "mandatoryOperationRequiredFlag": false,
        "autoBankInRequiredFlag": false,
        "endOfMonitorRelationFlag": false,
        "monitorGroupReleaseFlag": false,
        "flowBatchControl": {
          "sectionControlCategory": "",
          "name": "",
          "targetOperationFlag": false,
          "flowBatchingOffsetTime": 0.0,
          "maxBatchSize": 0,
          "minBatchSize": 0,
          "minWaferCount": 0
        },
        "pilotWaferProcessControl": {
          "name": "",
          "maxPilotProcessCount": 0
        },
        "defaultMeasDCSpec": {
          "identifier": "",
          "stringifiedObjectReference": ""
        },
        "measDCSpecsByTechnology": [

        ],
        "measDCSpecsByProductGroup": [

        ],
        "measDCSpecs": [

        ],
        "defaultTestSpec": {
          "identifier": "",
          "stringifiedObjectReference": ""
        },
        "testSpecsByTechnology": [

        ],
        "testSpecsByProductGroup": [

        ],
        "testSpecs": [

        ],
        "deltaDCDefinitions": [

        ],
        "defaultDeltaDCSpecs": [

        ],
        "deltaDCSpecsByTechnology": [

        ],
        "deltaDCSpecsByProductGroup": [

        ],
        "deltaDCSpecs": [

        ],
        "subProcessDefinitions": [

        ],
        "reworkProcessDefinitions": [

        ],
        "defaultReworkLimit": -1,
        "reworkLimitsByTechnology": [

        ],
        "reworkLimitsByProductGroup": [

        ],
        "reworkLimits": [

        ],
        "defaultProcessLimit": -1,
        "processLimitsByTechnology": [

        ],
        "processLimitsByProductGroup": [

        ],
        "processLimits": [

        ],
        "postScript": {
          "identifier": "",
          "stringifiedObjectReference": ""
        },
        "pre1Script": {
          "identifier": "",
          "stringifiedObjectReference": ""
        },
        "pre2Script": {
          "identifier": "",
          "stringifiedObjectReference": ""
        },
        "postScripts": [

        ],
        "pre1Scripts": [

        ],
        "pre2Scripts": [

        ],
        "defaultTimeRestrictions": [

        ],
        "timeRestrictionsByTechnology": [

        ],
        "timeRestrictionsByProductGroup": [

        ],
        "timeRestrictions": [

        ],
        "defaultReplaceTimeRestrictionsForSubRoute": [

        ],
        "replaceTimeRestrictionsByTechnologyForSubRoute": [

        ],
        "replaceTimeRestrictionsByProductGroupForSubRoute": [

        ],
        "replaceTimeRestrictionsForSubRoute": [

        ],
        "defaultReplaceTimeRestrictionsForReworkRoute": [

        ],
        "replaceTimeRestrictionsByTechnologyForReworkRoute": [

        ],
        "replaceTimeRestrictionsByProductGroupForReworkRoute": [

        ],
        "replaceTimeRestrictionsForReworkRoute": [

        ],
        "defaultProcessLagTime": 0,
        "processLagTimesByTechnology": [

        ],
        "processLagTimesByProductGroup": [

        ],
        "processLagTimes": [

        ],
        "equipmentMonitorSections": [

        ],
        "userDataSets": [

        ]
      },
      {
        "moduleNumber": "1000",
        "moduleProcessDefinition": {
          "identifier": "D14ECMAUTO-RE-ADD-OPERATION-MODPD1_LPEEGHK-B.01",
          "stringifiedObjectReference": "SPIORLL:N:C2/#BRModuleProcessDefinition#F2#D14ECMAUTO-RE-ADD-OPERATION-MODPD1_LPEEGHK-B.01"
        },
        "sameTimeReleaseInChangeNoticeFlag": false,
        "moduleProcessDefinitionInChangeNotice": {
          "identifier": "",
          "stringifiedObjectReference": ""
        },
        "stage": {
          "identifier": "NA",
          "stringifiedObjectReference": "SPIORLL:N:C2/#BRStage#F2#NA"
        },
        "operationNumber": "1000.4000",
        "processDefinition": {
          "identifier": "EG-ECMAUTO-ROUTEEDIT-NEW-QTLT4_MHSFEOL2HK-14LPE.01",
          "stringifiedObjectReference": "SPIORLL:N:C2/#BRProcessDefinition#F2#EG-ECMAUTO-ROUTEEDIT-NEW-QTLT4_MHSFEOL2HK-14LPE.01"
        },
        "pdiDefinitionFlag": false,
        "pdiDefinitionResetFlag": false,
        "mainDINotChangeFlag": false,
        "mainDIScriptNotChangeFlag": false,
        "photoLayer": {
          "identifier": "",
          "stringifiedObjectReference": ""
        },
        "carrierCategory": {
          "identifier": "",
          "stringifiedObjectReference": ""
        },
        "processOperationNumber": "",
        "correspondingOperations": [

        ],
        "responsibleOperationNumbers": [

        ],
        "recycleSamplingOperationNumber": "",
        "mandatoryOperationRequiredFlag": false,
        "autoBankInRequiredFlag": false,
        "endOfMonitorRelationFlag": false,
        "monitorGroupReleaseFlag": false,
        "flowBatchControl": {
          "sectionControlCategory": "",
          "name": "",
          "targetOperationFlag": false,
          "flowBatchingOffsetTime": 0.0,
          "maxBatchSize": 0,
          "minBatchSize": 0,
          "minWaferCount": 0
        },
        "pilotWaferProcessControl": {
          "name": "",
          "maxPilotProcessCount": 0
        },
        "defaultMeasDCSpec": {
          "identifier": "",
          "stringifiedObjectReference": ""
        },
        "measDCSpecsByTechnology": [

        ],
        "measDCSpecsByProductGroup": [

        ],
        "measDCSpecs": [

        ],
        "defaultTestSpec": {
          "identifier": "",
          "stringifiedObjectReference": ""
        },
        "testSpecsByTechnology": [

        ],
        "testSpecsByProductGroup": [

        ],
        "testSpecs": [

        ],
        "deltaDCDefinitions": [

        ],
        "defaultDeltaDCSpecs": [

        ],
        "deltaDCSpecsByTechnology": [

        ],
        "deltaDCSpecsByProductGroup": [

        ],
        "deltaDCSpecs": [

        ],
        "subProcessDefinitions": [

        ],
        "reworkProcessDefinitions": [

        ],
        "defaultReworkLimit": -1,
        "reworkLimitsByTechnology": [

        ],
        "reworkLimitsByProductGroup": [

        ],
        "reworkLimits": [

        ],
        "defaultProcessLimit": -1,
        "processLimitsByTechnology": [

        ],
        "processLimitsByProductGroup": [

        ],
        "processLimits": [

        ],
        "postScript": {
          "identifier": "",
          "stringifiedObjectReference": ""
        },
        "pre1Script": {
          "identifier": "",
          "stringifiedObjectReference": ""
        },
        "pre2Script": {
          "identifier": "",
          "stringifiedObjectReference": ""
        },
        "postScripts": [

        ],
        "pre1Scripts": [

        ],
        "pre2Scripts": [

        ],
        "defaultTimeRestrictions": [

        ],
        "timeRestrictionsByTechnology": [

        ],
        "timeRestrictionsByProductGroup": [

        ],
        "timeRestrictions": [

        ],
        "defaultReplaceTimeRestrictionsForSubRoute": [

        ],
        "replaceTimeRestrictionsByTechnologyForSubRoute": [

        ],
        "replaceTimeRestrictionsByProductGroupForSubRoute": [

        ],
        "replaceTimeRestrictionsForSubRoute": [

        ],
        "defaultReplaceTimeRestrictionsForReworkRoute": [

        ],
        "replaceTimeRestrictionsByTechnologyForReworkRoute": [

        ],
        "replaceTimeRestrictionsByProductGroupForReworkRoute": [

        ],
        "replaceTimeRestrictionsForReworkRoute": [

        ],
        "defaultProcessLagTime": 0,
        "processLagTimesByTechnology": [

        ],
        "processLagTimesByProductGroup": [

        ],
        "processLagTimes": [

        ],
        "equipmentMonitorSections": [

        ],
        "userDataSets": [

        ]
      },
      {
        "moduleNumber": "1100",
        "moduleProcessDefinition": {
          "identifier": "D14ECMAUTO-RE-ADD-OPERATION-MODPD2_LPEEGHK-B.01",
          "stringifiedObjectReference": "SPIORLL:N:C2/#BRModuleProcessDefinition#F2#D14ECMAUTO-RE-ADD-OPERATION-MODPD2_LPEEGHK-B.01"
        },
        "sameTimeReleaseInChangeNoticeFlag": false,
        "moduleProcessDefinitionInChangeNotice": {
          "identifier": "",
          "stringifiedObjectReference": ""
        },
        "stage": {
          "identifier": "NA",
          "stringifiedObjectReference": "SPIORLL:N:C2/#BRStage#F2#NA"
        },
        "operationNumber": "1100.1000",
        "processDefinition": {
          "identifier": "EG-ECMAUTO-ROUTEEDIT-NEW-QTLT8_MHSFEOL2HK-14LPE.01",
          "stringifiedObjectReference": "SPIORLL:N:C2/#BRProcessDefinition#F2#EG-ECMAUTO-ROUTEEDIT-NEW-QTLT8_MHSFEOL2HK-14LPE.01"
        },
        "pdiDefinitionFlag": false,
        "pdiDefinitionResetFlag": false,
        "mainDINotChangeFlag": false,
        "mainDIScriptNotChangeFlag": false,
        "photoLayer": {
          "identifier": "",
          "stringifiedObjectReference": ""
        },
        "carrierCategory": {
          "identifier": "",
          "stringifiedObjectReference": ""
        },
        "processOperationNumber": "",
        "correspondingOperations": [

        ],
        "responsibleOperationNumbers": [

        ],
        "recycleSamplingOperationNumber": "",
        "mandatoryOperationRequiredFlag": false,
        "autoBankInRequiredFlag": false,
        "endOfMonitorRelationFlag": false,
        "monitorGroupReleaseFlag": false,
        "flowBatchControl": {
          "sectionControlCategory": "",
          "name": "",
          "targetOperationFlag": false,
          "flowBatchingOffsetTime": 0.0,
          "maxBatchSize": 0,
          "minBatchSize": 0,
          "minWaferCount": 0
        },
        "pilotWaferProcessControl": {
          "name": "",
          "maxPilotProcessCount": 0
        },
        "defaultMeasDCSpec": {
          "identifier": "",
          "stringifiedObjectReference": ""
        },
        "measDCSpecsByTechnology": [

        ],
        "measDCSpecsByProductGroup": [

        ],
        "measDCSpecs": [

        ],
        "defaultTestSpec": {
          "identifier": "",
          "stringifiedObjectReference": ""
        },
        "testSpecsByTechnology": [

        ],
        "testSpecsByProductGroup": [

        ],
        "testSpecs": [

        ],
        "deltaDCDefinitions": [

        ],
        "defaultDeltaDCSpecs": [

        ],
        "deltaDCSpecsByTechnology": [

        ],
        "deltaDCSpecsByProductGroup": [

        ],
        "deltaDCSpecs": [

        ],
        "subProcessDefinitions": [

        ],
        "reworkProcessDefinitions": [

        ],
        "defaultReworkLimit": -1,
        "reworkLimitsByTechnology": [

        ],
        "reworkLimitsByProductGroup": [

        ],
        "reworkLimits": [

        ],
        "defaultProcessLimit": -1,
        "processLimitsByTechnology": [

        ],
        "processLimitsByProductGroup": [

        ],
        "processLimits": [

        ],
        "postScript": {
          "identifier": "",
          "stringifiedObjectReference": ""
        },
        "pre1Script": {
          "identifier": "",
          "stringifiedObjectReference": ""
        },
        "pre2Script": {
          "identifier": "",
          "stringifiedObjectReference": ""
        },
        "postScripts": [

        ],
        "pre1Scripts": [

        ],
        "pre2Scripts": [

        ],
        "defaultTimeRestrictions": [

        ],
        "timeRestrictionsByTechnology": [

        ],
        "timeRestrictionsByProductGroup": [

        ],
        "timeRestrictions": [

        ],
        "defaultReplaceTimeRestrictionsForSubRoute": [

        ],
        "replaceTimeRestrictionsByTechnologyForSubRoute": [

        ],
        "replaceTimeRestrictionsByProductGroupForSubRoute": [

        ],
        "replaceTimeRestrictionsForSubRoute": [

        ],
        "defaultReplaceTimeRestrictionsForReworkRoute": [

        ],
        "replaceTimeRestrictionsByTechnologyForReworkRoute": [

        ],
        "replaceTimeRestrictionsByProductGroupForReworkRoute": [

        ],
        "replaceTimeRestrictionsForReworkRoute": [

        ],
        "defaultProcessLagTime": 0,
        "processLagTimesByTechnology": [

        ],
        "processLagTimesByProductGroup": [

        ],
        "processLagTimes": [

        ],
        "equipmentMonitorSections": [

        ],
        "userDataSets": [

        ]
      },
      {
        "moduleNumber": "1100",
        "moduleProcessDefinition": {
          "identifier": "D14ECMAUTO-RE-ADD-OPERATION-MODPD2_LPEEGHK-B.01",
          "stringifiedObjectReference": "SPIORLL:N:C2/#BRModuleProcessDefinition#F2#D14ECMAUTO-RE-ADD-OPERATION-MODPD2_LPEEGHK-B.01"
        },
        "sameTimeReleaseInChangeNoticeFlag": false,
        "moduleProcessDefinitionInChangeNotice": {
          "identifier": "",
          "stringifiedObjectReference": ""
        },
        "stage": {
          "identifier": "NA",
          "stringifiedObjectReference": "SPIORLL:N:C2/#BRStage#F2#NA"
        },
        "operationNumber": "1100.2000",
        "processDefinition": {
          "identifier": "EG-ECMAUTO-ROUTEEDIT-NEW-QTLT9_MHSFEOL2HK-14LPE.01",
          "stringifiedObjectReference": "SPIORLL:N:C2/#BRProcessDefinition#F2#EG-ECMAUTO-ROUTEEDIT-NEW-QTLT9_MHSFEOL2HK-14LPE.01"
        },
        "pdiDefinitionFlag": false,
        "pdiDefinitionResetFlag": false,
        "mainDINotChangeFlag": false,
        "mainDIScriptNotChangeFlag": false,
        "photoLayer": {
          "identifier": "",
          "stringifiedObjectReference": ""
        },
        "carrierCategory": {
          "identifier": "",
          "stringifiedObjectReference": ""
        },
        "processOperationNumber": "",
        "correspondingOperations": [

        ],
        "responsibleOperationNumbers": [

        ],
        "recycleSamplingOperationNumber": "",
        "mandatoryOperationRequiredFlag": false,
        "autoBankInRequiredFlag": false,
        "endOfMonitorRelationFlag": false,
        "monitorGroupReleaseFlag": false,
        "flowBatchControl": {
          "sectionControlCategory": "",
          "name": "",
          "targetOperationFlag": false,
          "flowBatchingOffsetTime": 0.0,
          "maxBatchSize": 0,
          "minBatchSize": 0,
          "minWaferCount": 0
        },
        "pilotWaferProcessControl": {
          "name": "",
          "maxPilotProcessCount": 0
        },
        "defaultMeasDCSpec": {
          "identifier": "",
          "stringifiedObjectReference": ""
        },
        "measDCSpecsByTechnology": [

        ],
        "measDCSpecsByProductGroup": [

        ],
        "measDCSpecs": [

        ],
        "defaultTestSpec": {
          "identifier": "",
          "stringifiedObjectReference": ""
        },
        "testSpecsByTechnology": [

        ],
        "testSpecsByProductGroup": [

        ],
        "testSpecs": [

        ],
        "deltaDCDefinitions": [

        ],
        "defaultDeltaDCSpecs": [

        ],
        "deltaDCSpecsByTechnology": [

        ],
        "deltaDCSpecsByProductGroup": [

        ],
        "deltaDCSpecs": [

        ],
        "subProcessDefinitions": [

        ],
        "reworkProcessDefinitions": [

        ],
        "defaultReworkLimit": -1,
        "reworkLimitsByTechnology": [

        ],
        "reworkLimitsByProductGroup": [

        ],
        "reworkLimits": [

        ],
        "defaultProcessLimit": -1,
        "processLimitsByTechnology": [

        ],
        "processLimitsByProductGroup": [

        ],
        "processLimits": [

        ],
        "postScript": {
          "identifier": "",
          "stringifiedObjectReference": ""
        },
        "pre1Script": {
          "identifier": "",
          "stringifiedObjectReference": ""
        },
        "pre2Script": {
          "identifier": "",
          "stringifiedObjectReference": ""
        },
        "postScripts": [

        ],
        "pre1Scripts": [

        ],
        "pre2Scripts": [

        ],
        "defaultTimeRestrictions": [

        ],
        "timeRestrictionsByTechnology": [

        ],
        "timeRestrictionsByProductGroup": [

        ],
        "timeRestrictions": [

        ],
        "defaultReplaceTimeRestrictionsForSubRoute": [

        ],
        "replaceTimeRestrictionsByTechnologyForSubRoute": [

        ],
        "replaceTimeRestrictionsByProductGroupForSubRoute": [

        ],
        "replaceTimeRestrictionsForSubRoute": [

        ],
        "defaultReplaceTimeRestrictionsForReworkRoute": [

        ],
        "replaceTimeRestrictionsByTechnologyForReworkRoute": [

        ],
        "replaceTimeRestrictionsByProductGroupForReworkRoute": [

        ],
        "replaceTimeRestrictionsForReworkRoute": [

        ],
        "defaultProcessLagTime": 0,
        "processLagTimesByTechnology": [

        ],
        "processLagTimesByProductGroup": [

        ],
        "processLagTimes": [

        ],
        "equipmentMonitorSections": [

        ],
        "userDataSets": [

        ]
      },
      {
        "moduleNumber": "1100",
        "moduleProcessDefinition": {
          "identifier": "D14ECMAUTO-RE-ADD-OPERATION-MODPD2_LPEEGHK-B.01",
          "stringifiedObjectReference": "SPIORLL:N:C2/#BRModuleProcessDefinition#F2#D14ECMAUTO-RE-ADD-OPERATION-MODPD2_LPEEGHK-B.01"
        },
        "sameTimeReleaseInChangeNoticeFlag": false,
        "moduleProcessDefinitionInChangeNotice": {
          "identifier": "",
          "stringifiedObjectReference": ""
        },
        "stage": {
          "identifier": "NA",
          "stringifiedObjectReference": "SPIORLL:N:C2/#BRStage#F2#NA"
        },
        "operationNumber": "1100.3000",
        "processDefinition": {
          "identifier": "EG-ECMAUTO-ROUTEEDIT-NEW-QTLT10_MHSFEOL2HK-14LPE.01",
          "stringifiedObjectReference": "SPIORLL:N:C2/#BRProcessDefinition#F2#EG-ECMAUTO-ROUTEEDIT-NEW-QTLT10_MHSFEOL2HK-14LPE.01"
        },
        "pdiDefinitionFlag": false,
        "pdiDefinitionResetFlag": false,
        "mainDINotChangeFlag": false,
        "mainDIScriptNotChangeFlag": false,
        "photoLayer": {
          "identifier": "",
          "stringifiedObjectReference": ""
        },
        "carrierCategory": {
          "identifier": "",
          "stringifiedObjectReference": ""
        },
        "processOperationNumber": "",
        "correspondingOperations": [

        ],
        "responsibleOperationNumbers": [

        ],
        "recycleSamplingOperationNumber": "",
        "mandatoryOperationRequiredFlag": false,
        "autoBankInRequiredFlag": false,
        "endOfMonitorRelationFlag": false,
        "monitorGroupReleaseFlag": false,
        "flowBatchControl": {
          "sectionControlCategory": "",
          "name": "",
          "targetOperationFlag": false,
          "flowBatchingOffsetTime": 0.0,
          "maxBatchSize": 0,
          "minBatchSize": 0,
          "minWaferCount": 0
        },
        "pilotWaferProcessControl": {
          "name": "",
          "maxPilotProcessCount": 0
        },
        "defaultMeasDCSpec": {
          "identifier": "",
          "stringifiedObjectReference": ""
        },
        "measDCSpecsByTechnology": [

        ],
        "measDCSpecsByProductGroup": [

        ],
        "measDCSpecs": [

        ],
        "defaultTestSpec": {
          "identifier": "",
          "stringifiedObjectReference": ""
        },
        "testSpecsByTechnology": [

        ],
        "testSpecsByProductGroup": [

        ],
        "testSpecs": [

        ],
        "deltaDCDefinitions": [

        ],
        "defaultDeltaDCSpecs": [

        ],
        "deltaDCSpecsByTechnology": [

        ],
        "deltaDCSpecsByProductGroup": [

        ],
        "deltaDCSpecs": [

        ],
        "subProcessDefinitions": [

        ],
        "reworkProcessDefinitions": [

        ],
        "defaultReworkLimit": -1,
        "reworkLimitsByTechnology": [

        ],
        "reworkLimitsByProductGroup": [

        ],
        "reworkLimits": [

        ],
        "defaultProcessLimit": -1,
        "processLimitsByTechnology": [

        ],
        "processLimitsByProductGroup": [

        ],
        "processLimits": [

        ],
        "postScript": {
          "identifier": "",
          "stringifiedObjectReference": ""
        },
        "pre1Script": {
          "identifier": "",
          "stringifiedObjectReference": ""
        },
        "pre2Script": {
          "identifier": "",
          "stringifiedObjectReference": ""
        },
        "postScripts": [

        ],
        "pre1Scripts": [

        ],
        "pre2Scripts": [

        ],
        "defaultTimeRestrictions": [

        ],
        "timeRestrictionsByTechnology": [

        ],
        "timeRestrictionsByProductGroup": [

        ],
        "timeRestrictions": [

        ],
        "defaultReplaceTimeRestrictionsForSubRoute": [

        ],
        "replaceTimeRestrictionsByTechnologyForSubRoute": [

        ],
        "replaceTimeRestrictionsByProductGroupForSubRoute": [

        ],
        "replaceTimeRestrictionsForSubRoute": [

        ],
        "defaultReplaceTimeRestrictionsForReworkRoute": [

        ],
        "replaceTimeRestrictionsByTechnologyForReworkRoute": [

        ],
        "replaceTimeRestrictionsByProductGroupForReworkRoute": [

        ],
        "replaceTimeRestrictionsForReworkRoute": [

        ],
        "defaultProcessLagTime": 0,
        "processLagTimesByTechnology": [

        ],
        "processLagTimesByProductGroup": [

        ],
        "processLagTimes": [

        ],
        "equipmentMonitorSections": [

        ],
        "userDataSets": [

        ]
      },
      {
        "moduleNumber": "1100",
        "moduleProcessDefinition": {
          "identifier": "D14ECMAUTO-RE-ADD-OPERATION-MODPD2_LPEEGHK-B.01",
          "stringifiedObjectReference": "SPIORLL:N:C2/#BRModuleProcessDefinition#F2#D14ECMAUTO-RE-ADD-OPERATION-MODPD2_LPEEGHK-B.01"
        },
        "sameTimeReleaseInChangeNoticeFlag": false,
        "moduleProcessDefinitionInChangeNotice": {
          "identifier": "",
          "stringifiedObjectReference": ""
        },
        "stage": {
          "identifier": "NA",
          "stringifiedObjectReference": "SPIORLL:N:C2/#BRStage#F2#NA"
        },
        "operationNumber": "1100.4000",
        "processDefinition": {
          "identifier": "EG-ECMAUTO-ROUTEEDIT-NEW-QTLT11_MHSFEOL2HK-14LPE.01",
          "stringifiedObjectReference": "SPIORLL:N:C2/#BRProcessDefinition#F2#EG-ECMAUTO-ROUTEEDIT-NEW-QTLT11_MHSFEOL2HK-14LPE.01"
        },
        "pdiDefinitionFlag": false,
        "pdiDefinitionResetFlag": false,
        "mainDINotChangeFlag": false,
        "mainDIScriptNotChangeFlag": false,
        "photoLayer": {
          "identifier": "",
          "stringifiedObjectReference": ""
        },
        "carrierCategory": {
          "identifier": "",
          "stringifiedObjectReference": ""
        },
        "processOperationNumber": "",
        "correspondingOperations": [

        ],
        "responsibleOperationNumbers": [

        ],
        "recycleSamplingOperationNumber": "",
        "mandatoryOperationRequiredFlag": false,
        "autoBankInRequiredFlag": false,
        "endOfMonitorRelationFlag": false,
        "monitorGroupReleaseFlag": false,
        "flowBatchControl": {
          "sectionControlCategory": "",
          "name": "",
          "targetOperationFlag": false,
          "flowBatchingOffsetTime": 0.0,
          "maxBatchSize": 0,
          "minBatchSize": 0,
          "minWaferCount": 0
        },
        "pilotWaferProcessControl": {
          "name": "",
          "maxPilotProcessCount": 0
        },
        "defaultMeasDCSpec": {
          "identifier": "",
          "stringifiedObjectReference": ""
        },
        "measDCSpecsByTechnology": [

        ],
        "measDCSpecsByProductGroup": [

        ],
        "measDCSpecs": [

        ],
        "defaultTestSpec": {
          "identifier": "",
          "stringifiedObjectReference": ""
        },
        "testSpecsByTechnology": [

        ],
        "testSpecsByProductGroup": [

        ],
        "testSpecs": [

        ],
        "deltaDCDefinitions": [

        ],
        "defaultDeltaDCSpecs": [

        ],
        "deltaDCSpecsByTechnology": [

        ],
        "deltaDCSpecsByProductGroup": [

        ],
        "deltaDCSpecs": [

        ],
        "subProcessDefinitions": [

        ],
        "reworkProcessDefinitions": [

        ],
        "defaultReworkLimit": -1,
        "reworkLimitsByTechnology": [

        ],
        "reworkLimitsByProductGroup": [

        ],
        "reworkLimits": [

        ],
        "defaultProcessLimit": -1,
        "processLimitsByTechnology": [

        ],
        "processLimitsByProductGroup": [

        ],
        "processLimits": [

        ],
        "postScript": {
          "identifier": "",
          "stringifiedObjectReference": ""
        },
        "pre1Script": {
          "identifier": "",
          "stringifiedObjectReference": ""
        },
        "pre2Script": {
          "identifier": "",
          "stringifiedObjectReference": ""
        },
        "postScripts": [

        ],
        "pre1Scripts": [

        ],
        "pre2Scripts": [

        ],
        "defaultTimeRestrictions": [

        ],
        "timeRestrictionsByTechnology": [

        ],
        "timeRestrictionsByProductGroup": [

        ],
        "timeRestrictions": [

        ],
        "defaultReplaceTimeRestrictionsForSubRoute": [

        ],
        "replaceTimeRestrictionsByTechnologyForSubRoute": [

        ],
        "replaceTimeRestrictionsByProductGroupForSubRoute": [

        ],
        "replaceTimeRestrictionsForSubRoute": [

        ],
        "defaultReplaceTimeRestrictionsForReworkRoute": [

        ],
        "replaceTimeRestrictionsByTechnologyForReworkRoute": [

        ],
        "replaceTimeRestrictionsByProductGroupForReworkRoute": [

        ],
        "replaceTimeRestrictionsForReworkRoute": [

        ],
        "defaultProcessLagTime": 0,
        "processLagTimesByTechnology": [

        ],
        "processLagTimesByProductGroup": [

        ],
        "processLagTimes": [

        ],
        "equipmentMonitorSections": [

        ],
        "userDataSets": [

        ]
      },
      {
        "moduleNumber": "1200",
        "moduleProcessDefinition": {
          "identifier": "D14ECMAUTO-RE-ADD-OPERATION-MODPD3_LPEEGHK-B.01",
          "stringifiedObjectReference": "SPIORLL:N:C2/#BRModuleProcessDefinition#F2#D14ECMAUTO-RE-ADD-OPERATION-MODPD3_LPEEGHK-B.01"
        },
        "sameTimeReleaseInChangeNoticeFlag": false,
        "moduleProcessDefinitionInChangeNotice": {
          "identifier": "",
          "stringifiedObjectReference": ""
        },
        "stage": {
          "identifier": "NA",
          "stringifiedObjectReference": "SPIORLL:N:C2/#BRStage#F2#NA"
        },
        "operationNumber": "1200.1000",
        "processDefinition": {
          "identifier": "EG-ECMAUTO-ROUTEEDIT-NEW-QTLT12_MHSFEOL2HK-14LPE.01",
          "stringifiedObjectReference": "SPIORLL:N:C2/#BRProcessDefinition#F2#EG-ECMAUTO-ROUTEEDIT-NEW-QTLT12_MHSFEOL2HK-14LPE.01"
        },
        "pdiDefinitionFlag": false,
        "pdiDefinitionResetFlag": false,
        "mainDINotChangeFlag": false,
        "mainDIScriptNotChangeFlag": false,
        "photoLayer": {
          "identifier": "",
          "stringifiedObjectReference": ""
        },
        "carrierCategory": {
          "identifier": "",
          "stringifiedObjectReference": ""
        },
        "processOperationNumber": "",
        "correspondingOperations": [

        ],
        "responsibleOperationNumbers": [

        ],
        "recycleSamplingOperationNumber": "",
        "mandatoryOperationRequiredFlag": false,
        "autoBankInRequiredFlag": false,
        "endOfMonitorRelationFlag": false,
        "monitorGroupReleaseFlag": false,
        "flowBatchControl": {
          "sectionControlCategory": "",
          "name": "",
          "targetOperationFlag": false,
          "flowBatchingOffsetTime": 0.0,
          "maxBatchSize": 0,
          "minBatchSize": 0,
          "minWaferCount": 0
        },
        "pilotWaferProcessControl": {
          "name": "",
          "maxPilotProcessCount": 0
        },
        "defaultMeasDCSpec": {
          "identifier": "",
          "stringifiedObjectReference": ""
        },
        "measDCSpecsByTechnology": [

        ],
        "measDCSpecsByProductGroup": [

        ],
        "measDCSpecs": [

        ],
        "defaultTestSpec": {
          "identifier": "",
          "stringifiedObjectReference": ""
        },
        "testSpecsByTechnology": [

        ],
        "testSpecsByProductGroup": [

        ],
        "testSpecs": [

        ],
        "deltaDCDefinitions": [

        ],
        "defaultDeltaDCSpecs": [

        ],
        "deltaDCSpecsByTechnology": [

        ],
        "deltaDCSpecsByProductGroup": [

        ],
        "deltaDCSpecs": [

        ],
        "subProcessDefinitions": [

        ],
        "reworkProcessDefinitions": [

        ],
        "defaultReworkLimit": -1,
        "reworkLimitsByTechnology": [

        ],
        "reworkLimitsByProductGroup": [

        ],
        "reworkLimits": [

        ],
        "defaultProcessLimit": -1,
        "processLimitsByTechnology": [

        ],
        "processLimitsByProductGroup": [

        ],
        "processLimits": [

        ],
        "postScript": {
          "identifier": "",
          "stringifiedObjectReference": ""
        },
        "pre1Script": {
          "identifier": "",
          "stringifiedObjectReference": ""
        },
        "pre2Script": {
          "identifier": "",
          "stringifiedObjectReference": ""
        },
        "postScripts": [

        ],
        "pre1Scripts": [

        ],
        "pre2Scripts": [

        ],
        "defaultTimeRestrictions": [

        ],
        "timeRestrictionsByTechnology": [

        ],
        "timeRestrictionsByProductGroup": [

        ],
        "timeRestrictions": [

        ],
        "defaultReplaceTimeRestrictionsForSubRoute": [

        ],
        "replaceTimeRestrictionsByTechnologyForSubRoute": [

        ],
        "replaceTimeRestrictionsByProductGroupForSubRoute": [

        ],
        "replaceTimeRestrictionsForSubRoute": [

        ],
        "defaultReplaceTimeRestrictionsForReworkRoute": [

        ],
        "replaceTimeRestrictionsByTechnologyForReworkRoute": [

        ],
        "replaceTimeRestrictionsByProductGroupForReworkRoute": [

        ],
        "replaceTimeRestrictionsForReworkRoute": [

        ],
        "defaultProcessLagTime": 0,
        "processLagTimesByTechnology": [

        ],
        "processLagTimesByProductGroup": [

        ],
        "processLagTimes": [

        ],
        "equipmentMonitorSections": [

        ],
        "userDataSets": [

        ]
      },
      {
        "moduleNumber": "1200",
        "moduleProcessDefinition": {
          "identifier": "D14ECMAUTO-RE-ADD-OPERATION-MODPD3_LPEEGHK-B.01",
          "stringifiedObjectReference": "SPIORLL:N:C2/#BRModuleProcessDefinition#F2#D14ECMAUTO-RE-ADD-OPERATION-MODPD3_LPEEGHK-B.01"
        },
        "sameTimeReleaseInChangeNoticeFlag": false,
        "moduleProcessDefinitionInChangeNotice": {
          "identifier": "",
          "stringifiedObjectReference": ""
        },
        "stage": {
          "identifier": "NA",
          "stringifiedObjectReference": "SPIORLL:N:C2/#BRStage#F2#NA"
        },
        "operationNumber": "1200.2000",
        "processDefinition": {
          "identifier": "EG-ECMAUTO-ROUTEEDIT-NEW-QTLT13_MHSFEOL2HK-14LPE.01",
          "stringifiedObjectReference": "SPIORLL:N:C2/#BRProcessDefinition#F2#EG-ECMAUTO-ROUTEEDIT-NEW-QTLT13_MHSFEOL2HK-14LPE.01"
        },
        "pdiDefinitionFlag": false,
        "pdiDefinitionResetFlag": false,
        "mainDINotChangeFlag": false,
        "mainDIScriptNotChangeFlag": false,
        "photoLayer": {
          "identifier": "",
          "stringifiedObjectReference": ""
        },
        "carrierCategory": {
          "identifier": "",
          "stringifiedObjectReference": ""
        },
        "processOperationNumber": "",
        "correspondingOperations": [

        ],
        "responsibleOperationNumbers": [

        ],
        "recycleSamplingOperationNumber": "",
        "mandatoryOperationRequiredFlag": false,
        "autoBankInRequiredFlag": false,
        "endOfMonitorRelationFlag": false,
        "monitorGroupReleaseFlag": false,
        "flowBatchControl": {
          "sectionControlCategory": "",
          "name": "",
          "targetOperationFlag": false,
          "flowBatchingOffsetTime": 0.0,
          "maxBatchSize": 0,
          "minBatchSize": 0,
          "minWaferCount": 0
        },
        "pilotWaferProcessControl": {
          "name": "",
          "maxPilotProcessCount": 0
        },
        "defaultMeasDCSpec": {
          "identifier": "",
          "stringifiedObjectReference": ""
        },
        "measDCSpecsByTechnology": [

        ],
        "measDCSpecsByProductGroup": [

        ],
        "measDCSpecs": [

        ],
        "defaultTestSpec": {
          "identifier": "",
          "stringifiedObjectReference": ""
        },
        "testSpecsByTechnology": [

        ],
        "testSpecsByProductGroup": [

        ],
        "testSpecs": [

        ],
        "deltaDCDefinitions": [

        ],
        "defaultDeltaDCSpecs": [

        ],
        "deltaDCSpecsByTechnology": [

        ],
        "deltaDCSpecsByProductGroup": [

        ],
        "deltaDCSpecs": [

        ],
        "subProcessDefinitions": [

        ],
        "reworkProcessDefinitions": [

        ],
        "defaultReworkLimit": -1,
        "reworkLimitsByTechnology": [

        ],
        "reworkLimitsByProductGroup": [

        ],
        "reworkLimits": [

        ],
        "defaultProcessLimit": -1,
        "processLimitsByTechnology": [

        ],
        "processLimitsByProductGroup": [

        ],
        "processLimits": [

        ],
        "postScript": {
          "identifier": "",
          "stringifiedObjectReference": ""
        },
        "pre1Script": {
          "identifier": "",
          "stringifiedObjectReference": ""
        },
        "pre2Script": {
          "identifier": "",
          "stringifiedObjectReference": ""
        },
        "postScripts": [

        ],
        "pre1Scripts": [

        ],
        "pre2Scripts": [

        ],
        "defaultTimeRestrictions": [

        ],
        "timeRestrictionsByTechnology": [

        ],
        "timeRestrictionsByProductGroup": [

        ],
        "timeRestrictions": [

        ],
        "defaultReplaceTimeRestrictionsForSubRoute": [

        ],
        "replaceTimeRestrictionsByTechnologyForSubRoute": [

        ],
        "replaceTimeRestrictionsByProductGroupForSubRoute": [

        ],
        "replaceTimeRestrictionsForSubRoute": [

        ],
        "defaultReplaceTimeRestrictionsForReworkRoute": [

        ],
        "replaceTimeRestrictionsByTechnologyForReworkRoute": [

        ],
        "replaceTimeRestrictionsByProductGroupForReworkRoute": [

        ],
        "replaceTimeRestrictionsForReworkRoute": [

        ],
        "defaultProcessLagTime": 0,
        "processLagTimesByTechnology": [

        ],
        "processLagTimesByProductGroup": [

        ],
        "processLagTimes": [

        ],
        "equipmentMonitorSections": [

        ],
        "userDataSets": [

        ]
      },
      {
        "moduleNumber": "1200",
        "moduleProcessDefinition": {
          "identifier": "D14ECMAUTO-RE-ADD-OPERATION-MODPD3_LPEEGHK-B.01",
          "stringifiedObjectReference": "SPIORLL:N:C2/#BRModuleProcessDefinition#F2#D14ECMAUTO-RE-ADD-OPERATION-MODPD3_LPEEGHK-B.01"
        },
        "sameTimeReleaseInChangeNoticeFlag": false,
        "moduleProcessDefinitionInChangeNotice": {
          "identifier": "",
          "stringifiedObjectReference": ""
        },
        "stage": {
          "identifier": "NA",
          "stringifiedObjectReference": "SPIORLL:N:C2/#BRStage#F2#NA"
        },
        "operationNumber": "1200.3000",
        "processDefinition": {
          "identifier": "EG-ECMAUTO-ROUTEEDIT-NEW-QTLT14_MHSFEOL2HK-14LPE.01",
          "stringifiedObjectReference": "SPIORLL:N:C2/#BRProcessDefinition#F2#EG-ECMAUTO-ROUTEEDIT-NEW-QTLT14_MHSFEOL2HK-14LPE.01"
        },
        "pdiDefinitionFlag": false,
        "pdiDefinitionResetFlag": false,
        "mainDINotChangeFlag": false,
        "mainDIScriptNotChangeFlag": false,
        "photoLayer": {
          "identifier": "",
          "stringifiedObjectReference": ""
        },
        "carrierCategory": {
          "identifier": "",
          "stringifiedObjectReference": ""
        },
        "processOperationNumber": "",
        "correspondingOperations": [

        ],
        "responsibleOperationNumbers": [

        ],
        "recycleSamplingOperationNumber": "",
        "mandatoryOperationRequiredFlag": false,
        "autoBankInRequiredFlag": false,
        "endOfMonitorRelationFlag": false,
        "monitorGroupReleaseFlag": false,
        "flowBatchControl": {
          "sectionControlCategory": "",
          "name": "",
          "targetOperationFlag": false,
          "flowBatchingOffsetTime": 0.0,
          "maxBatchSize": 0,
          "minBatchSize": 0,
          "minWaferCount": 0
        },
        "pilotWaferProcessControl": {
          "name": "",
          "maxPilotProcessCount": 0
        },
        "defaultMeasDCSpec": {
          "identifier": "",
          "stringifiedObjectReference": ""
        },
        "measDCSpecsByTechnology": [

        ],
        "measDCSpecsByProductGroup": [

        ],
        "measDCSpecs": [

        ],
        "defaultTestSpec": {
          "identifier": "",
          "stringifiedObjectReference": ""
        },
        "testSpecsByTechnology": [

        ],
        "testSpecsByProductGroup": [

        ],
        "testSpecs": [

        ],
        "deltaDCDefinitions": [

        ],
        "defaultDeltaDCSpecs": [

        ],
        "deltaDCSpecsByTechnology": [

        ],
        "deltaDCSpecsByProductGroup": [

        ],
        "deltaDCSpecs": [

        ],
        "subProcessDefinitions": [

        ],
        "reworkProcessDefinitions": [

        ],
        "defaultReworkLimit": -1,
        "reworkLimitsByTechnology": [

        ],
        "reworkLimitsByProductGroup": [

        ],
        "reworkLimits": [

        ],
        "defaultProcessLimit": -1,
        "processLimitsByTechnology": [

        ],
        "processLimitsByProductGroup": [

        ],
        "processLimits": [

        ],
        "postScript": {
          "identifier": "",
          "stringifiedObjectReference": ""
        },
        "pre1Script": {
          "identifier": "",
          "stringifiedObjectReference": ""
        },
        "pre2Script": {
          "identifier": "",
          "stringifiedObjectReference": ""
        },
        "postScripts": [

        ],
        "pre1Scripts": [

        ],
        "pre2Scripts": [

        ],
        "defaultTimeRestrictions": [

        ],
        "timeRestrictionsByTechnology": [

        ],
        "timeRestrictionsByProductGroup": [

        ],
        "timeRestrictions": [

        ],
        "defaultReplaceTimeRestrictionsForSubRoute": [

        ],
        "replaceTimeRestrictionsByTechnologyForSubRoute": [

        ],
        "replaceTimeRestrictionsByProductGroupForSubRoute": [

        ],
        "replaceTimeRestrictionsForSubRoute": [

        ],
        "defaultReplaceTimeRestrictionsForReworkRoute": [

        ],
        "replaceTimeRestrictionsByTechnologyForReworkRoute": [

        ],
        "replaceTimeRestrictionsByProductGroupForReworkRoute": [

        ],
        "replaceTimeRestrictionsForReworkRoute": [

        ],
        "defaultProcessLagTime": 0,
        "processLagTimesByTechnology": [

        ],
        "processLagTimesByProductGroup": [

        ],
        "processLagTimes": [

        ],
        "equipmentMonitorSections": [

        ],
        "userDataSets": [

        ]
      },
      {
        "moduleNumber": "1200",
        "moduleProcessDefinition": {
          "identifier": "D14ECMAUTO-RE-ADD-OPERATION-MODPD3_LPEEGHK-B.01",
          "stringifiedObjectReference": "SPIORLL:N:C2/#BRModuleProcessDefinition#F2#D14ECMAUTO-RE-ADD-OPERATION-MODPD3_LPEEGHK-B.01"
        },
        "sameTimeReleaseInChangeNoticeFlag": false,
        "moduleProcessDefinitionInChangeNotice": {
          "identifier": "",
          "stringifiedObjectReference": ""
        },
        "stage": {
          "identifier": "NA",
          "stringifiedObjectReference": "SPIORLL:N:C2/#BRStage#F2#NA"
        },
        "operationNumber": "1200.4000",
        "processDefinition": {
          "identifier": "EG-ECMAUTO-ROUTEEDIT-NEW-QTLT15_MHSFEOL2HK-14LPE.01",
          "stringifiedObjectReference": "SPIORLL:N:C2/#BRProcessDefinition#F2#EG-ECMAUTO-ROUTEEDIT-NEW-QTLT15_MHSFEOL2HK-14LPE.01"
        },
        "pdiDefinitionFlag": false,
        "pdiDefinitionResetFlag": false,
        "mainDINotChangeFlag": false,
        "mainDIScriptNotChangeFlag": false,
        "photoLayer": {
          "identifier": "",
          "stringifiedObjectReference": ""
        },
        "carrierCategory": {
          "identifier": "",
          "stringifiedObjectReference": ""
        },
        "processOperationNumber": "",
        "correspondingOperations": [

        ],
        "responsibleOperationNumbers": [

        ],
        "recycleSamplingOperationNumber": "",
        "mandatoryOperationRequiredFlag": false,
        "autoBankInRequiredFlag": false,
        "endOfMonitorRelationFlag": false,
        "monitorGroupReleaseFlag": false,
        "flowBatchControl": {
          "sectionControlCategory": "",
          "name": "",
          "targetOperationFlag": false,
          "flowBatchingOffsetTime": 0.0,
          "maxBatchSize": 0,
          "minBatchSize": 0,
          "minWaferCount": 0
        },
        "pilotWaferProcessControl": {
          "name": "",
          "maxPilotProcessCount": 0
        },
        "defaultMeasDCSpec": {
          "identifier": "",
          "stringifiedObjectReference": ""
        },
        "measDCSpecsByTechnology": [

        ],
        "measDCSpecsByProductGroup": [

        ],
        "measDCSpecs": [

        ],
        "defaultTestSpec": {
          "identifier": "",
          "stringifiedObjectReference": ""
        },
        "testSpecsByTechnology": [

        ],
        "testSpecsByProductGroup": [

        ],
        "testSpecs": [

        ],
        "deltaDCDefinitions": [

        ],
        "defaultDeltaDCSpecs": [

        ],
        "deltaDCSpecsByTechnology": [

        ],
        "deltaDCSpecsByProductGroup": [

        ],
        "deltaDCSpecs": [

        ],
        "subProcessDefinitions": [

        ],
        "reworkProcessDefinitions": [

        ],
        "defaultReworkLimit": -1,
        "reworkLimitsByTechnology": [

        ],
        "reworkLimitsByProductGroup": [

        ],
        "reworkLimits": [

        ],
        "defaultProcessLimit": -1,
        "processLimitsByTechnology": [

        ],
        "processLimitsByProductGroup": [

        ],
        "processLimits": [

        ],
        "postScript": {
          "identifier": "",
          "stringifiedObjectReference": ""
        },
        "pre1Script": {
          "identifier": "",
          "stringifiedObjectReference": ""
        },
        "pre2Script": {
          "identifier": "",
          "stringifiedObjectReference": ""
        },
        "postScripts": [

        ],
        "pre1Scripts": [

        ],
        "pre2Scripts": [

        ],
        "defaultTimeRestrictions": [

        ],
        "timeRestrictionsByTechnology": [

        ],
        "timeRestrictionsByProductGroup": [

        ],
        "timeRestrictions": [

        ],
        "defaultReplaceTimeRestrictionsForSubRoute": [

        ],
        "replaceTimeRestrictionsByTechnologyForSubRoute": [

        ],
        "replaceTimeRestrictionsByProductGroupForSubRoute": [

        ],
        "replaceTimeRestrictionsForSubRoute": [

        ],
        "defaultReplaceTimeRestrictionsForReworkRoute": [

        ],
        "replaceTimeRestrictionsByTechnologyForReworkRoute": [

        ],
        "replaceTimeRestrictionsByProductGroupForReworkRoute": [

        ],
        "replaceTimeRestrictionsForReworkRoute": [

        ],
        "defaultProcessLagTime": 0,
        "processLagTimesByTechnology": [

        ],
        "processLagTimesByProductGroup": [

        ],
        "processLagTimes": [

        ],
        "equipmentMonitorSections": [

        ],
        "userDataSets": [

        ]
      }
    ],
    "expandFlag": {
      "_notNeedToExpand": 0,
      "notNeedToExpand": 0,
      "_needToExpand": 0,
      "needToExpand": 0,
      "_expanded": 0,
      "expanded": 0,
      "_needToLateExpand": 0,
      "needToLateExpand": 0
    },
    "dynamicRouteFlag": false,
    "mainDIGroup": {
      "identifier": "",
      "stringifiedObjectReference": ""
    },
    "userDataSets": [
      {
        "name": "RouteType",
        "type": "String",
        "value": "FF",
        "originator": ""
      },
      {
        "name": "RouteState",
        "type": "String",
        "value": "PROD",
        "originator": ""
      },
      {
        "name": "RouteTechnology",
        "type": "String",
        "value": "14LPE",
        "originator": ""
      },
      {
        "name": "RouteProgramID",
        "type": "String",
        "value": "14LPE",
        "originator": ""
      }
    ],
    "siClassInfo": null
  }
}