{
  "objectId": {
    "identifier": "SL-EAGLEECMAUTO-REWORKCOUNT-PROD_ROUTE3.01",
    "stringifiedObjectReference": "SPIORLL:N:C2/#BRMainProcessDefinition#F2#SL-EAGLEECMAUTO-REWORKCOUNT-PROD_ROUTE3.01"
  },
  "propertyInfo": {
    "changeNotice": {
      "identifier": "",
      "stringifiedObjectReference": ""
    },
    "createdDateTime": "2016-11-22-06.26.04.656939",
    "createdUser": {
      "identifier": "aboggava",
      "stringifiedObjectReference": ""
    },
    "lastUpdatedDateTime": "2017-11-17-00.56.47.364502",
    "lastUpdatedUser": {
      "identifier": "lpamu",
      "stringifiedObjectReference": ""
    },
    "lastCheckOutDateTime": "2017-11-17-01.03.43.738075",
    "lastCheckOutUser": {
      "identifier": "lpamu",
      "stringifiedObjectReference": ""
    },
    "lastCheckInDateTime": "2017-11-17-01.03.44.155376",
    "lastCheckInUser": {
      "identifier": "lpamu",
      "stringifiedObjectReference": ""
    },
    "lastReleasedDateTime": "2017-11-17-01.03.44.155376",
    "lastReleasedUser": {
      "identifier": "lpamu",
      "stringifiedObjectReference": ""
    },
    "lastRollBackDateTime": "2017-06-01-04.24.32.871738",
    "lastRollBackUser": {
      "identifier": "X-ECM",
      "stringifiedObjectReference": ""
    },
    "lastArchivedDateTime": "",
    "lastArchivedUser": {
      "identifier": "",
      "stringifiedObjectReference": ""
    },
    "lastRestoredDateTime": "",
    "lastRestoredUser": {
      "identifier": "",
      "stringifiedObjectReference": ""
    },
    "lastActionUser": {
      "identifier": "lpamu",
      "stringifiedObjectReference": ""
    },
    "lastActionDateTime": "2017-11-17-01.03.44.155376",
    "lastActionEventCode": "EVRLSOBJ",
    "lastComment": "",
    "currentInWorkState": "NotInWork",
    "currentSetUpState": "Released",
    "permission": "Public",
    "permissionRead": "Public",
    "permissionReleaseDelete": "Public",
    "userGroup": {
      "identifier": "",
      "stringifiedObjectReference": ""
    },
    "userGroupRead": {
      "identifier": "",
      "stringifiedObjectReference": ""
    },
    "userGroupReleaseDelete": {
      "identifier": "",
      "stringifiedObjectReference": ""
    },
    "owner": {
      "identifier": "aboggava",
      "stringifiedObjectReference": "SPIORLL:N:C2/#BRUser#F2#aboggava"
    },
    "batchReleaseFlag": false
  },
  "documentEntityInfo": {
    "documentSpecification": "SL-EAGLEECMAUTO-REWORKCOUNT-PROD_ROUTE3",
    "activeFlag": false,
    "reserveFlag": false,
    "obsoleteFlag": false,
    "lastActivatedUser": {
      "identifier": "",
      "stringifiedObjectReference": ""
    },
    "lastActivatedDateTime": "",
    "lastInactivatedUser": {
      "identifier": "",
      "stringifiedObjectReference": ""
    },
    "lastInactivatedDateTime": "",
    "lastReservedUser": {
      "identifier": "",
      "stringifiedObjectReference": ""
    },
    "lastReservedDateTime": "",
    "lastCanceledReserveChangeActiveUser": {
      "identifier": "",
      "stringifiedObjectReference": ""
    },
    "lastCanceledReserveChangeActiveDateTime": "",
    "lastObsoleteUser": {
      "identifier": "",
      "stringifiedObjectReference": ""
    },
    "lastObsoleteDateTime": "",
    "lastCancelObsoleteUser": {
      "identifier": "",
      "stringifiedObjectReference": ""
    },
    "lastCancelObsoleteDateTime": ""
  },
  "classInfo": {
    "identifier": "SL-EAGLEECMAUTO-REWORKCOUNT-PROD_ROUTE3.01",
    "mainProcessDefinitionId": "SL-EAGLEECMAUTO-REWORKCOUNT-PROD_ROUTE3",
    "version": "01",
    "description": "For Automation",
    "mainProcessDefinitionType": "Production",
    "processFlowType": "Main",
    "monitorRouteFlag": false,
    "mfgLayer": {
      "identifier": "PROD",
      "stringifiedObjectReference": "SPIORLL:N:C2/#BRMFGLayer#F2#PROD"
    },
    "startBank": {
      "identifier": "O-ZEROINV",
      "stringifiedObjectReference": "SPIORLL:N:C2/#BRBank#F2#O-ZEROINV"
    },
    "endBank": {
      "identifier": "O-ENDFG",
      "stringifiedObjectReference": "SPIORLL:N:C2/#BRBank#F2#O-ENDFG"
    },
    "mainProcessDefinitionOwner": {
      "identifier": "aboggava",
      "stringifiedObjectReference": "SPIORLL:N:C2/#BRUser#F2#aboggava"
    },
    "moduleProcessDefinitions": [
      {
        "moduleNumber": "101",
        "moduleProcessDefinitionId": "D14ECMAUTO-REWORKCOUNT-PROD_ROUTE1_MOD-PD5_LPEEGHK-B",
        "version": "01",
        "moduleProcessDefinition": {
          "identifier": "D14ECMAUTO-REWORKCOUNT-PROD_ROUTE1_MOD-PD5_LPEEGHK-B.01",
          "stringifiedObjectReference": "SPIORLL:N:C2/#BRModuleProcessDefinition#F2#D14ECMAUTO-REWORKCOUNT-PROD_ROUTE1_MOD-PD5_LPEEGHK-B.01"
        },
        "sameTimeReleaseInChangeNoticeFlag": false,
        "moduleProcessDefinitionInChangeNotice": {
          "identifier": "",
          "stringifiedObjectReference": ""
        },
        "stage": {
          "identifier": "NA",
          "stringifiedObjectReference": "SPIORLL:N:C2/#BRStage#F2#NA"
        }
      },
      {
        "moduleNumber": "102",
        "moduleProcessDefinitionId": "D14ECMAUTO-REWORKCOUNT-PROD_ROUTE1_MOD-PD6_LPEEGHK-B",
        "version": "01",
        "moduleProcessDefinition": {
          "identifier": "D14ECMAUTO-REWORKCOUNT-PROD_ROUTE1_MOD-PD6_LPEEGHK-B.01",
          "stringifiedObjectReference": "SPIORLL:N:C2/#BRModuleProcessDefinition#F2#D14ECMAUTO-REWORKCOUNT-PROD_ROUTE1_MOD-PD6_LPEEGHK-B.01"
        },
        "sameTimeReleaseInChangeNoticeFlag": false,
        "moduleProcessDefinitionInChangeNotice": {
          "identifier": "",
          "stringifiedObjectReference": ""
        },
        "stage": {
          "identifier": "NA",
          "stringifiedObjectReference": "SPIORLL:N:C2/#BRStage#F2#NA"
        }
      }
    ],
    "mainProcessOperations": [
      {
        "moduleNumber": "101",
        "moduleProcessDefinition": {
          "identifier": "D14ECMAUTO-REWORKCOUNT-PROD_ROUTE1_MOD-PD5_LPEEGHK-B.01",
          "stringifiedObjectReference": "SPIORLL:N:C2/#BRModuleProcessDefinition#F2#D14ECMAUTO-REWORKCOUNT-PROD_ROUTE1_MOD-PD5_LPEEGHK-B.01"
        },
        "sameTimeReleaseInChangeNoticeFlag": false,
        "moduleProcessDefinitionInChangeNotice": {
          "identifier": "",
          "stringifiedObjectReference": ""
        },
        "stage": {
          "identifier": "NA",
          "stringifiedObjectReference": "SPIORLL:N:C2/#BRStage#F2#NA"
        },
        "operationNumber": "101.100",
        "processDefinition": {
          "identifier": "EG-ECMAUTO-ROUTEEDIT-REWORK-COUNT-PD9-14LPE.01",
          "stringifiedObjectReference": "SPIORLL:N:C2/#BRProcessDefinition#F2#EG-ECMAUTO-ROUTEEDIT-REWORK-COUNT-PD9-14LPE.01"
        },
        "pdiDefinitionFlag": false,
        "pdiDefinitionResetFlag": false,
        "mainDINotChangeFlag": false,
        "mainDIScriptNotChangeFlag": false,
        "photoLayer": {
          "identifier": "3GAUTO",
          "stringifiedObjectReference": "SPIORLL:N:C2/#BRPhotoLayer#F2#3GAUTO"
        },
        "carrierCategory": {
          "identifier": "FEOL",
          "stringifiedObjectReference": "SPIORLL:N:C2/#BRCarrierCategory#F2#FEOL"
        },
        "processOperationNumber": "",
        "correspondingOperations": [

        ],
        "responsibleOperationNumbers": [

        ],
        "recycleSamplingOperationNumber": "",
        "mandatoryOperationRequiredFlag": false,
        "autoBankInRequiredFlag": false,
        "endOfMonitorRelationFlag": false,
        "monitorGroupReleaseFlag": false,
        "flowBatchControl": {
          "sectionControlCategory": "",
          "name": "",
          "targetOperationFlag": false,
          "flowBatchingOffsetTime": 0.0,
          "maxBatchSize": 0,
          "minBatchSize": 0,
          "minWaferCount": 0
        },
        "pilotWaferProcessControl": {
          "name": "",
          "maxPilotProcessCount": 0
        },
        "defaultMeasDCSpec": {
          "identifier": "",
          "stringifiedObjectReference": ""
        },
        "measDCSpecsByTechnology": [

        ],
        "measDCSpecsByProductGroup": [

        ],
        "measDCSpecs": [

        ],
        "defaultTestSpec": {
          "identifier": "",
          "stringifiedObjectReference": ""
        },
        "testSpecsByTechnology": [

        ],
        "testSpecsByProductGroup": [

        ],
        "testSpecs": [

        ],
        "deltaDCDefinitions": [

        ],
        "defaultDeltaDCSpecs": [

        ],
        "deltaDCSpecsByTechnology": [

        ],
        "deltaDCSpecsByProductGroup": [

        ],
        "deltaDCSpecs": [

        ],
        "subProcessDefinitions": [

        ],
        "reworkProcessDefinitions": [

        ],
        "defaultReworkLimit": -1,
        "reworkLimitsByTechnology": [

        ],
        "reworkLimitsByProductGroup": [

        ],
        "reworkLimits": [

        ],
        "defaultProcessLimit": -1,
        "processLimitsByTechnology": [

        ],
        "processLimitsByProductGroup": [

        ],
        "processLimits": [

        ],
        "postScript": {
          "identifier": "",
          "stringifiedObjectReference": ""
        },
        "pre1Script": {
          "identifier": "PCL-PRE1",
          "stringifiedObjectReference": "SPIORLL:N:C2/#BRScript#F2#PCL-PRE1"
        },
        "pre2Script": {
          "identifier": "",
          "stringifiedObjectReference": ""
        },
        "postScripts": [

        ],
        "pre1Scripts": [
          {
            "identifier": "PCL-PRE1",
            "stringifiedObjectReference": "SPIORLL:N:C2/#BRScript#F2#PCL-PRE1"
          }
        ],
        "pre2Scripts": [

        ],
        "defaultTimeRestrictions": [

        ],
        "timeRestrictionsByTechnology": [

        ],
        "timeRestrictionsByProductGroup": [

        ],
        "timeRestrictions": [

        ],
        "defaultReplaceTimeRestrictionsForSubRoute": [

        ],
        "replaceTimeRestrictionsByTechnologyForSubRoute": [

        ],
        "replaceTimeRestrictionsByProductGroupForSubRoute": [

        ],
        "replaceTimeRestrictionsForSubRoute": [

        ],
        "defaultReplaceTimeRestrictionsForReworkRoute": [

        ],
        "replaceTimeRestrictionsByTechnologyForReworkRoute": [

        ],
        "replaceTimeRestrictionsByProductGroupForReworkRoute": [

        ],
        "replaceTimeRestrictionsForReworkRoute": [

        ],
        "defaultProcessLagTime": 0,
        "processLagTimesByTechnology": [

        ],
        "processLagTimesByProductGroup": [

        ],
        "processLagTimes": [

        ],
        "equipmentMonitorSections": [

        ],
        "userDataSets": [

        ]
      },
      {
        "moduleNumber": "101",
        "moduleProcessDefinition": {
          "identifier": "D14ECMAUTO-REWORKCOUNT-PROD_ROUTE1_MOD-PD5_LPEEGHK-B.01",
          "stringifiedObjectReference": "SPIORLL:N:C2/#BRModuleProcessDefinition#F2#D14ECMAUTO-REWORKCOUNT-PROD_ROUTE1_MOD-PD5_LPEEGHK-B.01"
        },
        "sameTimeReleaseInChangeNoticeFlag": false,
        "moduleProcessDefinitionInChangeNotice": {
          "identifier": "",
          "stringifiedObjectReference": ""
        },
        "stage": {
          "identifier": "NA",
          "stringifiedObjectReference": "SPIORLL:N:C2/#BRStage#F2#NA"
        },
        "operationNumber": "101.101",
        "processDefinition": {
          "identifier": "EG-ECMAUTO-ROUTEEDIT-REWORK-COUNT-PD10-14LPE.01",
          "stringifiedObjectReference": "SPIORLL:N:C2/#BRProcessDefinition#F2#EG-ECMAUTO-ROUTEEDIT-REWORK-COUNT-PD10-14LPE.01"
        },
        "pdiDefinitionFlag": false,
        "pdiDefinitionResetFlag": false,
        "mainDINotChangeFlag": false,
        "mainDIScriptNotChangeFlag": false,
        "photoLayer": {
          "identifier": "3GAUTO",
          "stringifiedObjectReference": "SPIORLL:N:C2/#BRPhotoLayer#F2#3GAUTO"
        },
        "carrierCategory": {
          "identifier": "",
          "stringifiedObjectReference": ""
        },
        "processOperationNumber": "",
        "correspondingOperations": [

        ],
        "responsibleOperationNumbers": [

        ],
        "recycleSamplingOperationNumber": "",
        "mandatoryOperationRequiredFlag": false,
        "autoBankInRequiredFlag": false,
        "endOfMonitorRelationFlag": false,
        "monitorGroupReleaseFlag": false,
        "flowBatchControl": {
          "sectionControlCategory": "",
          "name": "",
          "targetOperationFlag": false,
          "flowBatchingOffsetTime": 0.0,
          "maxBatchSize": 0,
          "minBatchSize": 0,
          "minWaferCount": 0
        },
        "pilotWaferProcessControl": {
          "name": "",
          "maxPilotProcessCount": 0
        },
        "defaultMeasDCSpec": {
          "identifier": "",
          "stringifiedObjectReference": ""
        },
        "measDCSpecsByTechnology": [

        ],
        "measDCSpecsByProductGroup": [

        ],
        "measDCSpecs": [

        ],
        "defaultTestSpec": {
          "identifier": "",
          "stringifiedObjectReference": ""
        },
        "testSpecsByTechnology": [

        ],
        "testSpecsByProductGroup": [

        ],
        "testSpecs": [

        ],
        "deltaDCDefinitions": [

        ],
        "defaultDeltaDCSpecs": [

        ],
        "deltaDCSpecsByTechnology": [

        ],
        "deltaDCSpecsByProductGroup": [

        ],
        "deltaDCSpecs": [

        ],
        "subProcessDefinitions": [

        ],
        "reworkProcessDefinitions": [
          {
            "mainProcessDefinition": {
              "identifier": "SL-EAGLEECMAUTO-REWORK-RWK_ROUTE1.01",
              "stringifiedObjectReference": "SPIORLL:N:C2/#BRMainProcessDefinition#F2#SL-EAGLEECMAUTO-REWORK-RWK_ROUTE1.01"
            },
            "joiningOperationNumber": "101.103"
          }
        ],
        "defaultReworkLimit": 2,
        "reworkLimitsByTechnology": [

        ],
        "reworkLimitsByProductGroup": [

        ],
        "reworkLimits": [
          {
            "product": {
              "identifier": "EAGLEECMAUTO-RWKCOUNT3-PRODUCT.01",
              "stringifiedObjectReference": "SPIORLL:N:C2/#BRProduct#F2#EAGLEECMAUTO-RWKCOUNT3-PRODUCT.01"
            },
            "limit": 8
          }
        ],
        "defaultProcessLimit": -1,
        "processLimitsByTechnology": [

        ],
        "processLimitsByProductGroup": [

        ],
        "processLimits": [

        ],
        "postScript": {
          "identifier": "",
          "stringifiedObjectReference": ""
        },
        "pre1Script": {
          "identifier": "PCL-PRE1",
          "stringifiedObjectReference": "SPIORLL:N:C2/#BRScript#F2#PCL-PRE1"
        },
        "pre2Script": {
          "identifier": "",
          "stringifiedObjectReference": ""
        },
        "postScripts": [

        ],
        "pre1Scripts": [
          {
            "identifier": "PCL-PRE1",
            "stringifiedObjectReference": "SPIORLL:N:C2/#BRScript#F2#PCL-PRE1"
          }
        ],
        "pre2Scripts": [

        ],
        "defaultTimeRestrictions": [

        ],
        "timeRestrictionsByTechnology": [

        ],
        "timeRestrictionsByProductGroup": [

        ],
        "timeRestrictions": [

        ],
        "defaultReplaceTimeRestrictionsForSubRoute": [

        ],
        "replaceTimeRestrictionsByTechnologyForSubRoute": [

        ],
        "replaceTimeRestrictionsByProductGroupForSubRoute": [

        ],
        "replaceTimeRestrictionsForSubRoute": [

        ],
        "defaultReplaceTimeRestrictionsForReworkRoute": [

        ],
        "replaceTimeRestrictionsByTechnologyForReworkRoute": [

        ],
        "replaceTimeRestrictionsByProductGroupForReworkRoute": [

        ],
        "replaceTimeRestrictionsForReworkRoute": [

        ],
        "defaultProcessLagTime": 0,
        "processLagTimesByTechnology": [

        ],
        "processLagTimesByProductGroup": [

        ],
        "processLagTimes": [

        ],
        "equipmentMonitorSections": [

        ],
        "userDataSets": [

        ]
      },
      {
        "moduleNumber": "101",
        "moduleProcessDefinition": {
          "identifier": "D14ECMAUTO-REWORKCOUNT-PROD_ROUTE1_MOD-PD5_LPEEGHK-B.01",
          "stringifiedObjectReference": "SPIORLL:N:C2/#BRModuleProcessDefinition#F2#D14ECMAUTO-REWORKCOUNT-PROD_ROUTE1_MOD-PD5_LPEEGHK-B.01"
        },
        "sameTimeReleaseInChangeNoticeFlag": false,
        "moduleProcessDefinitionInChangeNotice": {
          "identifier": "",
          "stringifiedObjectReference": ""
        },
        "stage": {
          "identifier": "NA",
          "stringifiedObjectReference": "SPIORLL:N:C2/#BRStage#F2#NA"
        },
        "operationNumber": "101.102",
        "processDefinition": {
          "identifier": "EG-ECMAUTO-ROUTEEDIT-REWORK-COUNT-PD11-14LPE.01",
          "stringifiedObjectReference": "SPIORLL:N:C2/#BRProcessDefinition#F2#EG-ECMAUTO-ROUTEEDIT-REWORK-COUNT-PD11-14LPE.01"
        },
        "pdiDefinitionFlag": false,
        "pdiDefinitionResetFlag": false,
        "mainDINotChangeFlag": false,
        "mainDIScriptNotChangeFlag": false,
        "photoLayer": {
          "identifier": "3GAUTO",
          "stringifiedObjectReference": "SPIORLL:N:C2/#BRPhotoLayer#F2#3GAUTO"
        },
        "carrierCategory": {
          "identifier": "",
          "stringifiedObjectReference": ""
        },
        "processOperationNumber": "",
        "correspondingOperations": [

        ],
        "responsibleOperationNumbers": [

        ],
        "recycleSamplingOperationNumber": "",
        "mandatoryOperationRequiredFlag": false,
        "autoBankInRequiredFlag": false,
        "endOfMonitorRelationFlag": false,
        "monitorGroupReleaseFlag": false,
        "flowBatchControl": {
          "sectionControlCategory": "",
          "name": "",
          "targetOperationFlag": false,
          "flowBatchingOffsetTime": 0.0,
          "maxBatchSize": 0,
          "minBatchSize": 0,
          "minWaferCount": 0
        },
        "pilotWaferProcessControl": {
          "name": "",
          "maxPilotProcessCount": 0
        },
        "defaultMeasDCSpec": {
          "identifier": "",
          "stringifiedObjectReference": ""
        },
        "measDCSpecsByTechnology": [

        ],
        "measDCSpecsByProductGroup": [

        ],
        "measDCSpecs": [

        ],
        "defaultTestSpec": {
          "identifier": "",
          "stringifiedObjectReference": ""
        },
        "testSpecsByTechnology": [

        ],
        "testSpecsByProductGroup": [

        ],
        "testSpecs": [

        ],
        "deltaDCDefinitions": [

        ],
        "defaultDeltaDCSpecs": [

        ],
        "deltaDCSpecsByTechnology": [

        ],
        "deltaDCSpecsByProductGroup": [

        ],
        "deltaDCSpecs": [

        ],
        "subProcessDefinitions": [

        ],
        "reworkProcessDefinitions": [

        ],
        "defaultReworkLimit": -1,
        "reworkLimitsByTechnology": [

        ],
        "reworkLimitsByProductGroup": [

        ],
        "reworkLimits": [

        ],
        "defaultProcessLimit": -1,
        "processLimitsByTechnology": [

        ],
        "processLimitsByProductGroup": [

        ],
        "processLimits": [

        ],
        "postScript": {
          "identifier": "",
          "stringifiedObjectReference": ""
        },
        "pre1Script": {
          "identifier": "PCL-PRE1",
          "stringifiedObjectReference": "SPIORLL:N:C2/#BRScript#F2#PCL-PRE1"
        },
        "pre2Script": {
          "identifier": "",
          "stringifiedObjectReference": ""
        },
        "postScripts": [

        ],
        "pre1Scripts": [
          {
            "identifier": "PCL-PRE1",
            "stringifiedObjectReference": "SPIORLL:N:C2/#BRScript#F2#PCL-PRE1"
          }
        ],
        "pre2Scripts": [

        ],
        "defaultTimeRestrictions": [

        ],
        "timeRestrictionsByTechnology": [

        ],
        "timeRestrictionsByProductGroup": [

        ],
        "timeRestrictions": [

        ],
        "defaultReplaceTimeRestrictionsForSubRoute": [

        ],
        "replaceTimeRestrictionsByTechnologyForSubRoute": [

        ],
        "replaceTimeRestrictionsByProductGroupForSubRoute": [

        ],
        "replaceTimeRestrictionsForSubRoute": [

        ],
        "defaultReplaceTimeRestrictionsForReworkRoute": [

        ],
        "replaceTimeRestrictionsByTechnologyForReworkRoute": [

        ],
        "replaceTimeRestrictionsByProductGroupForReworkRoute": [

        ],
        "replaceTimeRestrictionsForReworkRoute": [

        ],
        "defaultProcessLagTime": 0,
        "processLagTimesByTechnology": [

        ],
        "processLagTimesByProductGroup": [

        ],
        "processLagTimes": [

        ],
        "equipmentMonitorSections": [

        ],
        "userDataSets": [

        ]
      },
      {
        "moduleNumber": "101",
        "moduleProcessDefinition": {
          "identifier": "D14ECMAUTO-REWORKCOUNT-PROD_ROUTE1_MOD-PD5_LPEEGHK-B.01",
          "stringifiedObjectReference": "SPIORLL:N:C2/#BRModuleProcessDefinition#F2#D14ECMAUTO-REWORKCOUNT-PROD_ROUTE1_MOD-PD5_LPEEGHK-B.01"
        },
        "sameTimeReleaseInChangeNoticeFlag": false,
        "moduleProcessDefinitionInChangeNotice": {
          "identifier": "",
          "stringifiedObjectReference": ""
        },
        "stage": {
          "identifier": "NA",
          "stringifiedObjectReference": "SPIORLL:N:C2/#BRStage#F2#NA"
        },
        "operationNumber": "101.103",
        "processDefinition": {
          "identifier": "EG-ECMAUTO-ROUTEEDIT-REWORK-COUNT-PD12-14LPE.01",
          "stringifiedObjectReference": "SPIORLL:N:C2/#BRProcessDefinition#F2#EG-ECMAUTO-ROUTEEDIT-REWORK-COUNT-PD12-14LPE.01"
        },
        "pdiDefinitionFlag": false,
        "pdiDefinitionResetFlag": false,
        "mainDINotChangeFlag": false,
        "mainDIScriptNotChangeFlag": false,
        "photoLayer": {
          "identifier": "3GAUTO",
          "stringifiedObjectReference": "SPIORLL:N:C2/#BRPhotoLayer#F2#3GAUTO"
        },
        "carrierCategory": {
          "identifier": "",
          "stringifiedObjectReference": ""
        },
        "processOperationNumber": "",
        "correspondingOperations": [

        ],
        "responsibleOperationNumbers": [

        ],
        "recycleSamplingOperationNumber": "",
        "mandatoryOperationRequiredFlag": false,
        "autoBankInRequiredFlag": false,
        "endOfMonitorRelationFlag": false,
        "monitorGroupReleaseFlag": false,
        "flowBatchControl": {
          "sectionControlCategory": "",
          "name": "",
          "targetOperationFlag": false,
          "flowBatchingOffsetTime": 0.0,
          "maxBatchSize": 0,
          "minBatchSize": 0,
          "minWaferCount": 0
        },
        "pilotWaferProcessControl": {
          "name": "",
          "maxPilotProcessCount": 0
        },
        "defaultMeasDCSpec": {
          "identifier": "",
          "stringifiedObjectReference": ""
        },
        "measDCSpecsByTechnology": [

        ],
        "measDCSpecsByProductGroup": [

        ],
        "measDCSpecs": [

        ],
        "defaultTestSpec": {
          "identifier": "",
          "stringifiedObjectReference": ""
        },
        "testSpecsByTechnology": [

        ],
        "testSpecsByProductGroup": [

        ],
        "testSpecs": [

        ],
        "deltaDCDefinitions": [

        ],
        "defaultDeltaDCSpecs": [

        ],
        "deltaDCSpecsByTechnology": [

        ],
        "deltaDCSpecsByProductGroup": [

        ],
        "deltaDCSpecs": [

        ],
        "subProcessDefinitions": [

        ],
        "reworkProcessDefinitions": [

        ],
        "defaultReworkLimit": -1,
        "reworkLimitsByTechnology": [

        ],
        "reworkLimitsByProductGroup": [

        ],
        "reworkLimits": [

        ],
        "defaultProcessLimit": -1,
        "processLimitsByTechnology": [

        ],
        "processLimitsByProductGroup": [

        ],
        "processLimits": [

        ],
        "postScript": {
          "identifier": "",
          "stringifiedObjectReference": ""
        },
        "pre1Script": {
          "identifier": "PCL-PRE1",
          "stringifiedObjectReference": "SPIORLL:N:C2/#BRScript#F2#PCL-PRE1"
        },
        "pre2Script": {
          "identifier": "",
          "stringifiedObjectReference": ""
        },
        "postScripts": [

        ],
        "pre1Scripts": [
          {
            "identifier": "PCL-PRE1",
            "stringifiedObjectReference": "SPIORLL:N:C2/#BRScript#F2#PCL-PRE1"
          }
        ],
        "pre2Scripts": [

        ],
        "defaultTimeRestrictions": [

        ],
        "timeRestrictionsByTechnology": [

        ],
        "timeRestrictionsByProductGroup": [

        ],
        "timeRestrictions": [

        ],
        "defaultReplaceTimeRestrictionsForSubRoute": [

        ],
        "replaceTimeRestrictionsByTechnologyForSubRoute": [

        ],
        "replaceTimeRestrictionsByProductGroupForSubRoute": [

        ],
        "replaceTimeRestrictionsForSubRoute": [

        ],
        "defaultReplaceTimeRestrictionsForReworkRoute": [

        ],
        "replaceTimeRestrictionsByTechnologyForReworkRoute": [

        ],
        "replaceTimeRestrictionsByProductGroupForReworkRoute": [

        ],
        "replaceTimeRestrictionsForReworkRoute": [

        ],
        "defaultProcessLagTime": 0,
        "processLagTimesByTechnology": [

        ],
        "processLagTimesByProductGroup": [

        ],
        "processLagTimes": [

        ],
        "equipmentMonitorSections": [

        ],
        "userDataSets": [

        ]
      },
      {
        "moduleNumber": "101",
        "moduleProcessDefinition": {
          "identifier": "D14ECMAUTO-REWORKCOUNT-PROD_ROUTE1_MOD-PD5_LPEEGHK-B.01",
          "stringifiedObjectReference": "SPIORLL:N:C2/#BRModuleProcessDefinition#F2#D14ECMAUTO-REWORKCOUNT-PROD_ROUTE1_MOD-PD5_LPEEGHK-B.01"
        },
        "sameTimeReleaseInChangeNoticeFlag": false,
        "moduleProcessDefinitionInChangeNotice": {
          "identifier": "",
          "stringifiedObjectReference": ""
        },
        "stage": {
          "identifier": "NA",
          "stringifiedObjectReference": "SPIORLL:N:C2/#BRStage#F2#NA"
        },
        "operationNumber": "101.104",
        "processDefinition": {
          "identifier": "EG-ECMAUTO-ROUTEEDIT-REWORK-COUNT-PD13-14LPE.01",
          "stringifiedObjectReference": "SPIORLL:N:C2/#BRProcessDefinition#F2#EG-ECMAUTO-ROUTEEDIT-REWORK-COUNT-PD13-14LPE.01"
        },
        "pdiDefinitionFlag": false,
        "pdiDefinitionResetFlag": false,
        "mainDINotChangeFlag": false,
        "mainDIScriptNotChangeFlag": false,
        "photoLayer": {
          "identifier": "3GAUTO",
          "stringifiedObjectReference": "SPIORLL:N:C2/#BRPhotoLayer#F2#3GAUTO"
        },
        "carrierCategory": {
          "identifier": "",
          "stringifiedObjectReference": ""
        },
        "processOperationNumber": "",
        "correspondingOperations": [

        ],
        "responsibleOperationNumbers": [

        ],
        "recycleSamplingOperationNumber": "",
        "mandatoryOperationRequiredFlag": false,
        "autoBankInRequiredFlag": false,
        "endOfMonitorRelationFlag": false,
        "monitorGroupReleaseFlag": false,
        "flowBatchControl": {
          "sectionControlCategory": "",
          "name": "",
          "targetOperationFlag": false,
          "flowBatchingOffsetTime": 0.0,
          "maxBatchSize": 0,
          "minBatchSize": 0,
          "minWaferCount": 0
        },
        "pilotWaferProcessControl": {
          "name": "",
          "maxPilotProcessCount": 0
        },
        "defaultMeasDCSpec": {
          "identifier": "",
          "stringifiedObjectReference": ""
        },
        "measDCSpecsByTechnology": [

        ],
        "measDCSpecsByProductGroup": [

        ],
        "measDCSpecs": [

        ],
        "defaultTestSpec": {
          "identifier": "",
          "stringifiedObjectReference": ""
        },
        "testSpecsByTechnology": [

        ],
        "testSpecsByProductGroup": [

        ],
        "testSpecs": [

        ],
        "deltaDCDefinitions": [

        ],
        "defaultDeltaDCSpecs": [

        ],
        "deltaDCSpecsByTechnology": [

        ],
        "deltaDCSpecsByProductGroup": [

        ],
        "deltaDCSpecs": [

        ],
        "subProcessDefinitions": [

        ],
        "reworkProcessDefinitions": [
          {
            "mainProcessDefinition": {
              "identifier": "SL-EAGLEECMAUTO-REWORK-RWK_ROUTE2.01",
              "stringifiedObjectReference": "SPIORLL:N:C2/#BRMainProcessDefinition#F2#SL-EAGLEECMAUTO-REWORK-RWK_ROUTE2.01"
            },
            "joiningOperationNumber": "101.106"
          }
        ],
        "defaultReworkLimit": -1,
        "reworkLimitsByTechnology": [
          {
            "technology": {
              "identifier": "ECM_RWKCOUNT",
              "stringifiedObjectReference": "SPIORLL:N:C2/#BRTechnology#F2#ECM_RWKCOUNT"
            },
            "limit": 7
          }
        ],
        "reworkLimitsByProductGroup": [

        ],
        "reworkLimits": [

        ],
        "defaultProcessLimit": -1,
        "processLimitsByTechnology": [

        ],
        "processLimitsByProductGroup": [

        ],
        "processLimits": [

        ],
        "postScript": {
          "identifier": "",
          "stringifiedObjectReference": ""
        },
        "pre1Script": {
          "identifier": "PCL-PRE1",
          "stringifiedObjectReference": "SPIORLL:N:C2/#BRScript#F2#PCL-PRE1"
        },
        "pre2Script": {
          "identifier": "",
          "stringifiedObjectReference": ""
        },
        "postScripts": [

        ],
        "pre1Scripts": [
          {
            "identifier": "PCL-PRE1",
            "stringifiedObjectReference": "SPIORLL:N:C2/#BRScript#F2#PCL-PRE1"
          }
        ],
        "pre2Scripts": [

        ],
        "defaultTimeRestrictions": [

        ],
        "timeRestrictionsByTechnology": [

        ],
        "timeRestrictionsByProductGroup": [

        ],
        "timeRestrictions": [

        ],
        "defaultReplaceTimeRestrictionsForSubRoute": [

        ],
        "replaceTimeRestrictionsByTechnologyForSubRoute": [

        ],
        "replaceTimeRestrictionsByProductGroupForSubRoute": [

        ],
        "replaceTimeRestrictionsForSubRoute": [

        ],
        "defaultReplaceTimeRestrictionsForReworkRoute": [

        ],
        "replaceTimeRestrictionsByTechnologyForReworkRoute": [

        ],
        "replaceTimeRestrictionsByProductGroupForReworkRoute": [

        ],
        "replaceTimeRestrictionsForReworkRoute": [

        ],
        "defaultProcessLagTime": 0,
        "processLagTimesByTechnology": [

        ],
        "processLagTimesByProductGroup": [

        ],
        "processLagTimes": [

        ],
        "equipmentMonitorSections": [

        ],
        "userDataSets": [

        ]
      },
      {
        "moduleNumber": "101",
        "moduleProcessDefinition": {
          "identifier": "D14ECMAUTO-REWORKCOUNT-PROD_ROUTE1_MOD-PD5_LPEEGHK-B.01",
          "stringifiedObjectReference": "SPIORLL:N:C2/#BRModuleProcessDefinition#F2#D14ECMAUTO-REWORKCOUNT-PROD_ROUTE1_MOD-PD5_LPEEGHK-B.01"
        },
        "sameTimeReleaseInChangeNoticeFlag": false,
        "moduleProcessDefinitionInChangeNotice": {
          "identifier": "",
          "stringifiedObjectReference": ""
        },
        "stage": {
          "identifier": "NA",
          "stringifiedObjectReference": "SPIORLL:N:C2/#BRStage#F2#NA"
        },
        "operationNumber": "101.105",
        "processDefinition": {
          "identifier": "EG-ECMAUTO-ROUTEEDIT-REWORK-COUNT-PD14-14LPE.01",
          "stringifiedObjectReference": "SPIORLL:N:C2/#BRProcessDefinition#F2#EG-ECMAUTO-ROUTEEDIT-REWORK-COUNT-PD14-14LPE.01"
        },
        "pdiDefinitionFlag": false,
        "pdiDefinitionResetFlag": false,
        "mainDINotChangeFlag": false,
        "mainDIScriptNotChangeFlag": false,
        "photoLayer": {
          "identifier": "3GAUTO",
          "stringifiedObjectReference": "SPIORLL:N:C2/#BRPhotoLayer#F2#3GAUTO"
        },
        "carrierCategory": {
          "identifier": "",
          "stringifiedObjectReference": ""
        },
        "processOperationNumber": "",
        "correspondingOperations": [

        ],
        "responsibleOperationNumbers": [

        ],
        "recycleSamplingOperationNumber": "",
        "mandatoryOperationRequiredFlag": false,
        "autoBankInRequiredFlag": false,
        "endOfMonitorRelationFlag": false,
        "monitorGroupReleaseFlag": false,
        "flowBatchControl": {
          "sectionControlCategory": "",
          "name": "",
          "targetOperationFlag": false,
          "flowBatchingOffsetTime": 0.0,
          "maxBatchSize": 0,
          "minBatchSize": 0,
          "minWaferCount": 0
        },
        "pilotWaferProcessControl": {
          "name": "",
          "maxPilotProcessCount": 0
        },
        "defaultMeasDCSpec": {
          "identifier": "",
          "stringifiedObjectReference": ""
        },
        "measDCSpecsByTechnology": [

        ],
        "measDCSpecsByProductGroup": [

        ],
        "measDCSpecs": [

        ],
        "defaultTestSpec": {
          "identifier": "",
          "stringifiedObjectReference": ""
        },
        "testSpecsByTechnology": [

        ],
        "testSpecsByProductGroup": [

        ],
        "testSpecs": [

        ],
        "deltaDCDefinitions": [

        ],
        "defaultDeltaDCSpecs": [

        ],
        "deltaDCSpecsByTechnology": [

        ],
        "deltaDCSpecsByProductGroup": [

        ],
        "deltaDCSpecs": [

        ],
        "subProcessDefinitions": [

        ],
        "reworkProcessDefinitions": [

        ],
        "defaultReworkLimit": -1,
        "reworkLimitsByTechnology": [

        ],
        "reworkLimitsByProductGroup": [

        ],
        "reworkLimits": [

        ],
        "defaultProcessLimit": -1,
        "processLimitsByTechnology": [

        ],
        "processLimitsByProductGroup": [

        ],
        "processLimits": [

        ],
        "postScript": {
          "identifier": "",
          "stringifiedObjectReference": ""
        },
        "pre1Script": {
          "identifier": "PCL-PRE1",
          "stringifiedObjectReference": "SPIORLL:N:C2/#BRScript#F2#PCL-PRE1"
        },
        "pre2Script": {
          "identifier": "",
          "stringifiedObjectReference": ""
        },
        "postScripts": [

        ],
        "pre1Scripts": [
          {
            "identifier": "PCL-PRE1",
            "stringifiedObjectReference": "SPIORLL:N:C2/#BRScript#F2#PCL-PRE1"
          }
        ],
        "pre2Scripts": [

        ],
        "defaultTimeRestrictions": [

        ],
        "timeRestrictionsByTechnology": [

        ],
        "timeRestrictionsByProductGroup": [

        ],
        "timeRestrictions": [

        ],
        "defaultReplaceTimeRestrictionsForSubRoute": [

        ],
        "replaceTimeRestrictionsByTechnologyForSubRoute": [

        ],
        "replaceTimeRestrictionsByProductGroupForSubRoute": [

        ],
        "replaceTimeRestrictionsForSubRoute": [

        ],
        "defaultReplaceTimeRestrictionsForReworkRoute": [

        ],
        "replaceTimeRestrictionsByTechnologyForReworkRoute": [

        ],
        "replaceTimeRestrictionsByProductGroupForReworkRoute": [

        ],
        "replaceTimeRestrictionsForReworkRoute": [

        ],
        "defaultProcessLagTime": 0,
        "processLagTimesByTechnology": [

        ],
        "processLagTimesByProductGroup": [

        ],
        "processLagTimes": [

        ],
        "equipmentMonitorSections": [

        ],
        "userDataSets": [

        ]
      },
      {
        "moduleNumber": "101",
        "moduleProcessDefinition": {
          "identifier": "D14ECMAUTO-REWORKCOUNT-PROD_ROUTE1_MOD-PD5_LPEEGHK-B.01",
          "stringifiedObjectReference": "SPIORLL:N:C2/#BRModuleProcessDefinition#F2#D14ECMAUTO-REWORKCOUNT-PROD_ROUTE1_MOD-PD5_LPEEGHK-B.01"
        },
        "sameTimeReleaseInChangeNoticeFlag": false,
        "moduleProcessDefinitionInChangeNotice": {
          "identifier": "",
          "stringifiedObjectReference": ""
        },
        "stage": {
          "identifier": "NA",
          "stringifiedObjectReference": "SPIORLL:N:C2/#BRStage#F2#NA"
        },
        "operationNumber": "101.106",
        "processDefinition": {
          "identifier": "EG-ECMAUTO-ROUTEEDIT-REWORK-COUNT-PD15-14LPE.01",
          "stringifiedObjectReference": "SPIORLL:N:C2/#BRProcessDefinition#F2#EG-ECMAUTO-ROUTEEDIT-REWORK-COUNT-PD15-14LPE.01"
        },
        "pdiDefinitionFlag": false,
        "pdiDefinitionResetFlag": false,
        "mainDINotChangeFlag": false,
        "mainDIScriptNotChangeFlag": false,
        "photoLayer": {
          "identifier": "3GAUTO",
          "stringifiedObjectReference": "SPIORLL:N:C2/#BRPhotoLayer#F2#3GAUTO"
        },
        "carrierCategory": {
          "identifier": "",
          "stringifiedObjectReference": ""
        },
        "processOperationNumber": "",
        "correspondingOperations": [

        ],
        "responsibleOperationNumbers": [

        ],
        "recycleSamplingOperationNumber": "",
        "mandatoryOperationRequiredFlag": false,
        "autoBankInRequiredFlag": false,
        "endOfMonitorRelationFlag": false,
        "monitorGroupReleaseFlag": false,
        "flowBatchControl": {
          "sectionControlCategory": "",
          "name": "",
          "targetOperationFlag": false,
          "flowBatchingOffsetTime": 0.0,
          "maxBatchSize": 0,
          "minBatchSize": 0,
          "minWaferCount": 0
        },
        "pilotWaferProcessControl": {
          "name": "",
          "maxPilotProcessCount": 0
        },
        "defaultMeasDCSpec": {
          "identifier": "",
          "stringifiedObjectReference": ""
        },
        "measDCSpecsByTechnology": [

        ],
        "measDCSpecsByProductGroup": [

        ],
        "measDCSpecs": [

        ],
        "defaultTestSpec": {
          "identifier": "",
          "stringifiedObjectReference": ""
        },
        "testSpecsByTechnology": [

        ],
        "testSpecsByProductGroup": [

        ],
        "testSpecs": [

        ],
        "deltaDCDefinitions": [

        ],
        "defaultDeltaDCSpecs": [

        ],
        "deltaDCSpecsByTechnology": [

        ],
        "deltaDCSpecsByProductGroup": [

        ],
        "deltaDCSpecs": [

        ],
        "subProcessDefinitions": [

        ],
        "reworkProcessDefinitions": [

        ],
        "defaultReworkLimit": -1,
        "reworkLimitsByTechnology": [

        ],
        "reworkLimitsByProductGroup": [

        ],
        "reworkLimits": [

        ],
        "defaultProcessLimit": -1,
        "processLimitsByTechnology": [

        ],
        "processLimitsByProductGroup": [

        ],
        "processLimits": [

        ],
        "postScript": {
          "identifier": "",
          "stringifiedObjectReference": ""
        },
        "pre1Script": {
          "identifier": "",
          "stringifiedObjectReference": ""
        },
        "pre2Script": {
          "identifier": "",
          "stringifiedObjectReference": ""
        },
        "postScripts": [

        ],
        "pre1Scripts": [

        ],
        "pre2Scripts": [

        ],
        "defaultTimeRestrictions": [

        ],
        "timeRestrictionsByTechnology": [

        ],
        "timeRestrictionsByProductGroup": [

        ],
        "timeRestrictions": [

        ],
        "defaultReplaceTimeRestrictionsForSubRoute": [

        ],
        "replaceTimeRestrictionsByTechnologyForSubRoute": [

        ],
        "replaceTimeRestrictionsByProductGroupForSubRoute": [

        ],
        "replaceTimeRestrictionsForSubRoute": [

        ],
        "defaultReplaceTimeRestrictionsForReworkRoute": [

        ],
        "replaceTimeRestrictionsByTechnologyForReworkRoute": [

        ],
        "replaceTimeRestrictionsByProductGroupForReworkRoute": [

        ],
        "replaceTimeRestrictionsForReworkRoute": [

        ],
        "defaultProcessLagTime": 0,
        "processLagTimesByTechnology": [

        ],
        "processLagTimesByProductGroup": [

        ],
        "processLagTimes": [

        ],
        "equipmentMonitorSections": [

        ],
        "userDataSets": [

        ]
      },
      {
        "moduleNumber": "101",
        "moduleProcessDefinition": {
          "identifier": "D14ECMAUTO-REWORKCOUNT-PROD_ROUTE1_MOD-PD5_LPEEGHK-B.01",
          "stringifiedObjectReference": "SPIORLL:N:C2/#BRModuleProcessDefinition#F2#D14ECMAUTO-REWORKCOUNT-PROD_ROUTE1_MOD-PD5_LPEEGHK-B.01"
        },
        "sameTimeReleaseInChangeNoticeFlag": false,
        "moduleProcessDefinitionInChangeNotice": {
          "identifier": "",
          "stringifiedObjectReference": ""
        },
        "stage": {
          "identifier": "NA",
          "stringifiedObjectReference": "SPIORLL:N:C2/#BRStage#F2#NA"
        },
        "operationNumber": "101.107",
        "processDefinition": {
          "identifier": "EG-ECMAUTO-ROUTEEDIT-REWORK-COUNT-PD16-14LPE.01",
          "stringifiedObjectReference": "SPIORLL:N:C2/#BRProcessDefinition#F2#EG-ECMAUTO-ROUTEEDIT-REWORK-COUNT-PD16-14LPE.01"
        },
        "pdiDefinitionFlag": false,
        "pdiDefinitionResetFlag": false,
        "mainDINotChangeFlag": false,
        "mainDIScriptNotChangeFlag": false,
        "photoLayer": {
          "identifier": "3GAUTO",
          "stringifiedObjectReference": "SPIORLL:N:C2/#BRPhotoLayer#F2#3GAUTO"
        },
        "carrierCategory": {
          "identifier": "",
          "stringifiedObjectReference": ""
        },
        "processOperationNumber": "",
        "correspondingOperations": [

        ],
        "responsibleOperationNumbers": [

        ],
        "recycleSamplingOperationNumber": "",
        "mandatoryOperationRequiredFlag": false,
        "autoBankInRequiredFlag": false,
        "endOfMonitorRelationFlag": false,
        "monitorGroupReleaseFlag": false,
        "flowBatchControl": {
          "sectionControlCategory": "",
          "name": "",
          "targetOperationFlag": false,
          "flowBatchingOffsetTime": 0.0,
          "maxBatchSize": 0,
          "minBatchSize": 0,
          "minWaferCount": 0
        },
        "pilotWaferProcessControl": {
          "name": "",
          "maxPilotProcessCount": 0
        },
        "defaultMeasDCSpec": {
          "identifier": "",
          "stringifiedObjectReference": ""
        },
        "measDCSpecsByTechnology": [

        ],
        "measDCSpecsByProductGroup": [

        ],
        "measDCSpecs": [

        ],
        "defaultTestSpec": {
          "identifier": "",
          "stringifiedObjectReference": ""
        },
        "testSpecsByTechnology": [

        ],
        "testSpecsByProductGroup": [

        ],
        "testSpecs": [

        ],
        "deltaDCDefinitions": [

        ],
        "defaultDeltaDCSpecs": [

        ],
        "deltaDCSpecsByTechnology": [

        ],
        "deltaDCSpecsByProductGroup": [

        ],
        "deltaDCSpecs": [

        ],
        "subProcessDefinitions": [

        ],
        "reworkProcessDefinitions": [

        ],
        "defaultReworkLimit": -1,
        "reworkLimitsByTechnology": [

        ],
        "reworkLimitsByProductGroup": [

        ],
        "reworkLimits": [

        ],
        "defaultProcessLimit": -1,
        "processLimitsByTechnology": [

        ],
        "processLimitsByProductGroup": [

        ],
        "processLimits": [

        ],
        "postScript": {
          "identifier": "",
          "stringifiedObjectReference": ""
        },
        "pre1Script": {
          "identifier": "",
          "stringifiedObjectReference": ""
        },
        "pre2Script": {
          "identifier": "",
          "stringifiedObjectReference": ""
        },
        "postScripts": [

        ],
        "pre1Scripts": [

        ],
        "pre2Scripts": [

        ],
        "defaultTimeRestrictions": [

        ],
        "timeRestrictionsByTechnology": [

        ],
        "timeRestrictionsByProductGroup": [

        ],
        "timeRestrictions": [

        ],
        "defaultReplaceTimeRestrictionsForSubRoute": [

        ],
        "replaceTimeRestrictionsByTechnologyForSubRoute": [

        ],
        "replaceTimeRestrictionsByProductGroupForSubRoute": [

        ],
        "replaceTimeRestrictionsForSubRoute": [

        ],
        "defaultReplaceTimeRestrictionsForReworkRoute": [

        ],
        "replaceTimeRestrictionsByTechnologyForReworkRoute": [

        ],
        "replaceTimeRestrictionsByProductGroupForReworkRoute": [

        ],
        "replaceTimeRestrictionsForReworkRoute": [

        ],
        "defaultProcessLagTime": 0,
        "processLagTimesByTechnology": [

        ],
        "processLagTimesByProductGroup": [

        ],
        "processLagTimes": [

        ],
        "equipmentMonitorSections": [

        ],
        "userDataSets": [

        ]
      },
      {
        "moduleNumber": "102",
        "moduleProcessDefinition": {
          "identifier": "D14ECMAUTO-REWORKCOUNT-PROD_ROUTE1_MOD-PD6_LPEEGHK-B.01",
          "stringifiedObjectReference": "SPIORLL:N:C2/#BRModuleProcessDefinition#F2#D14ECMAUTO-REWORKCOUNT-PROD_ROUTE1_MOD-PD6_LPEEGHK-B.01"
        },
        "sameTimeReleaseInChangeNoticeFlag": false,
        "moduleProcessDefinitionInChangeNotice": {
          "identifier": "",
          "stringifiedObjectReference": ""
        },
        "stage": {
          "identifier": "NA",
          "stringifiedObjectReference": "SPIORLL:N:C2/#BRStage#F2#NA"
        },
        "operationNumber": "102.100",
        "processDefinition": {
          "identifier": "EG-ECMAUTO-ROUTEEDIT-REWORK-COUNT-PD9-14LPE.01",
          "stringifiedObjectReference": "SPIORLL:N:C2/#BRProcessDefinition#F2#EG-ECMAUTO-ROUTEEDIT-REWORK-COUNT-PD9-14LPE.01"
        },
        "pdiDefinitionFlag": false,
        "pdiDefinitionResetFlag": false,
        "mainDINotChangeFlag": false,
        "mainDIScriptNotChangeFlag": false,
        "photoLayer": {
          "identifier": "3GAUTO",
          "stringifiedObjectReference": "SPIORLL:N:C2/#BRPhotoLayer#F2#3GAUTO"
        },
        "carrierCategory": {
          "identifier": "",
          "stringifiedObjectReference": ""
        },
        "processOperationNumber": "",
        "correspondingOperations": [

        ],
        "responsibleOperationNumbers": [

        ],
        "recycleSamplingOperationNumber": "",
        "mandatoryOperationRequiredFlag": false,
        "autoBankInRequiredFlag": false,
        "endOfMonitorRelationFlag": false,
        "monitorGroupReleaseFlag": false,
        "flowBatchControl": {
          "sectionControlCategory": "",
          "name": "",
          "targetOperationFlag": false,
          "flowBatchingOffsetTime": 0.0,
          "maxBatchSize": 0,
          "minBatchSize": 0,
          "minWaferCount": 0
        },
        "pilotWaferProcessControl": {
          "name": "",
          "maxPilotProcessCount": 0
        },
        "defaultMeasDCSpec": {
          "identifier": "",
          "stringifiedObjectReference": ""
        },
        "measDCSpecsByTechnology": [

        ],
        "measDCSpecsByProductGroup": [

        ],
        "measDCSpecs": [

        ],
        "defaultTestSpec": {
          "identifier": "",
          "stringifiedObjectReference": ""
        },
        "testSpecsByTechnology": [

        ],
        "testSpecsByProductGroup": [

        ],
        "testSpecs": [

        ],
        "deltaDCDefinitions": [

        ],
        "defaultDeltaDCSpecs": [

        ],
        "deltaDCSpecsByTechnology": [

        ],
        "deltaDCSpecsByProductGroup": [

        ],
        "deltaDCSpecs": [

        ],
        "subProcessDefinitions": [

        ],
        "reworkProcessDefinitions": [

        ],
        "defaultReworkLimit": -1,
        "reworkLimitsByTechnology": [

        ],
        "reworkLimitsByProductGroup": [

        ],
        "reworkLimits": [

        ],
        "defaultProcessLimit": -1,
        "processLimitsByTechnology": [

        ],
        "processLimitsByProductGroup": [

        ],
        "processLimits": [

        ],
        "postScript": {
          "identifier": "",
          "stringifiedObjectReference": ""
        },
        "pre1Script": {
          "identifier": "PCL-PRE1",
          "stringifiedObjectReference": "SPIORLL:N:C2/#BRScript#F2#PCL-PRE1"
        },
        "pre2Script": {
          "identifier": "",
          "stringifiedObjectReference": ""
        },
        "postScripts": [

        ],
        "pre1Scripts": [
          {
            "identifier": "PCL-PRE1",
            "stringifiedObjectReference": "SPIORLL:N:C2/#BRScript#F2#PCL-PRE1"
          }
        ],
        "pre2Scripts": [

        ],
        "defaultTimeRestrictions": [

        ],
        "timeRestrictionsByTechnology": [

        ],
        "timeRestrictionsByProductGroup": [

        ],
        "timeRestrictions": [

        ],
        "defaultReplaceTimeRestrictionsForSubRoute": [

        ],
        "replaceTimeRestrictionsByTechnologyForSubRoute": [

        ],
        "replaceTimeRestrictionsByProductGroupForSubRoute": [

        ],
        "replaceTimeRestrictionsForSubRoute": [

        ],
        "defaultReplaceTimeRestrictionsForReworkRoute": [

        ],
        "replaceTimeRestrictionsByTechnologyForReworkRoute": [

        ],
        "replaceTimeRestrictionsByProductGroupForReworkRoute": [

        ],
        "replaceTimeRestrictionsForReworkRoute": [

        ],
        "defaultProcessLagTime": 0,
        "processLagTimesByTechnology": [

        ],
        "processLagTimesByProductGroup": [

        ],
        "processLagTimes": [

        ],
        "equipmentMonitorSections": [

        ],
        "userDataSets": [

        ]
      },
      {
        "moduleNumber": "102",
        "moduleProcessDefinition": {
          "identifier": "D14ECMAUTO-REWORKCOUNT-PROD_ROUTE1_MOD-PD6_LPEEGHK-B.01",
          "stringifiedObjectReference": "SPIORLL:N:C2/#BRModuleProcessDefinition#F2#D14ECMAUTO-REWORKCOUNT-PROD_ROUTE1_MOD-PD6_LPEEGHK-B.01"
        },
        "sameTimeReleaseInChangeNoticeFlag": false,
        "moduleProcessDefinitionInChangeNotice": {
          "identifier": "",
          "stringifiedObjectReference": ""
        },
        "stage": {
          "identifier": "NA",
          "stringifiedObjectReference": "SPIORLL:N:C2/#BRStage#F2#NA"
        },
        "operationNumber": "102.101",
        "processDefinition": {
          "identifier": "EG-ECMAUTO-ROUTEEDIT-REWORK-COUNT-PD10-14LPE.01",
          "stringifiedObjectReference": "SPIORLL:N:C2/#BRProcessDefinition#F2#EG-ECMAUTO-ROUTEEDIT-REWORK-COUNT-PD10-14LPE.01"
        },
        "pdiDefinitionFlag": false,
        "pdiDefinitionResetFlag": false,
        "mainDINotChangeFlag": false,
        "mainDIScriptNotChangeFlag": false,
        "photoLayer": {
          "identifier": "3GAUTO",
          "stringifiedObjectReference": "SPIORLL:N:C2/#BRPhotoLayer#F2#3GAUTO"
        },
        "carrierCategory": {
          "identifier": "",
          "stringifiedObjectReference": ""
        },
        "processOperationNumber": "",
        "correspondingOperations": [

        ],
        "responsibleOperationNumbers": [

        ],
        "recycleSamplingOperationNumber": "",
        "mandatoryOperationRequiredFlag": false,
        "autoBankInRequiredFlag": false,
        "endOfMonitorRelationFlag": false,
        "monitorGroupReleaseFlag": false,
        "flowBatchControl": {
          "sectionControlCategory": "",
          "name": "",
          "targetOperationFlag": false,
          "flowBatchingOffsetTime": 0.0,
          "maxBatchSize": 0,
          "minBatchSize": 0,
          "minWaferCount": 0
        },
        "pilotWaferProcessControl": {
          "name": "",
          "maxPilotProcessCount": 0
        },
        "defaultMeasDCSpec": {
          "identifier": "",
          "stringifiedObjectReference": ""
        },
        "measDCSpecsByTechnology": [

        ],
        "measDCSpecsByProductGroup": [

        ],
        "measDCSpecs": [

        ],
        "defaultTestSpec": {
          "identifier": "",
          "stringifiedObjectReference": ""
        },
        "testSpecsByTechnology": [

        ],
        "testSpecsByProductGroup": [

        ],
        "testSpecs": [

        ],
        "deltaDCDefinitions": [

        ],
        "defaultDeltaDCSpecs": [

        ],
        "deltaDCSpecsByTechnology": [

        ],
        "deltaDCSpecsByProductGroup": [

        ],
        "deltaDCSpecs": [

        ],
        "subProcessDefinitions": [

        ],
        "reworkProcessDefinitions": [
          {
            "mainProcessDefinition": {
              "identifier": "SL-EAGLEECMAUTO-REWORK-RWK_ROUTE3.01",
              "stringifiedObjectReference": "SPIORLL:N:C2/#BRMainProcessDefinition#F2#SL-EAGLEECMAUTO-REWORK-RWK_ROUTE3.01"
            },
            "joiningOperationNumber": "102.103"
          }
        ],
        "defaultReworkLimit": -1,
        "reworkLimitsByTechnology": [

        ],
        "reworkLimitsByProductGroup": [
          {
            "productGroup": {
              "identifier": "ECMAUTO-RWK-COUNT-PG",
              "stringifiedObjectReference": "SPIORLL:N:C2/#BRProductGroup#F2#ECMAUTO-RWK-COUNT-PG"
            },
            "limit": 9
          }
        ],
        "reworkLimits": [

        ],
        "defaultProcessLimit": -1,
        "processLimitsByTechnology": [

        ],
        "processLimitsByProductGroup": [

        ],
        "processLimits": [

        ],
        "postScript": {
          "identifier": "",
          "stringifiedObjectReference": ""
        },
        "pre1Script": {
          "identifier": "PCL-PRE1",
          "stringifiedObjectReference": "SPIORLL:N:C2/#BRScript#F2#PCL-PRE1"
        },
        "pre2Script": {
          "identifier": "",
          "stringifiedObjectReference": ""
        },
        "postScripts": [

        ],
        "pre1Scripts": [
          {
            "identifier": "PCL-PRE1",
            "stringifiedObjectReference": "SPIORLL:N:C2/#BRScript#F2#PCL-PRE1"
          }
        ],
        "pre2Scripts": [

        ],
        "defaultTimeRestrictions": [

        ],
        "timeRestrictionsByTechnology": [

        ],
        "timeRestrictionsByProductGroup": [

        ],
        "timeRestrictions": [

        ],
        "defaultReplaceTimeRestrictionsForSubRoute": [

        ],
        "replaceTimeRestrictionsByTechnologyForSubRoute": [

        ],
        "replaceTimeRestrictionsByProductGroupForSubRoute": [

        ],
        "replaceTimeRestrictionsForSubRoute": [

        ],
        "defaultReplaceTimeRestrictionsForReworkRoute": [

        ],
        "replaceTimeRestrictionsByTechnologyForReworkRoute": [

        ],
        "replaceTimeRestrictionsByProductGroupForReworkRoute": [

        ],
        "replaceTimeRestrictionsForReworkRoute": [

        ],
        "defaultProcessLagTime": 0,
        "processLagTimesByTechnology": [

        ],
        "processLagTimesByProductGroup": [

        ],
        "processLagTimes": [

        ],
        "equipmentMonitorSections": [

        ],
        "userDataSets": [

        ]
      },
      {
        "moduleNumber": "102",
        "moduleProcessDefinition": {
          "identifier": "D14ECMAUTO-REWORKCOUNT-PROD_ROUTE1_MOD-PD6_LPEEGHK-B.01",
          "stringifiedObjectReference": "SPIORLL:N:C2/#BRModuleProcessDefinition#F2#D14ECMAUTO-REWORKCOUNT-PROD_ROUTE1_MOD-PD6_LPEEGHK-B.01"
        },
        "sameTimeReleaseInChangeNoticeFlag": false,
        "moduleProcessDefinitionInChangeNotice": {
          "identifier": "",
          "stringifiedObjectReference": ""
        },
        "stage": {
          "identifier": "NA",
          "stringifiedObjectReference": "SPIORLL:N:C2/#BRStage#F2#NA"
        },
        "operationNumber": "102.102",
        "processDefinition": {
          "identifier": "EG-ECMAUTO-ROUTEEDIT-REWORK-COUNT-PD11-14LPE.01",
          "stringifiedObjectReference": "SPIORLL:N:C2/#BRProcessDefinition#F2#EG-ECMAUTO-ROUTEEDIT-REWORK-COUNT-PD11-14LPE.01"
        },
        "pdiDefinitionFlag": false,
        "pdiDefinitionResetFlag": false,
        "mainDINotChangeFlag": false,
        "mainDIScriptNotChangeFlag": false,
        "photoLayer": {
          "identifier": "3GAUTO",
          "stringifiedObjectReference": "SPIORLL:N:C2/#BRPhotoLayer#F2#3GAUTO"
        },
        "carrierCategory": {
          "identifier": "",
          "stringifiedObjectReference": ""
        },
        "processOperationNumber": "",
        "correspondingOperations": [

        ],
        "responsibleOperationNumbers": [

        ],
        "recycleSamplingOperationNumber": "",
        "mandatoryOperationRequiredFlag": false,
        "autoBankInRequiredFlag": false,
        "endOfMonitorRelationFlag": false,
        "monitorGroupReleaseFlag": false,
        "flowBatchControl": {
          "sectionControlCategory": "",
          "name": "",
          "targetOperationFlag": false,
          "flowBatchingOffsetTime": 0.0,
          "maxBatchSize": 0,
          "minBatchSize": 0,
          "minWaferCount": 0
        },
        "pilotWaferProcessControl": {
          "name": "",
          "maxPilotProcessCount": 0
        },
        "defaultMeasDCSpec": {
          "identifier": "",
          "stringifiedObjectReference": ""
        },
        "measDCSpecsByTechnology": [

        ],
        "measDCSpecsByProductGroup": [

        ],
        "measDCSpecs": [

        ],
        "defaultTestSpec": {
          "identifier": "",
          "stringifiedObjectReference": ""
        },
        "testSpecsByTechnology": [

        ],
        "testSpecsByProductGroup": [

        ],
        "testSpecs": [

        ],
        "deltaDCDefinitions": [

        ],
        "defaultDeltaDCSpecs": [

        ],
        "deltaDCSpecsByTechnology": [

        ],
        "deltaDCSpecsByProductGroup": [

        ],
        "deltaDCSpecs": [

        ],
        "subProcessDefinitions": [

        ],
        "reworkProcessDefinitions": [

        ],
        "defaultReworkLimit": -1,
        "reworkLimitsByTechnology": [

        ],
        "reworkLimitsByProductGroup": [

        ],
        "reworkLimits": [

        ],
        "defaultProcessLimit": -1,
        "processLimitsByTechnology": [

        ],
        "processLimitsByProductGroup": [

        ],
        "processLimits": [

        ],
        "postScript": {
          "identifier": "",
          "stringifiedObjectReference": ""
        },
        "pre1Script": {
          "identifier": "PCL-PRE1",
          "stringifiedObjectReference": "SPIORLL:N:C2/#BRScript#F2#PCL-PRE1"
        },
        "pre2Script": {
          "identifier": "",
          "stringifiedObjectReference": ""
        },
        "postScripts": [

        ],
        "pre1Scripts": [
          {
            "identifier": "PCL-PRE1",
            "stringifiedObjectReference": "SPIORLL:N:C2/#BRScript#F2#PCL-PRE1"
          }
        ],
        "pre2Scripts": [

        ],
        "defaultTimeRestrictions": [

        ],
        "timeRestrictionsByTechnology": [

        ],
        "timeRestrictionsByProductGroup": [

        ],
        "timeRestrictions": [

        ],
        "defaultReplaceTimeRestrictionsForSubRoute": [

        ],
        "replaceTimeRestrictionsByTechnologyForSubRoute": [

        ],
        "replaceTimeRestrictionsByProductGroupForSubRoute": [

        ],
        "replaceTimeRestrictionsForSubRoute": [

        ],
        "defaultReplaceTimeRestrictionsForReworkRoute": [

        ],
        "replaceTimeRestrictionsByTechnologyForReworkRoute": [

        ],
        "replaceTimeRestrictionsByProductGroupForReworkRoute": [

        ],
        "replaceTimeRestrictionsForReworkRoute": [

        ],
        "defaultProcessLagTime": 0,
        "processLagTimesByTechnology": [

        ],
        "processLagTimesByProductGroup": [

        ],
        "processLagTimes": [

        ],
        "equipmentMonitorSections": [

        ],
        "userDataSets": [

        ]
      },
      {
        "moduleNumber": "102",
        "moduleProcessDefinition": {
          "identifier": "D14ECMAUTO-REWORKCOUNT-PROD_ROUTE1_MOD-PD6_LPEEGHK-B.01",
          "stringifiedObjectReference": "SPIORLL:N:C2/#BRModuleProcessDefinition#F2#D14ECMAUTO-REWORKCOUNT-PROD_ROUTE1_MOD-PD6_LPEEGHK-B.01"
        },
        "sameTimeReleaseInChangeNoticeFlag": false,
        "moduleProcessDefinitionInChangeNotice": {
          "identifier": "",
          "stringifiedObjectReference": ""
        },
        "stage": {
          "identifier": "NA",
          "stringifiedObjectReference": "SPIORLL:N:C2/#BRStage#F2#NA"
        },
        "operationNumber": "102.103",
        "processDefinition": {
          "identifier": "EG-ECMAUTO-ROUTEEDIT-REWORK-COUNT-PD12-14LPE.01",
          "stringifiedObjectReference": "SPIORLL:N:C2/#BRProcessDefinition#F2#EG-ECMAUTO-ROUTEEDIT-REWORK-COUNT-PD12-14LPE.01"
        },
        "pdiDefinitionFlag": false,
        "pdiDefinitionResetFlag": false,
        "mainDINotChangeFlag": false,
        "mainDIScriptNotChangeFlag": false,
        "photoLayer": {
          "identifier": "3GAUTO",
          "stringifiedObjectReference": "SPIORLL:N:C2/#BRPhotoLayer#F2#3GAUTO"
        },
        "carrierCategory": {
          "identifier": "",
          "stringifiedObjectReference": ""
        },
        "processOperationNumber": "",
        "correspondingOperations": [

        ],
        "responsibleOperationNumbers": [

        ],
        "recycleSamplingOperationNumber": "",
        "mandatoryOperationRequiredFlag": false,
        "autoBankInRequiredFlag": false,
        "endOfMonitorRelationFlag": false,
        "monitorGroupReleaseFlag": false,
        "flowBatchControl": {
          "sectionControlCategory": "",
          "name": "",
          "targetOperationFlag": false,
          "flowBatchingOffsetTime": 0.0,
          "maxBatchSize": 0,
          "minBatchSize": 0,
          "minWaferCount": 0
        },
        "pilotWaferProcessControl": {
          "name": "",
          "maxPilotProcessCount": 0
        },
        "defaultMeasDCSpec": {
          "identifier": "",
          "stringifiedObjectReference": ""
        },
        "measDCSpecsByTechnology": [

        ],
        "measDCSpecsByProductGroup": [

        ],
        "measDCSpecs": [

        ],
        "defaultTestSpec": {
          "identifier": "",
          "stringifiedObjectReference": ""
        },
        "testSpecsByTechnology": [

        ],
        "testSpecsByProductGroup": [

        ],
        "testSpecs": [

        ],
        "deltaDCDefinitions": [

        ],
        "defaultDeltaDCSpecs": [

        ],
        "deltaDCSpecsByTechnology": [

        ],
        "deltaDCSpecsByProductGroup": [

        ],
        "deltaDCSpecs": [

        ],
        "subProcessDefinitions": [

        ],
        "reworkProcessDefinitions": [

        ],
        "defaultReworkLimit": -1,
        "reworkLimitsByTechnology": [

        ],
        "reworkLimitsByProductGroup": [

        ],
        "reworkLimits": [

        ],
        "defaultProcessLimit": -1,
        "processLimitsByTechnology": [

        ],
        "processLimitsByProductGroup": [

        ],
        "processLimits": [

        ],
        "postScript": {
          "identifier": "",
          "stringifiedObjectReference": ""
        },
        "pre1Script": {
          "identifier": "PCL-PRE1",
          "stringifiedObjectReference": "SPIORLL:N:C2/#BRScript#F2#PCL-PRE1"
        },
        "pre2Script": {
          "identifier": "",
          "stringifiedObjectReference": ""
        },
        "postScripts": [

        ],
        "pre1Scripts": [
          {
            "identifier": "PCL-PRE1",
            "stringifiedObjectReference": "SPIORLL:N:C2/#BRScript#F2#PCL-PRE1"
          }
        ],
        "pre2Scripts": [

        ],
        "defaultTimeRestrictions": [

        ],
        "timeRestrictionsByTechnology": [

        ],
        "timeRestrictionsByProductGroup": [

        ],
        "timeRestrictions": [

        ],
        "defaultReplaceTimeRestrictionsForSubRoute": [

        ],
        "replaceTimeRestrictionsByTechnologyForSubRoute": [

        ],
        "replaceTimeRestrictionsByProductGroupForSubRoute": [

        ],
        "replaceTimeRestrictionsForSubRoute": [

        ],
        "defaultReplaceTimeRestrictionsForReworkRoute": [

        ],
        "replaceTimeRestrictionsByTechnologyForReworkRoute": [

        ],
        "replaceTimeRestrictionsByProductGroupForReworkRoute": [

        ],
        "replaceTimeRestrictionsForReworkRoute": [

        ],
        "defaultProcessLagTime": 0,
        "processLagTimesByTechnology": [

        ],
        "processLagTimesByProductGroup": [

        ],
        "processLagTimes": [

        ],
        "equipmentMonitorSections": [

        ],
        "userDataSets": [

        ]
      },
      {
        "moduleNumber": "102",
        "moduleProcessDefinition": {
          "identifier": "D14ECMAUTO-REWORKCOUNT-PROD_ROUTE1_MOD-PD6_LPEEGHK-B.01",
          "stringifiedObjectReference": "SPIORLL:N:C2/#BRModuleProcessDefinition#F2#D14ECMAUTO-REWORKCOUNT-PROD_ROUTE1_MOD-PD6_LPEEGHK-B.01"
        },
        "sameTimeReleaseInChangeNoticeFlag": false,
        "moduleProcessDefinitionInChangeNotice": {
          "identifier": "",
          "stringifiedObjectReference": ""
        },
        "stage": {
          "identifier": "NA",
          "stringifiedObjectReference": "SPIORLL:N:C2/#BRStage#F2#NA"
        },
        "operationNumber": "102.104",
        "processDefinition": {
          "identifier": "EG-ECMAUTO-ROUTEEDIT-REWORK-COUNT-PD13-14LPE.01",
          "stringifiedObjectReference": "SPIORLL:N:C2/#BRProcessDefinition#F2#EG-ECMAUTO-ROUTEEDIT-REWORK-COUNT-PD13-14LPE.01"
        },
        "pdiDefinitionFlag": false,
        "pdiDefinitionResetFlag": false,
        "mainDINotChangeFlag": false,
        "mainDIScriptNotChangeFlag": false,
        "photoLayer": {
          "identifier": "3GAUTO",
          "stringifiedObjectReference": "SPIORLL:N:C2/#BRPhotoLayer#F2#3GAUTO"
        },
        "carrierCategory": {
          "identifier": "",
          "stringifiedObjectReference": ""
        },
        "processOperationNumber": "",
        "correspondingOperations": [

        ],
        "responsibleOperationNumbers": [

        ],
        "recycleSamplingOperationNumber": "",
        "mandatoryOperationRequiredFlag": false,
        "autoBankInRequiredFlag": false,
        "endOfMonitorRelationFlag": false,
        "monitorGroupReleaseFlag": false,
        "flowBatchControl": {
          "sectionControlCategory": "",
          "name": "",
          "targetOperationFlag": false,
          "flowBatchingOffsetTime": 0.0,
          "maxBatchSize": 0,
          "minBatchSize": 0,
          "minWaferCount": 0
        },
        "pilotWaferProcessControl": {
          "name": "",
          "maxPilotProcessCount": 0
        },
        "defaultMeasDCSpec": {
          "identifier": "",
          "stringifiedObjectReference": ""
        },
        "measDCSpecsByTechnology": [

        ],
        "measDCSpecsByProductGroup": [

        ],
        "measDCSpecs": [

        ],
        "defaultTestSpec": {
          "identifier": "",
          "stringifiedObjectReference": ""
        },
        "testSpecsByTechnology": [

        ],
        "testSpecsByProductGroup": [

        ],
        "testSpecs": [

        ],
        "deltaDCDefinitions": [

        ],
        "defaultDeltaDCSpecs": [

        ],
        "deltaDCSpecsByTechnology": [

        ],
        "deltaDCSpecsByProductGroup": [

        ],
        "deltaDCSpecs": [

        ],
        "subProcessDefinitions": [

        ],
        "reworkProcessDefinitions": [
          {
            "mainProcessDefinition": {
              "identifier": "SL-EAGLEECMAUTO-REWORK-RWK_ROUTE4.01",
              "stringifiedObjectReference": "SPIORLL:N:C2/#BRMainProcessDefinition#F2#SL-EAGLEECMAUTO-REWORK-RWK_ROUTE4.01"
            },
            "joiningOperationNumber": "102.106"
          }
        ],
        "defaultReworkLimit": -1,
        "reworkLimitsByTechnology": [

        ],
        "reworkLimitsByProductGroup": [

        ],
        "reworkLimits": [
          {
            "product": {
              "identifier": "EAGLEECMAUTO-RWKCOUNT3-PRODUCT.01",
              "stringifiedObjectReference": "SPIORLL:N:C2/#BRProduct#F2#EAGLEECMAUTO-RWKCOUNT3-PRODUCT.01"
            },
            "limit": 6
          }
        ],
        "defaultProcessLimit": -1,
        "processLimitsByTechnology": [

        ],
        "processLimitsByProductGroup": [

        ],
        "processLimits": [

        ],
        "postScript": {
          "identifier": "",
          "stringifiedObjectReference": ""
        },
        "pre1Script": {
          "identifier": "PCL-PRE1",
          "stringifiedObjectReference": "SPIORLL:N:C2/#BRScript#F2#PCL-PRE1"
        },
        "pre2Script": {
          "identifier": "",
          "stringifiedObjectReference": ""
        },
        "postScripts": [

        ],
        "pre1Scripts": [
          {
            "identifier": "PCL-PRE1",
            "stringifiedObjectReference": "SPIORLL:N:C2/#BRScript#F2#PCL-PRE1"
          }
        ],
        "pre2Scripts": [

        ],
        "defaultTimeRestrictions": [

        ],
        "timeRestrictionsByTechnology": [

        ],
        "timeRestrictionsByProductGroup": [

        ],
        "timeRestrictions": [

        ],
        "defaultReplaceTimeRestrictionsForSubRoute": [

        ],
        "replaceTimeRestrictionsByTechnologyForSubRoute": [

        ],
        "replaceTimeRestrictionsByProductGroupForSubRoute": [

        ],
        "replaceTimeRestrictionsForSubRoute": [

        ],
        "defaultReplaceTimeRestrictionsForReworkRoute": [

        ],
        "replaceTimeRestrictionsByTechnologyForReworkRoute": [

        ],
        "replaceTimeRestrictionsByProductGroupForReworkRoute": [

        ],
        "replaceTimeRestrictionsForReworkRoute": [

        ],
        "defaultProcessLagTime": 0,
        "processLagTimesByTechnology": [

        ],
        "processLagTimesByProductGroup": [

        ],
        "processLagTimes": [

        ],
        "equipmentMonitorSections": [

        ],
        "userDataSets": [

        ]
      },
      {
        "moduleNumber": "102",
        "moduleProcessDefinition": {
          "identifier": "D14ECMAUTO-REWORKCOUNT-PROD_ROUTE1_MOD-PD6_LPEEGHK-B.01",
          "stringifiedObjectReference": "SPIORLL:N:C2/#BRModuleProcessDefinition#F2#D14ECMAUTO-REWORKCOUNT-PROD_ROUTE1_MOD-PD6_LPEEGHK-B.01"
        },
        "sameTimeReleaseInChangeNoticeFlag": false,
        "moduleProcessDefinitionInChangeNotice": {
          "identifier": "",
          "stringifiedObjectReference": ""
        },
        "stage": {
          "identifier": "NA",
          "stringifiedObjectReference": "SPIORLL:N:C2/#BRStage#F2#NA"
        },
        "operationNumber": "102.105",
        "processDefinition": {
          "identifier": "EG-ECMAUTO-ROUTEEDIT-REWORK-COUNT-PD14-14LPE.01",
          "stringifiedObjectReference": "SPIORLL:N:C2/#BRProcessDefinition#F2#EG-ECMAUTO-ROUTEEDIT-REWORK-COUNT-PD14-14LPE.01"
        },
        "pdiDefinitionFlag": false,
        "pdiDefinitionResetFlag": false,
        "mainDINotChangeFlag": false,
        "mainDIScriptNotChangeFlag": false,
        "photoLayer": {
          "identifier": "3GAUTO",
          "stringifiedObjectReference": "SPIORLL:N:C2/#BRPhotoLayer#F2#3GAUTO"
        },
        "carrierCategory": {
          "identifier": "",
          "stringifiedObjectReference": ""
        },
        "processOperationNumber": "",
        "correspondingOperations": [

        ],
        "responsibleOperationNumbers": [

        ],
        "recycleSamplingOperationNumber": "",
        "mandatoryOperationRequiredFlag": false,
        "autoBankInRequiredFlag": false,
        "endOfMonitorRelationFlag": false,
        "monitorGroupReleaseFlag": false,
        "flowBatchControl": {
          "sectionControlCategory": "",
          "name": "",
          "targetOperationFlag": false,
          "flowBatchingOffsetTime": 0.0,
          "maxBatchSize": 0,
          "minBatchSize": 0,
          "minWaferCount": 0
        },
        "pilotWaferProcessControl": {
          "name": "",
          "maxPilotProcessCount": 0
        },
        "defaultMeasDCSpec": {
          "identifier": "",
          "stringifiedObjectReference": ""
        },
        "measDCSpecsByTechnology": [

        ],
        "measDCSpecsByProductGroup": [

        ],
        "measDCSpecs": [

        ],
        "defaultTestSpec": {
          "identifier": "",
          "stringifiedObjectReference": ""
        },
        "testSpecsByTechnology": [

        ],
        "testSpecsByProductGroup": [

        ],
        "testSpecs": [

        ],
        "deltaDCDefinitions": [

        ],
        "defaultDeltaDCSpecs": [

        ],
        "deltaDCSpecsByTechnology": [

        ],
        "deltaDCSpecsByProductGroup": [

        ],
        "deltaDCSpecs": [

        ],
        "subProcessDefinitions": [

        ],
        "reworkProcessDefinitions": [

        ],
        "defaultReworkLimit": -1,
        "reworkLimitsByTechnology": [

        ],
        "reworkLimitsByProductGroup": [

        ],
        "reworkLimits": [

        ],
        "defaultProcessLimit": -1,
        "processLimitsByTechnology": [

        ],
        "processLimitsByProductGroup": [

        ],
        "processLimits": [

        ],
        "postScript": {
          "identifier": "",
          "stringifiedObjectReference": ""
        },
        "pre1Script": {
          "identifier": "PCL-PRE1",
          "stringifiedObjectReference": "SPIORLL:N:C2/#BRScript#F2#PCL-PRE1"
        },
        "pre2Script": {
          "identifier": "",
          "stringifiedObjectReference": ""
        },
        "postScripts": [

        ],
        "pre1Scripts": [
          {
            "identifier": "PCL-PRE1",
            "stringifiedObjectReference": "SPIORLL:N:C2/#BRScript#F2#PCL-PRE1"
          }
        ],
        "pre2Scripts": [

        ],
        "defaultTimeRestrictions": [

        ],
        "timeRestrictionsByTechnology": [

        ],
        "timeRestrictionsByProductGroup": [

        ],
        "timeRestrictions": [

        ],
        "defaultReplaceTimeRestrictionsForSubRoute": [

        ],
        "replaceTimeRestrictionsByTechnologyForSubRoute": [

        ],
        "replaceTimeRestrictionsByProductGroupForSubRoute": [

        ],
        "replaceTimeRestrictionsForSubRoute": [

        ],
        "defaultReplaceTimeRestrictionsForReworkRoute": [

        ],
        "replaceTimeRestrictionsByTechnologyForReworkRoute": [

        ],
        "replaceTimeRestrictionsByProductGroupForReworkRoute": [

        ],
        "replaceTimeRestrictionsForReworkRoute": [

        ],
        "defaultProcessLagTime": 0,
        "processLagTimesByTechnology": [

        ],
        "processLagTimesByProductGroup": [

        ],
        "processLagTimes": [

        ],
        "equipmentMonitorSections": [

        ],
        "userDataSets": [

        ]
      },
      {
        "moduleNumber": "102",
        "moduleProcessDefinition": {
          "identifier": "D14ECMAUTO-REWORKCOUNT-PROD_ROUTE1_MOD-PD6_LPEEGHK-B.01",
          "stringifiedObjectReference": "SPIORLL:N:C2/#BRModuleProcessDefinition#F2#D14ECMAUTO-REWORKCOUNT-PROD_ROUTE1_MOD-PD6_LPEEGHK-B.01"
        },
        "sameTimeReleaseInChangeNoticeFlag": false,
        "moduleProcessDefinitionInChangeNotice": {
          "identifier": "",
          "stringifiedObjectReference": ""
        },
        "stage": {
          "identifier": "NA",
          "stringifiedObjectReference": "SPIORLL:N:C2/#BRStage#F2#NA"
        },
        "operationNumber": "102.106",
        "processDefinition": {
          "identifier": "EG-ECMAUTO-ROUTEEDIT-REWORK-COUNT-PD15-14LPE.01",
          "stringifiedObjectReference": "SPIORLL:N:C2/#BRProcessDefinition#F2#EG-ECMAUTO-ROUTEEDIT-REWORK-COUNT-PD15-14LPE.01"
        },
        "pdiDefinitionFlag": false,
        "pdiDefinitionResetFlag": false,
        "mainDINotChangeFlag": false,
        "mainDIScriptNotChangeFlag": false,
        "photoLayer": {
          "identifier": "3GAUTO",
          "stringifiedObjectReference": "SPIORLL:N:C2/#BRPhotoLayer#F2#3GAUTO"
        },
        "carrierCategory": {
          "identifier": "",
          "stringifiedObjectReference": ""
        },
        "processOperationNumber": "",
        "correspondingOperations": [

        ],
        "responsibleOperationNumbers": [

        ],
        "recycleSamplingOperationNumber": "",
        "mandatoryOperationRequiredFlag": false,
        "autoBankInRequiredFlag": false,
        "endOfMonitorRelationFlag": false,
        "monitorGroupReleaseFlag": false,
        "flowBatchControl": {
          "sectionControlCategory": "",
          "name": "",
          "targetOperationFlag": false,
          "flowBatchingOffsetTime": 0.0,
          "maxBatchSize": 0,
          "minBatchSize": 0,
          "minWaferCount": 0
        },
        "pilotWaferProcessControl": {
          "name": "",
          "maxPilotProcessCount": 0
        },
        "defaultMeasDCSpec": {
          "identifier": "",
          "stringifiedObjectReference": ""
        },
        "measDCSpecsByTechnology": [

        ],
        "measDCSpecsByProductGroup": [

        ],
        "measDCSpecs": [

        ],
        "defaultTestSpec": {
          "identifier": "",
          "stringifiedObjectReference": ""
        },
        "testSpecsByTechnology": [

        ],
        "testSpecsByProductGroup": [

        ],
        "testSpecs": [

        ],
        "deltaDCDefinitions": [

        ],
        "defaultDeltaDCSpecs": [

        ],
        "deltaDCSpecsByTechnology": [

        ],
        "deltaDCSpecsByProductGroup": [

        ],
        "deltaDCSpecs": [

        ],
        "subProcessDefinitions": [

        ],
        "reworkProcessDefinitions": [

        ],
        "defaultReworkLimit": -1,
        "reworkLimitsByTechnology": [

        ],
        "reworkLimitsByProductGroup": [

        ],
        "reworkLimits": [

        ],
        "defaultProcessLimit": -1,
        "processLimitsByTechnology": [

        ],
        "processLimitsByProductGroup": [

        ],
        "processLimits": [

        ],
        "postScript": {
          "identifier": "",
          "stringifiedObjectReference": ""
        },
        "pre1Script": {
          "identifier": "",
          "stringifiedObjectReference": ""
        },
        "pre2Script": {
          "identifier": "",
          "stringifiedObjectReference": ""
        },
        "postScripts": [

        ],
        "pre1Scripts": [

        ],
        "pre2Scripts": [

        ],
        "defaultTimeRestrictions": [

        ],
        "timeRestrictionsByTechnology": [

        ],
        "timeRestrictionsByProductGroup": [

        ],
        "timeRestrictions": [

        ],
        "defaultReplaceTimeRestrictionsForSubRoute": [

        ],
        "replaceTimeRestrictionsByTechnologyForSubRoute": [

        ],
        "replaceTimeRestrictionsByProductGroupForSubRoute": [

        ],
        "replaceTimeRestrictionsForSubRoute": [

        ],
        "defaultReplaceTimeRestrictionsForReworkRoute": [

        ],
        "replaceTimeRestrictionsByTechnologyForReworkRoute": [

        ],
        "replaceTimeRestrictionsByProductGroupForReworkRoute": [

        ],
        "replaceTimeRestrictionsForReworkRoute": [

        ],
        "defaultProcessLagTime": 0,
        "processLagTimesByTechnology": [

        ],
        "processLagTimesByProductGroup": [

        ],
        "processLagTimes": [

        ],
        "equipmentMonitorSections": [

        ],
        "userDataSets": [

        ]
      },
      {
        "moduleNumber": "102",
        "moduleProcessDefinition": {
          "identifier": "D14ECMAUTO-REWORKCOUNT-PROD_ROUTE1_MOD-PD6_LPEEGHK-B.01",
          "stringifiedObjectReference": "SPIORLL:N:C2/#BRModuleProcessDefinition#F2#D14ECMAUTO-REWORKCOUNT-PROD_ROUTE1_MOD-PD6_LPEEGHK-B.01"
        },
        "sameTimeReleaseInChangeNoticeFlag": false,
        "moduleProcessDefinitionInChangeNotice": {
          "identifier": "",
          "stringifiedObjectReference": ""
        },
        "stage": {
          "identifier": "NA",
          "stringifiedObjectReference": "SPIORLL:N:C2/#BRStage#F2#NA"
        },
        "operationNumber": "102.107",
        "processDefinition": {
          "identifier": "EG-ECMAUTO-ROUTEEDIT-REWORK-COUNT-PD16-14LPE.01",
          "stringifiedObjectReference": "SPIORLL:N:C2/#BRProcessDefinition#F2#EG-ECMAUTO-ROUTEEDIT-REWORK-COUNT-PD16-14LPE.01"
        },
        "pdiDefinitionFlag": false,
        "pdiDefinitionResetFlag": false,
        "mainDINotChangeFlag": false,
        "mainDIScriptNotChangeFlag": false,
        "photoLayer": {
          "identifier": "3GAUTO",
          "stringifiedObjectReference": "SPIORLL:N:C2/#BRPhotoLayer#F2#3GAUTO"
        },
        "carrierCategory": {
          "identifier": "",
          "stringifiedObjectReference": ""
        },
        "processOperationNumber": "",
        "correspondingOperations": [

        ],
        "responsibleOperationNumbers": [

        ],
        "recycleSamplingOperationNumber": "",
        "mandatoryOperationRequiredFlag": false,
        "autoBankInRequiredFlag": false,
        "endOfMonitorRelationFlag": false,
        "monitorGroupReleaseFlag": false,
        "flowBatchControl": {
          "sectionControlCategory": "",
          "name": "",
          "targetOperationFlag": false,
          "flowBatchingOffsetTime": 0.0,
          "maxBatchSize": 0,
          "minBatchSize": 0,
          "minWaferCount": 0
        },
        "pilotWaferProcessControl": {
          "name": "",
          "maxPilotProcessCount": 0
        },
        "defaultMeasDCSpec": {
          "identifier": "",
          "stringifiedObjectReference": ""
        },
        "measDCSpecsByTechnology": [

        ],
        "measDCSpecsByProductGroup": [

        ],
        "measDCSpecs": [

        ],
        "defaultTestSpec": {
          "identifier": "",
          "stringifiedObjectReference": ""
        },
        "testSpecsByTechnology": [

        ],
        "testSpecsByProductGroup": [

        ],
        "testSpecs": [

        ],
        "deltaDCDefinitions": [

        ],
        "defaultDeltaDCSpecs": [

        ],
        "deltaDCSpecsByTechnology": [

        ],
        "deltaDCSpecsByProductGroup": [

        ],
        "deltaDCSpecs": [

        ],
        "subProcessDefinitions": [

        ],
        "reworkProcessDefinitions": [

        ],
        "defaultReworkLimit": -1,
        "reworkLimitsByTechnology": [

        ],
        "reworkLimitsByProductGroup": [

        ],
        "reworkLimits": [

        ],
        "defaultProcessLimit": -1,
        "processLimitsByTechnology": [

        ],
        "processLimitsByProductGroup": [

        ],
        "processLimits": [

        ],
        "postScript": {
          "identifier": "",
          "stringifiedObjectReference": ""
        },
        "pre1Script": {
          "identifier": "",
          "stringifiedObjectReference": ""
        },
        "pre2Script": {
          "identifier": "",
          "stringifiedObjectReference": ""
        },
        "postScripts": [

        ],
        "pre1Scripts": [

        ],
        "pre2Scripts": [

        ],
        "defaultTimeRestrictions": [

        ],
        "timeRestrictionsByTechnology": [

        ],
        "timeRestrictionsByProductGroup": [

        ],
        "timeRestrictions": [

        ],
        "defaultReplaceTimeRestrictionsForSubRoute": [

        ],
        "replaceTimeRestrictionsByTechnologyForSubRoute": [

        ],
        "replaceTimeRestrictionsByProductGroupForSubRoute": [

        ],
        "replaceTimeRestrictionsForSubRoute": [

        ],
        "defaultReplaceTimeRestrictionsForReworkRoute": [

        ],
        "replaceTimeRestrictionsByTechnologyForReworkRoute": [

        ],
        "replaceTimeRestrictionsByProductGroupForReworkRoute": [

        ],
        "replaceTimeRestrictionsForReworkRoute": [

        ],
        "defaultProcessLagTime": 0,
        "processLagTimesByTechnology": [

        ],
        "processLagTimesByProductGroup": [

        ],
        "processLagTimes": [

        ],
        "equipmentMonitorSections": [

        ],
        "userDataSets": [

        ]
      }
    ],
    "expandFlag": {
      "_notNeedToExpand": 0,
      "notNeedToExpand": 0,
      "_needToExpand": 0,
      "needToExpand": 0,
      "_expanded": 0,
      "expanded": 0,
      "_needToLateExpand": 0,
      "needToLateExpand": 0
    },
    "dynamicRouteFlag": false,
    "mainDIGroup": {
      "identifier": "",
      "stringifiedObjectReference": ""
    },
    "userDataSets": [
      {
        "name": "RouteType",
        "type": "String",
        "value": "FF",
        "originator": ""
      },
      {
        "name": "RouteState",
        "type": "String",
        "value": "PROD",
        "originator": ""
      },
      {
        "name": "RouteTechnology",
        "type": "String",
        "value": "14LPE",
        "originator": ""
      },
      {
        "name": "RouteProgramID",
        "type": "String",
        "value": "14LPE",
        "originator": ""
      }
    ],
    "siClassInfo": null
  }
}