{
  "objectId": {
    "identifier": "D14ECMAUTO-ROUTEEDIT-RV-TRANSCATION8-QTLT1_LPEEGHK-B.01",
    "stringifiedObjectReference": "SPIORLL:N:C2/#BRModuleProcessDefinition#F2#D14ECMAUTO-ROUTEEDIT-RV-TRANSCATION8-QTLT1_LPEEGHK-B.01"
  },
  "propertyInfo": {
    "changeNotice": {
      "identifier": "QA1509703631",
      "stringifiedObjectReference": "SPIORLL:N:C2/#BRChangeNotice#F2#QA1509703631"
    },
    "createdDateTime": "2016-11-22-02.11.21.688493",
    "createdUser": {
      "identifier": "aboggava",
      "stringifiedObjectReference": ""
    },
    "lastUpdatedDateTime": "2017-11-03-05.15.48.779108",
    "lastUpdatedUser": {
      "identifier": "X-UNITTEST",
      "stringifiedObjectReference": ""
    },
    "lastCheckOutDateTime": "2017-11-03-05.26.58.454640",
    "lastCheckOutUser": {
      "identifier": "X-UNITTEST",
      "stringifiedObjectReference": ""
    },
    "lastCheckInDateTime": "2017-11-03-05.26.58.454640",
    "lastCheckInUser": {
      "identifier": "X-UNITTEST",
      "stringifiedObjectReference": ""
    },
    "lastReleasedDateTime": "2017-11-03-05.26.58.454640",
    "lastReleasedUser": {
      "identifier": "X-UNITTEST",
      "stringifiedObjectReference": ""
    },
    "lastRollBackDateTime": "",
    "lastRollBackUser": {
      "identifier": "",
      "stringifiedObjectReference": ""
    },
    "lastArchivedDateTime": "",
    "lastArchivedUser": {
      "identifier": "",
      "stringifiedObjectReference": ""
    },
    "lastRestoredDateTime": "",
    "lastRestoredUser": {
      "identifier": "",
      "stringifiedObjectReference": ""
    },
    "lastActionUser": {
      "identifier": "X-UNITTEST",
      "stringifiedObjectReference": ""
    },
    "lastActionDateTime": "2017-11-03-05.26.58.454640",
    "lastActionEventCode": "EVRLSCN_ITEM",
    "lastComment": "",
    "currentInWorkState": "NotInWork",
    "currentSetUpState": "Released",
    "permission": "Group",
    "permissionRead": "Public",
    "permissionReleaseDelete": "Public",
    "userGroup": {
      "identifier": "MTQA",
      "stringifiedObjectReference": "SPIORLL:N:C2/#BRUserGroup#F2#MTQA"
    },
    "userGroupRead": {
      "identifier": "",
      "stringifiedObjectReference": ""
    },
    "userGroupReleaseDelete": {
      "identifier": "",
      "stringifiedObjectReference": ""
    },
    "owner": {
      "identifier": "ADMIN",
      "stringifiedObjectReference": "SPIORLL:N:C2/#BRUser#F2#ADMIN"
    },
    "batchReleaseFlag": false
  },
  "documentEntityInfo": {
    "documentSpecification": "D14ECMAUTO-ROUTEEDIT-RV-TRANSCATION8-QTLT1_LPEEGHK-B",
    "activeFlag": false,
    "reserveFlag": false,
    "obsoleteFlag": false,
    "lastActivatedUser": {
      "identifier": "",
      "stringifiedObjectReference": ""
    },
    "lastActivatedDateTime": "",
    "lastInactivatedUser": {
      "identifier": "",
      "stringifiedObjectReference": ""
    },
    "lastInactivatedDateTime": "",
    "lastReservedUser": {
      "identifier": "",
      "stringifiedObjectReference": ""
    },
    "lastReservedDateTime": "",
    "lastCanceledReserveChangeActiveUser": {
      "identifier": "",
      "stringifiedObjectReference": ""
    },
    "lastCanceledReserveChangeActiveDateTime": "",
    "lastObsoleteUser": {
      "identifier": "",
      "stringifiedObjectReference": ""
    },
    "lastObsoleteDateTime": "",
    "lastCancelObsoleteUser": {
      "identifier": "",
      "stringifiedObjectReference": ""
    },
    "lastCancelObsoleteDateTime": ""
  },
  "classInfo": {
    "identifier": "D14ECMAUTO-ROUTEEDIT-RV-TRANSCATION8-QTLT1_LPEEGHK-B.01",
    "moduleProcessDefinitionId": "D14ECMAUTO-ROUTEEDIT-RV-TRANSCATION8-QTLT1_LPEEGHK-B",
    "version": "01",
    "description": "For automation",
    "moduleProcessOperations": [
      {
        "operationNumber": "100",
        "processDefinitionId": "EG-ECMAUTO-ROUTEEDIT-RV-T-QTLT_PD1_MHSFEOL2HK-14LPE",
        "version": "01",
        "processDefinition": {
          "identifier": "EG-ECMAUTO-ROUTEEDIT-RV-T-QTLT_PD1_MHSFEOL2HK-14LPE.01",
          "stringifiedObjectReference": "SPIORLL:N:C2/#BRProcessDefinition#F2#EG-ECMAUTO-ROUTEEDIT-RV-T-QTLT_PD1_MHSFEOL2HK-14LPE.01"
        },
        "pdiDefinitionFlag": false,
        "pdiDefinitionResetFlag": false,
        "processOperationNumber": "",
        "correspondingOperations": [

        ],
        "responsibleOperationNumbers": [

        ],
        "recycleSamplingOperationNumber": "",
        "mandatoryOperationRequiredFlag": true,
        "flowBatchControl": {
          "sectionControlCategory": "",
          "name": "",
          "targetOperationFlag": false,
          "flowBatchingOffsetTime": 0.0,
          "maxBatchSize": 0,
          "minBatchSize": 0,
          "minWaferCount": 0
        },
        "pilotWaferProcessControl": {
          "name": "",
          "maxPilotProcessCount": 0
        },
        "defaultMeasDCSpec": {
          "identifier": "",
          "stringifiedObjectReference": ""
        },
        "measDCSpecsByTechnology": [

        ],
        "measDCSpecsByProductGroup": [

        ],
        "measDCSpecs": [

        ],
        "defaultTestSpec": {
          "identifier": "",
          "stringifiedObjectReference": ""
        },
        "testSpecsByTechnology": [

        ],
        "testSpecsByProductGroup": [

        ],
        "testSpecs": [

        ],
        "deltaDCDefinitions": [

        ],
        "defaultDeltaDCSpecs": [

        ],
        "deltaDCSpecsByTechnology": [

        ],
        "deltaDCSpecsByProductGroup": [

        ],
        "deltaDCSpecs": [

        ],
        "subProcessDefinitions": [

        ],
        "reworkProcessDefinitions": [

        ],
        "defaultReworkLimit": -1,
        "reworkLimitsByTechnology": [

        ],
        "reworkLimitsByProductGroup": [

        ],
        "reworkLimits": [

        ],
        "defaultProcessLimit": -1,
        "processLimitsByTechnology": [

        ],
        "processLimitsByProductGroup": [

        ],
        "processLimits": [

        ],
        "postScript": {
          "identifier": "",
          "stringifiedObjectReference": ""
        },
        "pre1Script": {
          "identifier": "",
          "stringifiedObjectReference": ""
        },
        "pre2Script": {
          "identifier": "",
          "stringifiedObjectReference": ""
        },
        "postScripts": [

        ],
        "pre1Scripts": [

        ],
        "pre2Scripts": [

        ],
        "defaultTimeRestrictions": [

        ],
        "timeRestrictionsByTechnology": [

        ],
        "timeRestrictionsByProductGroup": [

        ],
        "timeRestrictions": [

        ],
        "defaultReplaceTimeRestrictionsForSubRoute": [

        ],
        "replaceTimeRestrictionsByTechnologyForSubRoute": [

        ],
        "replaceTimeRestrictionsByProductGroupForSubRoute": [

        ],
        "replaceTimeRestrictionsForSubRoute": [

        ],
        "defaultReplaceTimeRestrictionsForReworkRoute": [

        ],
        "replaceTimeRestrictionsByTechnologyForReworkRoute": [

        ],
        "replaceTimeRestrictionsByProductGroupForReworkRoute": [

        ],
        "replaceTimeRestrictionsForReworkRoute": [

        ],
        "defaultProcessLagTime": 0,
        "processLagTimesByTechnology": [

        ],
        "processLagTimesByProductGroup": [

        ],
        "processLagTimes": [

        ],
        "equipmentMonitorSections": [

        ]
      },
      {
        "operationNumber": "101",
        "processDefinitionId": "EG-ECMAUTO-ROUTEEDIT-RV-T-QTLT_PD2_MHSFEOL2HK-14LPE",
        "version": "01",
        "processDefinition": {
          "identifier": "EG-ECMAUTO-ROUTEEDIT-RV-T-QTLT_PD2_MHSFEOL2HK-14LPE.01",
          "stringifiedObjectReference": "SPIORLL:N:C2/#BRProcessDefinition#F2#EG-ECMAUTO-ROUTEEDIT-RV-T-QTLT_PD2_MHSFEOL2HK-14LPE.01"
        },
        "pdiDefinitionFlag": false,
        "pdiDefinitionResetFlag": false,
        "processOperationNumber": "",
        "correspondingOperations": [

        ],
        "responsibleOperationNumbers": [

        ],
        "recycleSamplingOperationNumber": "",
        "mandatoryOperationRequiredFlag": true,
        "flowBatchControl": {
          "sectionControlCategory": "",
          "name": "",
          "targetOperationFlag": false,
          "flowBatchingOffsetTime": 0.0,
          "maxBatchSize": 0,
          "minBatchSize": 0,
          "minWaferCount": 0
        },
        "pilotWaferProcessControl": {
          "name": "",
          "maxPilotProcessCount": 0
        },
        "defaultMeasDCSpec": {
          "identifier": "",
          "stringifiedObjectReference": ""
        },
        "measDCSpecsByTechnology": [

        ],
        "measDCSpecsByProductGroup": [

        ],
        "measDCSpecs": [

        ],
        "defaultTestSpec": {
          "identifier": "",
          "stringifiedObjectReference": ""
        },
        "testSpecsByTechnology": [

        ],
        "testSpecsByProductGroup": [

        ],
        "testSpecs": [

        ],
        "deltaDCDefinitions": [

        ],
        "defaultDeltaDCSpecs": [

        ],
        "deltaDCSpecsByTechnology": [

        ],
        "deltaDCSpecsByProductGroup": [

        ],
        "deltaDCSpecs": [

        ],
        "subProcessDefinitions": [

        ],
        "reworkProcessDefinitions": [

        ],
        "defaultReworkLimit": -1,
        "reworkLimitsByTechnology": [

        ],
        "reworkLimitsByProductGroup": [

        ],
        "reworkLimits": [

        ],
        "defaultProcessLimit": -1,
        "processLimitsByTechnology": [

        ],
        "processLimitsByProductGroup": [

        ],
        "processLimits": [

        ],
        "postScript": {
          "identifier": "",
          "stringifiedObjectReference": ""
        },
        "pre1Script": {
          "identifier": "",
          "stringifiedObjectReference": ""
        },
        "pre2Script": {
          "identifier": "",
          "stringifiedObjectReference": ""
        },
        "postScripts": [

        ],
        "pre1Scripts": [

        ],
        "pre2Scripts": [

        ],
        "defaultTimeRestrictions": [

        ],
        "timeRestrictionsByTechnology": [

        ],
        "timeRestrictionsByProductGroup": [

        ],
        "timeRestrictions": [

        ],
        "defaultReplaceTimeRestrictionsForSubRoute": [

        ],
        "replaceTimeRestrictionsByTechnologyForSubRoute": [

        ],
        "replaceTimeRestrictionsByProductGroupForSubRoute": [

        ],
        "replaceTimeRestrictionsForSubRoute": [

        ],
        "defaultReplaceTimeRestrictionsForReworkRoute": [

        ],
        "replaceTimeRestrictionsByTechnologyForReworkRoute": [

        ],
        "replaceTimeRestrictionsByProductGroupForReworkRoute": [

        ],
        "replaceTimeRestrictionsForReworkRoute": [

        ],
        "defaultProcessLagTime": 0,
        "processLagTimesByTechnology": [

        ],
        "processLagTimesByProductGroup": [

        ],
        "processLagTimes": [

        ],
        "equipmentMonitorSections": [

        ]
      },
      {
        "operationNumber": "102",
        "processDefinitionId": "EG-ECMAUTO-ROUTEEDIT-RV-T-QTLT_PD3_MHSFEOL2HK-14LPE",
        "version": "01",
        "processDefinition": {
          "identifier": "EG-ECMAUTO-ROUTEEDIT-RV-T-QTLT_PD3_MHSFEOL2HK-14LPE.01",
          "stringifiedObjectReference": "SPIORLL:N:C2/#BRProcessDefinition#F2#EG-ECMAUTO-ROUTEEDIT-RV-T-QTLT_PD3_MHSFEOL2HK-14LPE.01"
        },
        "pdiDefinitionFlag": false,
        "pdiDefinitionResetFlag": false,
        "processOperationNumber": "",
        "correspondingOperations": [

        ],
        "responsibleOperationNumbers": [

        ],
        "recycleSamplingOperationNumber": "",
        "mandatoryOperationRequiredFlag": true,
        "flowBatchControl": {
          "sectionControlCategory": "",
          "name": "",
          "targetOperationFlag": false,
          "flowBatchingOffsetTime": 0.0,
          "maxBatchSize": 0,
          "minBatchSize": 0,
          "minWaferCount": 0
        },
        "pilotWaferProcessControl": {
          "name": "",
          "maxPilotProcessCount": 0
        },
        "defaultMeasDCSpec": {
          "identifier": "",
          "stringifiedObjectReference": ""
        },
        "measDCSpecsByTechnology": [

        ],
        "measDCSpecsByProductGroup": [

        ],
        "measDCSpecs": [

        ],
        "defaultTestSpec": {
          "identifier": "",
          "stringifiedObjectReference": ""
        },
        "testSpecsByTechnology": [

        ],
        "testSpecsByProductGroup": [

        ],
        "testSpecs": [

        ],
        "deltaDCDefinitions": [

        ],
        "defaultDeltaDCSpecs": [

        ],
        "deltaDCSpecsByTechnology": [

        ],
        "deltaDCSpecsByProductGroup": [

        ],
        "deltaDCSpecs": [

        ],
        "subProcessDefinitions": [

        ],
        "reworkProcessDefinitions": [

        ],
        "defaultReworkLimit": -1,
        "reworkLimitsByTechnology": [

        ],
        "reworkLimitsByProductGroup": [

        ],
        "reworkLimits": [

        ],
        "defaultProcessLimit": -1,
        "processLimitsByTechnology": [

        ],
        "processLimitsByProductGroup": [

        ],
        "processLimits": [

        ],
        "postScript": {
          "identifier": "",
          "stringifiedObjectReference": ""
        },
        "pre1Script": {
          "identifier": "",
          "stringifiedObjectReference": ""
        },
        "pre2Script": {
          "identifier": "",
          "stringifiedObjectReference": ""
        },
        "postScripts": [

        ],
        "pre1Scripts": [

        ],
        "pre2Scripts": [

        ],
        "defaultTimeRestrictions": [

        ],
        "timeRestrictionsByTechnology": [

        ],
        "timeRestrictionsByProductGroup": [

        ],
        "timeRestrictions": [

        ],
        "defaultReplaceTimeRestrictionsForSubRoute": [

        ],
        "replaceTimeRestrictionsByTechnologyForSubRoute": [

        ],
        "replaceTimeRestrictionsByProductGroupForSubRoute": [

        ],
        "replaceTimeRestrictionsForSubRoute": [

        ],
        "defaultReplaceTimeRestrictionsForReworkRoute": [

        ],
        "replaceTimeRestrictionsByTechnologyForReworkRoute": [

        ],
        "replaceTimeRestrictionsByProductGroupForReworkRoute": [

        ],
        "replaceTimeRestrictionsForReworkRoute": [

        ],
        "defaultProcessLagTime": 0,
        "processLagTimesByTechnology": [

        ],
        "processLagTimesByProductGroup": [

        ],
        "processLagTimes": [

        ],
        "equipmentMonitorSections": [

        ]
      },
      {
        "operationNumber": "103",
        "processDefinitionId": "EG-ECMAUTO-ROUTEEDIT-RV-T-QTLT_PD4_MHSFEOL2HK-14LPE",
        "version": "01",
        "processDefinition": {
          "identifier": "EG-ECMAUTO-ROUTEEDIT-RV-T-QTLT_PD4_MHSFEOL2HK-14LPE.01",
          "stringifiedObjectReference": "SPIORLL:N:C2/#BRProcessDefinition#F2#EG-ECMAUTO-ROUTEEDIT-RV-T-QTLT_PD4_MHSFEOL2HK-14LPE.01"
        },
        "pdiDefinitionFlag": false,
        "pdiDefinitionResetFlag": false,
        "processOperationNumber": "",
        "correspondingOperations": [

        ],
        "responsibleOperationNumbers": [

        ],
        "recycleSamplingOperationNumber": "",
        "mandatoryOperationRequiredFlag": true,
        "flowBatchControl": {
          "sectionControlCategory": "",
          "name": "",
          "targetOperationFlag": false,
          "flowBatchingOffsetTime": 0.0,
          "maxBatchSize": 0,
          "minBatchSize": 0,
          "minWaferCount": 0
        },
        "pilotWaferProcessControl": {
          "name": "",
          "maxPilotProcessCount": 0
        },
        "defaultMeasDCSpec": {
          "identifier": "",
          "stringifiedObjectReference": ""
        },
        "measDCSpecsByTechnology": [

        ],
        "measDCSpecsByProductGroup": [

        ],
        "measDCSpecs": [

        ],
        "defaultTestSpec": {
          "identifier": "",
          "stringifiedObjectReference": ""
        },
        "testSpecsByTechnology": [

        ],
        "testSpecsByProductGroup": [

        ],
        "testSpecs": [

        ],
        "deltaDCDefinitions": [

        ],
        "defaultDeltaDCSpecs": [

        ],
        "deltaDCSpecsByTechnology": [

        ],
        "deltaDCSpecsByProductGroup": [

        ],
        "deltaDCSpecs": [

        ],
        "subProcessDefinitions": [

        ],
        "reworkProcessDefinitions": [

        ],
        "defaultReworkLimit": -1,
        "reworkLimitsByTechnology": [

        ],
        "reworkLimitsByProductGroup": [

        ],
        "reworkLimits": [

        ],
        "defaultProcessLimit": -1,
        "processLimitsByTechnology": [

        ],
        "processLimitsByProductGroup": [

        ],
        "processLimits": [

        ],
        "postScript": {
          "identifier": "",
          "stringifiedObjectReference": ""
        },
        "pre1Script": {
          "identifier": "",
          "stringifiedObjectReference": ""
        },
        "pre2Script": {
          "identifier": "",
          "stringifiedObjectReference": ""
        },
        "postScripts": [

        ],
        "pre1Scripts": [

        ],
        "pre2Scripts": [

        ],
        "defaultTimeRestrictions": [

        ],
        "timeRestrictionsByTechnology": [

        ],
        "timeRestrictionsByProductGroup": [

        ],
        "timeRestrictions": [

        ],
        "defaultReplaceTimeRestrictionsForSubRoute": [

        ],
        "replaceTimeRestrictionsByTechnologyForSubRoute": [

        ],
        "replaceTimeRestrictionsByProductGroupForSubRoute": [

        ],
        "replaceTimeRestrictionsForSubRoute": [

        ],
        "defaultReplaceTimeRestrictionsForReworkRoute": [

        ],
        "replaceTimeRestrictionsByTechnologyForReworkRoute": [

        ],
        "replaceTimeRestrictionsByProductGroupForReworkRoute": [

        ],
        "replaceTimeRestrictionsForReworkRoute": [

        ],
        "defaultProcessLagTime": 0,
        "processLagTimesByTechnology": [

        ],
        "processLagTimesByProductGroup": [

        ],
        "processLagTimes": [

        ],
        "equipmentMonitorSections": [

        ]
      },
      {
        "operationNumber": "104",
        "processDefinitionId": "EG-ECMAUTO-ROUTEEDIT-RV-T-QTLT_PD5_MHSFEOL2HK-14LPE",
        "version": "01",
        "processDefinition": {
          "identifier": "EG-ECMAUTO-ROUTEEDIT-RV-T-QTLT_PD5_MHSFEOL2HK-14LPE.01",
          "stringifiedObjectReference": "SPIORLL:N:C2/#BRProcessDefinition#F2#EG-ECMAUTO-ROUTEEDIT-RV-T-QTLT_PD5_MHSFEOL2HK-14LPE.01"
        },
        "pdiDefinitionFlag": false,
        "pdiDefinitionResetFlag": false,
        "processOperationNumber": "",
        "correspondingOperations": [

        ],
        "responsibleOperationNumbers": [

        ],
        "recycleSamplingOperationNumber": "",
        "mandatoryOperationRequiredFlag": true,
        "flowBatchControl": {
          "sectionControlCategory": "",
          "name": "",
          "targetOperationFlag": false,
          "flowBatchingOffsetTime": 0.0,
          "maxBatchSize": 0,
          "minBatchSize": 0,
          "minWaferCount": 0
        },
        "pilotWaferProcessControl": {
          "name": "",
          "maxPilotProcessCount": 0
        },
        "defaultMeasDCSpec": {
          "identifier": "",
          "stringifiedObjectReference": ""
        },
        "measDCSpecsByTechnology": [

        ],
        "measDCSpecsByProductGroup": [

        ],
        "measDCSpecs": [

        ],
        "defaultTestSpec": {
          "identifier": "",
          "stringifiedObjectReference": ""
        },
        "testSpecsByTechnology": [

        ],
        "testSpecsByProductGroup": [

        ],
        "testSpecs": [

        ],
        "deltaDCDefinitions": [

        ],
        "defaultDeltaDCSpecs": [

        ],
        "deltaDCSpecsByTechnology": [

        ],
        "deltaDCSpecsByProductGroup": [

        ],
        "deltaDCSpecs": [

        ],
        "subProcessDefinitions": [

        ],
        "reworkProcessDefinitions": [

        ],
        "defaultReworkLimit": -1,
        "reworkLimitsByTechnology": [

        ],
        "reworkLimitsByProductGroup": [

        ],
        "reworkLimits": [

        ],
        "defaultProcessLimit": -1,
        "processLimitsByTechnology": [

        ],
        "processLimitsByProductGroup": [

        ],
        "processLimits": [

        ],
        "postScript": {
          "identifier": "",
          "stringifiedObjectReference": ""
        },
        "pre1Script": {
          "identifier": "",
          "stringifiedObjectReference": ""
        },
        "pre2Script": {
          "identifier": "",
          "stringifiedObjectReference": ""
        },
        "postScripts": [

        ],
        "pre1Scripts": [

        ],
        "pre2Scripts": [

        ],
        "defaultTimeRestrictions": [

        ],
        "timeRestrictionsByTechnology": [

        ],
        "timeRestrictionsByProductGroup": [

        ],
        "timeRestrictions": [

        ],
        "defaultReplaceTimeRestrictionsForSubRoute": [

        ],
        "replaceTimeRestrictionsByTechnologyForSubRoute": [

        ],
        "replaceTimeRestrictionsByProductGroupForSubRoute": [

        ],
        "replaceTimeRestrictionsForSubRoute": [

        ],
        "defaultReplaceTimeRestrictionsForReworkRoute": [

        ],
        "replaceTimeRestrictionsByTechnologyForReworkRoute": [

        ],
        "replaceTimeRestrictionsByProductGroupForReworkRoute": [

        ],
        "replaceTimeRestrictionsForReworkRoute": [

        ],
        "defaultProcessLagTime": 0,
        "processLagTimesByTechnology": [

        ],
        "processLagTimesByProductGroup": [

        ],
        "processLagTimes": [

        ],
        "equipmentMonitorSections": [

        ]
      },
      {
        "operationNumber": "105",
        "processDefinitionId": "EG-ECMAUTO-ROUTEEDIT-RV-T-QTLT_PD6_MHSFEOL2HK-14LPE",
        "version": "01",
        "processDefinition": {
          "identifier": "EG-ECMAUTO-ROUTEEDIT-RV-T-QTLT_PD6_MHSFEOL2HK-14LPE.01",
          "stringifiedObjectReference": "SPIORLL:N:C2/#BRProcessDefinition#F2#EG-ECMAUTO-ROUTEEDIT-RV-T-QTLT_PD6_MHSFEOL2HK-14LPE.01"
        },
        "pdiDefinitionFlag": false,
        "pdiDefinitionResetFlag": false,
        "processOperationNumber": "",
        "correspondingOperations": [

        ],
        "responsibleOperationNumbers": [

        ],
        "recycleSamplingOperationNumber": "",
        "mandatoryOperationRequiredFlag": true,
        "flowBatchControl": {
          "sectionControlCategory": "",
          "name": "",
          "targetOperationFlag": false,
          "flowBatchingOffsetTime": 0.0,
          "maxBatchSize": 0,
          "minBatchSize": 0,
          "minWaferCount": 0
        },
        "pilotWaferProcessControl": {
          "name": "",
          "maxPilotProcessCount": 0
        },
        "defaultMeasDCSpec": {
          "identifier": "",
          "stringifiedObjectReference": ""
        },
        "measDCSpecsByTechnology": [

        ],
        "measDCSpecsByProductGroup": [

        ],
        "measDCSpecs": [

        ],
        "defaultTestSpec": {
          "identifier": "",
          "stringifiedObjectReference": ""
        },
        "testSpecsByTechnology": [

        ],
        "testSpecsByProductGroup": [

        ],
        "testSpecs": [

        ],
        "deltaDCDefinitions": [

        ],
        "defaultDeltaDCSpecs": [

        ],
        "deltaDCSpecsByTechnology": [

        ],
        "deltaDCSpecsByProductGroup": [

        ],
        "deltaDCSpecs": [

        ],
        "subProcessDefinitions": [

        ],
        "reworkProcessDefinitions": [

        ],
        "defaultReworkLimit": -1,
        "reworkLimitsByTechnology": [

        ],
        "reworkLimitsByProductGroup": [

        ],
        "reworkLimits": [

        ],
        "defaultProcessLimit": -1,
        "processLimitsByTechnology": [

        ],
        "processLimitsByProductGroup": [

        ],
        "processLimits": [

        ],
        "postScript": {
          "identifier": "",
          "stringifiedObjectReference": ""
        },
        "pre1Script": {
          "identifier": "",
          "stringifiedObjectReference": ""
        },
        "pre2Script": {
          "identifier": "",
          "stringifiedObjectReference": ""
        },
        "postScripts": [

        ],
        "pre1Scripts": [

        ],
        "pre2Scripts": [

        ],
        "defaultTimeRestrictions": [

        ],
        "timeRestrictionsByTechnology": [

        ],
        "timeRestrictionsByProductGroup": [

        ],
        "timeRestrictions": [

        ],
        "defaultReplaceTimeRestrictionsForSubRoute": [

        ],
        "replaceTimeRestrictionsByTechnologyForSubRoute": [

        ],
        "replaceTimeRestrictionsByProductGroupForSubRoute": [

        ],
        "replaceTimeRestrictionsForSubRoute": [

        ],
        "defaultReplaceTimeRestrictionsForReworkRoute": [

        ],
        "replaceTimeRestrictionsByTechnologyForReworkRoute": [

        ],
        "replaceTimeRestrictionsByProductGroupForReworkRoute": [

        ],
        "replaceTimeRestrictionsForReworkRoute": [

        ],
        "defaultProcessLagTime": 0,
        "processLagTimesByTechnology": [

        ],
        "processLagTimesByProductGroup": [

        ],
        "processLagTimes": [

        ],
        "equipmentMonitorSections": [

        ]
      },
      {
        "operationNumber": "106",
        "processDefinitionId": "EG-ECMAUTO-ROUTEEDIT-RV-T-QTLT_PD7_MHSFEOL2HK-14LPE",
        "version": "01",
        "processDefinition": {
          "identifier": "EG-ECMAUTO-ROUTEEDIT-RV-T-QTLT_PD7_MHSFEOL2HK-14LPE.01",
          "stringifiedObjectReference": "SPIORLL:N:C2/#BRProcessDefinition#F2#EG-ECMAUTO-ROUTEEDIT-RV-T-QTLT_PD7_MHSFEOL2HK-14LPE.01"
        },
        "pdiDefinitionFlag": false,
        "pdiDefinitionResetFlag": false,
        "processOperationNumber": "",
        "correspondingOperations": [

        ],
        "responsibleOperationNumbers": [

        ],
        "recycleSamplingOperationNumber": "",
        "mandatoryOperationRequiredFlag": true,
        "flowBatchControl": {
          "sectionControlCategory": "",
          "name": "",
          "targetOperationFlag": false,
          "flowBatchingOffsetTime": 0.0,
          "maxBatchSize": 0,
          "minBatchSize": 0,
          "minWaferCount": 0
        },
        "pilotWaferProcessControl": {
          "name": "",
          "maxPilotProcessCount": 0
        },
        "defaultMeasDCSpec": {
          "identifier": "",
          "stringifiedObjectReference": ""
        },
        "measDCSpecsByTechnology": [

        ],
        "measDCSpecsByProductGroup": [

        ],
        "measDCSpecs": [

        ],
        "defaultTestSpec": {
          "identifier": "",
          "stringifiedObjectReference": ""
        },
        "testSpecsByTechnology": [

        ],
        "testSpecsByProductGroup": [

        ],
        "testSpecs": [

        ],
        "deltaDCDefinitions": [

        ],
        "defaultDeltaDCSpecs": [

        ],
        "deltaDCSpecsByTechnology": [

        ],
        "deltaDCSpecsByProductGroup": [

        ],
        "deltaDCSpecs": [

        ],
        "subProcessDefinitions": [

        ],
        "reworkProcessDefinitions": [

        ],
        "defaultReworkLimit": -1,
        "reworkLimitsByTechnology": [

        ],
        "reworkLimitsByProductGroup": [

        ],
        "reworkLimits": [

        ],
        "defaultProcessLimit": -1,
        "processLimitsByTechnology": [

        ],
        "processLimitsByProductGroup": [

        ],
        "processLimits": [

        ],
        "postScript": {
          "identifier": "",
          "stringifiedObjectReference": ""
        },
        "pre1Script": {
          "identifier": "",
          "stringifiedObjectReference": ""
        },
        "pre2Script": {
          "identifier": "",
          "stringifiedObjectReference": ""
        },
        "postScripts": [

        ],
        "pre1Scripts": [

        ],
        "pre2Scripts": [

        ],
        "defaultTimeRestrictions": [

        ],
        "timeRestrictionsByTechnology": [

        ],
        "timeRestrictionsByProductGroup": [

        ],
        "timeRestrictions": [

        ],
        "defaultReplaceTimeRestrictionsForSubRoute": [

        ],
        "replaceTimeRestrictionsByTechnologyForSubRoute": [

        ],
        "replaceTimeRestrictionsByProductGroupForSubRoute": [

        ],
        "replaceTimeRestrictionsForSubRoute": [

        ],
        "defaultReplaceTimeRestrictionsForReworkRoute": [

        ],
        "replaceTimeRestrictionsByTechnologyForReworkRoute": [

        ],
        "replaceTimeRestrictionsByProductGroupForReworkRoute": [

        ],
        "replaceTimeRestrictionsForReworkRoute": [

        ],
        "defaultProcessLagTime": 0,
        "processLagTimesByTechnology": [

        ],
        "processLagTimesByProductGroup": [

        ],
        "processLagTimes": [

        ],
        "equipmentMonitorSections": [

        ]
      },
      {
        "operationNumber": "107",
        "processDefinitionId": "EG-ECMAUTO-ROUTEEDIT-RV-T-QTLT_PD8_MHSFEOL2HK-14LPE",
        "version": "01",
        "processDefinition": {
          "identifier": "EG-ECMAUTO-ROUTEEDIT-RV-T-QTLT_PD8_MHSFEOL2HK-14LPE.01",
          "stringifiedObjectReference": "SPIORLL:N:C2/#BRProcessDefinition#F2#EG-ECMAUTO-ROUTEEDIT-RV-T-QTLT_PD8_MHSFEOL2HK-14LPE.01"
        },
        "pdiDefinitionFlag": false,
        "pdiDefinitionResetFlag": false,
        "processOperationNumber": "",
        "correspondingOperations": [

        ],
        "responsibleOperationNumbers": [

        ],
        "recycleSamplingOperationNumber": "",
        "mandatoryOperationRequiredFlag": true,
        "flowBatchControl": {
          "sectionControlCategory": "",
          "name": "",
          "targetOperationFlag": false,
          "flowBatchingOffsetTime": 0.0,
          "maxBatchSize": 0,
          "minBatchSize": 0,
          "minWaferCount": 0
        },
        "pilotWaferProcessControl": {
          "name": "",
          "maxPilotProcessCount": 0
        },
        "defaultMeasDCSpec": {
          "identifier": "",
          "stringifiedObjectReference": ""
        },
        "measDCSpecsByTechnology": [

        ],
        "measDCSpecsByProductGroup": [

        ],
        "measDCSpecs": [

        ],
        "defaultTestSpec": {
          "identifier": "",
          "stringifiedObjectReference": ""
        },
        "testSpecsByTechnology": [

        ],
        "testSpecsByProductGroup": [

        ],
        "testSpecs": [

        ],
        "deltaDCDefinitions": [

        ],
        "defaultDeltaDCSpecs": [

        ],
        "deltaDCSpecsByTechnology": [

        ],
        "deltaDCSpecsByProductGroup": [

        ],
        "deltaDCSpecs": [

        ],
        "subProcessDefinitions": [

        ],
        "reworkProcessDefinitions": [

        ],
        "defaultReworkLimit": -1,
        "reworkLimitsByTechnology": [

        ],
        "reworkLimitsByProductGroup": [

        ],
        "reworkLimits": [

        ],
        "defaultProcessLimit": -1,
        "processLimitsByTechnology": [

        ],
        "processLimitsByProductGroup": [

        ],
        "processLimits": [

        ],
        "postScript": {
          "identifier": "",
          "stringifiedObjectReference": ""
        },
        "pre1Script": {
          "identifier": "",
          "stringifiedObjectReference": ""
        },
        "pre2Script": {
          "identifier": "",
          "stringifiedObjectReference": ""
        },
        "postScripts": [

        ],
        "pre1Scripts": [

        ],
        "pre2Scripts": [

        ],
        "defaultTimeRestrictions": [

        ],
        "timeRestrictionsByTechnology": [

        ],
        "timeRestrictionsByProductGroup": [

        ],
        "timeRestrictions": [

        ],
        "defaultReplaceTimeRestrictionsForSubRoute": [

        ],
        "replaceTimeRestrictionsByTechnologyForSubRoute": [

        ],
        "replaceTimeRestrictionsByProductGroupForSubRoute": [

        ],
        "replaceTimeRestrictionsForSubRoute": [

        ],
        "defaultReplaceTimeRestrictionsForReworkRoute": [

        ],
        "replaceTimeRestrictionsByTechnologyForReworkRoute": [

        ],
        "replaceTimeRestrictionsByProductGroupForReworkRoute": [

        ],
        "replaceTimeRestrictionsForReworkRoute": [

        ],
        "defaultProcessLagTime": 0,
        "processLagTimesByTechnology": [

        ],
        "processLagTimesByProductGroup": [

        ],
        "processLagTimes": [

        ],
        "equipmentMonitorSections": [

        ]
      },
      {
        "operationNumber": "108",
        "processDefinitionId": "EG-ECMAUTO-ROUTEEDIT-RV-T-QTLT_PD9_MHSFEOL2HK-14LPE",
        "version": "01",
        "processDefinition": {
          "identifier": "EG-ECMAUTO-ROUTEEDIT-RV-T-QTLT_PD9_MHSFEOL2HK-14LPE.01",
          "stringifiedObjectReference": "SPIORLL:N:C2/#BRProcessDefinition#F2#EG-ECMAUTO-ROUTEEDIT-RV-T-QTLT_PD9_MHSFEOL2HK-14LPE.01"
        },
        "pdiDefinitionFlag": false,
        "pdiDefinitionResetFlag": false,
        "processOperationNumber": "",
        "correspondingOperations": [

        ],
        "responsibleOperationNumbers": [

        ],
        "recycleSamplingOperationNumber": "",
        "mandatoryOperationRequiredFlag": true,
        "flowBatchControl": {
          "sectionControlCategory": "",
          "name": "",
          "targetOperationFlag": false,
          "flowBatchingOffsetTime": 0.0,
          "maxBatchSize": 0,
          "minBatchSize": 0,
          "minWaferCount": 0
        },
        "pilotWaferProcessControl": {
          "name": "",
          "maxPilotProcessCount": 0
        },
        "defaultMeasDCSpec": {
          "identifier": "",
          "stringifiedObjectReference": ""
        },
        "measDCSpecsByTechnology": [

        ],
        "measDCSpecsByProductGroup": [

        ],
        "measDCSpecs": [

        ],
        "defaultTestSpec": {
          "identifier": "",
          "stringifiedObjectReference": ""
        },
        "testSpecsByTechnology": [

        ],
        "testSpecsByProductGroup": [

        ],
        "testSpecs": [

        ],
        "deltaDCDefinitions": [

        ],
        "defaultDeltaDCSpecs": [

        ],
        "deltaDCSpecsByTechnology": [

        ],
        "deltaDCSpecsByProductGroup": [

        ],
        "deltaDCSpecs": [

        ],
        "subProcessDefinitions": [

        ],
        "reworkProcessDefinitions": [

        ],
        "defaultReworkLimit": -1,
        "reworkLimitsByTechnology": [

        ],
        "reworkLimitsByProductGroup": [

        ],
        "reworkLimits": [

        ],
        "defaultProcessLimit": -1,
        "processLimitsByTechnology": [

        ],
        "processLimitsByProductGroup": [

        ],
        "processLimits": [

        ],
        "postScript": {
          "identifier": "",
          "stringifiedObjectReference": ""
        },
        "pre1Script": {
          "identifier": "",
          "stringifiedObjectReference": ""
        },
        "pre2Script": {
          "identifier": "",
          "stringifiedObjectReference": ""
        },
        "postScripts": [

        ],
        "pre1Scripts": [

        ],
        "pre2Scripts": [

        ],
        "defaultTimeRestrictions": [

        ],
        "timeRestrictionsByTechnology": [

        ],
        "timeRestrictionsByProductGroup": [

        ],
        "timeRestrictions": [

        ],
        "defaultReplaceTimeRestrictionsForSubRoute": [

        ],
        "replaceTimeRestrictionsByTechnologyForSubRoute": [

        ],
        "replaceTimeRestrictionsByProductGroupForSubRoute": [

        ],
        "replaceTimeRestrictionsForSubRoute": [

        ],
        "defaultReplaceTimeRestrictionsForReworkRoute": [

        ],
        "replaceTimeRestrictionsByTechnologyForReworkRoute": [

        ],
        "replaceTimeRestrictionsByProductGroupForReworkRoute": [

        ],
        "replaceTimeRestrictionsForReworkRoute": [

        ],
        "defaultProcessLagTime": 0,
        "processLagTimesByTechnology": [

        ],
        "processLagTimesByProductGroup": [

        ],
        "processLagTimes": [

        ],
        "equipmentMonitorSections": [

        ]
      },
      {
        "operationNumber": "109",
        "processDefinitionId": "EG-ECMAUTO-ROUTEEDIT-RV-T-QTLT_PD10_MHSFEOL2HK-14LPE",
        "version": "01",
        "processDefinition": {
          "identifier": "EG-ECMAUTO-ROUTEEDIT-RV-T-QTLT_PD10_MHSFEOL2HK-14LPE.01",
          "stringifiedObjectReference": "SPIORLL:N:C2/#BRProcessDefinition#F2#EG-ECMAUTO-ROUTEEDIT-RV-T-QTLT_PD10_MHSFEOL2HK-14LPE.01"
        },
        "pdiDefinitionFlag": false,
        "pdiDefinitionResetFlag": false,
        "processOperationNumber": "",
        "correspondingOperations": [

        ],
        "responsibleOperationNumbers": [

        ],
        "recycleSamplingOperationNumber": "",
        "mandatoryOperationRequiredFlag": true,
        "flowBatchControl": {
          "sectionControlCategory": "",
          "name": "",
          "targetOperationFlag": false,
          "flowBatchingOffsetTime": 0.0,
          "maxBatchSize": 0,
          "minBatchSize": 0,
          "minWaferCount": 0
        },
        "pilotWaferProcessControl": {
          "name": "",
          "maxPilotProcessCount": 0
        },
        "defaultMeasDCSpec": {
          "identifier": "",
          "stringifiedObjectReference": ""
        },
        "measDCSpecsByTechnology": [

        ],
        "measDCSpecsByProductGroup": [

        ],
        "measDCSpecs": [

        ],
        "defaultTestSpec": {
          "identifier": "",
          "stringifiedObjectReference": ""
        },
        "testSpecsByTechnology": [

        ],
        "testSpecsByProductGroup": [

        ],
        "testSpecs": [

        ],
        "deltaDCDefinitions": [

        ],
        "defaultDeltaDCSpecs": [

        ],
        "deltaDCSpecsByTechnology": [

        ],
        "deltaDCSpecsByProductGroup": [

        ],
        "deltaDCSpecs": [

        ],
        "subProcessDefinitions": [

        ],
        "reworkProcessDefinitions": [

        ],
        "defaultReworkLimit": -1,
        "reworkLimitsByTechnology": [

        ],
        "reworkLimitsByProductGroup": [

        ],
        "reworkLimits": [

        ],
        "defaultProcessLimit": -1,
        "processLimitsByTechnology": [

        ],
        "processLimitsByProductGroup": [

        ],
        "processLimits": [

        ],
        "postScript": {
          "identifier": "",
          "stringifiedObjectReference": ""
        },
        "pre1Script": {
          "identifier": "",
          "stringifiedObjectReference": ""
        },
        "pre2Script": {
          "identifier": "",
          "stringifiedObjectReference": ""
        },
        "postScripts": [

        ],
        "pre1Scripts": [

        ],
        "pre2Scripts": [

        ],
        "defaultTimeRestrictions": [

        ],
        "timeRestrictionsByTechnology": [

        ],
        "timeRestrictionsByProductGroup": [

        ],
        "timeRestrictions": [

        ],
        "defaultReplaceTimeRestrictionsForSubRoute": [

        ],
        "replaceTimeRestrictionsByTechnologyForSubRoute": [

        ],
        "replaceTimeRestrictionsByProductGroupForSubRoute": [

        ],
        "replaceTimeRestrictionsForSubRoute": [

        ],
        "defaultReplaceTimeRestrictionsForReworkRoute": [

        ],
        "replaceTimeRestrictionsByTechnologyForReworkRoute": [

        ],
        "replaceTimeRestrictionsByProductGroupForReworkRoute": [

        ],
        "replaceTimeRestrictionsForReworkRoute": [

        ],
        "defaultProcessLagTime": 0,
        "processLagTimesByTechnology": [

        ],
        "processLagTimesByProductGroup": [

        ],
        "processLagTimes": [

        ],
        "equipmentMonitorSections": [

        ]
      },
      {
        "operationNumber": "110",
        "processDefinitionId": "EG-ECMAUTO-ROUTEEDIT-RV-T-QTLT_PD11_MHSFEOL2HK-14LPE",
        "version": "01",
        "processDefinition": {
          "identifier": "EG-ECMAUTO-ROUTEEDIT-RV-T-QTLT_PD11_MHSFEOL2HK-14LPE.01",
          "stringifiedObjectReference": "SPIORLL:N:C2/#BRProcessDefinition#F2#EG-ECMAUTO-ROUTEEDIT-RV-T-QTLT_PD11_MHSFEOL2HK-14LPE.01"
        },
        "pdiDefinitionFlag": false,
        "pdiDefinitionResetFlag": false,
        "processOperationNumber": "",
        "correspondingOperations": [

        ],
        "responsibleOperationNumbers": [

        ],
        "recycleSamplingOperationNumber": "",
        "mandatoryOperationRequiredFlag": true,
        "flowBatchControl": {
          "sectionControlCategory": "",
          "name": "",
          "targetOperationFlag": false,
          "flowBatchingOffsetTime": 0.0,
          "maxBatchSize": 0,
          "minBatchSize": 0,
          "minWaferCount": 0
        },
        "pilotWaferProcessControl": {
          "name": "",
          "maxPilotProcessCount": 0
        },
        "defaultMeasDCSpec": {
          "identifier": "",
          "stringifiedObjectReference": ""
        },
        "measDCSpecsByTechnology": [

        ],
        "measDCSpecsByProductGroup": [

        ],
        "measDCSpecs": [

        ],
        "defaultTestSpec": {
          "identifier": "",
          "stringifiedObjectReference": ""
        },
        "testSpecsByTechnology": [

        ],
        "testSpecsByProductGroup": [

        ],
        "testSpecs": [

        ],
        "deltaDCDefinitions": [

        ],
        "defaultDeltaDCSpecs": [

        ],
        "deltaDCSpecsByTechnology": [

        ],
        "deltaDCSpecsByProductGroup": [

        ],
        "deltaDCSpecs": [

        ],
        "subProcessDefinitions": [

        ],
        "reworkProcessDefinitions": [

        ],
        "defaultReworkLimit": -1,
        "reworkLimitsByTechnology": [

        ],
        "reworkLimitsByProductGroup": [

        ],
        "reworkLimits": [

        ],
        "defaultProcessLimit": -1,
        "processLimitsByTechnology": [

        ],
        "processLimitsByProductGroup": [

        ],
        "processLimits": [

        ],
        "postScript": {
          "identifier": "",
          "stringifiedObjectReference": ""
        },
        "pre1Script": {
          "identifier": "",
          "stringifiedObjectReference": ""
        },
        "pre2Script": {
          "identifier": "",
          "stringifiedObjectReference": ""
        },
        "postScripts": [

        ],
        "pre1Scripts": [

        ],
        "pre2Scripts": [

        ],
        "defaultTimeRestrictions": [

        ],
        "timeRestrictionsByTechnology": [

        ],
        "timeRestrictionsByProductGroup": [

        ],
        "timeRestrictions": [

        ],
        "defaultReplaceTimeRestrictionsForSubRoute": [

        ],
        "replaceTimeRestrictionsByTechnologyForSubRoute": [

        ],
        "replaceTimeRestrictionsByProductGroupForSubRoute": [

        ],
        "replaceTimeRestrictionsForSubRoute": [

        ],
        "defaultReplaceTimeRestrictionsForReworkRoute": [

        ],
        "replaceTimeRestrictionsByTechnologyForReworkRoute": [

        ],
        "replaceTimeRestrictionsByProductGroupForReworkRoute": [

        ],
        "replaceTimeRestrictionsForReworkRoute": [

        ],
        "defaultProcessLagTime": 0,
        "processLagTimesByTechnology": [

        ],
        "processLagTimesByProductGroup": [

        ],
        "processLagTimes": [

        ],
        "equipmentMonitorSections": [

        ]
      },
      {
        "operationNumber": "111",
        "processDefinitionId": "EG-ECMAUTO-ROUTEEDIT-RV-T-QTLT_PD12_MHSFEOL2HK-14LPE",
        "version": "01",
        "processDefinition": {
          "identifier": "EG-ECMAUTO-ROUTEEDIT-RV-T-QTLT_PD12_MHSFEOL2HK-14LPE.01",
          "stringifiedObjectReference": "SPIORLL:N:C2/#BRProcessDefinition#F2#EG-ECMAUTO-ROUTEEDIT-RV-T-QTLT_PD12_MHSFEOL2HK-14LPE.01"
        },
        "pdiDefinitionFlag": false,
        "pdiDefinitionResetFlag": false,
        "processOperationNumber": "",
        "correspondingOperations": [

        ],
        "responsibleOperationNumbers": [

        ],
        "recycleSamplingOperationNumber": "",
        "mandatoryOperationRequiredFlag": true,
        "flowBatchControl": {
          "sectionControlCategory": "",
          "name": "",
          "targetOperationFlag": false,
          "flowBatchingOffsetTime": 0.0,
          "maxBatchSize": 0,
          "minBatchSize": 0,
          "minWaferCount": 0
        },
        "pilotWaferProcessControl": {
          "name": "",
          "maxPilotProcessCount": 0
        },
        "defaultMeasDCSpec": {
          "identifier": "",
          "stringifiedObjectReference": ""
        },
        "measDCSpecsByTechnology": [

        ],
        "measDCSpecsByProductGroup": [

        ],
        "measDCSpecs": [

        ],
        "defaultTestSpec": {
          "identifier": "",
          "stringifiedObjectReference": ""
        },
        "testSpecsByTechnology": [

        ],
        "testSpecsByProductGroup": [

        ],
        "testSpecs": [

        ],
        "deltaDCDefinitions": [

        ],
        "defaultDeltaDCSpecs": [

        ],
        "deltaDCSpecsByTechnology": [

        ],
        "deltaDCSpecsByProductGroup": [

        ],
        "deltaDCSpecs": [

        ],
        "subProcessDefinitions": [

        ],
        "reworkProcessDefinitions": [

        ],
        "defaultReworkLimit": -1,
        "reworkLimitsByTechnology": [

        ],
        "reworkLimitsByProductGroup": [

        ],
        "reworkLimits": [

        ],
        "defaultProcessLimit": -1,
        "processLimitsByTechnology": [

        ],
        "processLimitsByProductGroup": [

        ],
        "processLimits": [

        ],
        "postScript": {
          "identifier": "",
          "stringifiedObjectReference": ""
        },
        "pre1Script": {
          "identifier": "",
          "stringifiedObjectReference": ""
        },
        "pre2Script": {
          "identifier": "",
          "stringifiedObjectReference": ""
        },
        "postScripts": [

        ],
        "pre1Scripts": [

        ],
        "pre2Scripts": [

        ],
        "defaultTimeRestrictions": [

        ],
        "timeRestrictionsByTechnology": [

        ],
        "timeRestrictionsByProductGroup": [

        ],
        "timeRestrictions": [

        ],
        "defaultReplaceTimeRestrictionsForSubRoute": [

        ],
        "replaceTimeRestrictionsByTechnologyForSubRoute": [

        ],
        "replaceTimeRestrictionsByProductGroupForSubRoute": [

        ],
        "replaceTimeRestrictionsForSubRoute": [

        ],
        "defaultReplaceTimeRestrictionsForReworkRoute": [

        ],
        "replaceTimeRestrictionsByTechnologyForReworkRoute": [

        ],
        "replaceTimeRestrictionsByProductGroupForReworkRoute": [

        ],
        "replaceTimeRestrictionsForReworkRoute": [

        ],
        "defaultProcessLagTime": 0,
        "processLagTimesByTechnology": [

        ],
        "processLagTimesByProductGroup": [

        ],
        "processLagTimes": [

        ],
        "equipmentMonitorSections": [

        ]
      }
    ],
    "pdiDefinitionFlag": false,
    "pdiDefinitionResetFlag": false,
    "userDataSets": [

    ],
    "siClassInfo": null
  }
}