{
  "objectId": {
    "identifier": "D14ECMAUTO-RE-ADD-MODULE-MODPD4_LPEEGHK-B.01",
    "stringifiedObjectReference": "SPIORLL:N:C2/#BRModuleProcessDefinition#F2#D14ECMAUTO-RE-ADD-MODULE-MODPD4_LPEEGHK-B.01"
  },
  "propertyInfo": {
    "changeNotice": {
      "identifier": "",
      "stringifiedObjectReference": ""
    },
    "createdDateTime": "2016-11-25-06.53.22.357636",
    "createdUser": {
      "identifier": "aboggava",
      "stringifiedObjectReference": ""
    },
    "lastUpdatedDateTime": "2017-11-17-00.55.00.325890",
    "lastUpdatedUser": {
      "identifier": "lpamu",
      "stringifiedObjectReference": ""
    },
    "lastCheckOutDateTime": "2017-11-17-01.01.10.442231",
    "lastCheckOutUser": {
      "identifier": "lpamu",
      "stringifiedObjectReference": ""
    },
    "lastCheckInDateTime": "2017-11-17-01.01.21.871794",
    "lastCheckInUser": {
      "identifier": "lpamu",
      "stringifiedObjectReference": ""
    },
    "lastReleasedDateTime": "2017-11-17-01.01.21.871794",
    "lastReleasedUser": {
      "identifier": "lpamu",
      "stringifiedObjectReference": ""
    },
    "lastRollBackDateTime": "",
    "lastRollBackUser": {
      "identifier": "",
      "stringifiedObjectReference": ""
    },
    "lastArchivedDateTime": "",
    "lastArchivedUser": {
      "identifier": "",
      "stringifiedObjectReference": ""
    },
    "lastRestoredDateTime": "",
    "lastRestoredUser": {
      "identifier": "",
      "stringifiedObjectReference": ""
    },
    "lastActionUser": {
      "identifier": "lpamu",
      "stringifiedObjectReference": ""
    },
    "lastActionDateTime": "2017-11-17-01.01.21.871794",
    "lastActionEventCode": "EVRLSOBJ",
    "lastComment": "",
    "currentInWorkState": "NotInWork",
    "currentSetUpState": "Released",
    "permission": "Public",
    "permissionRead": "Public",
    "permissionReleaseDelete": "Public",
    "userGroup": {
      "identifier": "",
      "stringifiedObjectReference": ""
    },
    "userGroupRead": {
      "identifier": "",
      "stringifiedObjectReference": ""
    },
    "userGroupReleaseDelete": {
      "identifier": "",
      "stringifiedObjectReference": ""
    },
    "owner": {
      "identifier": "aboggava",
      "stringifiedObjectReference": "SPIORLL:N:C2/#BRUser#F2#aboggava"
    },
    "batchReleaseFlag": false
  },
  "documentEntityInfo": {
    "documentSpecification": "D14ECMAUTO-RE-ADD-MODULE-MODPD4_LPEEGHK-B",
    "activeFlag": false,
    "reserveFlag": false,
    "obsoleteFlag": false,
    "lastActivatedUser": {
      "identifier": "",
      "stringifiedObjectReference": ""
    },
    "lastActivatedDateTime": "",
    "lastInactivatedUser": {
      "identifier": "",
      "stringifiedObjectReference": ""
    },
    "lastInactivatedDateTime": "",
    "lastReservedUser": {
      "identifier": "",
      "stringifiedObjectReference": ""
    },
    "lastReservedDateTime": "",
    "lastCanceledReserveChangeActiveUser": {
      "identifier": "",
      "stringifiedObjectReference": ""
    },
    "lastCanceledReserveChangeActiveDateTime": "",
    "lastObsoleteUser": {
      "identifier": "",
      "stringifiedObjectReference": ""
    },
    "lastObsoleteDateTime": "",
    "lastCancelObsoleteUser": {
      "identifier": "",
      "stringifiedObjectReference": ""
    },
    "lastCancelObsoleteDateTime": ""
  },
  "classInfo": {
    "identifier": "D14ECMAUTO-RE-ADD-MODULE-MODPD4_LPEEGHK-B.01",
    "moduleProcessDefinitionId": "D14ECMAUTO-RE-ADD-MODULE-MODPD4_LPEEGHK-B",
    "version": "01",
    "description": "For automation",
    "moduleProcessOperations": [
      {
        "operationNumber": "1000",
        "processDefinitionId": "EG-ECMAUTO-ROUTEEDIT-NEW-QTLT1_MHSFEOL2HK-14LPE",
        "version": "01",
        "processDefinition": {
          "identifier": "EG-ECMAUTO-ROUTEEDIT-NEW-QTLT1_MHSFEOL2HK-14LPE.01",
          "stringifiedObjectReference": "SPIORLL:N:C2/#BRProcessDefinition#F2#EG-ECMAUTO-ROUTEEDIT-NEW-QTLT1_MHSFEOL2HK-14LPE.01"
        },
        "pdiDefinitionFlag": false,
        "pdiDefinitionResetFlag": false,
        "processOperationNumber": "",
        "correspondingOperations": [

        ],
        "responsibleOperationNumbers": [

        ],
        "recycleSamplingOperationNumber": "",
        "mandatoryOperationRequiredFlag": true,
        "flowBatchControl": {
          "sectionControlCategory": "",
          "name": "",
          "targetOperationFlag": false,
          "flowBatchingOffsetTime": 0.0,
          "maxBatchSize": 0,
          "minBatchSize": 0,
          "minWaferCount": 0
        },
        "pilotWaferProcessControl": {
          "name": "",
          "maxPilotProcessCount": 0
        },
        "defaultMeasDCSpec": {
          "identifier": "",
          "stringifiedObjectReference": ""
        },
        "measDCSpecsByTechnology": [

        ],
        "measDCSpecsByProductGroup": [

        ],
        "measDCSpecs": [

        ],
        "defaultTestSpec": {
          "identifier": "",
          "stringifiedObjectReference": ""
        },
        "testSpecsByTechnology": [

        ],
        "testSpecsByProductGroup": [

        ],
        "testSpecs": [

        ],
        "deltaDCDefinitions": [

        ],
        "defaultDeltaDCSpecs": [

        ],
        "deltaDCSpecsByTechnology": [

        ],
        "deltaDCSpecsByProductGroup": [

        ],
        "deltaDCSpecs": [

        ],
        "subProcessDefinitions": [

        ],
        "reworkProcessDefinitions": [

        ],
        "defaultReworkLimit": -1,
        "reworkLimitsByTechnology": [

        ],
        "reworkLimitsByProductGroup": [

        ],
        "reworkLimits": [

        ],
        "defaultProcessLimit": -1,
        "processLimitsByTechnology": [

        ],
        "processLimitsByProductGroup": [

        ],
        "processLimits": [

        ],
        "postScript": {
          "identifier": "",
          "stringifiedObjectReference": ""
        },
        "pre1Script": {
          "identifier": "",
          "stringifiedObjectReference": ""
        },
        "pre2Script": {
          "identifier": "",
          "stringifiedObjectReference": ""
        },
        "postScripts": [

        ],
        "pre1Scripts": [

        ],
        "pre2Scripts": [

        ],
        "defaultTimeRestrictions": [

        ],
        "timeRestrictionsByTechnology": [

        ],
        "timeRestrictionsByProductGroup": [

        ],
        "timeRestrictions": [

        ],
        "defaultReplaceTimeRestrictionsForSubRoute": [

        ],
        "replaceTimeRestrictionsByTechnologyForSubRoute": [

        ],
        "replaceTimeRestrictionsByProductGroupForSubRoute": [

        ],
        "replaceTimeRestrictionsForSubRoute": [

        ],
        "defaultReplaceTimeRestrictionsForReworkRoute": [

        ],
        "replaceTimeRestrictionsByTechnologyForReworkRoute": [

        ],
        "replaceTimeRestrictionsByProductGroupForReworkRoute": [

        ],
        "replaceTimeRestrictionsForReworkRoute": [

        ],
        "defaultProcessLagTime": 0,
        "processLagTimesByTechnology": [

        ],
        "processLagTimesByProductGroup": [

        ],
        "processLagTimes": [

        ],
        "equipmentMonitorSections": [

        ]
      },
      {
        "operationNumber": "2000",
        "processDefinitionId": "EG-ECMAUTO-ROUTEEDIT-NEW-QTLT2_MHSFEOL2HK-14LPE",
        "version": "01",
        "processDefinition": {
          "identifier": "EG-ECMAUTO-ROUTEEDIT-NEW-QTLT2_MHSFEOL2HK-14LPE.01",
          "stringifiedObjectReference": "SPIORLL:N:C2/#BRProcessDefinition#F2#EG-ECMAUTO-ROUTEEDIT-NEW-QTLT2_MHSFEOL2HK-14LPE.01"
        },
        "pdiDefinitionFlag": false,
        "pdiDefinitionResetFlag": false,
        "processOperationNumber": "",
        "correspondingOperations": [

        ],
        "responsibleOperationNumbers": [

        ],
        "recycleSamplingOperationNumber": "",
        "mandatoryOperationRequiredFlag": true,
        "flowBatchControl": {
          "sectionControlCategory": "",
          "name": "",
          "targetOperationFlag": false,
          "flowBatchingOffsetTime": 0.0,
          "maxBatchSize": 0,
          "minBatchSize": 0,
          "minWaferCount": 0
        },
        "pilotWaferProcessControl": {
          "name": "",
          "maxPilotProcessCount": 0
        },
        "defaultMeasDCSpec": {
          "identifier": "",
          "stringifiedObjectReference": ""
        },
        "measDCSpecsByTechnology": [

        ],
        "measDCSpecsByProductGroup": [

        ],
        "measDCSpecs": [

        ],
        "defaultTestSpec": {
          "identifier": "",
          "stringifiedObjectReference": ""
        },
        "testSpecsByTechnology": [

        ],
        "testSpecsByProductGroup": [

        ],
        "testSpecs": [

        ],
        "deltaDCDefinitions": [

        ],
        "defaultDeltaDCSpecs": [

        ],
        "deltaDCSpecsByTechnology": [

        ],
        "deltaDCSpecsByProductGroup": [

        ],
        "deltaDCSpecs": [

        ],
        "subProcessDefinitions": [

        ],
        "reworkProcessDefinitions": [

        ],
        "defaultReworkLimit": -1,
        "reworkLimitsByTechnology": [

        ],
        "reworkLimitsByProductGroup": [

        ],
        "reworkLimits": [

        ],
        "defaultProcessLimit": -1,
        "processLimitsByTechnology": [

        ],
        "processLimitsByProductGroup": [

        ],
        "processLimits": [

        ],
        "postScript": {
          "identifier": "",
          "stringifiedObjectReference": ""
        },
        "pre1Script": {
          "identifier": "",
          "stringifiedObjectReference": ""
        },
        "pre2Script": {
          "identifier": "",
          "stringifiedObjectReference": ""
        },
        "postScripts": [

        ],
        "pre1Scripts": [

        ],
        "pre2Scripts": [

        ],
        "defaultTimeRestrictions": [

        ],
        "timeRestrictionsByTechnology": [

        ],
        "timeRestrictionsByProductGroup": [

        ],
        "timeRestrictions": [

        ],
        "defaultReplaceTimeRestrictionsForSubRoute": [

        ],
        "replaceTimeRestrictionsByTechnologyForSubRoute": [

        ],
        "replaceTimeRestrictionsByProductGroupForSubRoute": [

        ],
        "replaceTimeRestrictionsForSubRoute": [

        ],
        "defaultReplaceTimeRestrictionsForReworkRoute": [

        ],
        "replaceTimeRestrictionsByTechnologyForReworkRoute": [

        ],
        "replaceTimeRestrictionsByProductGroupForReworkRoute": [

        ],
        "replaceTimeRestrictionsForReworkRoute": [

        ],
        "defaultProcessLagTime": 0,
        "processLagTimesByTechnology": [

        ],
        "processLagTimesByProductGroup": [

        ],
        "processLagTimes": [

        ],
        "equipmentMonitorSections": [

        ]
      },
      {
        "operationNumber": "3000",
        "processDefinitionId": "EG-ECMAUTO-ROUTEEDIT-NEW-QTLT3_MHSFEOL2HK-14LPE",
        "version": "01",
        "processDefinition": {
          "identifier": "EG-ECMAUTO-ROUTEEDIT-NEW-QTLT3_MHSFEOL2HK-14LPE.01",
          "stringifiedObjectReference": "SPIORLL:N:C2/#BRProcessDefinition#F2#EG-ECMAUTO-ROUTEEDIT-NEW-QTLT3_MHSFEOL2HK-14LPE.01"
        },
        "pdiDefinitionFlag": false,
        "pdiDefinitionResetFlag": false,
        "processOperationNumber": "",
        "correspondingOperations": [

        ],
        "responsibleOperationNumbers": [

        ],
        "recycleSamplingOperationNumber": "",
        "mandatoryOperationRequiredFlag": true,
        "flowBatchControl": {
          "sectionControlCategory": "",
          "name": "",
          "targetOperationFlag": false,
          "flowBatchingOffsetTime": 0.0,
          "maxBatchSize": 0,
          "minBatchSize": 0,
          "minWaferCount": 0
        },
        "pilotWaferProcessControl": {
          "name": "",
          "maxPilotProcessCount": 0
        },
        "defaultMeasDCSpec": {
          "identifier": "",
          "stringifiedObjectReference": ""
        },
        "measDCSpecsByTechnology": [

        ],
        "measDCSpecsByProductGroup": [

        ],
        "measDCSpecs": [

        ],
        "defaultTestSpec": {
          "identifier": "",
          "stringifiedObjectReference": ""
        },
        "testSpecsByTechnology": [

        ],
        "testSpecsByProductGroup": [

        ],
        "testSpecs": [

        ],
        "deltaDCDefinitions": [

        ],
        "defaultDeltaDCSpecs": [

        ],
        "deltaDCSpecsByTechnology": [

        ],
        "deltaDCSpecsByProductGroup": [

        ],
        "deltaDCSpecs": [

        ],
        "subProcessDefinitions": [

        ],
        "reworkProcessDefinitions": [

        ],
        "defaultReworkLimit": -1,
        "reworkLimitsByTechnology": [

        ],
        "reworkLimitsByProductGroup": [

        ],
        "reworkLimits": [

        ],
        "defaultProcessLimit": -1,
        "processLimitsByTechnology": [

        ],
        "processLimitsByProductGroup": [

        ],
        "processLimits": [

        ],
        "postScript": {
          "identifier": "",
          "stringifiedObjectReference": ""
        },
        "pre1Script": {
          "identifier": "",
          "stringifiedObjectReference": ""
        },
        "pre2Script": {
          "identifier": "",
          "stringifiedObjectReference": ""
        },
        "postScripts": [

        ],
        "pre1Scripts": [

        ],
        "pre2Scripts": [

        ],
        "defaultTimeRestrictions": [

        ],
        "timeRestrictionsByTechnology": [

        ],
        "timeRestrictionsByProductGroup": [

        ],
        "timeRestrictions": [

        ],
        "defaultReplaceTimeRestrictionsForSubRoute": [

        ],
        "replaceTimeRestrictionsByTechnologyForSubRoute": [

        ],
        "replaceTimeRestrictionsByProductGroupForSubRoute": [

        ],
        "replaceTimeRestrictionsForSubRoute": [

        ],
        "defaultReplaceTimeRestrictionsForReworkRoute": [

        ],
        "replaceTimeRestrictionsByTechnologyForReworkRoute": [

        ],
        "replaceTimeRestrictionsByProductGroupForReworkRoute": [

        ],
        "replaceTimeRestrictionsForReworkRoute": [

        ],
        "defaultProcessLagTime": 0,
        "processLagTimesByTechnology": [

        ],
        "processLagTimesByProductGroup": [

        ],
        "processLagTimes": [

        ],
        "equipmentMonitorSections": [

        ]
      },
      {
        "operationNumber": "4000",
        "processDefinitionId": "EG-ECMAUTO-ROUTEEDIT-NEW-QTLT4_MHSFEOL2HK-14LPE",
        "version": "01",
        "processDefinition": {
          "identifier": "EG-ECMAUTO-ROUTEEDIT-NEW-QTLT4_MHSFEOL2HK-14LPE.01",
          "stringifiedObjectReference": "SPIORLL:N:C2/#BRProcessDefinition#F2#EG-ECMAUTO-ROUTEEDIT-NEW-QTLT4_MHSFEOL2HK-14LPE.01"
        },
        "pdiDefinitionFlag": false,
        "pdiDefinitionResetFlag": false,
        "processOperationNumber": "",
        "correspondingOperations": [

        ],
        "responsibleOperationNumbers": [

        ],
        "recycleSamplingOperationNumber": "",
        "mandatoryOperationRequiredFlag": true,
        "flowBatchControl": {
          "sectionControlCategory": "",
          "name": "",
          "targetOperationFlag": false,
          "flowBatchingOffsetTime": 0.0,
          "maxBatchSize": 0,
          "minBatchSize": 0,
          "minWaferCount": 0
        },
        "pilotWaferProcessControl": {
          "name": "",
          "maxPilotProcessCount": 0
        },
        "defaultMeasDCSpec": {
          "identifier": "",
          "stringifiedObjectReference": ""
        },
        "measDCSpecsByTechnology": [

        ],
        "measDCSpecsByProductGroup": [

        ],
        "measDCSpecs": [

        ],
        "defaultTestSpec": {
          "identifier": "",
          "stringifiedObjectReference": ""
        },
        "testSpecsByTechnology": [

        ],
        "testSpecsByProductGroup": [

        ],
        "testSpecs": [

        ],
        "deltaDCDefinitions": [

        ],
        "defaultDeltaDCSpecs": [

        ],
        "deltaDCSpecsByTechnology": [

        ],
        "deltaDCSpecsByProductGroup": [

        ],
        "deltaDCSpecs": [

        ],
        "subProcessDefinitions": [

        ],
        "reworkProcessDefinitions": [

        ],
        "defaultReworkLimit": -1,
        "reworkLimitsByTechnology": [

        ],
        "reworkLimitsByProductGroup": [

        ],
        "reworkLimits": [

        ],
        "defaultProcessLimit": -1,
        "processLimitsByTechnology": [

        ],
        "processLimitsByProductGroup": [

        ],
        "processLimits": [

        ],
        "postScript": {
          "identifier": "",
          "stringifiedObjectReference": ""
        },
        "pre1Script": {
          "identifier": "",
          "stringifiedObjectReference": ""
        },
        "pre2Script": {
          "identifier": "",
          "stringifiedObjectReference": ""
        },
        "postScripts": [

        ],
        "pre1Scripts": [

        ],
        "pre2Scripts": [

        ],
        "defaultTimeRestrictions": [

        ],
        "timeRestrictionsByTechnology": [

        ],
        "timeRestrictionsByProductGroup": [

        ],
        "timeRestrictions": [

        ],
        "defaultReplaceTimeRestrictionsForSubRoute": [

        ],
        "replaceTimeRestrictionsByTechnologyForSubRoute": [

        ],
        "replaceTimeRestrictionsByProductGroupForSubRoute": [

        ],
        "replaceTimeRestrictionsForSubRoute": [

        ],
        "defaultReplaceTimeRestrictionsForReworkRoute": [

        ],
        "replaceTimeRestrictionsByTechnologyForReworkRoute": [

        ],
        "replaceTimeRestrictionsByProductGroupForReworkRoute": [

        ],
        "replaceTimeRestrictionsForReworkRoute": [

        ],
        "defaultProcessLagTime": 0,
        "processLagTimesByTechnology": [

        ],
        "processLagTimesByProductGroup": [

        ],
        "processLagTimes": [

        ],
        "equipmentMonitorSections": [

        ]
      }
    ],
    "pdiDefinitionFlag": false,
    "pdiDefinitionResetFlag": false,
    "userDataSets": [

    ],
    "siClassInfo": null
  }
}