{
  "objectId": {
    "identifier": "EG-ECMAUTO-ROUTEEDIT-PROCESS-COUNT-PD10-14LPE.01",
    "stringifiedObjectReference": "SPIORLL:N:C2/#BRProcessDefinition#F2#EG-ECMAUTO-ROUTEEDIT-PROCESS-COUNT-PD10-14LPE.01"
  },
  "propertyInfo": {
    "changeNotice": {
      "identifier": "QA1509703631",
      "stringifiedObjectReference": "SPIORLL:N:C2/#BRChangeNotice#F2#QA1509703631"
    },
    "createdDateTime": "2016-11-21-13.22.09.548681",
    "createdUser": {
      "identifier": "aboggava",
      "stringifiedObjectReference": ""
    },
    "lastUpdatedDateTime": "2017-11-03-05.08.21.074994",
    "lastUpdatedUser": {
      "identifier": "X-UNITTEST",
      "stringifiedObjectReference": ""
    },
    "lastCheckOutDateTime": "2017-11-03-05.26.58.454640",
    "lastCheckOutUser": {
      "identifier": "X-UNITTEST",
      "stringifiedObjectReference": ""
    },
    "lastCheckInDateTime": "2017-11-03-05.26.58.454640",
    "lastCheckInUser": {
      "identifier": "X-UNITTEST",
      "stringifiedObjectReference": ""
    },
    "lastReleasedDateTime": "2017-11-03-05.26.58.454640",
    "lastReleasedUser": {
      "identifier": "X-UNITTEST",
      "stringifiedObjectReference": ""
    },
    "lastRollBackDateTime": "",
    "lastRollBackUser": {
      "identifier": "",
      "stringifiedObjectReference": ""
    },
    "lastArchivedDateTime": "",
    "lastArchivedUser": {
      "identifier": "",
      "stringifiedObjectReference": ""
    },
    "lastRestoredDateTime": "",
    "lastRestoredUser": {
      "identifier": "",
      "stringifiedObjectReference": ""
    },
    "lastActionUser": {
      "identifier": "X-UNITTEST",
      "stringifiedObjectReference": ""
    },
    "lastActionDateTime": "2017-11-03-05.26.58.454640",
    "lastActionEventCode": "EVRLSCN_ITEM",
    "lastComment": "",
    "currentInWorkState": "NotInWork",
    "currentSetUpState": "Released",
    "permission": "Group",
    "permissionRead": "Public",
    "permissionReleaseDelete": "Public",
    "userGroup": {
      "identifier": "MTQA",
      "stringifiedObjectReference": "SPIORLL:N:C2/#BRUserGroup#F2#MTQA"
    },
    "userGroupRead": {
      "identifier": "",
      "stringifiedObjectReference": ""
    },
    "userGroupReleaseDelete": {
      "identifier": "",
      "stringifiedObjectReference": ""
    },
    "owner": {
      "identifier": "ADMIN",
      "stringifiedObjectReference": "SPIORLL:N:C2/#BRUser#F2#ADMIN"
    },
    "batchReleaseFlag": false
  },
  "documentEntityInfo": {
    "documentSpecification": "EG-ECMAUTO-ROUTEEDIT-PROCESS-COUNT-PD10-14LPE",
    "activeFlag": false,
    "reserveFlag": false,
    "obsoleteFlag": false,
    "lastActivatedUser": {
      "identifier": "",
      "stringifiedObjectReference": ""
    },
    "lastActivatedDateTime": "",
    "lastInactivatedUser": {
      "identifier": "",
      "stringifiedObjectReference": ""
    },
    "lastInactivatedDateTime": "",
    "lastReservedUser": {
      "identifier": "",
      "stringifiedObjectReference": ""
    },
    "lastReservedDateTime": "",
    "lastCanceledReserveChangeActiveUser": {
      "identifier": "",
      "stringifiedObjectReference": ""
    },
    "lastCanceledReserveChangeActiveDateTime": "",
    "lastObsoleteUser": {
      "identifier": "",
      "stringifiedObjectReference": ""
    },
    "lastObsoleteDateTime": "",
    "lastCancelObsoleteUser": {
      "identifier": "",
      "stringifiedObjectReference": ""
    },
    "lastCancelObsoleteDateTime": ""
  },
  "classInfo": {
    "identifier": "EG-ECMAUTO-ROUTEEDIT-PROCESS-COUNT-PD10-14LPE.01",
    "processDefinitionId": "EG-ECMAUTO-ROUTEEDIT-PROCESS-COUNT-PD10-14LPE",
    "version": "01",
    "processDefinitionName": "For Automation",
    "pdType": "Process",
    "description": "",
    "department": {
      "identifier": "TST",
      "stringifiedObjectReference": "SPIORLL:N:C2/#BRDepartment#F2#TST"
    },
    "fpcCategory": {
      "identifier": "",
      "stringifiedObjectReference": ""
    },
    "whiteDefinitionFlag": false,
    "defaultLogicalRecipeId": "A-P-ECMAUTO-PROCESS-COUNT-LRA-PR1-FULLRA-TOHK",
    "defaultLogicalRecipeVersion": "01",
    "defaultLogicalRecipe": {
      "identifier": "A-P-ECMAUTO-PROCESS-COUNT-LRA-PR1-FULLRA-TOHK.01",
      "stringifiedObjectReference": "SPIORLL:N:C2/#BRLogicalRecipe#F2#A-P-ECMAUTO-PROCESS-COUNT-LRA-PR1-FULLRA-TOHK.01"
    },
    "logicalRecipesByTechnology": [

    ],
    "logicalRecipesByProductGroup": [

    ],
    "logicalRecipes": [

    ],
    "specificEquipmentsByTechnology": [

    ],
    "specificEquipmentsByProductGroup": [

    ],
    "specificEquipments": [

    ],
    "equipments": [

    ],
    "standardProcessTime": 2.0,
    "standardWaitTime": 1.0,
    "standardWPH": 1,
    "parts": [

    ],
    "pdiDefinitionFlag": false,
    "pdiDefinitionResetFlag": false,
    "equipmentDIDefinitionFlag": false,
    "equipmentDIDefinitionResetFlag": false,
    "userDataSets": [

    ],
    "siClassInfo": null
  }
}