{
  "objectId": {
    "identifier": "ECMAUTO-BANK-PG",
    "stringifiedObjectReference": "SPIORLL:N:C2/#BRProductGroup#F2#ECMAUTO-BANK-PG"
  },
  "propertyInfo": {
    "changeNotice": {
      "identifier": "QA1509703565",
      "stringifiedObjectReference": "SPIORLL:N:C2/#BRChangeNotice#F2#QA1509703565"
    },
    "createdDateTime": "2016-11-23-01.16.07.640865",
    "createdUser": {
      "identifier": "aboggava",
      "stringifiedObjectReference": ""
    },
    "lastUpdatedDateTime": "2017-11-03-05.06.56.069740",
    "lastUpdatedUser": {
      "identifier": "X-UNITTEST",
      "stringifiedObjectReference": ""
    },
    "lastCheckOutDateTime": "2017-11-03-05.07.02.033828",
    "lastCheckOutUser": {
      "identifier": "X-UNITTEST",
      "stringifiedObjectReference": ""
    },
    "lastCheckInDateTime": "2017-11-03-05.07.02.033828",
    "lastCheckInUser": {
      "identifier": "X-UNITTEST",
      "stringifiedObjectReference": ""
    },
    "lastReleasedDateTime": "2017-11-03-05.07.02.033828",
    "lastReleasedUser": {
      "identifier": "X-UNITTEST",
      "stringifiedObjectReference": ""
    },
    "lastRollBackDateTime": "",
    "lastRollBackUser": {
      "identifier": "",
      "stringifiedObjectReference": ""
    },
    "lastArchivedDateTime": "",
    "lastArchivedUser": {
      "identifier": "",
      "stringifiedObjectReference": ""
    },
    "lastRestoredDateTime": "",
    "lastRestoredUser": {
      "identifier": "",
      "stringifiedObjectReference": ""
    },
    "lastActionUser": {
      "identifier": "X-UNITTEST",
      "stringifiedObjectReference": ""
    },
    "lastActionDateTime": "2017-11-03-05.07.02.033828",
    "lastActionEventCode": "EVRLSCN_ITEM",
    "lastComment": "",
    "currentInWorkState": "NotInWork",
    "currentSetUpState": "Released",
    "permission": "Group",
    "permissionRead": "Public",
    "permissionReleaseDelete": "Public",
    "userGroup": {
      "identifier": "MTQA",
      "stringifiedObjectReference": "SPIORLL:N:C2/#BRUserGroup#F2#MTQA"
    },
    "userGroupRead": {
      "identifier": "",
      "stringifiedObjectReference": ""
    },
    "userGroupReleaseDelete": {
      "identifier": "",
      "stringifiedObjectReference": ""
    },
    "owner": {
      "identifier": "ADMIN",
      "stringifiedObjectReference": "SPIORLL:N:C2/#BRUser#F2#ADMIN"
    },
    "batchReleaseFlag": false
  },
  "documentEntityInfo": {
    "documentSpecification": "",
    "activeFlag": false,
    "reserveFlag": false,
    "obsoleteFlag": false,
    "lastActivatedUser": {
      "identifier": "",
      "stringifiedObjectReference": ""
    },
    "lastActivatedDateTime": "",
    "lastInactivatedUser": {
      "identifier": "",
      "stringifiedObjectReference": ""
    },
    "lastInactivatedDateTime": "",
    "lastReservedUser": {
      "identifier": "",
      "stringifiedObjectReference": ""
    },
    "lastReservedDateTime": "",
    "lastCanceledReserveChangeActiveUser": {
      "identifier": "",
      "stringifiedObjectReference": ""
    },
    "lastCanceledReserveChangeActiveDateTime": "",
    "lastObsoleteUser": {
      "identifier": "",
      "stringifiedObjectReference": ""
    },
    "lastObsoleteDateTime": "",
    "lastCancelObsoleteUser": {
      "identifier": "",
      "stringifiedObjectReference": ""
    },
    "lastCancelObsoleteDateTime": ""
  },
  "classInfo": {
    "identifier": "ECMAUTO-BANK-PG",
    "productGroupId": "ECMAUTO-BANK-PG",
    "description": "TERMINATED",
    "technology": {
      "identifier": "ECM_A_BANK",
      "stringifiedObjectReference": "SPIORLL:N:C2/#BRTechnology#F2#ECM_A_BANK"
    },
    "productGroupOwner": {
      "identifier": "G-INT",
      "stringifiedObjectReference": "SPIORLL:N:C2/#BRUser#F2#G-INT"
    },
    "chipSize": {
      "x": 999.0,
      "y": 0.0
    },
    "plannedCycleTime": 0.0,
    "plannedYield": 100.0,
    "grossDieCount": 696,
    "userGroups": [

    ],
    "userDataSets": [
      {
        "name": "DeviceID",
        "type": "String",
        "value": "1460E",
        "originator": ""
      },
      {
        "name": "RouteType",
        "type": "String",
        "value": "FF",
        "originator": ""
      },
      {
        "name": "ProductGroupProgramID",
        "type": "String",
        "value": "obsolete",
        "originator": ""
      },
      {
        "name": "WaferLayout",
        "type": "String",
        "value": "1460E",
        "originator": ""
      }
    ],
    "siClassInfo": null
  }
}