{
  "objectId": {
    "identifier": "EAGLEECMAUTO-U-T-IMMEDIATEHOLD.01",
    "stringifiedObjectReference": "SPIORLL:N:C2/#BRProduct#F2#EAGLEECMAUTO-U-T-IMMEDIATEHOLD.01"
  },
  "propertyInfo": {
    "changeNotice": {
      "identifier": "QA1509703631",
      "stringifiedObjectReference": "SPIORLL:N:C2/#BRChangeNotice#F2#QA1509703631"
    },
    "createdDateTime": "2016-11-22-08.27.11.627174",
    "createdUser": {
      "identifier": "aboggava",
      "stringifiedObjectReference": ""
    },
    "lastUpdatedDateTime": "2017-11-03-05.26.37.724526",
    "lastUpdatedUser": {
      "identifier": "X-UNITTEST",
      "stringifiedObjectReference": ""
    },
    "lastCheckOutDateTime": "2017-11-03-05.26.58.454640",
    "lastCheckOutUser": {
      "identifier": "X-UNITTEST",
      "stringifiedObjectReference": ""
    },
    "lastCheckInDateTime": "2017-11-03-05.26.58.454640",
    "lastCheckInUser": {
      "identifier": "X-UNITTEST",
      "stringifiedObjectReference": ""
    },
    "lastReleasedDateTime": "2017-11-03-05.26.58.454640",
    "lastReleasedUser": {
      "identifier": "X-UNITTEST",
      "stringifiedObjectReference": ""
    },
    "lastRollBackDateTime": "",
    "lastRollBackUser": {
      "identifier": "",
      "stringifiedObjectReference": ""
    },
    "lastArchivedDateTime": "",
    "lastArchivedUser": {
      "identifier": "",
      "stringifiedObjectReference": ""
    },
    "lastRestoredDateTime": "",
    "lastRestoredUser": {
      "identifier": "",
      "stringifiedObjectReference": ""
    },
    "lastActionUser": {
      "identifier": "X-UNITTEST",
      "stringifiedObjectReference": ""
    },
    "lastActionDateTime": "2017-11-03-05.26.58.454640",
    "lastActionEventCode": "EVRLSCN_ITEM",
    "lastComment": "",
    "currentInWorkState": "NotInWork",
    "currentSetUpState": "Released",
    "permission": "Group",
    "permissionRead": "Public",
    "permissionReleaseDelete": "Public",
    "userGroup": {
      "identifier": "MTQA",
      "stringifiedObjectReference": "SPIORLL:N:C2/#BRUserGroup#F2#MTQA"
    },
    "userGroupRead": {
      "identifier": "",
      "stringifiedObjectReference": ""
    },
    "userGroupReleaseDelete": {
      "identifier": "",
      "stringifiedObjectReference": ""
    },
    "owner": {
      "identifier": "ADMIN",
      "stringifiedObjectReference": "SPIORLL:N:C2/#BRUser#F2#ADMIN"
    },
    "batchReleaseFlag": false
  },
  "documentEntityInfo": {
    "documentSpecification": "EAGLEECMAUTO-U-T-IMMEDIATEHOLD",
    "activeFlag": false,
    "reserveFlag": false,
    "obsoleteFlag": false,
    "lastActivatedUser": {
      "identifier": "",
      "stringifiedObjectReference": ""
    },
    "lastActivatedDateTime": "",
    "lastInactivatedUser": {
      "identifier": "",
      "stringifiedObjectReference": ""
    },
    "lastInactivatedDateTime": "",
    "lastReservedUser": {
      "identifier": "",
      "stringifiedObjectReference": ""
    },
    "lastReservedDateTime": "",
    "lastCanceledReserveChangeActiveUser": {
      "identifier": "",
      "stringifiedObjectReference": ""
    },
    "lastCanceledReserveChangeActiveDateTime": "",
    "lastObsoleteUser": {
      "identifier": "",
      "stringifiedObjectReference": ""
    },
    "lastObsoleteDateTime": "",
    "lastCancelObsoleteUser": {
      "identifier": "",
      "stringifiedObjectReference": ""
    },
    "lastCancelObsoleteDateTime": ""
  },
  "classInfo": {
    "identifier": "EAGLEECMAUTO-U-T-IMMEDIATEHOLD.01",
    "productId": "EAGLEECMAUTO-U-T-IMMEDIATEHOLD",
    "ec": "01",
    "description": "Short Loop for Eagle",
    "state": "Complete",
    "fpcAvailableFlag": false,
    "serialManagementFlag": false,
    "productGroup": {
      "identifier": "ECMAUTO-CO2-PG",
      "stringifiedObjectReference": "SPIORLL:N:C2/#BRProductGroup#F2#ECMAUTO-CO2-PG"
    },
    "productType": "Wafer",
    "productCategory": {
      "identifier": "Production",
      "stringifiedObjectReference": "SPIORLL:N:C2/#BRProductCategory#F2#Production"
    },
    "productOwner": {
      "identifier": "G-PCO",
      "stringifiedObjectReference": "SPIORLL:N:C2/#BRUser#F2#G-PCO"
    },
    "sourceProducts": [

    ],
    "mainProcessDefinition": {
      "identifier": "SL-EAGLEECMAUTO-RE-UPDATETARGET-IMD_HOLD.01",
      "stringifiedObjectReference": "SPIORLL:N:C2/#BRMainProcessDefinition#F2#SL-EAGLEECMAUTO-RE-UPDATETARGET-IMD_HOLD.01"
    },
    "mainProcessDefinitionId": "SL-EAGLEECMAUTO-RE-UPDATETARGET-IMD_HOLD",
    "mainProcessDefinitionVersion": "01",
    "mainProcessDefinitions": [
      {
        "orderType": "*",
        "mfgLayer": {
          "identifier": "PROD",
          "stringifiedObjectReference": "SPIORLL:N:C2/#BRMFGLayer#F2#PROD"
        },
        "mainProcessDefinition": {
          "identifier": "SL-EAGLEECMAUTO-RE-UPDATETARGET-IMD_HOLD.01",
          "stringifiedObjectReference": "SPIORLL:N:C2/#BRMainProcessDefinition#F2#SL-EAGLEECMAUTO-RE-UPDATETARGET-IMD_HOLD.01"
        },
        "mainProcessDefinitionId": "SL-EAGLEECMAUTO-RE-UPDATETARGET-IMD_HOLD",
        "mainProcessDefinitionVersion": "01",
        "bom": {
          "identifier": "",
          "stringifiedObjectReference": ""
        }
      }
    ],
    "reticleSet": {
      "identifier": "",
      "stringifiedObjectReference": ""
    },
    "lotGenerationType": "By Volume",
    "releaseBatchSize": 0,
    "plannedCycleTime": 0.0,
    "plannedYield": 100.0,
    "safetyStockLevel": 0,
    "finishGoodFlag": true,
    "mfgLayer": {
      "identifier": "PROD",
      "stringifiedObjectReference": "SPIORLL:N:C2/#BRMFGLayer#F2#PROD"
    },
    "bom": {
      "identifier": "",
      "stringifiedObjectReference": ""
    },
    "markingCharacter": "noDekitting, -CL",
    "schedulerUserGroup": {
      "identifier": "SH-PLAN",
      "stringifiedObjectReference": "SPIORLL:N:C2/#BRUserGroup#F2#SH-PLAN"
    },
    "schedulerUserGroups": [
      {
        "identifier": "SH-PLAN",
        "stringifiedObjectReference": "SPIORLL:N:C2/#BRUserGroup#F2#SH-PLAN"
      }
    ],
    "userDataSets": [
      {
        "name": "SorterAutomation ",
        "type": "String",
        "value": "noDekitting, -CLEAN",
        "originator": ""
      }
    ],
    "siClassInfo": null
  }
}