{
  "objectId": {
    "identifier": "A-P-ECMAUTO.RANDOMIZE-ECMAUTO-ROUTEDIT-NEW-QTLT1-TOHK.01",
    "stringifiedObjectReference": "SPIORLL:N:C2/#BRRecipe#F2#A-P-ECMAUTO.RANDOMIZE-ECMAUTO-ROUTEDIT-NEW-QTLT1-TOHK.01"
  },
  "propertyInfo": {
    "changeNotice": {
      "identifier": "EC000X2Psv",
      "stringifiedObjectReference": "SPIORLL:N:C2/#BRChangeNotice#F2#EC000X2Psv"
    },
    "createdDateTime": "2016-11-21-05.51.24.201904",
    "createdUser": {
      "identifier": "aboggava",
      "stringifiedObjectReference": ""
    },
    "lastUpdatedDateTime": "2017-11-16-04.32.38.054835",
    "lastUpdatedUser": {
      "identifier": "X-ECM",
      "stringifiedObjectReference": ""
    },
    "lastCheckOutDateTime": "2017-11-16-04.33.00.455874",
    "lastCheckOutUser": {
      "identifier": "X-ECM",
      "stringifiedObjectReference": ""
    },
    "lastCheckInDateTime": "2017-11-16-04.33.00.560256",
    "lastCheckInUser": {
      "identifier": "X-ECM",
      "stringifiedObjectReference": ""
    },
    "lastReleasedDateTime": "2017-11-16-04.33.00.560256",
    "lastReleasedUser": {
      "identifier": "X-ECM",
      "stringifiedObjectReference": ""
    },
    "lastRollBackDateTime": "",
    "lastRollBackUser": {
      "identifier": "",
      "stringifiedObjectReference": ""
    },
    "lastArchivedDateTime": "",
    "lastArchivedUser": {
      "identifier": "",
      "stringifiedObjectReference": ""
    },
    "lastRestoredDateTime": "",
    "lastRestoredUser": {
      "identifier": "",
      "stringifiedObjectReference": ""
    },
    "lastActionUser": {
      "identifier": "X-ECM",
      "stringifiedObjectReference": ""
    },
    "lastActionDateTime": "2017-11-16-04.33.00.560256",
    "lastActionEventCode": "EVRLSCN_ITEM",
    "lastComment": "",
    "currentInWorkState": "NotInWork",
    "currentSetUpState": "Released",
    "permission": "Public",
    "permissionRead": "Public",
    "permissionReleaseDelete": "Public",
    "userGroup": {
      "identifier": "",
      "stringifiedObjectReference": ""
    },
    "userGroupRead": {
      "identifier": "",
      "stringifiedObjectReference": ""
    },
    "userGroupReleaseDelete": {
      "identifier": "",
      "stringifiedObjectReference": ""
    },
    "owner": {
      "identifier": "aboggava",
      "stringifiedObjectReference": "SPIORLL:N:C2/#BRUser#F2#aboggava"
    },
    "batchReleaseFlag": false
  },
  "documentEntityInfo": {
    "documentSpecification": "A-P-ECMAUTO.RANDOMIZE-ECMAUTO-ROUTEDIT-NEW-QTLT1-TOHK",
    "activeFlag": false,
    "reserveFlag": false,
    "obsoleteFlag": false,
    "lastActivatedUser": {
      "identifier": "",
      "stringifiedObjectReference": ""
    },
    "lastActivatedDateTime": "",
    "lastInactivatedUser": {
      "identifier": "",
      "stringifiedObjectReference": ""
    },
    "lastInactivatedDateTime": "",
    "lastReservedUser": {
      "identifier": "",
      "stringifiedObjectReference": ""
    },
    "lastReservedDateTime": "",
    "lastCanceledReserveChangeActiveUser": {
      "identifier": "",
      "stringifiedObjectReference": ""
    },
    "lastCanceledReserveChangeActiveDateTime": "",
    "lastObsoleteUser": {
      "identifier": "",
      "stringifiedObjectReference": ""
    },
    "lastObsoleteDateTime": "",
    "lastCancelObsoleteUser": {
      "identifier": "",
      "stringifiedObjectReference": ""
    },
    "lastCancelObsoleteDateTime": ""
  },
  "classInfo": {
    "identifier": "A-P-ECMAUTO.RANDOMIZE-ECMAUTO-ROUTEDIT-NEW-QTLT1-TOHK.01",
    "recipeNameSpace": "A-P-ECMAUTO",
    "recipeId": "RANDOMIZE-ECMAUTO-ROUTEDIT-NEW-QTLT1-TOHK",
    "version": "01",
    "description": "PWDIW_7030F",
    "forceDownloadFlag": false,
    "recipeBodyConfirmFlag": false,
    "conditionalDownloadFlag": false,
    "fpcCategory": {
      "identifier": "",
      "stringifiedObjectReference": ""
    },
    "whiteDefinitionFlag": false,
    "fileLocation": "\\",
    "fileLocations": [
      {
        "keyword": "",
        "fileLocation": "\\"
      }
    ],
    "equipments": [
      {
        "identifier": "ECMAUTOROUT1",
        "stringifiedObjectReference": "SPIORLL:N:C2/#BREquipment#F2#ECMAUTOROUT1"
      },
      {
        "identifier": "ECMAUTO1",
        "stringifiedObjectReference": "SPIORLL:N:C2/#BREquipment#F2#ECMAUTO1"
      }
    ],
    "userGroups": [

    ],
    "genericRecipe": "",
    "equipmentDIDefinitionFlag": false,
    "equipmentDIDefinitionResetFlag": false,
    "userDataSets": [

    ],
    "siClassInfo": null
  }
}